#
#                              ======================
#                              | THE SUSYHIT OUTPUT |
#                              ======================
#
#
#              ------------------------------------------------------
#              |     This is the output of the SUSY-HIT package     |
#              |  created by A.Djouadi, M.Muehlleitner and M.Spira. |
#              |  In case of problems with SUSY-HIT email to        |
#              |           margarete.muehlleitner@cern.ch           |
#              |           michael.spira@psi.ch                     |
#              |           abdelhak.djouadi@cern.ch                 |
#              ------------------------------------------------------
#
#              ------------------------------------------------------
#              |  SUSY Les Houches Accord - MSSM Spectrum + Decays  |
#              |              based on the decay programs           |
#              |                                                    |
#              |                     SDECAY 1.3b                    |
#              |                                                    |
#              |  Authors: M.Muhlleitner, A.Djouadi and Y.Mambrini  |
#              |  Ref.:    Comput.Phys.Commun.168(2005)46           |
#              |           [hep-ph/0311167]                         |
#              |                                                    |
#              |                     HDECAY 3.4                     |
#              |                                                    |
#              |  By: A.Djouadi,J.Kalinowski,M.Muhlleitner,M.Spira  |
#              |  Ref.:    Comput.Phys.Commun.108(1998)56           |
#              |           [hep-ph/9704448]                         |
#              |                                                    |
#              |                                                    |
#              |  If not stated otherwise all DRbar couplings and   |
#              |  soft SUSY breaking masses are given at the scale  |
#              |  Q=  0.91187600E+02
#              |                                                    |
#              ------------------------------------------------------
#
#
BLOCK DCINFO  # Decay Program information
     1   SDECAY/HDECAY # decay calculator
     2   1.3b  /3.4    # version number
#
BLOCK SPINFO  # Spectrum calculator information
     1   SuSpect     # RGE +Spectrum calculator            
     2   2.41         # version number                     
#
BLOCK MODSEL  # Model selection
     1     0   # #general MSSM low scale                           
#
BLOCK SMINPUTS  # Standard Model inputs
         1     1.27934000E+02   # alpha_em^-1(M_Z)^MSbar
         2     1.16639000E-05   # G_F [GeV^-2]
         3     1.17200000E-01   # alpha_S(M_Z)^MSbar
         4     9.11870000E+01   # M_Z pole mass
         5     4.25000000E+00   # mb(mb)^MSbar
         6     1.72500000E+02   # mt pole mass
         7     1.77700000E+00   # mtau pole mass
#
BLOCK MINPAR  # Input parameters - minimal models
#
BLOCK EXTPAR  # Input parameters - non-minimal models
         0     9.11876000E+01   # EWSB                
         1     3.00000000E+02   # M_1                 
         2     1.00000000E+05   # M_2                 
         3     1.00000000E+05   # M_3                 
        11     0.00000000E+00   # A_t                 
        12     0.00000000E+00   # A_b                 
        13     0.00000000E+00   # A_tau               
        14     0.00000000E+00   # A_u                 
        15     0.00000000E+00   # A_d                 
        16     0.00000000E+00   # A_e                 
        23     3.50000000E+03   # mu(EWSB)            
        25     1.50000000E+00   # tanbeta(in)         
        26     2.00000000E+03   # MA_pole             
        31     1.00000000E+05   # M_eL                
        32     1.00000000E+05   # M_muL               
        33     1.00000000E+05   # M_tauL              
        34     1.00000000E+05   # M_eR                
        35     1.00000000E+05   # M_muR               
        36     1.00000000E+05   # M_tauR              
        41     2.10000000E+03   # M_q1L               
        42     2.10000000E+03   # M_q2L               
        43     2.10000000E+03   # M_q3L               
        44     1.00000000E+05   # M_uR                
        45     1.00000000E+05   # M_cR                
        46     1.00000000E+05   # M_tR                
        47     2.10000000E+03   # M_dR                
        48     2.10000000E+03   # M_sR                
        49     2.10000000E+03   # M_bR                
#
BLOCK MASS  # Mass Spectrum
# PDG code           mass       particle
        24     8.05849261E+01   # W+
        25     1.25000000E+02   # h
        35     2.00406250E+03   # H
        36     2.00000000E+03   # A
        37     2.02368741E+03   # H+
         5     4.87877839E+00   # b-quark pole mass calculated from mb(mb)_Msbar
   1000001     2.10031558E+03   # ~d_L
   2000001     2.10006091E+03   # ~d_R
   1000002     2.09974530E+03   # ~u_L
   2000002     9.99999974E+04   # ~u_R
   1000003     2.10031558E+03   # ~s_L
   2000003     2.10006091E+03   # ~s_R
   1000004     2.09974530E+03   # ~c_L
   2000004     9.99999974E+04   # ~c_R
   1000005     2.09695084E+03   # ~b_1
   2000005     2.10342386E+03   # ~b_2
   1000006     2.10491666E+03   # ~t_1
   2000006     1.00000106E+05   # ~t_2
   1000011     1.00000004E+05   # ~e_L
   2000011     1.00000004E+05   # ~e_R
   1000012     9.99999921E+04   # ~nu_eL
   1000013     1.00000004E+05   # ~mu_L
   2000013     1.00000004E+05   # ~mu_R
   1000014     9.99999921E+04   # ~nu_muL
   1000015     9.99999574E+04   # ~tau_1
   2000015     1.00000051E+05   # ~tau_2
   1000016     9.99999921E+04   # ~nu_tauL
   1000021     1.00000000E+05   # ~g
   1000022     2.99420673E+02   # ~chi_10
   1000023    -3.50002251E+03   # ~chi_20
   1000025     3.50053747E+03   # ~chi_30
   1000035     1.00000064E+05   # ~chi_40
   1000024     3.49994026E+03   # ~chi_1+
   1000037     1.00000064E+05   # ~chi_2+
   1000039     1.00000000E-09   # ~gravitino
#
BLOCK NMIX  # Neutralino Mixing Matrix
  1  1     9.99903694E-01   # N_11
  1  2    -1.02638846E-05   # N_12
  1  3     1.13072794E-02   # N_13
  1  4    -8.04659235E-03   # N_14
  2  1     2.30564704E-03   # N_21
  2  2    -1.49542878E-04   # N_22
  2  3    -7.07093523E-01   # N_23
  2  4    -7.07116265E-01   # N_24
  3  1     1.36852574E-02   # N_31
  3  2     8.01822388E-04   # N_32
  3  3    -7.07029478E-01   # N_33
  3  4     7.07051192E-01   # N_34
  4  1     3.65457571E-07   # N_41
  4  2    -9.99999667E-01   # N_42
  4  3    -4.61287474E-04   # N_43
  4  4     6.72756489E-04   # N_44
#
BLOCK UMIX  # Chargino Mixing Matrix U
  1  1    -6.52358796E-04   # U_11
  1  2     9.99999787E-01   # U_12
  2  1     9.99999787E-01   # U_21
  2  2     6.52358796E-04   # U_22
#
BLOCK VMIX  # Chargino Mixing Matrix V
  1  1    -9.51421264E-04   # V_11
  1  2     9.99999547E-01   # V_12
  2  1     9.99999547E-01   # V_21
  2  2     9.51421264E-04   # V_22
#
BLOCK STOPMIX  # Stop Mixing Matrix
  1  1     9.99999999E-01   # cos(theta_t)
  1  2     4.47213589E-05   # sin(theta_t)
  2  1    -4.47213589E-05   # -sin(theta_t)
  2  2     9.99999999E-01   # cos(theta_t)
#
BLOCK SBOTMIX  # Sbottom Mixing Matrix
  1  1     6.93057535E-01   # cos(theta_b)
  1  2     7.20882274E-01   # sin(theta_b)
  2  1    -7.20882274E-01   # -sin(theta_b)
  2  2     6.93057535E-01   # cos(theta_b)
#
BLOCK STAUMIX  # Stau Mixing Matrix
  1  1     7.06226673E-01   # cos(theta_tau)
  1  2     7.07985795E-01   # sin(theta_tau)
  2  1    -7.07985795E-01   # -sin(theta_tau)
  2  2     7.06226673E-01   # cos(theta_tau)
#
BLOCK ALPHA  # Higgs mixing
          -5.90349239E-01   # Mixing angle in the neutral Higgs boson sector
#
BLOCK HMIX Q=  9.11876000E+01  # DRbar Higgs Parameters
         1     3.50000000E+03   # mu(Q)               
         2     1.49999982E+00   # tanbeta(Q)          
         3     2.54862605E+02   # vev(Q)              
         4    -6.80417036E+07   # MA^2(Q)             
#
BLOCK GAUGE Q=  9.11876000E+01  # The gauge couplings
     1     3.50554818E-01   # gprime(Q) DRbar
     2     6.19274400E-01   # g(Q) DRbar
     3     1.02169423E+00   # g3(Q) DRbar
#
BLOCK AU Q=  9.11876000E+01  # The trilinear couplings
  1  1     0.00000000E+00   # A_u(Q) DRbar
  2  2     0.00000000E+00   # A_c(Q) DRbar
  3  3     0.00000000E+00   # A_t(Q) DRbar
#
BLOCK AD Q=  9.11876000E+01  # The trilinear couplings
  1  1     0.00000000E+00   # A_d(Q) DRbar
  2  2     0.00000000E+00   # A_s(Q) DRbar
  3  3     0.00000000E+00   # A_b(Q) DRbar
#
BLOCK AE Q=  9.11876000E+01  # The trilinear couplings
  1  1     0.00000000E+00   # A_e(Q) DRbar
  2  2     0.00000000E+00   # A_mu(Q) DRbar
  3  3     0.00000000E+00   # A_tau(Q) DRbar
#
BLOCK Yu Q=  9.11876000E+01  # The Yukawa couplings
  1  1     0.00000000E+00   # y_u(Q) DRbar
  2  2     0.00000000E+00   # y_c(Q) DRbar
  3  3     9.83661645E-01   # y_t(Q) DRbar
#
BLOCK Yd Q=  9.11876000E+01  # The Yukawa couplings
  1  1     0.00000000E+00   # y_d(Q) DRbar
  2  2     0.00000000E+00   # y_s(Q) DRbar
  3  3     2.58833363E-02   # y_b(Q) DRbar
#
BLOCK Ye Q=  9.11876000E+01  # The Yukawa couplings
  1  1     0.00000000E+00   # y_e(Q) DRbar
  2  2     0.00000000E+00   # y_mu(Q) DRbar
  3  3     1.77409935E-02   # y_tau(Q) DRbar
#
BLOCK MSOFT Q=  9.11876000E+01  # The soft SUSY breaking masses at the scale Q
         1     3.00000000E+02   # M_1                 
         2     1.00000000E+05   # M_2                 
         3     1.00000000E+05   # M_3                 
        14     0.00000000E+00   # A_u                 
        15     0.00000000E+00   # A_d                 
        16     0.00000000E+00   # A_e                 
        21     6.29717745E+08   # M^2_Hd              
        22    -1.15143502E+09   # M^2_Hu              
        31     1.00000000E+05   # M_eL                
        32     1.00000000E+05   # M_muL               
        33     1.00000000E+05   # M_tauL              
        34     1.00000000E+05   # M_eR                
        35     1.00000000E+05   # M_muR               
        36     1.00000000E+05   # M_tauR              
        41     2.10000000E+03   # M_q1L               
        42     2.10000000E+03   # M_q2L               
        43     2.10000000E+03   # M_q3L               
        44     1.00000000E+05   # M_uR                
        45     1.00000000E+05   # M_cR                
        46     1.00000000E+05   # M_tR                
        47     2.10000000E+03   # M_dR                
        48     2.10000000E+03   # M_sR                
        49     2.10000000E+03   # M_bR                
#
#
#
#                             =================
#                             |The decay table|
#                             =================
#
# - The QCD corrections to the decays gluino -> squark  + quark
#                                     squark -> gaugino + quark_prime
#                                     squark -> squark_prime + Higgs
#                                     squark -> gluino  + quark
#   are included.
#
# - The multi-body decays for the inos, stops and sbottoms are included.
#
# - The loop induced decays for the gluino, neutralinos and stops
#   are included.
#
# - The SUSY decays of the top quark are included.
#
# - Possible decays of the NLSP in GMSB models are included.
#
#
#         PDG            Width
DECAY         6     1.32356054E+00   # top decays
#          BR         NDA      ID1       ID2
     1.00000000E+00    2           5        24   # BR(t ->  b    W+)
#
#         PDG            Width
DECAY   1000021     1.E-04   # gluino decays (OJ Mods)
#          BR         NDA      ID1       ID2
     3.68715450E-03    2     1000001        -1   # BR(~g -> ~d_L  db)
     3.68715450E-03    2    -1000001         1   # BR(~g -> ~d_L* d )
     3.68715529E-03    2     2000001        -1   # BR(~g -> ~d_R  db)
     3.68715529E-03    2    -2000001         1   # BR(~g -> ~d_R* d )
     3.68715626E-03    2     1000002        -2   # BR(~g -> ~u_L  ub)
     3.68715626E-03    2    -1000002         2   # BR(~g -> ~u_L* u )
     9.97886760E-18    2     2000002        -2   # BR(~g -> ~u_R  ub)
     9.97886760E-18    2    -2000002         2   # BR(~g -> ~u_R* u )
     3.68715450E-03    2     1000003        -3   # BR(~g -> ~s_L  sb)
     3.68715450E-03    2    -1000003         3   # BR(~g -> ~s_L* s )
     3.68715529E-03    2     2000003        -3   # BR(~g -> ~s_R  sb)
     3.68715529E-03    2    -2000003         3   # BR(~g -> ~s_R* s )
     3.68715626E-03    2     1000004        -4   # BR(~g -> ~c_L  cb)
     3.68715626E-03    2    -1000004         4   # BR(~g -> ~c_L* c )
     9.97886760E-18    2     2000004        -4   # BR(~g -> ~c_R  cb)
     9.97886760E-18    2    -2000004         4   # BR(~g -> ~c_R* c )
     2.08964529E-01    2     1000005        -5   # BR(~g -> ~b_1  bb)
     2.08964529E-01    2    -1000005         5   # BR(~g -> ~b_1* b )
     2.13463235E-01    2     2000005        -5   # BR(~g -> ~b_2  bb)
     2.13463235E-01    2    -2000005         5   # BR(~g -> ~b_2* b )
     3.62903080E-03    2     1000006        -6   # BR(~g -> ~t_1  tb)
     3.62903080E-03    2    -1000006         6   # BR(~g -> ~t_1* t )
     1.03640546E-01    2     1000039        21   # BR(~g -> ~G g)
#
#         PDG            Width
DECAY   1000006     3.21624378E-01   # stop1 decays
#          BR         NDA      ID1       ID2
     1.00000000E+00    2     1000022         6   # BR(~t_1 -> ~chi_10 t )
#
#         PDG            Width
DECAY   2000006     5.65364400E+04   # stop2 decays
#          BR         NDA      ID1       ID2
     3.68704249E-03    2     1000022         6   # BR(~t_2 -> ~chi_10 t )
     8.88357407E-03    2     1000023         6   # BR(~t_2 -> ~chi_20 t )
     8.88247445E-03    2     1000025         6   # BR(~t_2 -> ~chi_30 t )
     9.78845934E-01    2     1000024         5   # BR(~t_2 -> ~chi_1+ b )
    -2.39186283E-04    2     1000006        25   # BR(~t_2 -> ~t_1    h )
     2.50587179E-04    2     1000006        35   # BR(~t_2 -> ~t_1    H )
     2.50139791E-04    2     1000006        36   # BR(~t_2 -> ~t_1    A )
     2.35674994E-04    2     1000005        37   # BR(~t_2 -> ~b_1    H+)
     2.64596594E-04    2     2000005        37   # BR(~t_2 -> ~b_2    H+)
    -1.69812587E-04    2     1000006        23   # BR(~t_2 -> ~t_1    Z )
    -4.27993583E-04    2     1000005        24   # BR(~t_2 -> ~b_1    W+)
    -4.63031013E-04    2     2000005        24   # BR(~t_2 -> ~b_2    W+)
#
#         PDG            Width
DECAY   1000005     1.40353815E+01   # sbottom1 decays
#          BR         NDA      ID1       ID2
     1.00000000E+00    2     1000022         5   # BR(~b_1 -> ~chi_10 b )
#
#         PDG            Width
DECAY   2000005     1.30108891E+01   # sbottom2 decays
#          BR         NDA      ID1       ID2
     1.00000000E+00    2     1000022         5   # BR(~b_2 -> ~chi_10 b )
#
#         PDG            Width
DECAY   1000002     3.23494932E-01   # sup_L decays
#          BR         NDA      ID1       ID2
     1.00000000E+00    2     1000022         2   # BR(~u_L -> ~chi_10 u)
#
#         PDG            Width
DECAY   2000002     2.08402892E+02   # sup_R decays
#          BR         NDA      ID1       ID2
     9.99807612E-01    2     1000022         2   # BR(~u_R -> ~chi_10 u)
     5.31010683E-06    2     1000023         2   # BR(~u_R -> ~chi_20 u)
     1.87078273E-04    2     1000025         2   # BR(~u_R -> ~chi_30 u)
#
#         PDG            Width
DECAY   1000001     3.23655963E-01   # sdown_L decays
#          BR         NDA      ID1       ID2
     1.00000000E+00    2     1000022         1   # BR(~d_L -> ~chi_10 d)
#
#         PDG            Width
DECAY   2000001     1.29432114E+00   # sdown_R decays
#          BR         NDA      ID1       ID2
     1.00000000E+00    2     1000022         1   # BR(~d_R -> ~chi_10 d)
#
#         PDG            Width
DECAY   1000004     3.23494932E-01   # scharm_L decays
#          BR         NDA      ID1       ID2
     1.00000000E+00    2     1000022         4   # BR(~c_L -> ~chi_10 c)
#
#         PDG            Width
DECAY   2000004     2.08402892E+02   # scharm_R decays
#          BR         NDA      ID1       ID2
     9.99807612E-01    2     1000022         4   # BR(~c_R -> ~chi_10 c)
     5.31010683E-06    2     1000023         4   # BR(~c_R -> ~chi_20 c)
     1.87078273E-04    2     1000025         4   # BR(~c_R -> ~chi_30 c)
#
#         PDG            Width
DECAY   1000003     3.23655963E-01   # sstrange_L decays
#          BR         NDA      ID1       ID2
     1.00000000E+00    2     1000022         3   # BR(~s_L -> ~chi_10 s)
#
#         PDG            Width
DECAY   2000003     1.29432114E+00   # sstrange_R decays
#          BR         NDA      ID1       ID2
     1.00000000E+00    2     1000022         3   # BR(~s_R -> ~chi_10 s)
#
#         PDG            Width
DECAY   1000011     1.22238110E+02   # selectron_L decays
#          BR         NDA      ID1       ID2
     9.99765687E-01    2     1000022        11   # BR(~e_L -> ~chi_10 e-)
     4.15745247E-06    2     1000023        11   # BR(~e_L -> ~chi_20 e-)
     2.27506230E-04    2     1000025        11   # BR(~e_L -> ~chi_30 e-)
     2.64970909E-06    2    -1000024        12   # BR(~e_L -> ~chi_1- nu_e)
#
#         PDG            Width
DECAY   2000011     4.88949547E+02   # selectron_R decays
#          BR         NDA      ID1       ID2
     9.99807866E-01    2     1000022        11   # BR(~e_R -> ~chi_10 e-)
     5.30308944E-06    2     1000023        11   # BR(~e_R -> ~chi_20 e-)
     1.86830997E-04    2     1000025        11   # BR(~e_R -> ~chi_30 e-)
#
#         PDG            Width
DECAY   1000013     1.22238110E+02   # smuon_L decays
#          BR         NDA      ID1       ID2
     9.99765687E-01    2     1000022        13   # BR(~mu_L -> ~chi_10 mu-)
     4.15745247E-06    2     1000023        13   # BR(~mu_L -> ~chi_20 mu-)
     2.27506230E-04    2     1000025        13   # BR(~mu_L -> ~chi_30 mu-)
     2.64970909E-06    2    -1000024        14   # BR(~mu_L -> ~chi_1- nu_mu)
#
#         PDG            Width
DECAY   2000013     4.88949547E+02   # smuon_R decays
#          BR         NDA      ID1       ID2
     9.99807866E-01    2     1000022        13   # BR(~mu_R -> ~chi_10 mu-)
     5.30308944E-06    2     1000023        13   # BR(~mu_R -> ~chi_20 mu-)
     1.86830997E-04    2     1000025        13   # BR(~mu_R -> ~chi_30 mu-)
#
#         PDG            Width
DECAY   1000015     1.18199290E+04   # stau_1 decays
#          BR         NDA      ID1       ID2
     2.58958814E-02    2     1000022        15   # BR(~tau_1 -> ~chi_10  tau-)
     2.52114098E-05    2     1000023        15   # BR(~tau_1 -> ~chi_20  tau-)
     2.50593680E-05    2     1000025        15   # BR(~tau_1 -> ~chi_30  tau-)
     2.77053998E-05    2    -1000024        16   # BR(~tau_1 -> ~chi_1-  nu_tau)
     9.74026142E-01    2     1000039        15   # BR(~tau_1 -> ~G       tau-)
#
#         PDG            Width
DECAY   2000015     3.06052387E+02   # stau_2 decays
#          BR         NDA      ID1       ID2
     9.96488718E-01    2     1000022        15   # BR(~tau_2 -> ~chi_10  tau-)
     1.07729425E-03    2     1000023        15   # BR(~tau_2 -> ~chi_20  tau-)
     1.46201118E-03    2     1000025        15   # BR(~tau_2 -> ~chi_30  tau-)
     9.71976362E-04    2    -1000024        16   # BR(~tau_2 -> ~chi_1-  nu_tau)
#
#         PDG            Width
DECAY   1000012     1.22238168E+02   # snu_eL decays
#          BR         NDA      ID1       ID2
     9.99837620E-01    2     1000022        12   # BR(~nu_eL -> ~chi_10 nu_e)
     6.58789735E-06    2     1000023        12   # BR(~nu_eL -> ~chi_20 nu_e)
     1.50156422E-04    2     1000025        12   # BR(~nu_eL -> ~chi_30 nu_e)
     5.63599506E-06    2     1000024        11   # BR(~nu_eL -> ~chi_1+ e-)
#
#         PDG            Width
DECAY   1000014     1.22238168E+02   # snu_muL decays
#          BR         NDA      ID1       ID2
     9.99837620E-01    2     1000022        14   # BR(~nu_muL -> ~chi_10 nu_mu)
     6.58789735E-06    2     1000023        14   # BR(~nu_muL -> ~chi_20 nu_mu)
     1.50156422E-04    2     1000025        14   # BR(~nu_muL -> ~chi_30 nu_mu)
     5.63599506E-06    2     1000024        13   # BR(~nu_muL -> ~chi_1+ mu-)
#
#         PDG            Width
DECAY   1000016     1.22862795E+02   # snu_tauL decays
#          BR         NDA      ID1       ID2
     9.94754502E-01    2     1000022        16   # BR(~nu_tauL -> ~chi_10 nu_tau)
     6.55440485E-06    2     1000023        16   # BR(~nu_tauL -> ~chi_20 nu_tau)
     1.49393035E-04    2     1000025        16   # BR(~nu_tauL -> ~chi_30 nu_tau)
     5.08955106E-03    2     1000024        15   # BR(~nu_tauL -> ~chi_1+ tau-)
#
#         PDG            Width
DECAY   1000024     3.96441521E+01   # chargino1+ decays
#          BR         NDA      ID1       ID2
     4.54475970E-07    2     1000002        -1   # BR(~chi_1+ -> ~u_L     db)
     2.13544317E-07    2    -1000001         2   # BR(~chi_1+ -> ~d_L*    u )
     4.54475970E-07    2     1000004        -3   # BR(~chi_1+ -> ~c_L     sb)
     2.13544317E-07    2    -1000003         4   # BR(~chi_1+ -> ~s_L*    c )
     1.22798817E-02    2     1000006        -5   # BR(~chi_1+ -> ~t_1     bb)
     1.03470814E-01    2    -1000005         6   # BR(~chi_1+ -> ~b_1*    t )
     8.06325073E-01    2    -2000005         6   # BR(~chi_1+ -> ~b_2*    t )
     5.98281117E-02    2     1000022        24   # BR(~chi_1+ -> ~chi_10  W+)
     1.80856753E-02    2     1000022        37   # BR(~chi_1+ -> ~chi_10  H+)
     7.61015213E-06    2     1000039        24   # BR(~chi_1+ -> ~G       W+)
     1.49737908E-06    2     1000039        37   # BR(~chi_1+ -> ~G       H+)
#
#         PDG            Width
DECAY   1000037     4.08113296E+04   # chargino2+ decays
#          BR         NDA      ID1       ID2
     2.09704986E-02    2     1000002        -1   # BR(~chi_2+ -> ~u_L     db)
     2.09705038E-02    2    -1000001         2   # BR(~chi_2+ -> ~d_L*    u )
     2.09704986E-02    2     1000004        -3   # BR(~chi_2+ -> ~c_L     sb)
     2.09705038E-02    2    -1000003         4   # BR(~chi_2+ -> ~s_L*    c )
     6.42820669E-01    2     1000006        -5   # BR(~chi_2+ -> ~t_1     bb)
     4.64425348E-03    2    -1000005         6   # BR(~chi_2+ -> ~b_1*    t )
     1.98326587E-02    2    -2000005         6   # BR(~chi_2+ -> ~b_2*    t )
     1.50757842E-14    2     1000012       -11   # BR(~chi_2+ -> ~nu_eL   e+  )
     1.50757842E-14    2     1000014       -13   # BR(~chi_2+ -> ~nu_muL  mu+ )
     1.04984430E-14    2    -1000011        12   # BR(~chi_2+ -> ~e_L+    nu_e)
     1.04984430E-14    2    -1000013        14   # BR(~chi_2+ -> ~mu_L+   nu_mu)
     1.65275530E-14    2    -1000015        16   # BR(~chi_2+ -> ~tau_1+  nu_tau)
     2.47044154E-16    2    -2000015        16   # BR(~chi_2+ -> ~tau_2+  nu_tau)
     3.83763450E-03    2     1000024        23   # BR(~chi_2+ -> ~chi_1+  Z )
     5.50202869E-07    2     1000022        24   # BR(~chi_2+ -> ~chi_10  W+)
     3.72139787E-03    2     1000023        24   # BR(~chi_2+ -> ~chi_20  W+)
     3.72080775E-03    2     1000025        24   # BR(~chi_2+ -> ~chi_30  W+)
     3.88098147E-03    2     1000024        25   # BR(~chi_2+ -> ~chi_1+  h )
     3.40675159E-03    2     1000024        35   # BR(~chi_2+ -> ~chi_1+  H )
     3.40721260E-03    2     1000024        36   # BR(~chi_2+ -> ~chi_1+  A )
     7.43668075E-07    2     1000022        37   # BR(~chi_2+ -> ~chi_10  H+)
     3.40708443E-03    2     1000023        37   # BR(~chi_2+ -> ~chi_20  H+)
     3.40647155E-03    2     1000025        37   # BR(~chi_2+ -> ~chi_30  H+)
     2.20030715E-01    2     1000039        24   # BR(~chi_2+ -> ~G       W+)
     6.29523158E-08    2     1000039        37   # BR(~chi_2+ -> ~G       H+)
#
#         PDG            Width
DECAY   1000022     1.E-08   # neutralino1 decays (OJ Mods)
#          BR         NDA      ID1       ID2
     8.21567861E-01    2     1000039        22   # BR(~chi_10 -> ~G        gam)
     1.78432100E-01    2     1000039        23   # BR(~chi_10 -> ~G        Z)
     3.84513768E-08    2     1000039        25   # BR(~chi_10 -> ~G        h)
#
#         PDG            Width
DECAY   1000023     1.E-08   # neutralino2 decays (OJ Mods)
#          BR         NDA      ID1       ID2
     5.87497262E-02    2     1000022        23   # BR(~chi_20 -> ~chi_10   Z )
     1.64363392E-03    2     1000022        25   # BR(~chi_20 -> ~chi_10   h )
     1.69976097E-02    2     1000022        35   # BR(~chi_20 -> ~chi_10   H )
     1.14008841E-03    2     1000022        36   # BR(~chi_20 -> ~chi_10   A )
     2.35596490E-08    2     1000002        -2   # BR(~chi_20 -> ~u_L      ub)
     2.35596490E-08    2    -1000002         2   # BR(~chi_20 -> ~u_L*     u )
     9.87175187E-08    2     1000001        -1   # BR(~chi_20 -> ~d_L      db)
     9.87175187E-08    2    -1000001         1   # BR(~chi_20 -> ~d_L*     d )
     2.18743528E-07    2     2000001        -1   # BR(~chi_20 -> ~d_R      db)
     2.18743528E-07    2    -2000001         1   # BR(~chi_20 -> ~d_R*     d )
     2.35596490E-08    2     1000004        -4   # BR(~chi_20 -> ~c_L      cb)
     2.35596490E-08    2    -1000004         4   # BR(~chi_20 -> ~c_L*     c )
     9.87175187E-08    2     1000003        -3   # BR(~chi_20 -> ~s_L      sb)
     9.87175187E-08    2    -1000003         3   # BR(~chi_20 -> ~s_L*     s )
     2.18743528E-07    2     2000003        -3   # BR(~chi_20 -> ~s_R      sb)
     2.18743528E-07    2    -2000003         3   # BR(~chi_20 -> ~s_R*     s )
     4.44356209E-01    2     1000006        -6   # BR(~chi_20 -> ~t_1      tb)
     4.44356209E-01    2    -1000006         6   # BR(~chi_20 -> ~t_1*     t )
     7.99193303E-03    2     1000005        -5   # BR(~chi_20 -> ~b_1      bb)
     7.99193303E-03    2    -1000005         5   # BR(~chi_20 -> ~b_1*     b )
     8.38126279E-03    2     2000005        -5   # BR(~chi_20 -> ~b_2      bb)
     8.38126279E-03    2    -2000005         5   # BR(~chi_20 -> ~b_2*     b )
     5.58013737E-11    2     1000039        22   # BR(~chi_20 -> ~G        gam)
     2.86542332E-07    2     1000039        23   # BR(~chi_20 -> ~G        Z)
     7.15143702E-06    2     1000039        25   # BR(~chi_20 -> ~G        h)
     5.72521293E-08    2     1000039        35   # BR(~chi_20 -> ~G        H)
     1.47734544E-06    2     1000039        36   # BR(~chi_20 -> ~G        A)
#
#         PDG            Width
DECAY   1000025     4.05389207E+01   # neutralino3 decays
#          BR         NDA      ID1       ID2
     1.66659421E-03    2     1000022        23   # BR(~chi_30 -> ~chi_10   Z )
     5.92361712E-02    2     1000022        25   # BR(~chi_30 -> ~chi_10   h )
     1.10783969E-03    2     1000022        35   # BR(~chi_30 -> ~chi_10   H )
     1.70385194E-02    2     1000022        36   # BR(~chi_30 -> ~chi_10   A )
     3.30668803E-06    2     1000002        -2   # BR(~chi_30 -> ~u_L      ub)
     3.30668803E-06    2    -1000002         2   # BR(~chi_30 -> ~u_L*     u )
     9.14811583E-07    2     1000001        -1   # BR(~chi_30 -> ~d_L      db)
     9.14811583E-07    2    -1000001         1   # BR(~chi_30 -> ~d_L*     d )
     7.69911710E-06    2     2000001        -1   # BR(~chi_30 -> ~d_R      db)
     7.69911710E-06    2    -2000001         1   # BR(~chi_30 -> ~d_R*     d )
     3.30668803E-06    2     1000004        -4   # BR(~chi_30 -> ~c_L      cb)
     3.30668803E-06    2    -1000004         4   # BR(~chi_30 -> ~c_L*     c )
     9.14811583E-07    2     1000003        -3   # BR(~chi_30 -> ~s_L      sb)
     9.14811583E-07    2    -1000003         3   # BR(~chi_30 -> ~s_L*     s )
     7.69911710E-06    2     2000003        -3   # BR(~chi_30 -> ~s_R      sb)
     7.69911710E-06    2    -2000003         3   # BR(~chi_30 -> ~s_R*     s )
     4.44006890E-01    2     1000006        -6   # BR(~chi_30 -> ~t_1      tb)
     4.44006890E-01    2    -1000006         6   # BR(~chi_30 -> ~t_1*     t )
     7.17687104E-03    2     1000005        -5   # BR(~chi_30 -> ~b_1      bb)
     7.17687104E-03    2    -1000005         5   # BR(~chi_30 -> ~b_1*     b )
     9.26691354E-03    2     2000005        -5   # BR(~chi_30 -> ~b_2      bb)
     9.26691354E-03    2    -2000005         5   # BR(~chi_30 -> ~b_2*     b )
     2.26001878E-09    2     1000039        22   # BR(~chi_30 -> ~G        gam)
     7.15641477E-06    2     1000039        23   # BR(~chi_30 -> ~G        Z)
     2.78930514E-07    2     1000039        25   # BR(~chi_30 -> ~G        h)
     1.46671115E-06    2     1000039        35   # BR(~chi_30 -> ~G        H)
     5.90693414E-08    2     1000039        36   # BR(~chi_30 -> ~G        A)
#
#         PDG            Width
DECAY   1000035     4.08114716E+04   # neutralino4 decays
#          BR         NDA      ID1       ID2
     2.25770757E-10    2     1000022        23   # BR(~chi_40 -> ~chi_10   Z )
     3.70867097E-03    2     1000023        23   # BR(~chi_40 -> ~chi_20   Z )
     1.28955925E-04    2     1000025        23   # BR(~chi_40 -> ~chi_30   Z )
     3.72136449E-03    2     1000024       -24   # BR(~chi_40 -> ~chi_1+   W-)
     3.72136449E-03    2    -1000024        24   # BR(~chi_40 -> ~chi_1-   W+)
     5.74563278E-07    2     1000022        25   # BR(~chi_40 -> ~chi_10   h )
     8.83148606E-08    2     1000022        35   # BR(~chi_40 -> ~chi_10   H )
     6.54304359E-07    2     1000022        36   # BR(~chi_40 -> ~chi_10   A )
     1.27376277E-04    2     1000023        25   # BR(~chi_40 -> ~chi_20   h )
     3.26030729E-03    2     1000023        35   # BR(~chi_40 -> ~chi_20   H )
     1.49866025E-04    2     1000023        36   # BR(~chi_40 -> ~chi_20   A )
     3.75302409E-03    2     1000025        25   # BR(~chi_40 -> ~chi_30   h )
     1.46342565E-04    2     1000025        35   # BR(~chi_40 -> ~chi_30   H )
     3.25668298E-03    2     1000025        36   # BR(~chi_40 -> ~chi_30   A )
     3.40714273E-03    2     1000024       -37   # BR(~chi_40 -> ~chi_1+   H-)
     3.40714273E-03    2    -1000024        37   # BR(~chi_40 -> ~chi_1-   H+)
     1.00442200E-02    2     1000002        -2   # BR(~chi_40 -> ~u_L      ub)
     1.00442200E-02    2    -1000002         2   # BR(~chi_40 -> ~u_L*     u )
     1.56294654E-22    2     2000002        -2   # BR(~chi_40 -> ~u_R      ub)
     1.56294654E-22    2    -2000002         2   # BR(~chi_40 -> ~u_R*     u )
     1.00442232E-02    2     1000001        -1   # BR(~chi_40 -> ~d_L      db)
     1.00442232E-02    2    -1000001         1   # BR(~chi_40 -> ~d_L*     d )
     1.91052890E-16    2     2000001        -1   # BR(~chi_40 -> ~d_R      db)
     1.91052890E-16    2    -2000001         1   # BR(~chi_40 -> ~d_R*     d )
     1.00442200E-02    2     1000004        -4   # BR(~chi_40 -> ~c_L      cb)
     1.00442200E-02    2    -1000004         4   # BR(~chi_40 -> ~c_L*     c )
     1.56294654E-22    2     2000004        -4   # BR(~chi_40 -> ~c_R      cb)
     1.56294654E-22    2    -2000004         4   # BR(~chi_40 -> ~c_R*     c )
     1.00442232E-02    2     1000003        -3   # BR(~chi_40 -> ~s_L      sb)
     1.00442232E-02    2    -1000003         3   # BR(~chi_40 -> ~s_L*     s )
     1.91052890E-16    2     2000003        -3   # BR(~chi_40 -> ~s_R      sb)
     1.91052890E-16    2    -2000003         3   # BR(~chi_40 -> ~s_R*     s )
     1.22384182E-02    2     1000006        -6   # BR(~chi_40 -> ~t_1      tb)
     1.22384182E-02    2    -1000006         6   # BR(~chi_40 -> ~t_1*     t )
     1.50818481E-01    2     1000005        -5   # BR(~chi_40 -> ~b_1      bb)
     1.50818481E-01    2    -1000005         5   # BR(~chi_40 -> ~b_1*     b )
     1.70592345E-01    2     2000005        -5   # BR(~chi_40 -> ~b_2      bb)
     1.70592345E-01    2    -2000005         5   # BR(~chi_40 -> ~b_2*     b )
     5.24920384E-15    2     1000011       -11   # BR(~chi_40 -> ~e_L-     e+)
     5.24920384E-15    2    -1000011        11   # BR(~chi_40 -> ~e_L+     e-)
     8.98614561E-28    2     2000011       -11   # BR(~chi_40 -> ~e_R-     e+)
     8.98614561E-28    2    -2000011        11   # BR(~chi_40 -> ~e_R+     e-)
     5.24920384E-15    2     1000013       -13   # BR(~chi_40 -> ~mu_L-    mu+)
     5.24920384E-15    2    -1000013        13   # BR(~chi_40 -> ~mu_L+    mu-)
     8.98614561E-28    2     2000013       -13   # BR(~chi_40 -> ~mu_R-    mu+)
     8.98614561E-28    2    -2000013        13   # BR(~chi_40 -> ~mu_R+    mu-)
     7.53787664E-15    2     1000012       -12   # BR(~chi_40 -> ~nu_eL    nu_eb)
     7.53787664E-15    2    -1000012        12   # BR(~chi_40 -> ~nu_eL*   nu_e )
     7.53787664E-15    2     1000014       -14   # BR(~chi_40 -> ~nu_muL   nu_mub)
     7.53787664E-15    2    -1000014        14   # BR(~chi_40 -> ~nu_muL*  nu_mu )
     7.53787664E-15    2     1000016       -16   # BR(~chi_40 -> ~nu_tau1  nu_taub)
     7.53787664E-15    2    -1000016        16   # BR(~chi_40 -> ~nu_tau1* nu_tau )
     5.33961215E-02    2     1000039        22   # BR(~chi_40 -> ~G        gam)
     1.66633982E-01    2     1000039        23   # BR(~chi_40 -> ~G        Z)
     1.00413395E-08    2     1000039        25   # BR(~chi_40 -> ~G        h)
     6.30600308E-08    2     1000039        35   # BR(~chi_40 -> ~G        H)
     1.24259454E-11    2     1000039        36   # BR(~chi_40 -> ~G        A)
#
#
#
#
