#
#                              ======================
#                              | THE SUSYHIT OUTPUT |
#                              ======================
#
#
#              ------------------------------------------------------
#              |     This is the output of the SUSY-HIT package     |
#              |  created by A.Djouadi, M.Muehlleitner and M.Spira. |
#              |  In case of problems with SUSY-HIT email to        |
#              |           margarete.muehlleitner@cern.ch           |
#              |           michael.spira@psi.ch                     |
#              |           abdelhak.djouadi@cern.ch                 |
#              ------------------------------------------------------
#
#              ------------------------------------------------------
#              |  SUSY Les Houches Accord - MSSM Spectrum + Decays  |
#              |              based on the decay programs           |
#              |                                                    |
#              |                     SDECAY 1.3b                    |
#              |                                                    |
#              |  Authors: M.Muhlleitner, A.Djouadi and Y.Mambrini  |
#              |  Ref.:    Comput.Phys.Commun.168(2005)46           |
#              |           [hep-ph/0311167]                         |
#              |                                                    |
#              |                     HDECAY 3.4                     |
#              |                                                    |
#              |  By: A.Djouadi,J.Kalinowski,M.Muhlleitner,M.Spira  |
#              |  Ref.:    Comput.Phys.Commun.108(1998)56           |
#              |           [hep-ph/9704448]                         |
#              |                                                    |
#              |                                                    |
#              |  If not stated otherwise all DRbar couplings and   |
#              |  soft SUSY breaking masses are given at the scale  |
#              |  Q=  0.50007350E+04
#              |                                                    |
#              ------------------------------------------------------
#
#
BLOCK DCINFO  # Decay Program information
     1   SDECAY/HDECAY # decay calculator
     2   1.3b  /3.4    # version number
#
BLOCK SPINFO  # Spectrum calculator information
     1    SOFTSUSY    # spectrum calculator                
     2    3.4.0       # version number                     
#
BLOCK MODSEL  # Model selection
     1     0   #  nonUniversal                                     
#
BLOCK SMINPUTS  # Standard Model inputs
         1     1.25778332E+02   # alpha_em^-1(M_Z)^MSbar
         2     1.16570000E-05   # G_F [GeV^-2]
         3     1.17200002E-01   # alpha_S(M_Z)^MSbar
         4     9.11876000E+01   # M_Z pole mass
         5     4.25000000E+00   # mb(mb)^MSbar
         6     1.72500000E+02   # mt pole mass
         7     1.77682000E+00   # mtau pole mass
#
BLOCK MINPAR  # Input parameters - minimal models
         3     1.00000000E+01   # tanb                
#
BLOCK EXTPAR  # Input parameters - non-minimal models
         0    -1.00000000E+00   # Set                 
         1     6.00000000E+01   # M_1(MX)             
         2     3.00000000E+03   # M_2(MX)             
         3     1.57543500E+03   # M_3(MX)             
        11     5.00000000E+03   # At(MX)              
        12     5.00000000E+03   # Ab(MX)              
        13     0.00000000E+00   # Atau(MX)            
        23    -1.05631400E+03   # mu(MX)              
        26     3.00000000E+03   # mA(pole)            
        31     5.00000000E+03   # meL(MX)             
        32     5.00000000E+03   # mmuL(MX)            
        33     5.00000000E+03   # mtauL(MX)           
        34     5.00000000E+03   # meR(MX)             
        35     5.00000000E+03   # mmuR(MX)            
        36     5.00000000E+03   # mtauR(MX)           
        41     5.00000000E+03   # mqL1(MX)            
        42     5.00000000E+03   # mqL2(MX)            
        43     5.00000000E+03   # mqL3(MX)            
        44     5.00000000E+03   # muR(MX)             
        45     5.00000000E+03   # mcR(MX)             
        46     5.00000000E+03   # mtR(MX)             
        47     5.00000000E+03   # mdR(MX)             
        48     5.00000000E+03   # msR(MX)             
        49     5.00000000E+03   # mbR(MX)             
#
BLOCK MASS  # Mass Spectrum
# PDG code           mass       particle
        24     8.00952833E+01   # W+
        25     1.24747123E+02   # h
        35     3.00008330E+03   # H
        36     2.99999729E+03   # A
        37     3.00101931E+03   # H+
         5     4.87878001E+00   # b-quark pole mass calculated from mb(mb)_Msbar
   1000001     5.07065218E+03   # ~d_L
   2000001     5.05285121E+03   # ~d_R
   1000002     5.07017804E+03   # ~u_L
   2000002     5.05256785E+03   # ~u_R
   1000003     5.07065218E+03   # ~s_L
   2000003     5.05285121E+03   # ~s_R
   1000004     5.07017804E+03   # ~c_L
   2000004     5.05256785E+03   # ~c_R
   1000005     5.01644216E+03   # ~b_1
   2000005     5.05143491E+03   # ~b_2
   1000006     4.90738132E+03   # ~t_1
   2000006     5.06171210E+03   # ~t_2
   1000011     5.01906600E+03   # ~e_L
   2000011     5.00592115E+03   # ~e_R
   1000012     5.01811751E+03   # ~nu_eL
   1000013     5.01906600E+03   # ~mu_L
   2000013     5.00592115E+03   # ~mu_R
   1000014     5.01811751E+03   # ~nu_muL
   1000015     5.00457009E+03   # ~tau_1
   2000015     5.01880560E+03   # ~tau_2
   1000016     5.01757263E+03   # ~nu_tauL
   1000021     1.90000043E+03   # ~g
   1000022     6.03009688E+01   # ~chi_10
   1000023     1.09959039E+03   # ~chi_20
   1000025    -1.10186425E+03   # ~chi_30
   1000035     3.07427361E+03   # ~chi_40
   1000024     1.10000053E+03   # ~chi_1+
   1000037     3.07444106E+03   # ~chi_2+
#
BLOCK NMIX  # Neutralino Mixing Matrix
  1  1     9.99178396E-01   # N_11
  1  2     1.73959956E-04   # N_12
  1  3    -4.04780414E-02   # N_13
  1  4     2.00775955E-03   # N_14
  2  1     2.72089053E-02   # N_21
  2  2     2.46702369E-02   # N_22
  2  3     7.06785003E-01   # N_23
  2  4     7.06474355E-01   # N_24
  3  1    -3.00340147E-02   # N_31
  3  2     1.45511432E-02   # N_32
  3  3    -7.06233163E-01   # N_33
  3  4     7.07192295E-01   # N_34
  4  1    -4.08205398E-04   # N_41
  4  2     9.99589723E-01   # N_42
  4  3    -7.15594794E-03   # N_43
  4  4    -2.77310728E-02   # N_44
#
BLOCK UMIX  # Chargino Mixing Matrix U
  1  1     1.01346020E-02   # U_11
  1  2     9.99948644E-01   # U_12
  2  1    -9.99948644E-01   # U_21
  2  2     1.01346020E-02   # U_22
#
BLOCK VMIX  # Chargino Mixing Matrix V
  1  1     3.92473103E-02   # V_11
  1  2    -9.99229528E-01   # V_12
  2  1    -9.99229528E-01   # V_21
  2  2    -3.92473103E-02   # V_22
#
BLOCK STOPMIX  # Stop Mixing Matrix
  1  1    -5.07948276E-01   # cos(theta_t)
  1  2     8.61387572E-01   # sin(theta_t)
  2  1    -8.61387572E-01   # -sin(theta_t)
  2  2    -5.07948276E-01   # cos(theta_t)
#
BLOCK SBOTMIX  # Sbottom Mixing Matrix
  1  1     9.96648020E-01   # cos(theta_b)
  1  2    -8.18090718E-02   # sin(theta_b)
  2  1     8.18090718E-02   # -sin(theta_b)
  2  2     9.96648020E-01   # cos(theta_b)
#
BLOCK STAUMIX  # Stau Mixing Matrix
  1  1    -1.25028464E-01   # cos(theta_tau)
  1  2     9.92153155E-01   # sin(theta_tau)
  2  1    -9.92153155E-01   # -sin(theta_tau)
  2  2    -1.25028464E-01   # cos(theta_tau)
#
BLOCK ALPHA  # Higgs mixing
          -1.05469538E-01   # Mixing angle in the neutral Higgs boson sector
#
BLOCK HMIX Q=  5.00073502E+03  # DRbar Higgs Parameters
         1    -1.07563162E+03   # mu(Q)MSSM           
         2     9.47016294E+00   # tan                 
         3     2.41878160E+02   # higgs               
         4     8.48900046E+06   # mA^2(Q)MSSM         
#
BLOCK GAUGE Q=  5.00073502E+03  # The gauge couplings
     1     3.70777242E-01   # gprime(Q) DRbar
     2     6.32451121E-01   # g(Q) DRbar
     3     9.99253723E-01   # g3(Q) DRbar
#
BLOCK AU Q=  5.00073502E+03  # The trilinear couplings
  1  1     5.00000001E+03   # A_u(Q) DRbar
  2  2     5.00000001E+03   # A_c(Q) DRbar
  3  3     5.00000002E+03   # A_t(Q) DRbar
#
BLOCK AD Q=  5.00073502E+03  # The trilinear couplings
  1  1     5.00000001E+03   # A_d(Q) DRbar
  2  2     5.00000001E+03   # A_s(Q) DRbar
  3  3     5.00000001E+03   # A_b(Q) DRbar
#
BLOCK AE Q=  5.00073502E+03  # The trilinear couplings
  1  1     0.00000000E+00   # A_e(Q) DRbar
  2  2     1.59584005E-07   # A_mu(Q) DRbar
  3  3     1.59163244E-07   # A_tau(Q) DRbar
#
BLOCK Yu Q=  5.00073502E+03  # The Yukawa couplings
  1  1     0.00000000E+00   # y_u(Q) DRbar
  2  2     0.00000000E+00   # y_c(Q) DRbar
  3  3     8.19483902E-01   # y_t(Q) DRbar
#
BLOCK Yd Q=  5.00073502E+03  # The Yukawa couplings
  1  1     0.00000000E+00   # y_d(Q) DRbar
  2  2     0.00000000E+00   # y_s(Q) DRbar
  3  3     1.30664803E-01   # y_b(Q) DRbar
#
BLOCK Ye Q=  5.00073502E+03  # The Yukawa couplings
  1  1     0.00000000E+00   # y_e(Q) DRbar
  2  2     0.00000000E+00   # y_mu(Q) DRbar
  3  3     9.68066677E-02   # y_tau(Q) DRbar
#
BLOCK MSOFT Q=  5.00073502E+03  # The soft SUSY breaking masses at the scale Q
         1     6.00000000E+01   # M_1(Q)              
         2     3.00000000E+03   # M_2(Q)              
         3     1.57543500E+03   # M_3(Q)              
        21     7.53409157E+06   # mH1^2(Q)            
        22    -5.95930919E+05   # mH2^2(Q)            
        31     5.00000000E+03   # meL(Q)              
        32     5.00000000E+03   # mmuL(Q)             
        33     5.00000000E+03   # mtauL(Q)            
        34     5.00000000E+03   # meR(Q)              
        35     5.00000000E+03   # mmuR(Q)             
        36     5.00000000E+03   # mtauR(Q)            
        41     5.00000000E+03   # mqL1(Q)             
        42     5.00000000E+03   # mqL2(Q)             
        43     5.00000000E+03   # mqL3(Q)             
        44     5.00000000E+03   # muR(Q)              
        45     5.00000000E+03   # mcR(Q)              
        46     4.99999999E+03   # mtR(Q)              
        47     5.00000000E+03   # mdR(Q)              
        48     5.00000000E+03   # msR(Q)              
        49     5.00000000E+03   # mbR(Q)              
#
#
#
#                             =================
#                             |The decay table|
#                             =================
#
# - The QCD corrections to the decays gluino -> squark  + quark
#                                     squark -> gaugino + quark_prime
#                                     squark -> squark_prime + Higgs
#                                     squark -> gluino  + quark
#   are included.
#
# - The multi-body decays for the inos, stops and sbottoms are included.
#
# - The loop induced decays for the gluino, neutralinos and stops
#   are included.
#
# - The SUSY decays of the top quark are included.
#
#
#         PDG            Width
DECAY         6     1.40170379E+00   # top decays
#          BR         NDA      ID1       ID2
     1.00000000E+00    2           5        24   # BR(t ->  b    W+)
#
#         PDG            Width
DECAY   1000021     3.64094053E-04   # gluino decays
#          BR         NDA      ID1       ID2
     5.68073993E-06    2     1000022        21   # BR(~g -> ~chi_10 g)
     1.13056049E-02    2     1000023        21   # BR(~g -> ~chi_20 g)
     1.11377780E-02    2     1000025        21   # BR(~g -> ~chi_30 g)
#           BR         NDA      ID1       ID2       ID3
     4.92172097E-02    3     1000022         1        -1   # BR(~g -> ~chi_10 d  db)
     1.51499196E-05    3     1000023         1        -1   # BR(~g -> ~chi_20 d  db)
     6.22149405E-06    3     1000025         1        -1   # BR(~g -> ~chi_30 d  db)
     1.67807584E-01    3     1000022         2        -2   # BR(~g -> ~chi_10 u  ub)
     4.20737234E-05    3     1000023         2        -2   # BR(~g -> ~chi_20 u  ub)
     7.09732821E-06    3     1000025         2        -2   # BR(~g -> ~chi_30 u  ub)
     4.92172097E-02    3     1000022         3        -3   # BR(~g -> ~chi_10 s  sb)
     1.51499196E-05    3     1000023         3        -3   # BR(~g -> ~chi_20 s  sb)
     6.22149405E-06    3     1000025         3        -3   # BR(~g -> ~chi_30 s  sb)
     1.67807584E-01    3     1000022         4        -4   # BR(~g -> ~chi_10 c  cb)
     4.20737234E-05    3     1000023         4        -4   # BR(~g -> ~chi_20 c  cb)
     7.09732821E-06    3     1000025         4        -4   # BR(~g -> ~chi_30 c  cb)
     4.98915346E-02    3     1000022         5        -5   # BR(~g -> ~chi_10 b  bb)
     2.80918922E-03    3     1000023         5        -5   # BR(~g -> ~chi_20 b  bb)
     2.75419655E-03    3     1000025         5        -5   # BR(~g -> ~chi_30 b  bb)
     1.60628857E-01    3     1000022         6        -6   # BR(~g -> ~chi_10 t  tb)
     8.10850585E-02    3     1000023         6        -6   # BR(~g -> ~chi_20 t  tb)
     6.05521772E-02    3     1000025         6        -6   # BR(~g -> ~chi_30 t  tb)
     4.24636258E-05    3     1000024         1        -2   # BR(~g -> ~chi_1+ d  ub)
     4.24636258E-05    3    -1000024         2        -1   # BR(~g -> ~chi_1- u  db)
     4.24636258E-05    3     1000024         3        -4   # BR(~g -> ~chi_1+ s  cb)
     4.24636258E-05    3    -1000024         4        -3   # BR(~g -> ~chi_1- c  sb)
     9.27346980E-02    3     1000024         5        -6   # BR(~g -> ~chi_1+ b  tb)
     9.27346980E-02    3    -1000024         6        -5   # BR(~g -> ~chi_1- t  bb)
#
#         PDG            Width
DECAY   1000006     3.48244409E+02   # stop1 decays
#          BR         NDA      ID1       ID2
     2.53836455E-02    2     1000022         6   # BR(~t_1 -> ~chi_10 t )
     8.57334850E-02    2     1000023         6   # BR(~t_1 -> ~chi_20 t )
     8.24141551E-02    2     1000025         6   # BR(~t_1 -> ~chi_30 t )
     6.00381134E-03    2     1000035         6   # BR(~t_1 -> ~chi_40 t )
     1.24554474E-01    2     1000024         5   # BR(~t_1 -> ~chi_1+ b )
     1.19584743E-02    2     1000037         5   # BR(~t_1 -> ~chi_2+ b )
     6.63951955E-01    2     1000021         6   # BR(~t_1 -> ~g      t )
#
#         PDG            Width
DECAY   2000006     3.55548572E+02   # stop2 decays
#          BR         NDA      ID1       ID2
     9.84950589E-03    2     1000022         6   # BR(~t_2 -> ~chi_10 t )
     8.61841991E-02    2     1000023         6   # BR(~t_2 -> ~chi_20 t )
     8.97402099E-02    2     1000025         6   # BR(~t_2 -> ~chi_30 t )
     1.55594319E-02    2     1000035         6   # BR(~t_2 -> ~chi_40 t )
     5.14939609E-02    2     1000024         5   # BR(~t_2 -> ~chi_1+ b )
     3.09479192E-02    2     1000037         5   # BR(~t_2 -> ~chi_2+ b )
     7.12650927E-01    2     1000021         6   # BR(~t_2 -> ~g      t )
     8.08145598E-04    2     1000006        25   # BR(~t_2 -> ~t_1    h )
     2.76570050E-03    2     1000006        23   # BR(~t_2 -> ~t_1    Z )
#
#         PDG            Width
DECAY   1000005     3.31337631E+02   # sbottom1 decays
#          BR         NDA      ID1       ID2
     2.33667348E-03    2     1000022         5   # BR(~b_1 -> ~chi_10 b )
     2.37825784E-03    2     1000023         5   # BR(~b_1 -> ~chi_20 b )
     2.30337484E-03    2     1000025         5   # BR(~b_1 -> ~chi_30 b )
     2.27073113E-02    2     1000035         5   # BR(~b_1 -> ~chi_40 b )
     1.82793839E-01    2    -1000024         6   # BR(~b_1 -> ~chi_1- t )
     4.56367087E-02    2    -1000037         6   # BR(~b_1 -> ~chi_2- t )
     7.40154200E-01    2     1000021         5   # BR(~b_1 -> ~g      b )
     1.68963493E-03    2     1000006       -24   # BR(~b_1 -> ~t_1    W-)
#
#         PDG            Width
DECAY   2000005     2.54491626E+02   # sbottom2 decays
#          BR         NDA      ID1       ID2
     1.15356409E-02    2     1000022         5   # BR(~b_2 -> ~chi_10 b )
     3.06403850E-03    2     1000023         5   # BR(~b_2 -> ~chi_20 b )
     3.15484166E-03    2     1000025         5   # BR(~b_2 -> ~chi_30 b )
     2.03602221E-04    2     1000035         5   # BR(~b_2 -> ~chi_40 b )
     7.67804637E-03    2    -1000024         6   # BR(~b_2 -> ~chi_1- t )
     4.09121576E-04    2    -1000037         6   # BR(~b_2 -> ~chi_2- t )
     9.73892642E-01    2     1000021         5   # BR(~b_2 -> ~g      b )
     6.20670236E-05    2     1000006       -24   # BR(~b_2 -> ~t_1    W-)
#
#         PDG            Width
DECAY   1000002     2.73614257E+02   # sup_L decays
#          BR         NDA      ID1       ID2
     2.72765977E-03    2     1000022         2   # BR(~u_L -> ~chi_10 u)
     5.84244802E-05    2     1000023         2   # BR(~u_L -> ~chi_20 u)
     4.89527102E-06    2     1000025         2   # BR(~u_L -> ~chi_30 u)
     2.86793637E-02    2     1000035         2   # BR(~u_L -> ~chi_40 u)
     2.00141256E-04    2     1000024         1   # BR(~u_L -> ~chi_1+ d)
     5.73193347E-02    2     1000037         1   # BR(~u_L -> ~chi_2+ d)
     9.11010181E-01    2     1000021         2   # BR(~u_L -> ~g      u)
#
#         PDG            Width
DECAY   2000002     2.59729054E+02   # sup_R decays
#          BR         NDA      ID1       ID2
     4.57327538E-02    2     1000022         2   # BR(~u_R -> ~chi_10 u)
     3.08310812E-05    2     1000023         2   # BR(~u_R -> ~chi_20 u)
     3.75504706E-05    2     1000025         2   # BR(~u_R -> ~chi_30 u)
     3.04368549E-09    2     1000035         2   # BR(~u_R -> ~chi_40 u)
     9.54198862E-01    2     1000021         2   # BR(~u_R -> ~g      u)
#
#         PDG            Width
DECAY   1000001     2.73628229E+02   # sdown_L decays
#          BR         NDA      ID1       ID2
     2.71807463E-03    2     1000022         1   # BR(~d_L -> ~chi_10 d)
     2.43359059E-05    2     1000023         1   # BR(~d_L -> ~chi_20 d)
     2.70828510E-05    2     1000025         1   # BR(~d_L -> ~chi_30 d)
     2.86959349E-02    2     1000035         1   # BR(~d_L -> ~chi_40 d)
     1.33461786E-05    2    -1000024         2   # BR(~d_L -> ~chi_1- u)
     5.74167049E-02    2    -1000037         2   # BR(~d_L -> ~chi_2- u)
     9.11104521E-01    2     1000021         1   # BR(~d_L -> ~g      d)
#
#         PDG            Width
DECAY   2000001     2.50830363E+02   # sdown_R decays
#          BR         NDA      ID1       ID2
     1.18394741E-02    2     1000022         1   # BR(~d_R -> ~chi_10 d)
     7.98175773E-06    2     1000023         1   # BR(~d_R -> ~chi_20 d)
     9.72131894E-06    2     1000025         1   # BR(~d_R -> ~chi_30 d)
     7.88063914E-10    2     1000035         1   # BR(~d_R -> ~chi_40 d)
     9.88142822E-01    2     1000021         1   # BR(~d_R -> ~g      d)
#
#         PDG            Width
DECAY   1000004     2.73614257E+02   # scharm_L decays
#          BR         NDA      ID1       ID2
     2.72765977E-03    2     1000022         4   # BR(~c_L -> ~chi_10 c)
     5.84244802E-05    2     1000023         4   # BR(~c_L -> ~chi_20 c)
     4.89527102E-06    2     1000025         4   # BR(~c_L -> ~chi_30 c)
     2.86793637E-02    2     1000035         4   # BR(~c_L -> ~chi_40 c)
     2.00141256E-04    2     1000024         3   # BR(~c_L -> ~chi_1+ s)
     5.73193347E-02    2     1000037         3   # BR(~c_L -> ~chi_2+ s)
     9.11010181E-01    2     1000021         4   # BR(~c_L -> ~g      c)
#
#         PDG            Width
DECAY   2000004     2.59729054E+02   # scharm_R decays
#          BR         NDA      ID1       ID2
     4.57327538E-02    2     1000022         4   # BR(~c_R -> ~chi_10 c)
     3.08310812E-05    2     1000023         4   # BR(~c_R -> ~chi_20 c)
     3.75504706E-05    2     1000025         4   # BR(~c_R -> ~chi_30 c)
     3.04368549E-09    2     1000035         4   # BR(~c_R -> ~chi_40 c)
     9.54198862E-01    2     1000021         4   # BR(~c_R -> ~g      c)
#
#         PDG            Width
DECAY   1000003     2.73628229E+02   # sstrange_L decays
#          BR         NDA      ID1       ID2
     2.71807463E-03    2     1000022         3   # BR(~s_L -> ~chi_10 s)
     2.43359059E-05    2     1000023         3   # BR(~s_L -> ~chi_20 s)
     2.70828510E-05    2     1000025         3   # BR(~s_L -> ~chi_30 s)
     2.86959349E-02    2     1000035         3   # BR(~s_L -> ~chi_40 s)
     1.33461786E-05    2    -1000024         4   # BR(~s_L -> ~chi_1- c)
     5.74167049E-02    2    -1000037         4   # BR(~s_L -> ~chi_2- c)
     9.11104521E-01    2     1000021         3   # BR(~s_L -> ~g      s)
#
#         PDG            Width
DECAY   2000003     2.50830363E+02   # sstrange_R decays
#          BR         NDA      ID1       ID2
     1.18394741E-02    2     1000022         3   # BR(~s_R -> ~chi_10 s)
     7.98175773E-06    2     1000023         3   # BR(~s_R -> ~chi_20 s)
     9.72131894E-06    2     1000025         3   # BR(~s_R -> ~chi_30 s)
     7.88063914E-10    2     1000035         3   # BR(~s_R -> ~chi_40 s)
     9.88142822E-01    2     1000021         3   # BR(~s_R -> ~g      s)
#
#         PDG            Width
DECAY   1000011     3.02631968E+01   # selectron_L decays
#          BR         NDA      ID1       ID2
     2.26492063E-01    2     1000022        11   # BR(~e_L -> ~chi_10 e-)
     9.86852349E-04    2     1000023        11   # BR(~e_L -> ~chi_20 e-)
     5.58452303E-06    2     1000025        11   # BR(~e_L -> ~chi_30 e-)
     2.57281271E-01    2     1000035        11   # BR(~e_L -> ~chi_40 e-)
     1.22842696E-04    2    -1000024        12   # BR(~e_L -> ~chi_1- nu_e)
     5.15111386E-01    2    -1000037        12   # BR(~e_L -> ~chi_2- nu_e)
#
#         PDG            Width
DECAY   2000011     2.73701425E+01   # selectron_R decays
#          BR         NDA      ID1       ID2
     9.98511913E-01    2     1000022        11   # BR(~e_R -> ~chi_10 e-)
     6.70905705E-04    2     1000023        11   # BR(~e_R -> ~chi_20 e-)
     8.17116164E-04    2     1000025        11   # BR(~e_R -> ~chi_30 e-)
     6.46716769E-08    2     1000035        11   # BR(~e_R -> ~chi_40 e-)
#
#         PDG            Width
DECAY   1000013     3.02631968E+01   # smuon_L decays
#          BR         NDA      ID1       ID2
     2.26492063E-01    2     1000022        13   # BR(~mu_L -> ~chi_10 mu-)
     9.86852349E-04    2     1000023        13   # BR(~mu_L -> ~chi_20 mu-)
     5.58452303E-06    2     1000025        13   # BR(~mu_L -> ~chi_30 mu-)
     2.57281271E-01    2     1000035        13   # BR(~mu_L -> ~chi_40 mu-)
     1.22842696E-04    2    -1000024        14   # BR(~mu_L -> ~chi_1- nu_mu)
     5.15111386E-01    2    -1000037        14   # BR(~mu_L -> ~chi_2- nu_mu)
#
#         PDG            Width
DECAY   2000013     2.73701425E+01   # smuon_R decays
#          BR         NDA      ID1       ID2
     9.98511913E-01    2     1000022        13   # BR(~mu_R -> ~chi_10 mu-)
     6.70905705E-04    2     1000023        13   # BR(~mu_R -> ~chi_20 mu-)
     8.17116164E-04    2     1000025        13   # BR(~mu_R -> ~chi_30 mu-)
     6.46716769E-08    2     1000035        13   # BR(~mu_R -> ~chi_40 mu-)
#
#         PDG            Width
DECAY   1000015     2.90953557E+01   # stau_1 decays
#          BR         NDA      ID1       ID2
     9.28966393E-01    2     1000022        15   # BR(~tau_1 -> ~chi_10  tau-)
     1.53522438E-02    2     1000023        15   # BR(~tau_1 -> ~chi_20  tau-)
     1.44829134E-02    2     1000025        15   # BR(~tau_1 -> ~chi_30  tau-)
     4.04094740E-03    2     1000035        15   # BR(~tau_1 -> ~chi_40  tau-)
     2.90672291E-02    2    -1000024        16   # BR(~tau_1 -> ~chi_1-  nu_tau)
     8.09027345E-03    2    -1000037        16   # BR(~tau_1 -> ~chi_2-  nu_tau)
#
#         PDG            Width
DECAY   2000015     3.10616560E+01   # stau_2 decays
#          BR         NDA      ID1       ID2
     2.30230385E-01    2     1000022        15   # BR(~tau_2 -> ~chi_10  tau-)
     1.44018503E-02    2     1000023        15   # BR(~tau_2 -> ~chi_20  tau-)
     1.43388918E-02    2     1000025        15   # BR(~tau_2 -> ~chi_30  tau-)
     2.46801998E-01    2     1000035        15   # BR(~tau_2 -> ~chi_40  tau-)
     9.60985628E-05    2    -1000024        16   # BR(~tau_2 -> ~chi_1-  nu_tau)
     4.94130777E-01    2    -1000037        16   # BR(~tau_2 -> ~chi_2-  nu_tau)
#
#         PDG            Width
DECAY   1000012     3.02658624E+01   # snu_eL decays
#          BR         NDA      ID1       ID2
     2.26160477E-01    2     1000022        12   # BR(~nu_eL -> ~chi_10 nu_e)
     4.54490510E-05    2     1000023        12   # BR(~nu_eL -> ~chi_20 nu_e)
     6.18041648E-04    2     1000025        12   # BR(~nu_eL -> ~chi_30 nu_e)
     2.57339551E-01    2     1000035        12   # BR(~nu_eL -> ~chi_40 nu_e)
     1.84169980E-03    2     1000024        11   # BR(~nu_eL -> ~chi_1+ e-)
     5.13994782E-01    2     1000037        11   # BR(~nu_eL -> ~chi_2+ e-)
#
#         PDG            Width
DECAY   1000014     3.02658624E+01   # snu_muL decays
#          BR         NDA      ID1       ID2
     2.26160477E-01    2     1000022        14   # BR(~nu_muL -> ~chi_10 nu_mu)
     4.54490510E-05    2     1000023        14   # BR(~nu_muL -> ~chi_20 nu_mu)
     6.18041648E-04    2     1000025        14   # BR(~nu_muL -> ~chi_30 nu_mu)
     2.57339551E-01    2     1000035        14   # BR(~nu_muL -> ~chi_40 nu_mu)
     1.84169980E-03    2     1000024        13   # BR(~nu_muL -> ~chi_1+ mu-)
     5.13994782E-01    2     1000037        13   # BR(~nu_muL -> ~chi_2+ mu-)
#
#         PDG            Width
DECAY   1000016     3.11041780E+01   # snu_tauL decays
#          BR         NDA      ID1       ID2
     2.20041121E-01    2     1000022        16   # BR(~nu_tauL -> ~chi_10 nu_tau)
     4.42183436E-05    2     1000023        16   # BR(~nu_tauL -> ~chi_20 nu_tau)
     6.01305741E-04    2     1000025        16   # BR(~nu_tauL -> ~chi_30 nu_tau)
     2.50311237E-01    2     1000035        16   # BR(~nu_tauL -> ~chi_40 nu_tau)
     2.90454918E-02    2     1000024        15   # BR(~nu_tauL -> ~chi_1+ tau-)
     4.99956626E-01    2     1000037        15   # BR(~nu_tauL -> ~chi_2+ tau-)
#
#         PDG            Width
DECAY   1000024     6.71773607E-01   # chargino1+ decays
#          BR         NDA      ID1       ID2
     1.00000000E+00    2     1000022        24   # BR(~chi_1+ -> ~chi_10  W+)
#
#         PDG            Width
DECAY   1000037     2.00513987E+01   # chargino2+ decays
#          BR         NDA      ID1       ID2
     2.53108406E-01    2     1000024        23   # BR(~chi_2+ -> ~chi_1+  Z )
     2.05836547E-04    2     1000022        24   # BR(~chi_2+ -> ~chi_10  W+)
     2.44064070E-01    2     1000023        24   # BR(~chi_2+ -> ~chi_20  W+)
     2.44038170E-01    2     1000025        24   # BR(~chi_2+ -> ~chi_30  W+)
     2.58582587E-01    2     1000024        25   # BR(~chi_2+ -> ~chi_1+  h )
     9.30714019E-07    2     1000022        37   # BR(~chi_2+ -> ~chi_10  H+)
#
#         PDG            Width
DECAY   1000022     0.00000000E+00   # neutralino1 decays
#
#         PDG            Width
DECAY   1000023     7.02964054E-01   # neutralino2 decays
#          BR         NDA      ID1       ID2
     5.44441829E-01    2     1000022        23   # BR(~chi_20 -> ~chi_10   Z )
     4.55558171E-01    2     1000022        25   # BR(~chi_20 -> ~chi_10   h )
#
#         PDG            Width
DECAY   1000025     7.07436207E-01   # neutralino3 decays
#          BR         NDA      ID1       ID2
     4.43597225E-01    2     1000022        23   # BR(~chi_30 -> ~chi_10   Z )
     5.56402775E-01    2     1000022        25   # BR(~chi_30 -> ~chi_10   h )
#
#         PDG            Width
DECAY   1000035     2.00650689E+01   # neutralino4 decays
#          BR         NDA      ID1       ID2
     5.54582755E-05    2     1000022        23   # BR(~chi_40 -> ~chi_10   Z )
     6.53748306E-02    2     1000023        23   # BR(~chi_40 -> ~chi_20   Z )
     1.87015696E-01    2     1000025        23   # BR(~chi_40 -> ~chi_30   Z )
     2.44701458E-01    2     1000024       -24   # BR(~chi_40 -> ~chi_1+   W-)
     2.44701458E-01    2    -1000024        24   # BR(~chi_40 -> ~chi_1-   W+)
     1.52327117E-04    2     1000022        25   # BR(~chi_40 -> ~chi_10   h )
     8.62371786E-07    2     1000022        35   # BR(~chi_40 -> ~chi_10   H )
     1.09068241E-07    2     1000022        36   # BR(~chi_40 -> ~chi_10   A )
     1.92469537E-01    2     1000023        25   # BR(~chi_40 -> ~chi_20   h )
     6.55282636E-02    2     1000025        25   # BR(~chi_40 -> ~chi_30   h )
#
#         PDG            Width
DECAY        25     4.05405419E-03   # h decays
#          BR         NDA      ID1       ID2
     6.08582880E-01    2           5        -5   # BR(h -> b       bb     )
     6.39638636E-02    2         -15        15   # BR(h -> tau+    tau-   )
     2.26455450E-04    2         -13        13   # BR(h -> mu+     mu-    )
     4.80091970E-04    2           3        -3   # BR(h -> s       sb     )
     2.08036147E-02    2           4        -4   # BR(h -> c       cb     )
     6.72642596E-02    2          21        21   # BR(h -> g       g      )
     2.31210445E-03    2          22        22   # BR(h -> gam     gam    )
     1.48859923E-03    2          22        23   # BR(h -> Z       gam    )
     2.09834140E-01    2          24       -24   # BR(h -> W+      W-     )
     2.49939262E-02    2          23        23   # BR(h -> Z       Z      )
     5.00650247E-05    2     1000022   1000022   # BR(h -> ~chi_10 ~chi_10)
#
#         PDG            Width
DECAY        35     7.95284991E+00   # H decays
#          BR         NDA      ID1       ID2
     4.06908582E-01    2           5        -5   # BR(H -> b       bb     )
     7.00565940E-02    2         -15        15   # BR(H -> tau+    tau-   )
     2.47725681E-04    2         -13        13   # BR(H -> mu+     mu-    )
     3.03673704E-04    2           3        -3   # BR(H -> s       sb     )
     1.69839706E-06    2           4        -4   # BR(H -> c       cb     )
     1.69683320E-01    2           6        -6   # BR(H -> t       tb     )
     5.63703341E-05    2          21        21   # BR(H -> g       g      )
     3.01287191E-07    2          22        22   # BR(H -> gam     gam    )
     1.00185136E-07    2          23        22   # BR(H -> Z       gam    )
     7.76297055E-05    2          24       -24   # BR(H -> W+      W-     )
     3.87657233E-05    2          23        23   # BR(H -> Z       Z      )
     2.89242977E-04    2          25        25   # BR(H -> h       h      )
    -2.24135160E-23    2          36        36   # BR(H -> A       A      )
     1.09076143E-18    2          23        36   # BR(H -> Z       A      )
     1.60390150E-03    2     1000024  -1000024   # BR(H -> ~chi_1+ ~chi_1-)
     1.50044243E-03    2     1000022   1000022   # BR(H -> ~chi_10 ~chi_10)
     5.87113937E-05    2     1000023   1000023   # BR(H -> ~chi_20 ~chi_20)
     3.73234296E-04    2     1000025   1000025   # BR(H -> ~chi_30 ~chi_30)
     2.08881053E-01    2     1000022   1000023   # BR(H -> ~chi_10 ~chi_20)
     1.39576176E-01    2     1000022   1000025   # BR(H -> ~chi_10 ~chi_30)
     3.42477216E-04    2     1000023   1000025   # BR(H -> ~chi_20 ~chi_30)
#
#         PDG            Width
DECAY        36     7.97133405E+00   # A decays
#          BR         NDA      ID1       ID2
     4.06101774E-01    2           5        -5   # BR(A -> b       bb     )
     6.98961499E-02    2         -15        15   # BR(A -> tau+    tau-   )
     2.47157992E-04    2         -13        13   # BR(A -> mu+     mu-    )
     3.03199260E-04    2           3        -3   # BR(A -> s       sb     )
     1.70142529E-06    2           4        -4   # BR(A -> c       cb     )
     1.69892072E-01    2           6        -6   # BR(A -> t       tb     )
     1.68128837E-04    2          21        21   # BR(A -> g       g      )
     5.55151677E-07    2          22        22   # BR(A -> gam     gam    )
     2.03621725E-07    2          23        22   # BR(A -> Z       gam    )
     7.71568210E-05    2          23        25   # BR(A -> Z       h      )
     3.10373451E-03    2     1000024  -1000024   # BR(A -> ~chi_1+ ~chi_1-)
     1.53121331E-03    2     1000022   1000022   # BR(A -> ~chi_10 ~chi_10)
     8.28332563E-05    2     1000023   1000023   # BR(A -> ~chi_20 ~chi_20)
     1.23721329E-03    2     1000025   1000025   # BR(A -> ~chi_30 ~chi_30)
     1.41135992E-01    2     1000022   1000023   # BR(A -> ~chi_10 ~chi_20)
     2.06152196E-01    2     1000022   1000025   # BR(A -> ~chi_10 ~chi_30)
     6.87174730E-05    2     1000023   1000025   # BR(A -> ~chi_20 ~chi_30)
#
#         PDG            Width
DECAY        37     7.93443240E+00   # H+ decays
#          BR         NDA      ID1       ID2
     6.53902331E-04    2           4        -5   # BR(H+ -> c       bb     )
     7.02451472E-02    2         -15        16   # BR(H+ -> tau+    nu_tau )
     2.48392073E-04    2         -13        14   # BR(H+ -> mu+     nu_mu  )
     4.18495331E-06    2           2        -5   # BR(H+ -> u       bb     )
     1.45750375E-05    2           2        -3   # BR(H+ -> u       sb     )
     3.01412450E-04    2           4        -3   # BR(H+ -> c       sb     )
     5.75810461E-01    2           6        -5   # BR(H+ -> t       bb     )
     7.76447565E-05    2          24        25   # BR(H+ -> W+      h      )
     1.84692264E-13    2          24        36   # BR(H+ -> W+      A      )
     3.51922152E-01    2     1000024   1000022   # BR(H+ -> ~chi_1+ ~chi_10)
     6.74008866E-04    2     1000024   1000023   # BR(H+ -> ~chi_1+ ~chi_20)
     4.81195147E-05    2     1000024   1000025   # BR(H+ -> ~chi_1+ ~chi_30)
