#
#                              ======================
#                              | THE SUSYHIT OUTPUT |
#                              ======================
#
#
#              ------------------------------------------------------
#              |     This is the output of the SUSY-HIT package     |
#              |  created by A.Djouadi, M.Muehlleitner and M.Spira. |
#              |  In case of problems with SUSY-HIT email to        |
#              |           margarete.muehlleitner@kit.edu           |
#              |           michael.spira@psi.ch                     |
#              |           abdelhak.djouadi@cern.ch                 |
#              ------------------------------------------------------
#
#              ------------------------------------------------------
#              |  SUSY Les Houches Accord - MSSM Spectrum + Decays  |
#              |              based on the decay programs           |
#              |                                                    |
#              |                     SDECAY 1.5                     |
#              |                                                    |
#              |  Authors: M.Muhlleitner, A.Djouadi and Y.Mambrini  |
#              |  Ref.:    Comput.Phys.Commun.168(2005)46           |
#              |           [hep-ph/0311167]                         |
#              |                                                    |
#              |                     HDECAY 3.4                     |
#              |                                                    |
#              |  By: A.Djouadi,J.Kalinowski,M.Muhlleitner,M.Spira  |
#              |  Ref.:    Comput.Phys.Commun.108(1998)56           |
#              |           [hep-ph/9704448]                         |
#              |                                                    |
#              |                                                    |
#              |  If not stated otherwise all DRbar couplings and   |
#              |  soft SUSY breaking masses are given at the scale  |
#              |  Q=  0.91187600E+02
#              |                                                    |
#              ------------------------------------------------------
#
#
BLOCK DCINFO  # Decay Program information
     1   SDECAY/HDECAY # decay calculator
     2   1.5  /3.4    # version number
#
BLOCK SPINFO  # Spectrum calculator information
     1   SuSpect     # RGE +Spectrum calculator            
     2   2.43         # version number                     
#
BLOCK MODSEL  # Model selection
     1     2   # GMSB                                              
#
BLOCK SMINPUTS  # Standard Model inputs
         1     1.27932904E+02   # alpha_em^-1(M_Z)^MSbar
         2     1.16639000E-05   # G_F [GeV^-2]
         3     1.17200000E-01   # alpha_S(M_Z)^MSbar
         4     9.11870000E+01   # M_Z pole mass
         5     4.25000000E+00   # mb(mb)^MSbar
         6     1.72900000E+02   # mt pole mass
         7     1.77700000E+00   # mtau pole mass
#
BLOCK MINPAR  # Input parameters - minimal models
#
BLOCK EXTPAR  # Input parameters - non-minimal models
         0     9.11876000E+01   # EWSB                
         1     1.05200000E+03   # M_1                 
         2     3.00000000E+03   # M_2                 
         3     1.40000000E+03   # M_3                 
        11     0.00000000E+00   # A_t                 
        12     0.00000000E+00   # A_b                 
        13     0.00000000E+00   # A_tau               
        14     0.00000000E+00   # A_u                 
        15     0.00000000E+00   # A_d                 
        16     0.00000000E+00   # A_e                 
        23     1.05000000E+03   # mu(EWSB)            
        25     1.50000000E+00   # tanbeta(in)         
        26     2.00000000E+03   # MA_pole             
        31     5.00000000E+03   # M_eL                
        32     5.00000000E+03   # M_muL               
        33     5.00000000E+03   # M_tauL              
        34     5.00000000E+03   # M_eR                
        35     5.00000000E+03   # M_muR               
        36     5.00000000E+03   # M_tauR              
        41     5.00000000E+03   # M_q1L               
        42     5.00000000E+03   # M_q2L               
        43     5.00000000E+03   # M_q3L               
        44     5.00000000E+03   # M_uR                
        45     5.00000000E+03   # M_cR                
        46     5.00000000E+03   # M_tR                
        47     5.00000000E+03   # M_dR                
        48     5.00000000E+03   # M_sR                
        49     5.00000000E+03   # M_bR                
#
BLOCK MASS  # Mass Spectrum
# PDG code           mass       particle
        24     8.05405940E+01   # W+
        25     1.26000000E+02   # h
        35     2.00408473E+03   # H
        36     2.00000000E+03   # A
        37     2.00156004E+03   # H+
         5     4.87877839E+00   # b-quark pole mass calculated from mb(mb)_Msbar
   1000001     4.99643630E+03   # ~d_L
   2000001     4.99632687E+03   # ~d_R
   1000002     4.99619164E+03   # ~u_L
   2000002     4.99624949E+03   # ~u_R
   1000003     4.99643630E+03   # ~s_L
   2000003     4.99632687E+03   # ~s_R
   1000004     4.99619164E+03   # ~c_L
   2000004     4.99624949E+03   # ~c_R
   1000005     4.99594816E+03   # ~b_1
   2000005     4.99681644E+03   # ~b_2
   1000006     5.11954094E+03   # ~t_1
   2000006     5.41526955E+03   # ~t_2
   1000011     5.00008223E+03   # ~e_L
   2000011     5.00007607E+03   # ~e_R
   1000012     4.99984170E+03   # ~nu_eL
   1000013     5.00008223E+03   # ~mu_L
   2000013     5.00007607E+03   # ~mu_R
   1000014     4.99984170E+03   # ~nu_muL
   1000015     4.99979938E+03   # ~tau_1
   2000015     5.00035953E+03   # ~tau_2
   1000016     4.99984170E+03   # ~nu_tauL
   1000021     1.52200058E+03   # ~g
   1000022     1.07292027E+03   # ~chi_10
   1000023    -1.12041772E+03   # ~chi_20
   1000025     1.16008221E+03   # ~chi_30
   1000035     3.12881448E+03   # ~chi_40
   1000024     1.11738970E+03   # ~chi_1+
   1000037     3.12881314E+03   # ~chi_2+
   1000039     1.00000000E-09   # ~gravitino
#
BLOCK NMIX  # Neutralino Mixing Matrix
  1  1     7.13818525E-01   # N_11
  1  2    -2.64123079E-02   # N_12
  1  3     4.96990897E-01   # N_13
  1  4    -4.92712443E-01   # N_14
  2  1     3.90434916E-03   # N_21
  2  2    -3.65605125E-03   # N_22
  2  3    -7.06953457E-01   # N_23
  2  4    -7.07239845E-01   # N_24
  3  1     7.00319315E-01   # N_31
  3  2     2.81573153E-02   # N_32
  3  3    -5.02599395E-01   # N_33
  3  4     5.06116459E-01   # N_34
  4  1     8.51883380E-04   # N_41
  4  2    -9.99247812E-01   # N_42
  4  3    -2.47124566E-02   # N_43
  4  4     2.98727285E-02   # N_44
#
BLOCK UMIX  # Chargino Mixing Matrix U
  1  1    -3.49305204E-02   # U_11
  1  2     9.99389743E-01   # U_12
  2  1     9.99389743E-01   # U_21
  2  2     3.49305204E-02   # U_22
#
BLOCK VMIX  # Chargino Mixing Matrix V
  1  1    -4.22299027E-02   # V_11
  1  2     9.99107920E-01   # V_12
  2  1     9.99107920E-01   # V_21
  2  2     4.22299027E-02   # V_22
#
BLOCK STOPMIX  # Stop Mixing Matrix
  1  1     9.99998275E-01   # cos(theta_t)
  1  2     1.85741676E-03   # sin(theta_t)
  2  1    -1.85741676E-03   # -sin(theta_t)
  2  2     9.99998275E-01   # cos(theta_t)
#
BLOCK SBOTMIX  # Sbottom Mixing Matrix
  1  1     6.61047691E-01   # cos(theta_b)
  1  2     7.50343888E-01   # sin(theta_b)
  2  1    -7.50343888E-01   # -sin(theta_b)
  2  2     6.61047691E-01   # cos(theta_b)
#
BLOCK STAUMIX  # Stau Mixing Matrix
  1  1     7.03207554E-01   # cos(theta_tau)
  1  2     7.10984624E-01   # sin(theta_tau)
  2  1    -7.10984624E-01   # -sin(theta_tau)
  2  2     7.03207554E-01   # cos(theta_tau)
#
BLOCK ALPHA  # Higgs mixing
          -5.90203604E-01   # Mixing angle in the neutral Higgs boson sector
#
BLOCK HMIX Q=  9.11876000E+01  # DRbar Higgs Parameters
         1     1.05000000E+03   # mu(Q)               
         2     1.49999979E+00   # tanbeta(Q)          
         3     2.52097627E+02   # vev(Q)              
         4     3.52109043E+06   # MA^2(Q)             
#
BLOCK GAUGE Q=  9.11876000E+01  # The gauge couplings
     1     3.52813957E-01   # gprime(Q) DRbar
     2     6.27372469E-01   # g(Q) DRbar
     3     1.08619155E+00   # g3(Q) DRbar
#
BLOCK AU Q=  9.11876000E+01  # The trilinear couplings
  1  1     0.00000000E+00   # A_u(Q) DRbar
  2  2     0.00000000E+00   # A_c(Q) DRbar
  3  3     0.00000000E+00   # A_t(Q) DRbar
#
BLOCK AD Q=  9.11876000E+01  # The trilinear couplings
  1  1     0.00000000E+00   # A_d(Q) DRbar
  2  2     0.00000000E+00   # A_s(Q) DRbar
  3  3     0.00000000E+00   # A_b(Q) DRbar
#
BLOCK AE Q=  9.11876000E+01  # The trilinear couplings
  1  1     0.00000000E+00   # A_e(Q) DRbar
  2  2     0.00000000E+00   # A_mu(Q) DRbar
  3  3     0.00000000E+00   # A_tau(Q) DRbar
#
BLOCK Yu Q=  9.11876000E+01  # The Yukawa couplings
  1  1     0.00000000E+00   # y_u(Q) DRbar
  2  2     0.00000000E+00   # y_c(Q) DRbar
  3  3     1.02546515E+00   # y_t(Q) DRbar
#
BLOCK Yd Q=  9.11876000E+01  # The Yukawa couplings
  1  1     0.00000000E+00   # y_d(Q) DRbar
  2  2     0.00000000E+00   # y_s(Q) DRbar
  3  3     2.71872086E-02   # y_b(Q) DRbar
#
BLOCK Ye Q=  9.11876000E+01  # The Yukawa couplings
  1  1     0.00000000E+00   # y_e(Q) DRbar
  2  2     0.00000000E+00   # y_mu(Q) DRbar
  3  3     1.79828729E-02   # y_tau(Q) DRbar
#
BLOCK MSOFT Q=  9.11876000E+01  # The soft SUSY breaking masses at the scale Q
         1     1.05200000E+03   # M_1                 
         2     3.00000000E+03   # M_2                 
         3     1.40000000E+03   # M_3                 
        14     0.00000000E+00   # A_u                 
        15     0.00000000E+00   # A_d                 
        16     0.00000000E+00   # A_e                 
        21     1.81551939E+06   # M^2_Hd              
        22    -6.49776042E+06   # M^2_Hu              
        31     5.00000000E+03   # M_eL                
        32     5.00000000E+03   # M_muL               
        33     5.00000000E+03   # M_tauL              
        34     5.00000000E+03   # M_eR                
        35     5.00000000E+03   # M_muR               
        36     5.00000000E+03   # M_tauR              
        41     5.00000000E+03   # M_q1L               
        42     5.00000000E+03   # M_q2L               
        43     5.00000000E+03   # M_q3L               
        44     5.00000000E+03   # M_uR                
        45     5.00000000E+03   # M_cR                
        46     5.00000000E+03   # M_tR                
        47     5.00000000E+03   # M_dR                
        48     5.00000000E+03   # M_sR                
        49     5.00000000E+03   # M_bR                
#
#
#
#                             =================
#                             |The decay table|
#                             =================
#
# - The QCD corrections to the decays gluino -> squark  + quark
#                                     squark -> gaugino + quark_prime
#                                     squark -> squark_prime + Higgs
#                                     squark -> gluino  + quark
#   are included.
#
# - The multi-body decays for the inos, stops and sbottoms are included.
#
# - The loop induced decays for the gluino, neutralinos and stops
#   are included.
#
# - The SUSY decays of the top quark are included.
#
# - Possible decays of the NLSP in GMSB models are included.
#
#
#         PDG            Width
DECAY         6     1.37136832E+00   # top decays
#          BR         NDA      ID1       ID2
     1.00000000E+00    2           5        24   # BR(t ->  b    W+)
#
#         PDG            Width
DECAY   1000021     1.55044300E-05   # gluino decays
#          BR         NDA      ID1       ID2
     4.84416981E-02    2     1000022        21   # BR(~g -> ~chi_10 g)
     7.54423683E-02    2     1000023        21   # BR(~g -> ~chi_20 g)
     2.92241466E-02    2     1000025        21   # BR(~g -> ~chi_30 g)
#          BR         NDA      ID1       ID2
0.0E+00    2     1000039    21 # BR(~g -> ~G      g)
#           BR         NDA      ID1       ID2       ID3
     6.00858518E-03    3     1000022         1        -1   # BR(~g -> ~chi_10 d  db)
     2.76561359E-07    3     1000023         1        -1   # BR(~g -> ~chi_20 d  db)
     1.87812032E-03    3     1000025         1        -1   # BR(~g -> ~chi_30 d  db)
     1.84067325E-02    3     1000022         2        -2   # BR(~g -> ~chi_10 u  ub)
     2.21339887E-07    3     1000023         2        -2   # BR(~g -> ~chi_20 u  ub)
     7.10907545E-03    3     1000025         2        -2   # BR(~g -> ~chi_30 u  ub)
     6.00858518E-03    3     1000022         3        -3   # BR(~g -> ~chi_10 s  sb)
     2.76561359E-07    3     1000023         3        -3   # BR(~g -> ~chi_20 s  sb)
     1.87812032E-03    3     1000025         3        -3   # BR(~g -> ~chi_30 s  sb)
     1.84067325E-02    3     1000022         4        -4   # BR(~g -> ~chi_10 c  cb)
     2.21339887E-07    3     1000023         4        -4   # BR(~g -> ~chi_20 c  cb)
     7.10907545E-03    3     1000025         4        -4   # BR(~g -> ~chi_30 c  cb)
     6.05027483E-03    3     1000022         5        -5   # BR(~g -> ~chi_10 b  bb)
     1.42804638E-04    3     1000023         5        -5   # BR(~g -> ~chi_20 b  bb)
     1.94727557E-03    3     1000025         5        -5   # BR(~g -> ~chi_30 b  bb)
     1.81858561E-02    3     1000022         6        -6   # BR(~g -> ~chi_10 t  tb)
     4.24019733E-03    3     1000023         6        -6   # BR(~g -> ~chi_20 t  tb)
     5.96298327E-04    3     1000025         6        -6   # BR(~g -> ~chi_30 t  tb)
     1.16308893E-04    3     1000024         1        -2   # BR(~g -> ~chi_1+ d  ub)
     1.16308893E-04    3    -1000024         2        -1   # BR(~g -> ~chi_1- u  db)
     1.16308893E-04    3     1000024         3        -4   # BR(~g -> ~chi_1+ s  cb)
     1.16308893E-04    3    -1000024         4        -3   # BR(~g -> ~chi_1- c  sb)
     7.09971455E-02    3     1000024         5        -6   # BR(~g -> ~chi_1+ b  tb)
     7.09971455E-02    3    -1000024         6        -5   # BR(~g -> ~chi_1- t  bb)
#
#         PDG            Width
DECAY   1000006     3.14118672E+02   # stop1 decays
#          BR         NDA      ID1       ID2
     5.17394417E-02    2     1000022         6   # BR(~t_1 -> ~chi_10 t )
     1.06010559E-01    2     1000023         6   # BR(~t_1 -> ~chi_20 t )
     5.60512868E-02    2     1000025         6   # BR(~t_1 -> ~chi_30 t )
     2.44292391E-02    2     1000035         6   # BR(~t_1 -> ~chi_40 t )
     4.25846650E-05    2     1000024         5   # BR(~t_1 -> ~chi_1+ b )
     4.85588197E-02    2     1000037         5   # BR(~t_1 -> ~chi_2+ b )
     7.00010429E-01    2     1000021         6   # BR(~t_1 -> ~g      t )
     5.86854465E-03    2     1000005        24   # BR(~t_1 -> ~b_1    W+)
     7.28909504E-03    2     2000005        24   # BR(~t_1 -> ~b_2    W+)
#
#         PDG            Width
DECAY   2000006     3.87965137E+02   # stop2 decays
#          BR         NDA      ID1       ID2
     5.93185612E-02    2     1000022         6   # BR(~t_2 -> ~chi_10 t )
     9.21829323E-02    2     1000023         6   # BR(~t_2 -> ~chi_20 t )
     5.98545786E-02    2     1000025         6   # BR(~t_2 -> ~chi_30 t )
     1.58109893E-05    2     1000035         6   # BR(~t_2 -> ~chi_40 t )
     1.84654221E-01    2     1000024         5   # BR(~t_2 -> ~chi_1+ b )
     3.21818555E-05    2     1000037         5   # BR(~t_2 -> ~chi_2+ b )
     6.03984480E-01    2     1000021         6   # BR(~t_2 -> ~g      t )
    -4.77517959E-05    2     1000006        25   # BR(~t_2 -> ~t_1    h )
     5.95877886E-07    2     1000006        23   # BR(~t_2 -> ~t_1    Z )
     1.92961933E-06    2     1000005        24   # BR(~t_2 -> ~b_1    W+)
     2.45988471E-06    2     2000005        24   # BR(~t_2 -> ~b_2    W+)
#
#         PDG            Width
DECAY   1000005     2.49693343E+02   # sbottom1 decays
#          BR         NDA      ID1       ID2
     4.46230775E-03    2     1000022         5   # BR(~b_1 -> ~chi_10 b )
     7.78600654E-05    2     1000023         5   # BR(~b_1 -> ~chi_20 b )
     2.48717532E-03    2     1000025         5   # BR(~b_1 -> ~chi_30 b )
     1.12209270E-02    2     1000035         5   # BR(~b_1 -> ~chi_40 b )
     1.00505558E-01    2    -1000024         6   # BR(~b_1 -> ~chi_1- t )
     2.25787204E-02    2    -1000037         6   # BR(~b_1 -> ~chi_2- t )
     8.58667451E-01    2     1000021         5   # BR(~b_1 -> ~g      b )
#
#         PDG            Width
DECAY   2000005     2.67947934E+02   # sbottom2 decays
#          BR         NDA      ID1       ID2
     2.17107838E-03    2     1000022         5   # BR(~b_2 -> ~chi_10 b )
     9.98337647E-05    2     1000023         5   # BR(~b_2 -> ~chi_20 b )
     2.79260731E-03    2     1000025         5   # BR(~b_2 -> ~chi_30 b )
     1.56649440E-02    2     1000035         5   # BR(~b_2 -> ~chi_40 b )
     1.47847714E-01    2    -1000024         6   # BR(~b_2 -> ~chi_1- t )
     3.15276945E-02    2    -1000037         6   # BR(~b_2 -> ~chi_2- t )
     7.99896128E-01    2     1000021         5   # BR(~b_2 -> ~g      b )
#
#         PDG            Width
DECAY   1000002     2.36026773E+02   # sup_L decays
#          BR         NDA      ID1       ID2
     8.40407566E-04    2     1000022         2   # BR(~u_L -> ~chi_10 u)
     6.17593071E-07    2     1000023         2   # BR(~u_L -> ~chi_20 u)
     1.82204106E-03    2     1000025         2   # BR(~u_L -> ~chi_30 u)
     2.96292914E-02    2     1000035         2   # BR(~u_L -> ~chi_40 u)
     2.57761955E-04    2     1000024         1   # BR(~u_L -> ~chi_1+ d)
     5.92609964E-02    2     1000037         1   # BR(~u_L -> ~chi_2+ d)
     9.08188884E-01    2     1000021         2   # BR(~u_L -> ~g      u)
#
#         PDG            Width
DECAY   2000002     2.23952449E+02   # sup_R decays
#          BR         NDA      ID1       ID2
     2.19993322E-02    2     1000022         2   # BR(~u_R -> ~chi_10 u)
     6.52420594E-07    2     1000023         2   # BR(~u_R -> ~chi_20 u)
     2.08307916E-02    2     1000025         2   # BR(~u_R -> ~chi_30 u)
     1.27648404E-08    2     1000035         2   # BR(~u_R -> ~chi_40 u)
     9.57169211E-01    2     1000021         2   # BR(~u_R -> ~g      u)
#
#         PDG            Width
DECAY   1000001     2.36031569E+02   # sdown_L decays
#          BR         NDA      ID1       ID2
     1.87052741E-03    2     1000022         1   # BR(~d_L -> ~chi_10 d)
     1.39072095E-06    2     1000023         1   # BR(~d_L -> ~chi_20 d)
     7.62256159E-04    2     1000025         1   # BR(~d_L -> ~chi_30 d)
     2.96528026E-02    2     1000035         1   # BR(~d_L -> ~chi_40 d)
     1.76362310E-04    2    -1000024         2   # BR(~d_L -> ~chi_1- u)
     5.93035625E-02    2    -1000037         2   # BR(~d_L -> ~chi_2- u)
     9.08233098E-01    2     1000021         1   # BR(~d_L -> ~g      d)
#
#         PDG            Width
DECAY   2000001     2.16763128E+02   # sdown_R decays
#          BR         NDA      ID1       ID2
     5.68234987E-03    2     1000022         1   # BR(~d_R -> ~chi_10 d)
     1.68517985E-07    2     1000023         1   # BR(~d_R -> ~chi_20 d)
     5.38052284E-03    2     1000025         1   # BR(~d_R -> ~chi_30 d)
     3.29723380E-09    2     1000035         1   # BR(~d_R -> ~chi_40 d)
     9.88936955E-01    2     1000021         1   # BR(~d_R -> ~g      d)
#
#         PDG            Width
DECAY   1000004     2.36026773E+02   # scharm_L decays
#          BR         NDA      ID1       ID2
     8.40407566E-04    2     1000022         4   # BR(~c_L -> ~chi_10 c)
     6.17593071E-07    2     1000023         4   # BR(~c_L -> ~chi_20 c)
     1.82204106E-03    2     1000025         4   # BR(~c_L -> ~chi_30 c)
     2.96292914E-02    2     1000035         4   # BR(~c_L -> ~chi_40 c)
     2.57761955E-04    2     1000024         3   # BR(~c_L -> ~chi_1+ s)
     5.92609964E-02    2     1000037         3   # BR(~c_L -> ~chi_2+ s)
     9.08188884E-01    2     1000021         4   # BR(~c_L -> ~g      c)
#
#         PDG            Width
DECAY   2000004     2.23952449E+02   # scharm_R decays
#          BR         NDA      ID1       ID2
     2.19993322E-02    2     1000022         4   # BR(~c_R -> ~chi_10 c)
     6.52420594E-07    2     1000023         4   # BR(~c_R -> ~chi_20 c)
     2.08307916E-02    2     1000025         4   # BR(~c_R -> ~chi_30 c)
     1.27648404E-08    2     1000035         4   # BR(~c_R -> ~chi_40 c)
     9.57169211E-01    2     1000021         4   # BR(~c_R -> ~g      c)
#
#         PDG            Width
DECAY   1000003     2.36031569E+02   # sstrange_L decays
#          BR         NDA      ID1       ID2
     1.87052741E-03    2     1000022         3   # BR(~s_L -> ~chi_10 s)
     1.39072095E-06    2     1000023         3   # BR(~s_L -> ~chi_20 s)
     7.62256159E-04    2     1000025         3   # BR(~s_L -> ~chi_30 s)
     2.96528026E-02    2     1000035         3   # BR(~s_L -> ~chi_40 s)
     1.76362310E-04    2    -1000024         4   # BR(~s_L -> ~chi_1- c)
     5.93035625E-02    2    -1000037         4   # BR(~s_L -> ~chi_2- c)
     9.08233098E-01    2     1000021         3   # BR(~s_L -> ~g      s)
#
#         PDG            Width
DECAY   2000003     2.16763128E+02   # sstrange_R decays
#          BR         NDA      ID1       ID2
     5.68234987E-03    2     1000022         3   # BR(~s_R -> ~chi_10 s)
     1.68517985E-07    2     1000023         3   # BR(~s_R -> ~chi_20 s)
     5.38052284E-03    2     1000025         3   # BR(~s_R -> ~chi_30 s)
     3.29723380E-09    2     1000035         3   # BR(~s_R -> ~chi_40 s)
     9.88936955E-01    2     1000021         3   # BR(~s_R -> ~g      s)
#
#         PDG            Width
DECAY   1000011     2.73748139E+01   # selectron_L decays
#          BR         NDA      ID1       ID2
     9.15235471E-02    2     1000022        11   # BR(~e_L -> ~chi_10 e-)
     1.37580672E-06    2     1000023        11   # BR(~e_L -> ~chi_20 e-)
     1.14006210E-01    2     1000025        11   # BR(~e_L -> ~chi_30 e-)
     2.64078720E-01    2     1000035        11   # BR(~e_L -> ~chi_40 e-)
     1.57513770E-03    2    -1000024        12   # BR(~e_L -> ~chi_1- nu_e)
     5.28815010E-01    2    -1000037        12   # BR(~e_L -> ~chi_2- nu_e)
#
#         PDG            Width
DECAY   2000011     2.23566996E+01   # selectron_R decays
#          BR         NDA      ID1       ID2
     5.13631984E-01    2     1000022        11   # BR(~e_R -> ~chi_10 e-)
     1.52325045E-05    2     1000023        11   # BR(~e_R -> ~chi_20 e-)
     4.86352486E-01    2     1000025        11   # BR(~e_R -> ~chi_30 e-)
     2.97581534E-07    2     1000035        11   # BR(~e_R -> ~chi_40 e-)
#
#         PDG            Width
DECAY   1000013     2.73748139E+01   # smuon_L decays
#          BR         NDA      ID1       ID2
     9.15235471E-02    2     1000022        13   # BR(~mu_L -> ~chi_10 mu-)
     1.37580672E-06    2     1000023        13   # BR(~mu_L -> ~chi_20 mu-)
     1.14006210E-01    2     1000025        13   # BR(~mu_L -> ~chi_30 mu-)
     2.64078720E-01    2     1000035        13   # BR(~mu_L -> ~chi_40 mu-)
     1.57513770E-03    2    -1000024        14   # BR(~mu_L -> ~chi_1- nu_mu)
     5.28815010E-01    2    -1000037        14   # BR(~mu_L -> ~chi_2- nu_mu)
#
#         PDG            Width
DECAY   2000013     2.23566996E+01   # smuon_R decays
#          BR         NDA      ID1       ID2
     5.13631984E-01    2     1000022        13   # BR(~mu_R -> ~chi_10 mu-)
     1.52325045E-05    2     1000023        13   # BR(~mu_R -> ~chi_20 mu-)
     4.86352486E-01    2     1000025        13   # BR(~mu_R -> ~chi_30 mu-)
     2.97581534E-07    2     1000035        13   # BR(~mu_R -> ~chi_40 mu-)
#
#         PDG            Width
DECAY   1000015     2.49178081E+01   # stau_1 decays
#          BR         NDA      ID1       ID2
     2.89141606E-01    2     1000022        15   # BR(~tau_1 -> ~chi_10  tau-)
     4.70897373E-04    2     1000023        15   # BR(~tau_1 -> ~chi_20  tau-)
     2.77591694E-01    2     1000025        15   # BR(~tau_1 -> ~chi_30  tau-)
     1.43143763E-01    2     1000035        15   # BR(~tau_1 -> ~chi_40  tau-)
     2.86287376E-03    2    -1000024        16   # BR(~tau_1 -> ~chi_1-  nu_tau)
     2.86644808E-01    2    -1000037        16   # BR(~tau_1 -> ~chi_2-  nu_tau)
     1.44357536E-04    2     1000039        15   # BR(~tau_1 -> ~G       tau-)
#
#         PDG            Width
DECAY   2000015     2.49043500E+01   # stau_2 decays
#          BR         NDA      ID1       ID2
     2.72971183E-01    2     1000022        15   # BR(~tau_2 -> ~chi_10  tau-)
     7.08713473E-04    2     1000023        15   # BR(~tau_2 -> ~chi_20  tau-)
     2.84760230E-01    2     1000025        15   # BR(~tau_2 -> ~chi_30  tau-)
     1.47054966E-01    2     1000035        15   # BR(~tau_2 -> ~chi_40  tau-)
     3.12249504E-05    2    -1000024        16   # BR(~tau_2 -> ~chi_1-  nu_tau)
     2.94473683E-01    2    -1000037        16   # BR(~tau_2 -> ~chi_2-  nu_tau)
#
#         PDG            Width
DECAY   1000012     2.73750965E+01   # snu_eL decays
#          BR         NDA      ID1       ID2
     1.19115377E-01    2     1000022        12   # BR(~nu_eL -> ~chi_10 nu_e)
     2.20886649E-05    2     1000023        12   # BR(~nu_eL -> ~chi_20 nu_e)
     8.56025718E-02    2     1000025        12   # BR(~nu_eL -> ~chi_30 nu_e)
     2.64537414E-01    2     1000035        12   # BR(~nu_eL -> ~chi_40 nu_e)
     2.30207149E-03    2     1000024        11   # BR(~nu_eL -> ~chi_1+ e-)
     5.28420478E-01    2     1000037        11   # BR(~nu_eL -> ~chi_2+ e-)
#
#         PDG            Width
DECAY   1000014     2.73750965E+01   # snu_muL decays
#          BR         NDA      ID1       ID2
     1.19115377E-01    2     1000022        14   # BR(~nu_muL -> ~chi_10 nu_mu)
     2.20886649E-05    2     1000023        14   # BR(~nu_muL -> ~chi_20 nu_mu)
     8.56025718E-02    2     1000025        14   # BR(~nu_muL -> ~chi_30 nu_mu)
     2.64537414E-01    2     1000035        14   # BR(~nu_muL -> ~chi_40 nu_mu)
     2.30207149E-03    2     1000024        13   # BR(~nu_muL -> ~chi_1+ mu-)
     5.28420478E-01    2     1000037        13   # BR(~nu_muL -> ~chi_2+ mu-)
#
#         PDG            Width
DECAY   1000016     2.74041062E+01   # snu_tauL decays
#          BR         NDA      ID1       ID2
     1.18989282E-01    2     1000022        16   # BR(~nu_tauL -> ~chi_10 nu_tau)
     2.20652820E-05    2     1000023        16   # BR(~nu_tauL -> ~chi_20 nu_tau)
     8.55119536E-02    2     1000025        16   # BR(~nu_tauL -> ~chi_30 nu_tau)
     2.64257377E-01    2     1000035        16   # BR(~nu_tauL -> ~chi_40 nu_tau)
     3.35728248E-03    2     1000024        15   # BR(~nu_tauL -> ~chi_1+ tau-)
     5.27862040E-01    2     1000037        15   # BR(~nu_tauL -> ~chi_2+ tau-)
#
#         PDG            Width
DECAY   1000024     1.10278079E-04   # chargino1+ decays
#          BR         NDA      ID1       ID2
     8.92426657E-03    2     1000039        24   # BR(~chi_1+ -> ~G       W+)
#           BR         NDA      ID1       ID2       ID3
     3.30647737E-01    3     1000022         2        -1   # BR(~chi_1+ -> ~chi_10 u    db)
     3.30647737E-01    3     1000022         4        -3   # BR(~chi_1+ -> ~chi_10 c    sb)
     1.10216042E-01    3     1000022       -11        12   # BR(~chi_1+ -> ~chi_10 e+   nu_e)
     1.10216042E-01    3     1000022       -13        14   # BR(~chi_1+ -> ~chi_10 mu+  nu_mu)
     1.09348176E-01    3     1000022       -15        16   # BR(~chi_1+ -> ~chi_10 tau+ nu_tau)
#
#         PDG            Width
DECAY   1000037     3.73834493E+01   # chargino2+ decays
#          BR         NDA      ID1       ID2
     2.52224752E-01    2     1000024        23   # BR(~chi_2+ -> ~chi_1+  Z )
     1.13871474E-01    2     1000022        24   # BR(~chi_2+ -> ~chi_10  W+)
     2.45568249E-01    2     1000023        24   # BR(~chi_2+ -> ~chi_20  W+)
     1.32002511E-01    2     1000025        24   # BR(~chi_2+ -> ~chi_30  W+)
     2.53243179E-01    2     1000024        25   # BR(~chi_2+ -> ~chi_1+  h )
     6.06913821E-04    2     1000024        35   # BR(~chi_2+ -> ~chi_1+  H )
     7.99727344E-04    2     1000024        36   # BR(~chi_2+ -> ~chi_1+  A )
     1.07432280E-03    2     1000022        37   # BR(~chi_2+ -> ~chi_10  H+)
     5.99665896E-04    2     1000023        37   # BR(~chi_2+ -> ~chi_20  H+)
     9.20425008E-06    2     1000039        24   # BR(~chi_2+ -> ~G       W+)
     7.83617751E-10    2     1000039        37   # BR(~chi_2+ -> ~G       H+)
#
#         PDG            Width
DECAY   1000022    1.0E-05    # neutralino1 decays
#          BR         NDA      ID1       ID2
     4.99598509E-01    2     1000039        22   # BR(~chi_10 -> ~G        gam)
     4.89179068E-01    2     1000039        23   # BR(~chi_10 -> ~G        Z)
     1.12224233E-02    2     1000039        25   # BR(~chi_10 -> ~G        h)
#
#         PDG            Width
DECAY   1000023     1.24032551E-04   # neutralino2 decays
#          BR         NDA      ID1       ID2
     1.24131673E-03    2     1000022        22   # BR(~chi_20 -> ~chi_10 gam)
#          BR         NDA      ID1       ID2
     4.25360095E-08    2     1000039        22   # BR(~chi_20 -> ~G        gam)
     3.07931794E-04    2     1000039        23   # BR(~chi_20 -> ~G        Z)
     7.49514200E-03    2     1000039        25   # BR(~chi_20 -> ~G        h)
#           BR         NDA      ID1       ID2       ID3
     1.17669443E-01    3     1000022        -2         2   # BR(~chi_20 -> ~chi_10 ub      u)
     1.52355651E-01    3     1000022        -1         1   # BR(~chi_20 -> ~chi_10 db      d)
     1.17669443E-01    3     1000022        -4         4   # BR(~chi_20 -> ~chi_10 cb      c)
     1.52355651E-01    3     1000022        -3         3   # BR(~chi_20 -> ~chi_10 sb      s)
     1.38448913E-01    3     1000022        -5         5   # BR(~chi_20 -> ~chi_10 bb      b)
     3.47915159E-02    3     1000022       -11        11   # BR(~chi_20 -> ~chi_10 e+      e-)
     3.47915159E-02    3     1000022       -13        13   # BR(~chi_20 -> ~chi_10 mu+     mu-)
     3.44351578E-02    3     1000022       -15        15   # BR(~chi_20 -> ~chi_10 tau+    tau-)
     6.94780486E-02    3     1000022       -12        12   # BR(~chi_20 -> ~chi_10 nu_eb   nu_e)
     6.94780486E-02    3     1000022       -14        14   # BR(~chi_20 -> ~chi_10 nu_mub  nu_mu)
     6.94780486E-02    3     1000022       -16        16   # BR(~chi_20 -> ~chi_10 nu_taub nu_tau)
     7.57964142E-07    3     1000024        -2         1   # BR(~chi_20 -> ~chi_1+ ub      d)
     7.57964142E-07    3    -1000024        -1         2   # BR(~chi_20 -> ~chi_1- db      u)
     7.57964142E-07    3     1000024        -4         3   # BR(~chi_20 -> ~chi_1+ cb      s)
     7.57964142E-07    3    -1000024        -3         4   # BR(~chi_20 -> ~chi_1- sb      c)
     2.52654730E-07    3     1000024       -12        11   # BR(~chi_20 -> ~chi_1+ nu_eb   e-)
     2.52654730E-07    3    -1000024        12       -11   # BR(~chi_20 -> ~chi_1- nu_e    e+)
     2.52654730E-07    3     1000024       -14        13   # BR(~chi_20 -> ~chi_1+ nu_mub  mu-)
     2.52654730E-07    3    -1000024        14       -13   # BR(~chi_20 -> ~chi_1- nu_mu   mu+)
     4.35667069E-08    3     1000024       -16        15   # BR(~chi_20 -> ~chi_1+ nu_taub tau-)
     4.35667069E-08    3    -1000024        16       -15   # BR(~chi_20 -> ~chi_1- nu_tau  tau+)
#
#         PDG            Width
DECAY   1000025     2.33998979E-04   # neutralino3 decays
#          BR         NDA      ID1       ID2
     3.58973541E-04    2     1000022        22   # BR(~chi_30 -> ~chi_10 gam)
     7.89291009E-06    2     1000023        22   # BR(~chi_30 -> ~chi_20 gam)
#          BR         NDA      ID1       ID2
     4.02799028E-03    2     1000039        22   # BR(~chi_30 -> ~G        gam)
     3.49451097E-03    2     1000039        23   # BR(~chi_30 -> ~G        Z)
     9.76958091E-05    2     1000039        25   # BR(~chi_30 -> ~G        h)
#           BR         NDA      ID1       ID2       ID3
     9.31328957E-06    3     1000022        -2         2   # BR(~chi_30 -> ~chi_10 ub      u)
     1.10702332E-05    3     1000022        -1         1   # BR(~chi_30 -> ~chi_10 db      d)
     9.31328957E-06    3     1000022        -4         4   # BR(~chi_30 -> ~chi_10 cb      c)
     1.10702332E-05    3     1000022        -3         3   # BR(~chi_30 -> ~chi_10 sb      s)
     1.72816181E-05    3     1000022        -5         5   # BR(~chi_30 -> ~chi_10 bb      b)
     1.92654079E-06    3     1000022       -11        11   # BR(~chi_30 -> ~chi_10 e+      e-)
     1.92654079E-06    3     1000022       -13        13   # BR(~chi_30 -> ~chi_10 mu+     mu-)
     2.88872482E-06    3     1000022       -15        15   # BR(~chi_30 -> ~chi_10 tau+    tau-)
     5.42193238E-06    3     1000022       -12        12   # BR(~chi_30 -> ~chi_10 nu_eb   nu_e)
     5.42193238E-06    3     1000022       -14        14   # BR(~chi_30 -> ~chi_10 nu_mub  nu_mu)
     5.42193238E-06    3     1000022       -16        16   # BR(~chi_30 -> ~chi_10 nu_taub nu_tau)
     2.51623773E-02    3     1000023        -2         2   # BR(~chi_30 -> ~chi_20 ub      u)
     3.25797121E-02    3     1000023        -1         1   # BR(~chi_30 -> ~chi_20 db      d)
     2.51623773E-02    3     1000023        -4         4   # BR(~chi_30 -> ~chi_20 cb      c)
     3.25797121E-02    3     1000023        -3         3   # BR(~chi_30 -> ~chi_20 sb      s)
     2.84669554E-02    3     1000023        -5         5   # BR(~chi_30 -> ~chi_20 bb      b)
     7.43983391E-03    3     1000023       -11        11   # BR(~chi_30 -> ~chi_20 e+      e-)
     7.43983391E-03    3     1000023       -13        13   # BR(~chi_30 -> ~chi_20 mu+     mu-)
     7.34019889E-03    3     1000023       -15        15   # BR(~chi_30 -> ~chi_20 tau+    tau-)
     1.48571129E-02    3     1000023       -12        12   # BR(~chi_30 -> ~chi_20 nu_eb   nu_e)
     1.48571129E-02    3     1000023       -14        14   # BR(~chi_30 -> ~chi_20 nu_mub  nu_mu)
     1.48571129E-02    3     1000023       -16        16   # BR(~chi_30 -> ~chi_20 nu_taub nu_tau)
     1.30322161E-01    3     1000024        -2         1   # BR(~chi_30 -> ~chi_1+ ub      d)
     1.30322161E-01    3    -1000024        -1         2   # BR(~chi_30 -> ~chi_1- db      u)
     1.30322161E-01    3     1000024        -4         3   # BR(~chi_30 -> ~chi_1+ cb      s)
     1.30322161E-01    3    -1000024        -3         4   # BR(~chi_30 -> ~chi_1- sb      c)
     4.34406549E-02    3     1000024       -12        11   # BR(~chi_30 -> ~chi_1+ nu_eb   e-)
     4.34406549E-02    3    -1000024        12       -11   # BR(~chi_30 -> ~chi_1- nu_e    e+)
     4.34406549E-02    3     1000024       -14        13   # BR(~chi_30 -> ~chi_1+ nu_mub  mu-)
     4.34406549E-02    3    -1000024        14       -13   # BR(~chi_30 -> ~chi_1- nu_mu   mu+)
     4.30691393E-02    3     1000024       -16        15   # BR(~chi_30 -> ~chi_1+ nu_taub tau-)
     4.30691393E-02    3    -1000024        16       -15   # BR(~chi_30 -> ~chi_1- nu_tau  tau+)
#
#         PDG            Width
DECAY   1000035     3.73869569E+01   # neutralino4 decays
#          BR         NDA      ID1       ID2
     1.03808038E-03    2     1000022        23   # BR(~chi_40 -> ~chi_10   Z )
     2.49972171E-01    2     1000023        23   # BR(~chi_40 -> ~chi_20   Z )
     1.18934870E-03    2     1000025        23   # BR(~chi_40 -> ~chi_30   Z )
     2.45542647E-01    2     1000024       -24   # BR(~chi_40 -> ~chi_1+   W-)
     2.45542647E-01    2    -1000024        24   # BR(~chi_40 -> ~chi_1-   W+)
     1.16393770E-01    2     1000022        25   # BR(~chi_40 -> ~chi_10   h )
     7.41087905E-04    2     1000022        35   # BR(~chi_40 -> ~chi_10   H )
     3.06763945E-04    2     1000022        36   # BR(~chi_40 -> ~chi_10   A )
     2.19784987E-03    2     1000023        25   # BR(~chi_40 -> ~chi_20   h )
     1.40203865E-05    2     1000023        35   # BR(~chi_40 -> ~chi_20   H )
     6.35404053E-04    2     1000023        36   # BR(~chi_40 -> ~chi_20   A )
     1.34949350E-01    2     1000025        25   # BR(~chi_40 -> ~chi_30   h )
     7.33827381E-04    2     1000024       -37   # BR(~chi_40 -> ~chi_1+   H-)
     7.33827381E-04    2    -1000024        37   # BR(~chi_40 -> ~chi_1-   H+)
     2.20846146E-06    2     1000039        22   # BR(~chi_40 -> ~G        gam)
     6.99410606E-06    2     1000039        23   # BR(~chi_40 -> ~G        Z)
     5.61670461E-10    2     1000039        25   # BR(~chi_40 -> ~G        h)
     7.70929335E-10    2     1000039        35   # BR(~chi_40 -> ~G        H)
     8.99796393E-12    2     1000039        36   # BR(~chi_40 -> ~G        A)
#
#         PDG            Width
DECAY        25     4.21859280E-03   # h decays
#          BR         NDA      ID1       ID2
     6.01884822E-01    2           5        -5   # BR(h -> b       bb     )
     6.22356125E-02    2         -15        15   # BR(h -> tau+    tau-   )
     2.20286935E-04    2         -13        13   # BR(h -> mu+     mu-    )
     4.66084529E-04    2           3        -3   # BR(h -> s       sb     )
     2.01076827E-02    2           4        -4   # BR(h -> c       cb     )
     6.64042774E-02    2          21        21   # BR(h -> g       g      )
     2.30768238E-03    2          22        22   # BR(h -> gam     gam    )
     1.62651818E-03    2          22        23   # BR(h -> Z       gam    )
     2.16667641E-01    2          24       -24   # BR(h -> W+      W-     )
     2.80793930E-02    2          23        23   # BR(h -> Z       Z      )
#
#         PDG            Width
DECAY        35     3.78116967E+01   # H decays
#          BR         NDA      ID1       ID2
     1.47167956E-03    2           5        -5   # BR(H -> b       bb     )
     2.46426000E-04    2         -15        15   # BR(H -> tau+    tau-   )
     8.71207655E-07    2         -13        13   # BR(H -> mu+     mu-    )
     1.11545829E-06    2           3        -3   # BR(H -> s       sb     )
     1.00667671E-05    2           4        -4   # BR(H -> c       cb     )
     9.96062105E-01    2           6        -6   # BR(H -> t       tb     )
     7.97745746E-04    2          21        21   # BR(H -> g       g      )
     2.70806253E-06    2          22        22   # BR(H -> gam     gam    )
     1.15985028E-06    2          23        22   # BR(H -> Z       gam    )
     3.35132493E-04    2          24       -24   # BR(H -> W+      W-     )
     1.67109217E-04    2          23        23   # BR(H -> Z       Z      )
     9.03880411E-04    2          25        25   # BR(H -> h       h      )
     8.11097457E-24    2          36        36   # BR(H -> A       A      )
     3.24503161E-11    2          23        36   # BR(H -> Z       A      )
     7.13221157E-12    2          24       -37   # BR(H -> W+      H-     )
     7.13221157E-12    2         -24        37   # BR(H -> W-      H+     )
#
#         PDG            Width
DECAY        36     3.82382746E+01   # A decays
#          BR         NDA      ID1       ID2
     1.47458758E-03    2           5        -5   # BR(A -> b       bb     )
     2.43897417E-04    2         -15        15   # BR(A -> tau+    tau-   )
     8.62265475E-07    2         -13        13   # BR(A -> mu+     mu-    )
     1.13677254E-06    2           3        -3   # BR(A -> s       sb     )
     9.96175243E-06    2           4        -4   # BR(A -> c       cb     )
     9.96994751E-01    2           6        -6   # BR(A -> t       tb     )
     9.43674473E-04    2          21        21   # BR(A -> g       g      )
     3.21132863E-06    2          22        22   # BR(A -> gam     gam    )
     1.35242996E-06    2          23        22   # BR(A -> Z       gam    )
     3.26564875E-04    2          23        25   # BR(A -> Z       h      )
#
#         PDG            Width
DECAY        37     3.74481647E+01   # H+ decays
#          BR         NDA      ID1       ID2
     2.36558779E-06    2           4        -5   # BR(H+ -> c       bb     )
     2.49237609E-04    2         -15        16   # BR(H+ -> tau+    nu_tau )
     8.81144982E-07    2         -13        14   # BR(H+ -> mu+     nu_mu  )
     1.50398759E-08    2           2        -5   # BR(H+ -> u       bb     )
     5.45692477E-08    2           2        -3   # BR(H+ -> u       sb     )
     1.08731294E-05    2           4        -3   # BR(H+ -> c       sb     )
     9.99401863E-01    2           6        -5   # BR(H+ -> t       bb     )
     3.34709749E-04    2          24        25   # BR(H+ -> W+      h      )
     3.24483780E-13    2          24        36   # BR(H+ -> W+      A      )
