#
#                              ======================
#                              | THE SUSYHIT OUTPUT |
#                              ======================
#
#
#              ------------------------------------------------------
#              |     This is the output of the SUSY-HIT package     |
#              |  created by A.Djouadi, M.Muehlleitner and M.Spira. |
#              |  In case of problems with SUSY-HIT email to        |
#              |           margarete.muehlleitner@cern.ch           |
#              |           michael.spira@psi.ch                     |
#              |           abdelhak.djouadi@cern.ch                 |
#              ------------------------------------------------------
#
#              ------------------------------------------------------
#              |  SUSY Les Houches Accord - MSSM Spectrum + Decays  |
#              |              based on the decay programs           |
#              |                                                    |
#              |                     SDECAY 1.3b                    |
#              |                                                    |
#              |  Authors: M.Muhlleitner, A.Djouadi and Y.Mambrini  |
#              |  Ref.:    Comput.Phys.Commun.168(2005)46           |
#              |           [hep-ph/0311167]                         |
#              |                                                    |
#              |                     HDECAY 3.4                     |
#              |                                                    |
#              |  By: A.Djouadi,J.Kalinowski,M.Muhlleitner,M.Spira  |
#              |  Ref.:    Comput.Phys.Commun.108(1998)56           |
#              |           [hep-ph/9704448]                         |
#              |                                                    |
#              |                                                    |
#              |  If not stated otherwise all DRbar couplings and   |
#              |  soft SUSY breaking masses are given at the scale  |
#              |  Q=  0.50007006E+04
#              |                                                    |
#              ------------------------------------------------------
#
#
BLOCK DCINFO  # Decay Program information
     1   SDECAY/HDECAY # decay calculator
     2   1.3b  /3.4    # version number
#
BLOCK SPINFO  # Spectrum calculator information
     1    SOFTSUSY    # spectrum calculator                
     2    3.4.0       # version number                     
#
BLOCK MODSEL  # Model selection
     1     0   #  nonUniversal                                     
#
BLOCK SMINPUTS  # Standard Model inputs
         1     1.25778332E+02   # alpha_em^-1(M_Z)^MSbar
         2     1.16570000E-05   # G_F [GeV^-2]
         3     1.17200002E-01   # alpha_S(M_Z)^MSbar
         4     9.11876000E+01   # M_Z pole mass
         5     4.25000000E+00   # mb(mb)^MSbar
         6     1.72500000E+02   # mt pole mass
         7     1.77682000E+00   # mtau pole mass
#
BLOCK MINPAR  # Input parameters - minimal models
         3     1.00000000E+01   # tanb                
#
BLOCK EXTPAR  # Input parameters - non-minimal models
         0    -1.00000000E+00   # Set                 
         1     6.00000000E+01   # M_1(MX)             
         2     3.00000000E+03   # M_2(MX)             
         3     2.13914400E+03   # M_3(MX)             
        11     5.00000000E+03   # At(MX)              
        12     5.00000000E+03   # Ab(MX)              
        13     0.00000000E+00   # Atau(MX)            
        23    -1.93692300E+03   # mu(MX)              
        26     3.00000000E+03   # mA(pole)            
        31     5.00000000E+03   # meL(MX)             
        32     5.00000000E+03   # mmuL(MX)            
        33     5.00000000E+03   # mtauL(MX)           
        34     5.00000000E+03   # meR(MX)             
        35     5.00000000E+03   # mmuR(MX)            
        36     5.00000000E+03   # mtauR(MX)           
        41     5.00000000E+03   # mqL1(MX)            
        42     5.00000000E+03   # mqL2(MX)            
        43     5.00000000E+03   # mqL3(MX)            
        44     5.00000000E+03   # muR(MX)             
        45     5.00000000E+03   # mcR(MX)             
        46     5.00000000E+03   # mtR(MX)             
        47     5.00000000E+03   # mdR(MX)             
        48     5.00000000E+03   # msR(MX)             
        49     5.00000000E+03   # mbR(MX)             
#
BLOCK MASS  # Mass Spectrum
# PDG code           mass       particle
        24     8.00977565E+01   # W+
        25     1.24828101E+02   # h
        35     3.00007620E+03   # H
        36     2.99999995E+03   # A
        37     3.00087254E+03   # H+
         5     4.87878001E+00   # b-quark pole mass calculated from mb(mb)_Msbar
   1000001     5.07988645E+03   # ~d_L
   2000001     5.06215695E+03   # ~d_R
   1000002     5.07941519E+03   # ~u_L
   2000002     5.06188927E+03   # ~u_R
   1000003     5.07988645E+03   # ~s_L
   2000003     5.06215695E+03   # ~s_R
   1000004     5.07941519E+03   # ~c_L
   2000004     5.06188927E+03   # ~c_R
   1000005     5.02660101E+03   # ~b_1
   2000005     5.06138269E+03   # ~b_2
   1000006     4.91964739E+03   # ~t_1
   2000006     5.07306649E+03   # ~t_2
   1000011     5.01903124E+03   # ~e_L
   2000011     5.00590189E+03   # ~e_R
   1000012     5.01808358E+03   # ~nu_eL
   1000013     5.01903124E+03   # ~mu_L
   2000013     5.00590189E+03   # ~mu_R
   1000014     5.01808358E+03   # ~nu_muL
   1000015     5.00405776E+03   # ~tau_1
   2000015     5.01933048E+03   # ~tau_2
   1000016     5.01755539E+03   # ~nu_tauL
   1000021     2.50000073E+03   # ~g
   1000022     6.02993398E+01   # ~chi_10
   1000023     1.99938304E+03   # ~chi_20
   1000025    -2.00239716E+03   # ~chi_30
   1000035     3.07449470E+03   # ~chi_40
   1000024     2.00000066E+03   # ~chi_1+
   1000037     3.07466258E+03   # ~chi_2+
#
BLOCK NMIX  # Neutralino Mixing Matrix
  1  1     9.99749443E-01   # N_11
  1  2     1.11641473E-04   # N_12
  1  3    -2.23212356E-02   # N_13
  1  4     1.67380965E-03   # N_14
  2  1     1.45912117E-02   # N_21
  2  2     4.52817731E-02   # N_22
  2  3     7.06689841E-01   # N_23
  2  4     7.05922181E-01   # N_24
  3  1    -1.69653436E-02   # N_31
  3  2     1.19412332E-02   # N_32
  3  3    -7.06777927E-01   # N_33
  3  4     7.07131209E-01   # N_34
  4  1    -5.70368076E-04   # N_41
  4  2     9.98902876E-01   # N_42
  4  3    -2.35837513E-02   # N_43
  4  4    -4.04539966E-02   # N_44
#
BLOCK UMIX  # Chargino Mixing Matrix U
  1  1     3.32826332E-02   # U_11
  1  2     9.99445980E-01   # U_12
  2  1    -9.99445980E-01   # U_21
  2  2     3.32826332E-02   # U_22
#
BLOCK VMIX  # Chargino Mixing Matrix V
  1  1     5.71418794E-02   # V_11
  1  2    -9.98366068E-01   # V_12
  2  1    -9.98366068E-01   # V_21
  2  2    -5.71418794E-02   # V_22
#
BLOCK STOPMIX  # Stop Mixing Matrix
  1  1    -5.14705819E-01   # cos(theta_t)
  1  2     8.57366853E-01   # sin(theta_t)
  2  1    -8.57366853E-01   # -sin(theta_t)
  2  2    -5.14705819E-01   # cos(theta_t)
#
BLOCK SBOTMIX  # Sbottom Mixing Matrix
  1  1     9.90703072E-01   # cos(theta_b)
  1  2    -1.36041990E-01   # sin(theta_b)
  2  1     1.36041990E-01   # -sin(theta_b)
  2  2     9.90703072E-01   # cos(theta_b)
#
BLOCK STAUMIX  # Stau Mixing Matrix
  1  1    -2.18678989E-01   # cos(theta_tau)
  1  2     9.75796854E-01   # sin(theta_tau)
  2  1    -9.75796854E-01   # -sin(theta_tau)
  2  2    -2.18678989E-01   # cos(theta_tau)
#
BLOCK ALPHA  # Higgs mixing
          -1.05462645E-01   # Mixing angle in the neutral Higgs boson sector
#
BLOCK HMIX Q=  5.00070064E+03  # DRbar Higgs Parameters
         1    -1.97263069E+03   # mu(Q)MSSM           
         2     9.47019175E+00   # tan                 
         3     2.42057198E+02   # higgs               
         4     8.33098319E+06   # mA^2(Q)MSSM         
#
BLOCK GAUGE Q=  5.00070064E+03  # The gauge couplings
     1     3.70624635E-01   # gprime(Q) DRbar
     2     6.31733801E-01   # g(Q) DRbar
     3     9.95201418E-01   # g3(Q) DRbar
#
BLOCK AU Q=  5.00070064E+03  # The trilinear couplings
  1  1     5.00000002E+03   # A_u(Q) DRbar
  2  2     5.00000002E+03   # A_c(Q) DRbar
  3  3     5.00000002E+03   # A_t(Q) DRbar
#
BLOCK AD Q=  5.00070064E+03  # The trilinear couplings
  1  1     5.00000001E+03   # A_d(Q) DRbar
  2  2     5.00000001E+03   # A_s(Q) DRbar
  3  3     5.00000001E+03   # A_b(Q) DRbar
#
BLOCK AE Q=  5.00070064E+03  # The trilinear couplings
  1  1     0.00000000E+00   # A_e(Q) DRbar
  2  2     2.56380036E-07   # A_mu(Q) DRbar
  3  3     2.56322219E-07   # A_tau(Q) DRbar
#
BLOCK Yu Q=  5.00070064E+03  # The Yukawa couplings
  1  1     0.00000000E+00   # y_u(Q) DRbar
  2  2     0.00000000E+00   # y_c(Q) DRbar
  3  3     8.20489953E-01   # y_t(Q) DRbar
#
BLOCK Yd Q=  5.00070064E+03  # The Yukawa couplings
  1  1     0.00000000E+00   # y_d(Q) DRbar
  2  2     0.00000000E+00   # y_s(Q) DRbar
  3  3     1.32490587E-01   # y_b(Q) DRbar
#
BLOCK Ye Q=  5.00070064E+03  # The Yukawa couplings
  1  1     0.00000000E+00   # y_e(Q) DRbar
  2  2     0.00000000E+00   # y_mu(Q) DRbar
  3  3     9.64507708E-02   # y_tau(Q) DRbar
#
BLOCK MSOFT Q=  5.00070064E+03  # The soft SUSY breaking masses at the scale Q
         1     6.00000000E+01   # M_1(Q)              
         2     3.00000000E+03   # M_2(Q)              
         3     2.13914400E+03   # M_3(Q)              
        21     4.75192414E+06   # mH1^2(Q)            
        22    -3.35865170E+06   # mH2^2(Q)            
        31     5.00000000E+03   # meL(Q)              
        32     5.00000000E+03   # mmuL(Q)             
        33     5.00000000E+03   # mtauL(Q)            
        34     5.00000000E+03   # meR(Q)              
        35     5.00000000E+03   # mmuR(Q)             
        36     5.00000000E+03   # mtauR(Q)            
        41     4.99999999E+03   # mqL1(Q)             
        42     4.99999999E+03   # mqL2(Q)             
        43     4.99999999E+03   # mqL3(Q)             
        44     4.99999999E+03   # muR(Q)              
        45     4.99999999E+03   # mcR(Q)              
        46     4.99999999E+03   # mtR(Q)              
        47     4.99999999E+03   # mdR(Q)              
        48     4.99999999E+03   # msR(Q)              
        49     4.99999999E+03   # mbR(Q)              
#
#
#
#                             =================
#                             |The decay table|
#                             =================
#
# - The QCD corrections to the decays gluino -> squark  + quark
#                                     squark -> gaugino + quark_prime
#                                     squark -> squark_prime + Higgs
#                                     squark -> gluino  + quark
#   are included.
#
# - The multi-body decays for the inos, stops and sbottoms are included.
#
# - The loop induced decays for the gluino, neutralinos and stops
#   are included.
#
# - The SUSY decays of the top quark are included.
#
#
#         PDG            Width
DECAY         6     1.39841817E+00   # top decays
#          BR         NDA      ID1       ID2
     1.00000000E+00    2           5        24   # BR(t ->  b    W+)
#
#         PDG            Width
DECAY   1000021     1.02263704E-03   # gluino decays
#          BR         NDA      ID1       ID2
     6.41950816E-06    2     1000022        21   # BR(~g -> ~chi_10 g)
     1.71252597E-03    2     1000023        21   # BR(~g -> ~chi_20 g)
     1.72012137E-03    2     1000025        21   # BR(~g -> ~chi_30 g)
#           BR         NDA      ID1       ID2       ID3
     7.40267612E-02    3     1000022         1        -1   # BR(~g -> ~chi_10 d  db)
     3.77839294E-06    3     1000023         1        -1   # BR(~g -> ~chi_20 d  db)
     1.89230547E-07    3     1000025         1        -1   # BR(~g -> ~chi_30 d  db)
     2.52378753E-01    3     1000022         2        -2   # BR(~g -> ~chi_10 u  ub)
     5.05077476E-06    3     1000023         2        -2   # BR(~g -> ~chi_20 u  ub)
     1.72894666E-07    3     1000025         2        -2   # BR(~g -> ~chi_30 u  ub)
     7.40267612E-02    3     1000022         3        -3   # BR(~g -> ~chi_10 s  sb)
     3.77839294E-06    3     1000023         3        -3   # BR(~g -> ~chi_20 s  sb)
     1.89230547E-07    3     1000025         3        -3   # BR(~g -> ~chi_30 s  sb)
     2.52378753E-01    3     1000022         4        -4   # BR(~g -> ~chi_10 c  cb)
     5.05077476E-06    3     1000023         4        -4   # BR(~g -> ~chi_20 c  cb)
     1.72894666E-07    3     1000025         4        -4   # BR(~g -> ~chi_30 c  cb)
     7.48965903E-02    3     1000022         5        -5   # BR(~g -> ~chi_10 b  bb)
     1.93815854E-04    3     1000023         5        -5   # BR(~g -> ~chi_20 b  bb)
     1.83088855E-04    3     1000025         5        -5   # BR(~g -> ~chi_30 b  bb)
     2.56369474E-01    3     1000022         6        -6   # BR(~g -> ~chi_10 t  tb)
     2.39669744E-03    3     1000023         6        -6   # BR(~g -> ~chi_20 t  tb)
     1.16122733E-03    3     1000025         6        -6   # BR(~g -> ~chi_30 t  tb)
     8.57973863E-06    3     1000024         1        -2   # BR(~g -> ~chi_1+ d  ub)
     8.57973863E-06    3    -1000024         2        -1   # BR(~g -> ~chi_1- u  db)
     8.57973863E-06    3     1000024         3        -4   # BR(~g -> ~chi_1+ s  cb)
     8.57973863E-06    3    -1000024         4        -3   # BR(~g -> ~chi_1- c  sb)
     4.24815411E-03    3     1000024         5        -6   # BR(~g -> ~chi_1+ b  tb)
     4.24815411E-03    3    -1000024         6        -5   # BR(~g -> ~chi_1- t  bb)
#
#         PDG            Width
DECAY   1000006     2.68295312E+02   # stop1 decays
#          BR         NDA      ID1       ID2
     3.27199852E-02    2     1000022         6   # BR(~t_1 -> ~chi_10 t )
     8.52360215E-02    2     1000023         6   # BR(~t_1 -> ~chi_20 t )
     8.18025021E-02    2     1000025         6   # BR(~t_1 -> ~chi_30 t )
     8.58542429E-03    2     1000035         6   # BR(~t_1 -> ~chi_40 t )
     1.21841008E-01    2     1000024         5   # BR(~t_1 -> ~chi_1+ b )
     1.70089054E-02    2     1000037         5   # BR(~t_1 -> ~chi_2+ b )
     6.52806154E-01    2     1000021         6   # BR(~t_1 -> ~g      t )
#
#         PDG            Width
DECAY   2000006     2.85983732E+02   # stop2 decays
#          BR         NDA      ID1       ID2
     1.24171117E-02    2     1000022         6   # BR(~t_2 -> ~chi_10 t )
     8.44663758E-02    2     1000023         6   # BR(~t_2 -> ~chi_20 t )
     8.80522191E-02    2     1000025         6   # BR(~t_2 -> ~chi_30 t )
     1.88563535E-02    2     1000035         6   # BR(~t_2 -> ~chi_40 t )
     5.31590508E-02    2     1000024         5   # BR(~t_2 -> ~chi_1+ b )
     3.72645158E-02    2     1000037         5   # BR(~t_2 -> ~chi_2+ b )
     7.01350681E-01    2     1000021         6   # BR(~t_2 -> ~g      t )
     9.53174199E-04    2     1000006        25   # BR(~t_2 -> ~t_1    h )
     3.48051793E-03    2     1000006        23   # BR(~t_2 -> ~t_1    Z )
#
#         PDG            Width
DECAY   1000005     2.62591483E+02   # sbottom1 decays
#          BR         NDA      ID1       ID2
     3.02859620E-03    2     1000022         5   # BR(~b_1 -> ~chi_10 b )
     2.56872810E-03    2     1000023         5   # BR(~b_1 -> ~chi_20 b )
     2.31339309E-03    2     1000025         5   # BR(~b_1 -> ~chi_30 b )
     2.83557003E-02    2     1000035         5   # BR(~b_1 -> ~chi_40 b )
     1.77611130E-01    2    -1000024         6   # BR(~b_1 -> ~chi_1- t )
     5.73380533E-02    2    -1000037         6   # BR(~b_1 -> ~chi_2- t )
     7.26827202E-01    2     1000021         5   # BR(~b_1 -> ~g      b )
     1.95719723E-03    2     1000006       -24   # BR(~b_1 -> ~t_1    W-)
#
#         PDG            Width
DECAY   2000005     2.00496353E+02   # sbottom2 decays
#          BR         NDA      ID1       ID2
     1.44944894E-02    2     1000022         5   # BR(~b_2 -> ~chi_10 b )
     3.00052331E-03    2     1000023         5   # BR(~b_2 -> ~chi_20 b )
     3.22527276E-03    2     1000025         5   # BR(~b_2 -> ~chi_30 b )
     7.61376985E-04    2     1000035         5   # BR(~b_2 -> ~chi_40 b )
     1.04329254E-02    2    -1000024         6   # BR(~b_2 -> ~chi_1- t )
     1.53756236E-03    2    -1000037         6   # BR(~b_2 -> ~chi_2- t )
     9.66333168E-01    2     1000021         5   # BR(~b_2 -> ~g      b )
     2.14681992E-04    2     1000006       -24   # BR(~b_2 -> ~t_1    W-)
#
#         PDG            Width
DECAY   1000002     2.19646426E+02   # sup_L decays
#          BR         NDA      ID1       ID2
     3.39069983E-03    2     1000022         2   # BR(~u_L -> ~chi_10 u)
     1.47255679E-04    2     1000023         2   # BR(~u_L -> ~chi_20 u)
     4.72101374E-06    2     1000025         2   # BR(~u_L -> ~chi_30 u)
     3.57872656E-02    2     1000035         2   # BR(~u_L -> ~chi_40 u)
     4.14941882E-04    2     1000024         1   # BR(~u_L -> ~chi_1+ d)
     7.15046386E-02    2     1000037         1   # BR(~u_L -> ~chi_2+ d)
     8.88750477E-01    2     1000021         2   # BR(~u_L -> ~g      u)
#
#         PDG            Width
DECAY   2000002     2.05540360E+02   # sup_R decays
#          BR         NDA      ID1       ID2
     5.77046321E-02    2     1000022         2   # BR(~u_R -> ~chi_10 u)
     8.79463632E-06    2     1000023         2   # BR(~u_R -> ~chi_20 u)
     1.18762334E-05    2     1000025         2   # BR(~u_R -> ~chi_30 u)
     7.54439346E-09    2     1000035         2   # BR(~u_R -> ~chi_40 u)
     9.42274689E-01    2     1000021         2   # BR(~u_R -> ~g      u)
#
#         PDG            Width
DECAY   1000001     2.19665582E+02   # sdown_L decays
#          BR         NDA      ID1       ID2
     3.38298877E-03    2     1000022         1   # BR(~d_L -> ~chi_10 d)
     1.14416858E-04    2     1000023         1   # BR(~d_L -> ~chi_20 d)
     1.47825996E-05    2     1000025         1   # BR(~d_L -> ~chi_30 d)
     3.58110870E-02    2     1000035         1   # BR(~d_L -> ~chi_40 d)
     1.40781575E-04    2    -1000024         2   # BR(~d_L -> ~chi_1- u)
     7.16750931E-02    2    -1000037         2   # BR(~d_L -> ~chi_2- u)
     8.88860850E-01    2     1000021         1   # BR(~d_L -> ~g      d)
#
#         PDG            Width
DECAY   2000001     1.96665318E+02   # sdown_R decays
#          BR         NDA      ID1       ID2
     1.50779892E-02    2     1000022         1   # BR(~d_R -> ~chi_10 d)
     2.29809150E-06    2     1000023         1   # BR(~d_R -> ~chi_20 d)
     3.10333183E-06    2     1000025         1   # BR(~d_R -> ~chi_30 d)
     1.97155998E-09    2     1000035         1   # BR(~d_R -> ~chi_40 d)
     9.84916607E-01    2     1000021         1   # BR(~d_R -> ~g      d)
#
#         PDG            Width
DECAY   1000004     2.19646426E+02   # scharm_L decays
#          BR         NDA      ID1       ID2
     3.39069983E-03    2     1000022         4   # BR(~c_L -> ~chi_10 c)
     1.47255679E-04    2     1000023         4   # BR(~c_L -> ~chi_20 c)
     4.72101374E-06    2     1000025         4   # BR(~c_L -> ~chi_30 c)
     3.57872656E-02    2     1000035         4   # BR(~c_L -> ~chi_40 c)
     4.14941882E-04    2     1000024         3   # BR(~c_L -> ~chi_1+ s)
     7.15046386E-02    2     1000037         3   # BR(~c_L -> ~chi_2+ s)
     8.88750477E-01    2     1000021         4   # BR(~c_L -> ~g      c)
#
#         PDG            Width
DECAY   2000004     2.05540360E+02   # scharm_R decays
#          BR         NDA      ID1       ID2
     5.77046321E-02    2     1000022         4   # BR(~c_R -> ~chi_10 c)
     8.79463632E-06    2     1000023         4   # BR(~c_R -> ~chi_20 c)
     1.18762334E-05    2     1000025         4   # BR(~c_R -> ~chi_30 c)
     7.54439346E-09    2     1000035         4   # BR(~c_R -> ~chi_40 c)
     9.42274689E-01    2     1000021         4   # BR(~c_R -> ~g      c)
#
#         PDG            Width
DECAY   1000003     2.19665582E+02   # sstrange_L decays
#          BR         NDA      ID1       ID2
     3.38298877E-03    2     1000022         3   # BR(~s_L -> ~chi_10 s)
     1.14416858E-04    2     1000023         3   # BR(~s_L -> ~chi_20 s)
     1.47825996E-05    2     1000025         3   # BR(~s_L -> ~chi_30 s)
     3.58110870E-02    2     1000035         3   # BR(~s_L -> ~chi_40 s)
     1.40781575E-04    2    -1000024         4   # BR(~s_L -> ~chi_1- c)
     7.16750931E-02    2    -1000037         4   # BR(~s_L -> ~chi_2- c)
     8.88860850E-01    2     1000021         3   # BR(~s_L -> ~g      s)
#
#         PDG            Width
DECAY   2000003     1.96665318E+02   # sstrange_R decays
#          BR         NDA      ID1       ID2
     1.50779892E-02    2     1000022         3   # BR(~s_R -> ~chi_10 s)
     2.29809150E-06    2     1000023         3   # BR(~s_R -> ~chi_20 s)
     3.10333183E-06    2     1000025         3   # BR(~s_R -> ~chi_30 s)
     1.97155998E-09    2     1000035         3   # BR(~s_R -> ~chi_40 s)
     9.84916607E-01    2     1000021         3   # BR(~s_R -> ~g      s)
#
#         PDG            Width
DECAY   1000011     3.02169401E+01   # selectron_L decays
#          BR         NDA      ID1       ID2
     2.26861293E-01    2     1000022        11   # BR(~e_L -> ~chi_10 e-)
     1.35298584E-03    2     1000023        11   # BR(~e_L -> ~chi_20 e-)
     1.84247115E-06    2     1000025        11   # BR(~e_L -> ~chi_30 e-)
     2.56638288E-01    2     1000035        11   # BR(~e_L -> ~chi_40 e-)
     1.03374401E-03    2    -1000024        12   # BR(~e_L -> ~chi_1- nu_e)
     5.14111846E-01    2    -1000037        12   # BR(~e_L -> ~chi_2- nu_e)
#
#         PDG            Width
DECAY   2000011     2.73477125E+01   # selectron_R decays
#          BR         NDA      ID1       ID2
     9.99646239E-01    2     1000022        11   # BR(~e_R -> ~chi_10 e-)
     1.50460634E-04    2     1000023        11   # BR(~e_R -> ~chi_20 e-)
     2.03173897E-04    2     1000025        11   # BR(~e_R -> ~chi_30 e-)
     1.26236272E-07    2     1000035        11   # BR(~e_R -> ~chi_40 e-)
#
#         PDG            Width
DECAY   1000013     3.02169401E+01   # smuon_L decays
#          BR         NDA      ID1       ID2
     2.26861293E-01    2     1000022        13   # BR(~mu_L -> ~chi_10 mu-)
     1.35298584E-03    2     1000023        13   # BR(~mu_L -> ~chi_20 mu-)
     1.84247115E-06    2     1000025        13   # BR(~mu_L -> ~chi_30 mu-)
     2.56638288E-01    2     1000035        13   # BR(~mu_L -> ~chi_40 mu-)
     1.03374401E-03    2    -1000024        14   # BR(~mu_L -> ~chi_1- nu_mu)
     5.14111846E-01    2    -1000037        14   # BR(~mu_L -> ~chi_2- nu_mu)
#
#         PDG            Width
DECAY   2000013     2.73477125E+01   # smuon_R decays
#          BR         NDA      ID1       ID2
     9.99646239E-01    2     1000022        13   # BR(~mu_R -> ~chi_10 mu-)
     1.50460634E-04    2     1000023        13   # BR(~mu_R -> ~chi_20 mu-)
     2.03173897E-04    2     1000025        13   # BR(~mu_R -> ~chi_30 mu-)
     1.26236272E-07    2     1000035        13   # BR(~mu_R -> ~chi_40 mu-)
#
#         PDG            Width
DECAY   1000015     2.87871119E+01   # stau_1 decays
#          BR         NDA      ID1       ID2
     9.16115457E-01    2     1000022        15   # BR(~tau_1 -> ~chi_10  tau-)
     1.27160309E-02    2     1000023        15   # BR(~tau_1 -> ~chi_20  tau-)
     1.08250344E-02    2     1000025        15   # BR(~tau_1 -> ~chi_30  tau-)
     1.21777060E-02    2     1000035        15   # BR(~tau_1 -> ~chi_40  tau-)
     2.37674060E-02    2    -1000024        16   # BR(~tau_1 -> ~chi_1-  nu_tau)
     2.43983658E-02    2    -1000037        16   # BR(~tau_1 -> ~chi_2-  nu_tau)
#
#         PDG            Width
DECAY   2000015     3.07285739E+01   # stau_2 decays
#          BR         NDA      ID1       ID2
     2.54321655E-01    2     1000022        15   # BR(~tau_2 -> ~chi_10  tau-)
     1.08631695E-02    2     1000023        15   # BR(~tau_2 -> ~chi_20  tau-)
     1.13427676E-02    2     1000025        15   # BR(~tau_2 -> ~chi_30  tau-)
     2.40900112E-01    2     1000035        15   # BR(~tau_2 -> ~chi_40  tau-)
     7.29430139E-07    2    -1000024        16   # BR(~tau_2 -> ~chi_1-  nu_tau)
     4.82571566E-01    2    -1000037        16   # BR(~tau_2 -> ~chi_2-  nu_tau)
#
#         PDG            Width
DECAY   1000012     3.02179549E+01   # snu_eL decays
#          BR         NDA      ID1       ID2
     2.26638197E-01    2     1000022        12   # BR(~nu_eL -> ~chi_10 nu_e)
     6.29114099E-04    2     1000023        12   # BR(~nu_eL -> ~chi_20 nu_e)
     2.23389731E-04    2     1000025        12   # BR(~nu_eL -> ~chi_30 nu_e)
     2.56808690E-01    2     1000035        12   # BR(~nu_eL -> ~chi_40 nu_e)
     3.04598783E-03    2     1000024        11   # BR(~nu_eL -> ~chi_1+ e-)
     5.12654622E-01    2     1000037        11   # BR(~nu_eL -> ~chi_2+ e-)
#
#         PDG            Width
DECAY   1000014     3.02179549E+01   # snu_muL decays
#          BR         NDA      ID1       ID2
     2.26638197E-01    2     1000022        14   # BR(~nu_muL -> ~chi_10 nu_mu)
     6.29114099E-04    2     1000023        14   # BR(~nu_muL -> ~chi_20 nu_mu)
     2.23389731E-04    2     1000025        14   # BR(~nu_muL -> ~chi_30 nu_mu)
     2.56808690E-01    2     1000035        14   # BR(~nu_muL -> ~chi_40 nu_mu)
     3.04598783E-03    2     1000024        13   # BR(~nu_muL -> ~chi_1+ mu-)
     5.12654622E-01    2     1000037        13   # BR(~nu_muL -> ~chi_2+ mu-)
#
#         PDG            Width
DECAY   1000016     3.08655715E+01   # snu_tauL decays
#          BR         NDA      ID1       ID2
     2.21859541E-01    2     1000022        16   # BR(~nu_tauL -> ~chi_10 nu_tau)
     6.15800359E-04    2     1000023        16   # BR(~nu_tauL -> ~chi_20 nu_tau)
     2.18662143E-04    2     1000025        16   # BR(~nu_tauL -> ~chi_30 nu_tau)
     2.51330290E-01    2     1000035        16   # BR(~nu_tauL -> ~chi_40 nu_tau)
     2.42482420E-02    2     1000024        15   # BR(~nu_tauL -> ~chi_1+ tau-)
     5.01727464E-01    2     1000037        15   # BR(~nu_tauL -> ~chi_2+ tau-)
#
#         PDG            Width
DECAY   1000024     1.23488533E+00   # chargino1+ decays
#          BR         NDA      ID1       ID2
     1.00000000E+00    2     1000022        24   # BR(~chi_1+ -> ~chi_10  W+)
#
#         PDG            Width
DECAY   1000037     1.53611702E+01   # chargino2+ decays
#          BR         NDA      ID1       ID2
     2.51881410E-01    2     1000024        23   # BR(~chi_2+ -> ~chi_1+  Z )
     4.76626243E-04    2     1000022        24   # BR(~chi_2+ -> ~chi_10  W+)
     2.45381437E-01    2     1000023        24   # BR(~chi_2+ -> ~chi_20  W+)
     2.42768512E-01    2     1000025        24   # BR(~chi_2+ -> ~chi_30  W+)
     2.59491972E-01    2     1000024        25   # BR(~chi_2+ -> ~chi_1+  h )
     4.32203522E-08    2     1000022        37   # BR(~chi_2+ -> ~chi_10  H+)
#
#         PDG            Width
DECAY   1000022     0.00000000E+00   # neutralino1 decays
#
#         PDG            Width
DECAY   1000023     1.30076078E+00   # neutralino2 decays
#          BR         NDA      ID1       ID2
     5.65491078E-01    2     1000022        23   # BR(~chi_20 -> ~chi_10   Z )
     4.34508922E-01    2     1000022        25   # BR(~chi_20 -> ~chi_10   h )
#
#         PDG            Width
DECAY   1000025     1.31708737E+00   # neutralino3 decays
#          BR         NDA      ID1       ID2
     4.15218137E-01    2     1000022        23   # BR(~chi_30 -> ~chi_10   Z )
     5.84781863E-01    2     1000022        25   # BR(~chi_30 -> ~chi_10   h )
#
#         PDG            Width
DECAY   1000035     1.53145407E+01   # neutralino4 decays
#          BR         NDA      ID1       ID2
     2.14709879E-04    2     1000022        23   # BR(~chi_40 -> ~chi_10   Z )
     1.67164593E-02    2     1000023        23   # BR(~chi_40 -> ~chi_20   Z )
     2.35826083E-01    2     1000025        23   # BR(~chi_40 -> ~chi_30   Z )
     2.43571528E-01    2     1000024       -24   # BR(~chi_40 -> ~chi_1+   W-)
     2.43571528E-01    2    -1000024        24   # BR(~chi_40 -> ~chi_1-   W+)
     2.82184336E-04    2     1000022        25   # BR(~chi_40 -> ~chi_10   h )
     3.23272777E-08    2     1000022        35   # BR(~chi_40 -> ~chi_10   H )
     1.24516741E-08    2     1000022        36   # BR(~chi_40 -> ~chi_10   A )
     2.43354055E-01    2     1000023        25   # BR(~chi_40 -> ~chi_20   h )
     1.64634063E-02    2     1000025        25   # BR(~chi_40 -> ~chi_30   h )
#
#         PDG            Width
DECAY        25     4.02983306E-03   # h decays
#          BR         NDA      ID1       ID2
     6.04018999E-01    2           5        -5   # BR(h -> b       bb     )
     6.43821906E-02    2         -15        15   # BR(h -> tau+    tau-   )
     2.27936121E-04    2         -13        13   # BR(h -> mu+     mu-    )
     4.83170735E-04    2           3        -3   # BR(h -> s       sb     )
     2.09396148E-02    2           4        -4   # BR(h -> c       cb     )
     6.77972739E-02    2          21        21   # BR(h -> g       g      )
     2.33259847E-03    2          22        22   # BR(h -> gam     gam    )
     1.50865072E-03    2          22        23   # BR(h -> Z       gam    )
     2.12886884E-01    2          24       -24   # BR(h -> W+      W-     )
     2.54013159E-02    2          23        23   # BR(h -> Z       Z      )
     2.13664981E-05    2     1000022   1000022   # BR(h -> ~chi_10 ~chi_10)
#
#         PDG            Width
DECAY        35     6.36429609E+00   # H decays
#          BR         NDA      ID1       ID2
     5.19990163E-01    2           5        -5   # BR(H -> b       bb     )
     8.75434482E-02    2         -15        15   # BR(H -> tau+    tau-   )
     3.09560586E-04    2         -13        13   # BR(H -> mu+     mu-    )
     3.79473943E-04    2           3        -3   # BR(H -> s       sb     )
     2.12204290E-06    2           4        -4   # BR(H -> c       cb     )
     2.12008884E-01    2           6        -6   # BR(H -> t       tb     )
     7.03220808E-05    2          21        21   # BR(H -> g       g      )
     3.97719074E-07    2          22        22   # BR(H -> gam     gam    )
     1.25251287E-07    2          23        22   # BR(H -> Z       gam    )
     9.22443812E-05    2          24       -24   # BR(H -> W+      W-     )
     4.60638239E-05    2          23        23   # BR(H -> Z       Z      )
     3.52733861E-04    2          25        25   # BR(H -> h       h      )
    -2.20270300E-23    2          36        36   # BR(H -> A       A      )
     7.76121735E-19    2          23        36   # BR(H -> Z       A      )
     5.67734023E-04    2     1000022   1000022   # BR(H -> ~chi_10 ~chi_10)
     1.04332474E-01    2     1000022   1000023   # BR(H -> ~chi_10 ~chi_20)
     7.43042527E-02    2     1000022   1000025   # BR(H -> ~chi_10 ~chi_30)
#
#         PDG            Width
DECAY        36     6.36765615E+00   # A decays
#          BR         NDA      ID1       ID2
     5.19888298E-01    2           5        -5   # BR(A -> b       bb     )
     8.74999263E-02    2         -15        15   # BR(A -> tau+    tau-   )
     3.09406257E-04    2         -13        13   # BR(A -> mu+     mu-    )
     3.79561818E-04    2           3        -3   # BR(A -> s       sb     )
     2.12991357E-06    2           4        -4   # BR(A -> c       cb     )
     2.12677826E-01    2           6        -6   # BR(A -> t       tb     )
     2.10470868E-04    2          21        21   # BR(A -> g       g      )
     4.11404303E-07    2          22        22   # BR(A -> gam     gam    )
     2.55050894E-07    2          23        22   # BR(A -> Z       gam    )
     9.18473719E-05    2          23        25   # BR(A -> Z       h      )
     5.86683005E-04    2     1000022   1000022   # BR(A -> ~chi_10 ~chi_10)
     7.52316583E-02    2     1000022   1000023   # BR(A -> ~chi_10 ~chi_20)
     1.03121525E-01    2     1000022   1000025   # BR(A -> ~chi_10 ~chi_30)
#
#         PDG            Width
DECAY        37     6.39723539E+00   # H+ decays
#          BR         NDA      ID1       ID2
     8.40412909E-04    2           4        -5   # BR(H+ -> c       bb     )
     8.71206810E-02    2         -15        16   # BR(H+ -> tau+    nu_tau )
     3.08065217E-04    2         -13        14   # BR(H+ -> mu+     nu_mu  )
     5.37861559E-06    2           2        -5   # BR(H+ -> u       bb     )
     1.80766258E-05    2           2        -3   # BR(H+ -> u       sb     )
     3.73825433E-04    2           4        -3   # BR(H+ -> c       sb     )
     7.32499953E-01    2           6        -5   # BR(H+ -> t       bb     )
     9.15611879E-05    2          24        25   # BR(H+ -> W+      h      )
     1.03929653E-13    2          24        36   # BR(H+ -> W+      A      )
     1.78742047E-01    2     1000024   1000022   # BR(H+ -> ~chi_1+ ~chi_10)
