#
#                              ======================
#                              | THE SUSYHIT OUTPUT |
#                              ======================
#
#
#              ------------------------------------------------------
#              |     This is the output of the SUSY-HIT package     |
#              |  created by A.Djouadi, M.Muehlleitner and M.Spira. |
#              |  In case of problems with SUSY-HIT email to        |
#              |           margarete.muehlleitner@cern.ch           |
#              |           michael.spira@psi.ch                     |
#              |           abdelhak.djouadi@cern.ch                 |
#              ------------------------------------------------------
#
#              ------------------------------------------------------
#              |  SUSY Les Houches Accord - MSSM Spectrum + Decays  |
#              |              based on the decay programs           |
#              |                                                    |
#              |                     SDECAY 1.3b                    |
#              |                                                    |
#              |  Authors: M.Muhlleitner, A.Djouadi and Y.Mambrini  |
#              |  Ref.:    Comput.Phys.Commun.168(2005)46           |
#              |           [hep-ph/0311167]                         |
#              |                                                    |
#              |                     HDECAY 3.4                     |
#              |                                                    |
#              |  By: A.Djouadi,J.Kalinowski,M.Muhlleitner,M.Spira  |
#              |  Ref.:    Comput.Phys.Commun.108(1998)56           |
#              |           [hep-ph/9704448]                         |
#              |                                                    |
#              |                                                    |
#              |  If not stated otherwise all DRbar couplings and   |
#              |  soft SUSY breaking masses are given at the scale  |
#              |  Q=  0.50007087E+04
#              |                                                    |
#              ------------------------------------------------------
#
#
BLOCK DCINFO  # Decay Program information
     1   SDECAY/HDECAY # decay calculator
     2   1.3b  /3.4    # version number
#
BLOCK SPINFO  # Spectrum calculator information
     1    SOFTSUSY    # spectrum calculator                
     2    3.4.0       # version number                     
#
BLOCK MODSEL  # Model selection
     1     0   #  nonUniversal                                     
#
BLOCK SMINPUTS  # Standard Model inputs
         1     1.25778332E+02   # alpha_em^-1(M_Z)^MSbar
         2     1.16570000E-05   # G_F [GeV^-2]
         3     1.17200002E-01   # alpha_S(M_Z)^MSbar
         4     9.11876000E+01   # M_Z pole mass
         5     4.25000000E+00   # mb(mb)^MSbar
         6     1.72500000E+02   # mt pole mass
         7     1.77682000E+00   # mtau pole mass
#
BLOCK MINPAR  # Input parameters - minimal models
         3     1.00000000E+01   # tanb                
#
BLOCK EXTPAR  # Input parameters - non-minimal models
         0    -1.00000000E+00   # Set                 
         1     6.00000000E+01   # M_1(MX)             
         2     3.00000000E+03   # M_2(MX)             
         3     2.04382400E+03   # M_3(MX)             
        11     5.00000000E+03   # At(MX)              
        12     5.00000000E+03   # Ab(MX)              
        13     0.00000000E+00   # Atau(MX)            
        23    -1.74043900E+03   # mu(MX)              
        26     3.00000000E+03   # mA(pole)            
        31     5.00000000E+03   # meL(MX)             
        32     5.00000000E+03   # mmuL(MX)            
        33     5.00000000E+03   # mtauL(MX)           
        34     5.00000000E+03   # meR(MX)             
        35     5.00000000E+03   # mmuR(MX)            
        36     5.00000000E+03   # mtauR(MX)           
        41     5.00000000E+03   # mqL1(MX)            
        42     5.00000000E+03   # mqL2(MX)            
        43     5.00000000E+03   # mqL3(MX)            
        44     5.00000000E+03   # muR(MX)             
        45     5.00000000E+03   # mcR(MX)             
        46     5.00000000E+03   # mtR(MX)             
        47     5.00000000E+03   # mdR(MX)             
        48     5.00000000E+03   # msR(MX)             
        49     5.00000000E+03   # mbR(MX)             
#
BLOCK MASS  # Mass Spectrum
# PDG code           mass       particle
        24     8.00973730E+01   # W+
        25     1.24822697E+02   # h
        35     3.00007867E+03   # H
        36     2.99999995E+03   # A
        37     3.00087236E+03   # H+
         5     4.87878001E+00   # b-quark pole mass calculated from mb(mb)_Msbar
   1000001     5.07804378E+03   # ~d_L
   2000001     5.06030081E+03   # ~d_R
   1000002     5.07757203E+03   # ~u_L
   2000002     5.06003070E+03   # ~u_R
   1000003     5.07804378E+03   # ~s_L
   2000003     5.06030081E+03   # ~s_R
   1000004     5.07757203E+03   # ~c_L
   2000004     5.06003070E+03   # ~c_R
   1000005     5.02438656E+03   # ~b_1
   2000005     5.05935919E+03   # ~b_2
   1000006     4.91683493E+03   # ~t_1
   2000006     5.07051106E+03   # ~t_2
   1000011     5.01903760E+03   # ~e_L
   2000011     5.00590494E+03   # ~e_R
   1000012     5.01808987E+03   # ~nu_eL
   1000013     5.01903760E+03   # ~mu_L
   2000013     5.00590494E+03   # ~mu_R
   1000014     5.01808987E+03   # ~nu_muL
   1000015     5.00419093E+03   # ~tau_1
   2000015     5.01918899E+03   # ~tau_2
   1000016     5.01755686E+03   # ~nu_tauL
   1000021     2.40000079E+03   # ~g
   1000022     6.03012664E+01   # ~chi_10
   1000023     1.79940046E+03   # ~chi_20
   1000025    -1.80211913E+03   # ~chi_30
   1000035     3.07438299E+03   # ~chi_40
   1000024     1.80000016E+03   # ~chi_1+
   1000037     3.07455063E+03   # ~chi_2+
#
BLOCK NMIX  # Neutralino Mixing Matrix
  1  1     9.99691076E-01   # N_11
  1  2     1.21510223E-04   # N_12
  1  3    -2.47910908E-02   # N_13
  1  4     1.77211618E-03   # N_14
  2  1     1.62720270E-02   # N_21
  2  2     3.81607096E-02   # N_22
  2  3     7.06828437E-01   # N_23
  2  4     7.06167503E-01   # N_24
  3  1    -1.87807125E-02   # N_31
  3  2     1.24382984E-02   # N_32
  3  3    -7.06716299E-01   # N_33
  3  4     7.07138350E-01   # N_34
  4  1    -5.09235024E-04   # N_41
  4  2     9.99194192E-01   # N_42
  4  3    -1.81943754E-02   # N_43
  4  4    -3.57724919E-02   # N_44
#
BLOCK UMIX  # Chargino Mixing Matrix U
  1  1     2.57123692E-02   # U_11
  1  2     9.99669382E-01   # U_12
  2  1    -9.99669382E-01   # U_21
  2  2     2.57123692E-02   # U_22
#
BLOCK VMIX  # Chargino Mixing Matrix V
  1  1     5.05762938E-02   # V_11
  1  2    -9.98720200E-01   # V_12
  2  1    -9.98720200E-01   # V_21
  2  2    -5.05762938E-02   # V_22
#
BLOCK STOPMIX  # Stop Mixing Matrix
  1  1    -5.12636263E-01   # cos(theta_t)
  1  2     8.58605883E-01   # sin(theta_t)
  2  1    -8.58605883E-01   # -sin(theta_t)
  2  2    -5.12636263E-01   # cos(theta_t)
#
BLOCK SBOTMIX  # Sbottom Mixing Matrix
  1  1     9.92419549E-01   # cos(theta_b)
  1  2    -1.22896049E-01   # sin(theta_b)
  2  1     1.22896049E-01   # -sin(theta_b)
  2  2     9.92419549E-01   # cos(theta_b)
#
BLOCK STAUMIX  # Stau Mixing Matrix
  1  1    -1.98991373E-01   # cos(theta_tau)
  1  2     9.80001242E-01   # sin(theta_tau)
  2  1    -9.80001242E-01   # -sin(theta_tau)
  2  2    -1.98991373E-01   # cos(theta_tau)
#
BLOCK ALPHA  # Higgs mixing
          -1.05465496E-01   # Mixing angle in the neutral Higgs boson sector
#
BLOCK HMIX Q=  5.00070875E+03  # DRbar Higgs Parameters
         1    -1.77249579E+03   # mu(Q)MSSM           
         2     9.47005906E+00   # tan                 
         3     2.42015731E+02   # higgs               
         4     8.35503152E+06   # mA^2(Q)MSSM         
#
BLOCK GAUGE Q=  5.00070875E+03  # The gauge couplings
     1     3.70651794E-01   # gprime(Q) DRbar
     2     6.31861253E-01   # g(Q) DRbar
     3     9.95809383E-01   # g3(Q) DRbar
#
BLOCK AU Q=  5.00070875E+03  # The trilinear couplings
  1  1     5.00000002E+03   # A_u(Q) DRbar
  2  2     5.00000002E+03   # A_c(Q) DRbar
  3  3     5.00000002E+03   # A_t(Q) DRbar
#
BLOCK AD Q=  5.00070875E+03  # The trilinear couplings
  1  1     5.00000001E+03   # A_d(Q) DRbar
  2  2     5.00000001E+03   # A_s(Q) DRbar
  3  3     5.00000001E+03   # A_b(Q) DRbar
#
BLOCK AE Q=  5.00070875E+03  # The trilinear couplings
  1  1     0.00000000E+00   # A_e(Q) DRbar
  2  2     2.39735209E-07   # A_mu(Q) DRbar
  3  3     2.39616772E-07   # A_tau(Q) DRbar
#
BLOCK Yu Q=  5.00070875E+03  # The Yukawa couplings
  1  1     0.00000000E+00   # y_u(Q) DRbar
  2  2     0.00000000E+00   # y_c(Q) DRbar
  3  3     8.20424179E-01   # y_t(Q) DRbar
#
BLOCK Yd Q=  5.00070875E+03  # The Yukawa couplings
  1  1     0.00000000E+00   # y_d(Q) DRbar
  2  2     0.00000000E+00   # y_s(Q) DRbar
  3  3     1.32091035E-01   # y_b(Q) DRbar
#
BLOCK Ye Q=  5.00070875E+03  # The Yukawa couplings
  1  1     0.00000000E+00   # y_e(Q) DRbar
  2  2     0.00000000E+00   # y_mu(Q) DRbar
  3  3     9.65162560E-02   # y_tau(Q) DRbar
#
BLOCK MSOFT Q=  5.00070875E+03  # The soft SUSY breaking masses at the scale Q
         1     6.00000000E+01   # M_1(Q)              
         2     3.00000000E+03   # M_2(Q)              
         3     2.04382400E+03   # M_3(Q)              
        21     5.51234989E+06   # mH1^2(Q)            
        22    -2.60229640E+06   # mH2^2(Q)            
        31     5.00000000E+03   # meL(Q)              
        32     5.00000000E+03   # mmuL(Q)             
        33     5.00000000E+03   # mtauL(Q)            
        34     5.00000000E+03   # meR(Q)              
        35     5.00000000E+03   # mmuR(Q)             
        36     5.00000000E+03   # mtauR(Q)            
        41     5.00000000E+03   # mqL1(Q)             
        42     5.00000000E+03   # mqL2(Q)             
        43     4.99999999E+03   # mqL3(Q)             
        44     5.00000000E+03   # muR(Q)              
        45     5.00000000E+03   # mcR(Q)              
        46     4.99999999E+03   # mtR(Q)              
        47     5.00000000E+03   # mdR(Q)              
        48     5.00000000E+03   # msR(Q)              
        49     5.00000000E+03   # mbR(Q)              
#
#
#
#                             =================
#                             |The decay table|
#                             =================
#
# - The QCD corrections to the decays gluino -> squark  + quark
#                                     squark -> gaugino + quark_prime
#                                     squark -> squark_prime + Higgs
#                                     squark -> gluino  + quark
#   are included.
#
# - The multi-body decays for the inos, stops and sbottoms are included.
#
# - The loop induced decays for the gluino, neutralinos and stops
#   are included.
#
# - The SUSY decays of the top quark are included.
#
#
#         PDG            Width
DECAY         6     1.39899921E+00   # top decays
#          BR         NDA      ID1       ID2
     1.00000000E+00    2           5        24   # BR(t ->  b    W+)
#
#         PDG            Width
DECAY   1000021     8.49889518E-04   # gluino decays
#          BR         NDA      ID1       ID2
     6.54695638E-06    2     1000022        21   # BR(~g -> ~chi_10 g)
     3.14718792E-03    2     1000023        21   # BR(~g -> ~chi_20 g)
     3.15182944E-03    2     1000025        21   # BR(~g -> ~chi_30 g)
#           BR         NDA      ID1       ID2       ID3
     7.16258882E-02    3     1000022         1        -1   # BR(~g -> ~chi_10 d  db)
     6.72199198E-06    3     1000023         1        -1   # BR(~g -> ~chi_20 d  db)
     5.62915934E-07    3     1000025         1        -1   # BR(~g -> ~chi_30 d  db)
     2.44195158E-01    3     1000022         2        -2   # BR(~g -> ~chi_10 u  ub)
     9.96435907E-06    3     1000023         2        -2   # BR(~g -> ~chi_20 u  ub)
     5.30669767E-07    3     1000025         2        -2   # BR(~g -> ~chi_30 u  ub)
     7.16258882E-02    3     1000022         3        -3   # BR(~g -> ~chi_10 s  sb)
     6.72199198E-06    3     1000023         3        -3   # BR(~g -> ~chi_20 s  sb)
     5.62915934E-07    3     1000025         3        -3   # BR(~g -> ~chi_30 s  sb)
     2.44195158E-01    3     1000022         4        -4   # BR(~g -> ~chi_10 c  cb)
     9.96435907E-06    3     1000023         4        -4   # BR(~g -> ~chi_20 c  cb)
     5.30669767E-07    3     1000025         4        -4   # BR(~g -> ~chi_30 c  cb)
     7.24847885E-02    3     1000022         5        -5   # BR(~g -> ~chi_10 b  bb)
     4.93503639E-04    3     1000023         5        -5   # BR(~g -> ~chi_20 b  bb)
     4.73756652E-04    3     1000025         5        -5   # BR(~g -> ~chi_30 b  bb)
     2.46465066E-01    3     1000022         6        -6   # BR(~g -> ~chi_10 t  tb)
     9.76775132E-03    3     1000023         6        -6   # BR(~g -> ~chi_20 t  tb)
     5.90185486E-03    3     1000025         6        -6   # BR(~g -> ~chi_30 t  tb)
     1.59657794E-05    3     1000024         1        -2   # BR(~g -> ~chi_1+ d  ub)
     1.59657794E-05    3    -1000024         2        -1   # BR(~g -> ~chi_1- u  db)
     1.59657794E-05    3     1000024         3        -4   # BR(~g -> ~chi_1+ s  cb)
     1.59657794E-05    3    -1000024         4        -3   # BR(~g -> ~chi_1- c  sb)
     1.31830997E-02    3     1000024         5        -6   # BR(~g -> ~chi_1+ b  tb)
     1.31830997E-02    3    -1000024         6        -5   # BR(~g -> ~chi_1- t  bb)
#
#         PDG            Width
DECAY   1000006     2.84231739E+02   # stop1 decays
#          BR         NDA      ID1       ID2
     3.09618445E-02    2     1000022         6   # BR(~t_1 -> ~chi_10 t )
     8.68602792E-02    2     1000023         6   # BR(~t_1 -> ~chi_20 t )
     8.33897431E-02    2     1000025         6   # BR(~t_1 -> ~chi_30 t )
     7.82588212E-03    2     1000035         6   # BR(~t_1 -> ~chi_40 t )
     1.24937879E-01    2     1000024         5   # BR(~t_1 -> ~chi_1+ b )
     1.55364567E-02    2     1000037         5   # BR(~t_1 -> ~chi_2+ b )
     6.50487916E-01    2     1000021         6   # BR(~t_1 -> ~g      t )
#
#         PDG            Width
DECAY   2000006     2.99643601E+02   # stop2 decays
#          BR         NDA      ID1       ID2
     1.17847001E-02    2     1000022         6   # BR(~t_2 -> ~chi_10 t )
     8.62373399E-02    2     1000023         6   # BR(~t_2 -> ~chi_20 t )
     8.98429704E-02    2     1000025         6   # BR(~t_2 -> ~chi_30 t )
     1.81844242E-02    2     1000035         6   # BR(~t_2 -> ~chi_40 t )
     5.32467692E-02    2     1000024         5   # BR(~t_2 -> ~chi_1+ b )
     3.60265245E-02    2     1000037         5   # BR(~t_2 -> ~chi_2+ b )
     7.00437456E-01    2     1000021         6   # BR(~t_2 -> ~g      t )
     9.25688437E-04    2     1000006        25   # BR(~t_2 -> ~t_1    h )
     3.31412707E-03    2     1000006        23   # BR(~t_2 -> ~t_1    Z )
#
#         PDG            Width
DECAY   1000005     2.75868913E+02   # sbottom1 decays
#          BR         NDA      ID1       ID2
     2.85778431E-03    2     1000022         5   # BR(~b_1 -> ~chi_10 b )
     2.54680381E-03    2     1000023         5   # BR(~b_1 -> ~chi_20 b )
     2.35205794E-03    2     1000025         5   # BR(~b_1 -> ~chi_30 b )
     2.70893021E-02    2     1000035         5   # BR(~b_1 -> ~chi_40 b )
     1.82156626E-01    2    -1000024         6   # BR(~b_1 -> ~chi_1- t )
     5.46480764E-02    2    -1000037         6   # BR(~b_1 -> ~chi_2- t )
     7.26435853E-01    2     1000021         5   # BR(~b_1 -> ~g      b )
     1.91349595E-03    2     1000006       -24   # BR(~b_1 -> ~t_1    W-)
#
#         PDG            Width
DECAY   2000005     2.09987789E+02   # sbottom2 decays
#          BR         NDA      ID1       ID2
     1.38795209E-02    2     1000022         5   # BR(~b_2 -> ~chi_10 b )
     3.09577344E-03    2     1000023         5   # BR(~b_2 -> ~chi_20 b )
     3.27913777E-03    2     1000025         5   # BR(~b_2 -> ~chi_30 b )
     5.82968543E-04    2     1000035         5   # BR(~b_2 -> ~chi_40 b )
     9.87474622E-03    2    -1000024         6   # BR(~b_2 -> ~chi_1- t )
     1.17506770E-03    2    -1000037         6   # BR(~b_2 -> ~chi_2- t )
     9.67943849E-01    2     1000021         5   # BR(~b_2 -> ~g      b )
     1.68936709E-04    2     1000006       -24   # BR(~b_2 -> ~t_1    W-)
#
#         PDG            Width
DECAY   1000002     2.29140572E+02   # sup_L decays
#          BR         NDA      ID1       ID2
     3.25167971E-03    2     1000022         2   # BR(~u_L -> ~chi_10 u)
     1.11489756E-04    2     1000023         2   # BR(~u_L -> ~chi_20 u)
     5.00809424E-06    2     1000025         2   # BR(~u_L -> ~chi_30 u)
     3.43061264E-02    2     1000035         2   # BR(~u_L -> ~chi_40 u)
     3.33644381E-04    2     1000024         1   # BR(~u_L -> ~chi_1+ d)
     6.85522516E-02    2     1000037         1   # BR(~u_L -> ~chi_2+ d)
     8.93439800E-01    2     1000021         2   # BR(~u_L -> ~g      u)
#
#         PDG            Width
DECAY   2000002     2.15072004E+02   # sup_R decays
#          BR         NDA      ID1       ID2
     5.51666446E-02    2     1000022         2   # BR(~u_R -> ~chi_10 u)
     1.11951482E-05    2     1000023         2   # BR(~u_R -> ~chi_20 u)
     1.49002101E-05    2     1000025         2   # BR(~u_R -> ~chi_30 u)
     5.74248871E-09    2     1000035         2   # BR(~u_R -> ~chi_40 u)
     9.44807254E-01    2     1000021         2   # BR(~u_R -> ~g      u)
#
#         PDG            Width
DECAY   1000001     2.29158728E+02   # sdown_L decays
#          BR         NDA      ID1       ID2
     3.24365420E-03    2     1000022         1   # BR(~d_L -> ~chi_10 d)
     7.98152623E-05    2     1000023         1   # BR(~d_L -> ~chi_20 d)
     1.69168193E-05    2     1000025         1   # BR(~d_L -> ~chi_30 d)
     3.43276079E-02    2     1000035         1   # BR(~d_L -> ~chi_40 d)
     8.62389419E-05    2    -1000024         2   # BR(~d_L -> ~chi_1- u)
     6.86982375E-02    2    -1000037         2   # BR(~d_L -> ~chi_2- u)
     8.93547529E-01    2     1000021         1   # BR(~d_L -> ~g      d)
#
#         PDG            Width
DECAY   2000001     2.06192796E+02   # sdown_R decays
#          BR         NDA      ID1       ID2
     1.43863482E-02    2     1000022         1   # BR(~d_R -> ~chi_10 d)
     2.91955740E-06    2     1000023         1   # BR(~d_R -> ~chi_20 d)
     3.88579253E-06    2     1000025         1   # BR(~d_R -> ~chi_30 d)
     1.49770970E-09    2     1000035         1   # BR(~d_R -> ~chi_40 d)
     9.85606845E-01    2     1000021         1   # BR(~d_R -> ~g      d)
#
#         PDG            Width
DECAY   1000004     2.29140572E+02   # scharm_L decays
#          BR         NDA      ID1       ID2
     3.25167971E-03    2     1000022         4   # BR(~c_L -> ~chi_10 c)
     1.11489756E-04    2     1000023         4   # BR(~c_L -> ~chi_20 c)
     5.00809424E-06    2     1000025         4   # BR(~c_L -> ~chi_30 c)
     3.43061264E-02    2     1000035         4   # BR(~c_L -> ~chi_40 c)
     3.33644381E-04    2     1000024         3   # BR(~c_L -> ~chi_1+ s)
     6.85522516E-02    2     1000037         3   # BR(~c_L -> ~chi_2+ s)
     8.93439800E-01    2     1000021         4   # BR(~c_L -> ~g      c)
#
#         PDG            Width
DECAY   2000004     2.15072004E+02   # scharm_R decays
#          BR         NDA      ID1       ID2
     5.51666446E-02    2     1000022         4   # BR(~c_R -> ~chi_10 c)
     1.11951482E-05    2     1000023         4   # BR(~c_R -> ~chi_20 c)
     1.49002101E-05    2     1000025         4   # BR(~c_R -> ~chi_30 c)
     5.74248871E-09    2     1000035         4   # BR(~c_R -> ~chi_40 c)
     9.44807254E-01    2     1000021         4   # BR(~c_R -> ~g      c)
#
#         PDG            Width
DECAY   1000003     2.29158728E+02   # sstrange_L decays
#          BR         NDA      ID1       ID2
     3.24365420E-03    2     1000022         3   # BR(~s_L -> ~chi_10 s)
     7.98152623E-05    2     1000023         3   # BR(~s_L -> ~chi_20 s)
     1.69168193E-05    2     1000025         3   # BR(~s_L -> ~chi_30 s)
     3.43276079E-02    2     1000035         3   # BR(~s_L -> ~chi_40 s)
     8.62389419E-05    2    -1000024         4   # BR(~s_L -> ~chi_1- c)
     6.86982375E-02    2    -1000037         4   # BR(~s_L -> ~chi_2- c)
     8.93547529E-01    2     1000021         3   # BR(~s_L -> ~g      s)
#
#         PDG            Width
DECAY   2000003     2.06192796E+02   # sstrange_R decays
#          BR         NDA      ID1       ID2
     1.43863482E-02    2     1000022         3   # BR(~s_R -> ~chi_10 s)
     2.91955740E-06    2     1000023         3   # BR(~s_R -> ~chi_20 s)
     3.88579253E-06    2     1000025         3   # BR(~s_R -> ~chi_30 s)
     1.49770970E-09    2     1000035         3   # BR(~s_R -> ~chi_40 s)
     9.85606845E-01    2     1000021         3   # BR(~s_R -> ~g      s)
#
#         PDG            Width
DECAY   1000011     3.02232737E+01   # selectron_L decays
#          BR         NDA      ID1       ID2
     2.26828441E-01    2     1000022        11   # BR(~e_L -> ~chi_10 e-)
     1.13990633E-03    2     1000023        11   # BR(~e_L -> ~chi_20 e-)
     1.01114736E-06    2     1000025        11   # BR(~e_L -> ~chi_30 e-)
     2.56879834E-01    2     1000035        11   # BR(~e_L -> ~chi_40 e-)
     6.62145115E-04    2    -1000024        12   # BR(~e_L -> ~chi_1- nu_e)
     5.14488663E-01    2    -1000037        12   # BR(~e_L -> ~chi_2- nu_e)
#
#         PDG            Width
DECAY   2000011     2.73516772E+01   # selectron_R decays
#          BR         NDA      ID1       ID2
     9.99531701E-01    2     1000022        11   # BR(~e_R -> ~chi_10 e-)
     2.00864344E-04    2     1000023        11   # BR(~e_R -> ~chi_20 e-)
     2.67333779E-04    2     1000025        11   # BR(~e_R -> ~chi_30 e-)
     1.00635242E-07    2     1000035        11   # BR(~e_R -> ~chi_40 e-)
#
#         PDG            Width
DECAY   1000013     3.02232737E+01   # smuon_L decays
#          BR         NDA      ID1       ID2
     2.26828441E-01    2     1000022        13   # BR(~mu_L -> ~chi_10 mu-)
     1.13990633E-03    2     1000023        13   # BR(~mu_L -> ~chi_20 mu-)
     1.01114736E-06    2     1000025        13   # BR(~mu_L -> ~chi_30 mu-)
     2.56879834E-01    2     1000035        13   # BR(~mu_L -> ~chi_40 mu-)
     6.62145115E-04    2    -1000024        14   # BR(~mu_L -> ~chi_1- nu_mu)
     5.14488663E-01    2    -1000037        14   # BR(~mu_L -> ~chi_2- nu_mu)
#
#         PDG            Width
DECAY   2000013     2.73516772E+01   # smuon_R decays
#          BR         NDA      ID1       ID2
     9.99531701E-01    2     1000022        13   # BR(~mu_R -> ~chi_10 mu-)
     2.00864344E-04    2     1000023        13   # BR(~mu_R -> ~chi_20 mu-)
     2.67333779E-04    2     1000025        13   # BR(~mu_R -> ~chi_30 mu-)
     1.00635242E-07    2     1000035        13   # BR(~mu_R -> ~chi_40 mu-)
#
#         PDG            Width
DECAY   1000015     2.88636411E+01   # stau_1 decays
#          BR         NDA      ID1       ID2
     9.19593893E-01    2     1000022        15   # BR(~tau_1 -> ~chi_10  tau-)
     1.32896157E-02    2     1000023        15   # BR(~tau_1 -> ~chi_20  tau-)
     1.16694226E-02    2     1000025        15   # BR(~tau_1 -> ~chi_30  tau-)
     1.01391156E-02    2     1000035        15   # BR(~tau_1 -> ~chi_40  tau-)
     2.49997582E-02    2    -1000024        16   # BR(~tau_1 -> ~chi_1-  nu_tau)
     2.03081944E-02    2    -1000037        16   # BR(~tau_1 -> ~chi_2-  nu_tau)
#
#         PDG            Width
DECAY   2000015     3.08094272E+01   # stau_2 decays
#          BR         NDA      ID1       ID2
     2.48166686E-01    2     1000022        15   # BR(~tau_2 -> ~chi_10  tau-)
     1.17000766E-02    2     1000023        15   # BR(~tau_2 -> ~chi_20  tau-)
     1.21391809E-02    2     1000025        15   # BR(~tau_2 -> ~chi_30  tau-)
     2.42428570E-01    2     1000035        15   # BR(~tau_2 -> ~chi_40  tau-)
     2.64407189E-05    2    -1000024        16   # BR(~tau_2 -> ~chi_1-  nu_tau)
     4.85539046E-01    2    -1000037        16   # BR(~tau_2 -> ~chi_2-  nu_tau)
#
#         PDG            Width
DECAY   1000012     3.02247317E+01   # snu_eL decays
#          BR         NDA      ID1       ID2
     2.26586767E-01    2     1000022        12   # BR(~nu_eL -> ~chi_10 nu_e)
     4.09991960E-04    2     1000023        12   # BR(~nu_eL -> ~chi_20 nu_e)
     2.75207854E-04    2     1000025        12   # BR(~nu_eL -> ~chi_30 nu_e)
     2.57009586E-01    2     1000035        12   # BR(~nu_eL -> ~chi_40 nu_e)
     2.56101189E-03    2     1000024        11   # BR(~nu_eL -> ~chi_1+ e-)
     5.13157435E-01    2     1000037        11   # BR(~nu_eL -> ~chi_2+ e-)
#
#         PDG            Width
DECAY   1000014     3.02247317E+01   # snu_muL decays
#          BR         NDA      ID1       ID2
     2.26586767E-01    2     1000022        14   # BR(~nu_muL -> ~chi_10 nu_mu)
     4.09991960E-04    2     1000023        14   # BR(~nu_muL -> ~chi_20 nu_mu)
     2.75207854E-04    2     1000025        14   # BR(~nu_muL -> ~chi_30 nu_mu)
     2.57009586E-01    2     1000035        14   # BR(~nu_muL -> ~chi_40 nu_mu)
     2.56101189E-03    2     1000024        13   # BR(~nu_muL -> ~chi_1+ mu-)
     5.13157435E-01    2     1000037        13   # BR(~nu_muL -> ~chi_2+ mu-)
#
#         PDG            Width
DECAY   1000016     3.09213195E+01   # snu_tauL decays
#          BR         NDA      ID1       ID2
     2.21458737E-01    2     1000022        16   # BR(~nu_tauL -> ~chi_10 nu_tau)
     4.00688071E-04    2     1000023        16   # BR(~nu_tauL -> ~chi_20 nu_tau)
     2.68962543E-04    2     1000025        16   # BR(~nu_tauL -> ~chi_30 nu_tau)
     2.51128917E-01    2     1000035        16   # BR(~nu_tauL -> ~chi_40 nu_tau)
     2.53222116E-02    2     1000024        15   # BR(~nu_tauL -> ~chi_1+ tau-)
     5.01420483E-01    2     1000037        15   # BR(~nu_tauL -> ~chi_2+ tau-)
#
#         PDG            Width
DECAY   1000024     1.11027905E+00   # chargino1+ decays
#          BR         NDA      ID1       ID2
     1.00000000E+00    2     1000022        24   # BR(~chi_1+ -> ~chi_10  W+)
#
#         PDG            Width
DECAY   1000037     1.67631121E+01   # chargino2+ decays
#          BR         NDA      ID1       ID2
     2.52285450E-01    2     1000024        23   # BR(~chi_2+ -> ~chi_1+  Z )
     3.54593058E-04    2     1000022        24   # BR(~chi_2+ -> ~chi_10  W+)
     2.44526591E-01    2     1000023        24   # BR(~chi_2+ -> ~chi_20  W+)
     2.43231880E-01    2     1000025        24   # BR(~chi_2+ -> ~chi_30  W+)
     2.59601346E-01    2     1000024        25   # BR(~chi_2+ -> ~chi_1+  h )
     1.39764069E-07    2     1000022        37   # BR(~chi_2+ -> ~chi_10  H+)
#
#         PDG            Width
DECAY   1000022     0.00000000E+00   # neutralino1 decays
#
#         PDG            Width
DECAY   1000023     1.16866882E+00   # neutralino2 decays
#          BR         NDA      ID1       ID2
     5.62410000E-01    2     1000022        23   # BR(~chi_20 -> ~chi_10   Z )
     4.37590000E-01    2     1000022        25   # BR(~chi_20 -> ~chi_10   h )
#
#         PDG            Width
DECAY   1000025     1.18205183E+00   # neutralino3 decays
#          BR         NDA      ID1       ID2
     4.18908776E-01    2     1000022        23   # BR(~chi_30 -> ~chi_10   Z )
     5.81091224E-01    2     1000022        25   # BR(~chi_30 -> ~chi_10   h )
#
#         PDG            Width
DECAY   1000035     1.67410013E+01   # neutralino4 decays
#          BR         NDA      ID1       ID2
     1.47298559E-04    2     1000022        23   # BR(~chi_40 -> ~chi_10   Z )
     2.45204106E-02    2     1000023        23   # BR(~chi_40 -> ~chi_20   Z )
     2.27738827E-01    2     1000025        23   # BR(~chi_40 -> ~chi_30   Z )
     2.43934240E-01    2     1000024       -24   # BR(~chi_40 -> ~chi_1+   W-)
     2.43934240E-01    2    -1000024        24   # BR(~chi_40 -> ~chi_1-   W+)
     2.19461028E-04    2     1000022        25   # BR(~chi_40 -> ~chi_10   h )
     1.20402625E-07    2     1000022        35   # BR(~chi_40 -> ~chi_10   H )
     2.46594497E-08    2     1000022        36   # BR(~chi_40 -> ~chi_10   A )
     2.35158115E-01    2     1000023        25   # BR(~chi_40 -> ~chi_20   h )
     2.43472632E-02    2     1000025        25   # BR(~chi_40 -> ~chi_30   h )
#
#         PDG            Width
DECAY        25     4.03657958E-03   # h decays
#          BR         NDA      ID1       ID2
     6.04818701E-01    2           5        -5   # BR(h -> b       bb     )
     6.42734771E-02    2         -15        15   # BR(h -> tau+    tau-   )
     2.27551260E-04    2         -13        13   # BR(h -> mu+     mu-    )
     4.82358823E-04    2           3        -3   # BR(h -> s       sb     )
     2.09038830E-02    2           4        -4   # BR(h -> c       cb     )
     6.76754861E-02    2          21        21   # BR(h -> g       g      )
     2.32824365E-03    2          22        22   # BR(h -> gam     gam    )
     1.50537587E-03    2          22        23   # BR(h -> Z       gam    )
     2.12418045E-01    2          24       -24   # BR(h -> W+      W-     )
     2.53416594E-02    2          23        23   # BR(h -> Z       Z      )
     2.52189898E-05    2     1000022   1000022   # BR(h -> ~chi_10 ~chi_10)
#
#         PDG            Width
DECAY        35     6.72458291E+00   # H decays
#          BR         NDA      ID1       ID2
     4.89644565E-01    2           5        -5   # BR(H -> b       bb     )
     8.28508049E-02    2         -15        15   # BR(H -> tau+    tau-   )
     2.92967027E-04    2         -13        13   # BR(H -> mu+     mu-    )
     3.59132733E-04    2           3        -3   # BR(H -> s       sb     )
     2.00845924E-06    2           4        -4   # BR(H -> c       cb     )
     2.00660980E-01    2           6        -6   # BR(H -> t       tb     )
     6.65818389E-05    2          21        21   # BR(H -> g       g      )
     3.86361782E-07    2          22        22   # BR(H -> gam     gam    )
     1.18537634E-07    2          23        22   # BR(H -> Z       gam    )
     8.82440050E-05    2          24       -24   # BR(H -> W+      W-     )
     4.40661653E-05    2          23        23   # BR(H -> Z       Z      )
     3.35714655E-04    2          25        25   # BR(H -> h       h      )
     5.36076122E-23    2          36        36   # BR(H -> A       A      )
     6.19029223E-19    2          23        36   # BR(H -> Z       A      )
     6.63219041E-04    2     1000022   1000022   # BR(H -> ~chi_10 ~chi_10)
     1.32519809E-01    2     1000022   1000023   # BR(H -> ~chi_10 ~chi_20)
     9.24714021E-02    2     1000022   1000025   # BR(H -> ~chi_10 ~chi_30)
#
#         PDG            Width
DECAY        36     6.72766660E+00   # A decays
#          BR         NDA      ID1       ID2
     4.89583069E-01    2           5        -5   # BR(A -> b       bb     )
     8.28153153E-02    2         -15        15   # BR(A -> tau+    tau-   )
     2.92841123E-04    2         -13        13   # BR(A -> mu+     mu-    )
     3.59240669E-04    2           3        -3   # BR(A -> s       sb     )
     2.01599427E-06    2           4        -4   # BR(A -> c       cb     )
     2.01302666E-01    2           6        -6   # BR(A -> t       tb     )
     1.99211427E-04    2          21        21   # BR(A -> g       g      )
     3.72042566E-07    2          22        22   # BR(A -> gam     gam    )
     2.41385625E-07    2          23        22   # BR(A -> Z       gam    )
     8.78701250E-05    2          23        25   # BR(A -> Z       h      )
     6.84387272E-04    2     1000022   1000022   # BR(A -> ~chi_10 ~chi_10)
     9.35476431E-02    2     1000022   1000023   # BR(A -> ~chi_10 ~chi_20)
     1.31125127E-01    2     1000022   1000025   # BR(A -> ~chi_10 ~chi_30)
#
#         PDG            Width
DECAY        37     6.74864575E+00   # H+ decays
#          BR         NDA      ID1       ID2
     7.90403755E-04    2           4        -5   # BR(H+ -> c       bb     )
     8.25818799E-02    2         -15        16   # BR(H+ -> tau+    nu_tau )
     2.92015678E-04    2         -13        14   # BR(H+ -> mu+     nu_mu  )
     5.05855846E-06    2           2        -5   # BR(H+ -> u       bb     )
     1.71348724E-05    2           2        -3   # BR(H+ -> u       sb     )
     3.54350039E-04    2           4        -3   # BR(H+ -> c       sb     )
     6.90464167E-01    2           6        -5   # BR(H+ -> t       bb     )
     8.77296539E-05    2          24        25   # BR(H+ -> W+      h      )
     9.84180330E-14    2          24        36   # BR(H+ -> W+      A      )
     2.25407260E-01    2     1000024   1000022   # BR(H+ -> ~chi_1+ ~chi_10)
