#
#                              ======================
#                              | THE SUSYHIT OUTPUT |
#                              ======================
#
#
#              ------------------------------------------------------
#              |     This is the output of the SUSY-HIT package     |
#              |  created by A.Djouadi, M.Muehlleitner and M.Spira. |
#              |  In case of problems with SUSY-HIT email to        |
#              |           margarete.muehlleitner@kit.edu           |
#              |           michael.spira@psi.ch                     |
#              |           abdelhak.djouadi@cern.ch                 |
#              ------------------------------------------------------
#
#              ------------------------------------------------------
#              |  SUSY Les Houches Accord - MSSM Spectrum + Decays  |
#              |              based on the decay programs           |
#              |                                                    |
#              |                     SDECAY 1.5                     |
#              |                                                    |
#              |  Authors: M.Muhlleitner, A.Djouadi and Y.Mambrini  |
#              |  Ref.:    Comput.Phys.Commun.168(2005)46           |
#              |           [hep-ph/0311167]                         |
#              |                                                    |
#              |                     HDECAY 3.4                     |
#              |                                                    |
#              |  By: A.Djouadi,J.Kalinowski,M.Muhlleitner,M.Spira  |
#              |  Ref.:    Comput.Phys.Commun.108(1998)56           |
#              |           [hep-ph/9704448]                         |
#              |                                                    |
#              |                                                    |
#              |  If not stated otherwise all DRbar couplings and   |
#              |  soft SUSY breaking masses are given at the scale  |
#              |  Q=  0.91187600E+02
#              |                                                    |
#              ------------------------------------------------------
#
#
BLOCK DCINFO  # Decay Program information
     1   SDECAY/HDECAY # decay calculator
     2   1.5  /3.4    # version number
#
BLOCK SPINFO  # Spectrum calculator information
     1   SuSpect     # RGE +Spectrum calculator            
     2   2.43         # version number                     
#
BLOCK MODSEL  # Model selection
     1     2   # GMSB                                              
#
BLOCK SMINPUTS  # Standard Model inputs
         1     1.27932904E+02   # alpha_em^-1(M_Z)^MSbar
         2     1.16639000E-05   # G_F [GeV^-2]
         3     1.17200000E-01   # alpha_S(M_Z)^MSbar
         4     9.11870000E+01   # M_Z pole mass
         5     4.25000000E+00   # mb(mb)^MSbar
         6     1.72900000E+02   # mt pole mass
         7     1.77700000E+00   # mtau pole mass
#
BLOCK MINPAR  # Input parameters - minimal models
#
BLOCK EXTPAR  # Input parameters - non-minimal models
         0     9.11876000E+01   # EWSB                
         1     1.83700000E+03   # M_1                 
         2     3.00000000E+03   # M_2                 
         3     2.40000000E+03   # M_3                 
        11     0.00000000E+00   # A_t                 
        12     0.00000000E+00   # A_b                 
        13     0.00000000E+00   # A_tau               
        14     0.00000000E+00   # A_u                 
        15     0.00000000E+00   # A_d                 
        16     0.00000000E+00   # A_e                 
        23     1.85000000E+03   # mu(EWSB)            
        25     1.50000000E+00   # tanbeta(in)         
        26     2.00000000E+03   # MA_pole             
        31     5.00000000E+03   # M_eL                
        32     5.00000000E+03   # M_muL               
        33     5.00000000E+03   # M_tauL              
        34     5.00000000E+03   # M_eR                
        35     5.00000000E+03   # M_muR               
        36     5.00000000E+03   # M_tauR              
        41     5.00000000E+03   # M_q1L               
        42     5.00000000E+03   # M_q2L               
        43     5.00000000E+03   # M_q3L               
        44     5.00000000E+03   # M_uR                
        45     5.00000000E+03   # M_cR                
        46     5.00000000E+03   # M_tR                
        47     5.00000000E+03   # M_dR                
        48     5.00000000E+03   # M_sR                
        49     5.00000000E+03   # M_bR                
#
BLOCK MASS  # Mass Spectrum
# PDG code           mass       particle
        24     8.05419648E+01   # W+
        25     1.26000000E+02   # h
        35     2.00399567E+03   # H
        36     2.00000000E+03   # A
        37     2.00151953E+03   # H+
         5     4.87877839E+00   # b-quark pole mass calculated from mb(mb)_Msbar
   1000001     4.89730080E+03   # ~d_L
   2000001     4.89719005E+03   # ~d_R
   1000002     4.89705316E+03   # ~u_L
   2000002     4.89711162E+03   # ~u_R
   1000003     4.89730080E+03   # ~s_L
   2000003     4.89719005E+03   # ~s_R
   1000004     4.89705316E+03   # ~c_L
   2000004     4.89711162E+03   # ~c_R
   1000005     4.89647678E+03   # ~b_1
   2000005     4.89801544E+03   # ~b_2
   1000006     5.00995440E+03   # ~t_1
   2000006     5.30224780E+03   # ~t_2
   1000011     5.00008215E+03   # ~e_L
   2000011     5.00007615E+03   # ~e_R
   1000012     4.99984170E+03   # ~nu_eL
   1000013     5.00008215E+03   # ~mu_L
   2000013     5.00007615E+03   # ~mu_R
   1000014     4.99984170E+03   # ~nu_muL
   1000015     4.99958584E+03   # ~tau_1
   2000015     5.00057304E+03   # ~tau_2
   1000016     4.99984170E+03   # ~nu_tauL
   1000021     2.41236037E+03   # ~g
   1000022     1.90929780E+03   # ~chi_10
   1000023    -1.96179105E+03   # ~chi_20
   1000025     1.99665830E+03   # ~chi_30
   1000035     3.12547681E+03   # ~chi_40
   1000024     1.95660585E+03   # ~chi_1+
   1000037     3.12546978E+03   # ~chi_2+
   1000039     1.00000000E-09   # ~gravitino
#
BLOCK NMIX  # Neutralino Mixing Matrix
  1  1     7.35515031E-01   # N_11
  1  2    -4.32659059E-02   # N_12
  1  3     4.79386163E-01   # N_13
  1  4    -4.76796190E-01   # N_14
  2  1     2.23209233E-03   # N_21
  2  2    -3.05251412E-03   # N_22
  2  3    -7.07041517E-01   # N_23
  2  4    -7.07161928E-01   # N_24
  3  1     6.77500144E-01   # N_31
  3  2     5.06512452E-02   # N_32
  3  3    -5.17941739E-01   # N_33
  3  4     5.19773375E-01   # N_34
  4  1     2.49223570E-03   # N_41
  4  2    -9.97774120E-01   # N_42
  4  3    -4.49171967E-02   # N_43
  4  4     4.92243770E-02   # N_44
#
BLOCK UMIX  # Chargino Mixing Matrix U
  1  1    -6.34339293E-02   # U_11
  1  2     9.97986040E-01   # U_12
  2  1     9.97986040E-01   # U_21
  2  2     6.34339293E-02   # U_22
#
BLOCK VMIX  # Chargino Mixing Matrix V
  1  1    -6.95228987E-02   # V_11
  1  2     9.97580356E-01   # V_12
  2  1     9.97580356E-01   # V_21
  2  2     6.95228987E-02   # V_22
#
BLOCK STOPMIX  # Stop Mixing Matrix
  1  1     9.99905092E-01   # cos(theta_t)
  1  2     1.37770459E-02   # sin(theta_t)
  2  1    -1.37770459E-02   # -sin(theta_t)
  2  2     9.99905092E-01   # cos(theta_t)
#
BLOCK SBOTMIX  # Sbottom Mixing Matrix
  1  1     6.81184473E-01   # cos(theta_b)
  1  2     7.32111818E-01   # sin(theta_b)
  2  1    -7.32111818E-01   # -sin(theta_b)
  2  2     6.81184473E-01   # cos(theta_b)
#
BLOCK STAUMIX  # Stau Mixing Matrix
  1  1     7.04954795E-01   # cos(theta_tau)
  1  2     7.09252238E-01   # sin(theta_tau)
  2  1    -7.09252238E-01   # -sin(theta_tau)
  2  2     7.04954795E-01   # cos(theta_tau)
#
BLOCK ALPHA  # Higgs mixing
          -5.90199032E-01   # Mixing angle in the neutral Higgs boson sector
#
BLOCK HMIX Q=  9.11876000E+01  # DRbar Higgs Parameters
         1     1.85000000E+03   # mu(Q)               
         2     1.49999979E+00   # tanbeta(Q)          
         3     2.52305593E+02   # vev(Q)              
         4     3.08117290E+06   # MA^2(Q)             
#
BLOCK GAUGE Q=  9.11876000E+01  # The gauge couplings
     1     3.52718079E-01   # gprime(Q) DRbar
     2     6.26764826E-01   # g(Q) DRbar
     3     1.07754645E+00   # g3(Q) DRbar
#
BLOCK AU Q=  9.11876000E+01  # The trilinear couplings
  1  1     0.00000000E+00   # A_u(Q) DRbar
  2  2     0.00000000E+00   # A_c(Q) DRbar
  3  3     0.00000000E+00   # A_t(Q) DRbar
#
BLOCK AD Q=  9.11876000E+01  # The trilinear couplings
  1  1     0.00000000E+00   # A_d(Q) DRbar
  2  2     0.00000000E+00   # A_s(Q) DRbar
  3  3     0.00000000E+00   # A_b(Q) DRbar
#
BLOCK AE Q=  9.11876000E+01  # The trilinear couplings
  1  1     0.00000000E+00   # A_e(Q) DRbar
  2  2     0.00000000E+00   # A_mu(Q) DRbar
  3  3     0.00000000E+00   # A_tau(Q) DRbar
#
BLOCK Yu Q=  9.11876000E+01  # The Yukawa couplings
  1  1     0.00000000E+00   # y_u(Q) DRbar
  2  2     0.00000000E+00   # y_c(Q) DRbar
  3  3     1.02487016E+00   # y_t(Q) DRbar
#
BLOCK Yd Q=  9.11876000E+01  # The Yukawa couplings
  1  1     0.00000000E+00   # y_d(Q) DRbar
  2  2     0.00000000E+00   # y_s(Q) DRbar
  3  3     2.71314148E-02   # y_b(Q) DRbar
#
BLOCK Ye Q=  9.11876000E+01  # The Yukawa couplings
  1  1     0.00000000E+00   # y_e(Q) DRbar
  2  2     0.00000000E+00   # y_mu(Q) DRbar
  3  3     1.79738484E-02   # y_tau(Q) DRbar
#
BLOCK MSOFT Q=  9.11876000E+01  # The soft SUSY breaking masses at the scale Q
         1     1.83700000E+03   # M_1                 
         2     3.00000000E+03   # M_2                 
         3     2.40000000E+03   # M_3                 
        14     0.00000000E+00   # A_u                 
        15     0.00000000E+00   # A_d                 
        16     0.00000000E+00   # A_e                 
        21    -7.85076490E+05   # M^2_Hd              
        22    -8.51010737E+06   # M^2_Hu              
        31     5.00000000E+03   # M_eL                
        32     5.00000000E+03   # M_muL               
        33     5.00000000E+03   # M_tauL              
        34     5.00000000E+03   # M_eR                
        35     5.00000000E+03   # M_muR               
        36     5.00000000E+03   # M_tauR              
        41     5.00000000E+03   # M_q1L               
        42     5.00000000E+03   # M_q2L               
        43     5.00000000E+03   # M_q3L               
        44     5.00000000E+03   # M_uR                
        45     5.00000000E+03   # M_cR                
        46     5.00000000E+03   # M_tR                
        47     5.00000000E+03   # M_dR                
        48     5.00000000E+03   # M_sR                
        49     5.00000000E+03   # M_bR                
#
#
#
#                             =================
#                             |The decay table|
#                             =================
#
# - The QCD corrections to the decays gluino -> squark  + quark
#                                     squark -> gaugino + quark_prime
#                                     squark -> squark_prime + Higgs
#                                     squark -> gluino  + quark
#   are included.
#
# - The multi-body decays for the inos, stops and sbottoms are included.
#
# - The loop induced decays for the gluino, neutralinos and stops
#   are included.
#
# - The SUSY decays of the top quark are included.
#
# - Possible decays of the NLSP in GMSB models are included.
#
#
#         PDG            Width
DECAY         6     1.36865481E+00   # top decays
#          BR         NDA      ID1       ID2
     1.00000000E+00    2           5        24   # BR(t ->  b    W+)
#
#         PDG            Width
DECAY   1000021     1.12513128E-04   # gluino decays
#          BR         NDA      ID1       ID2
     1.29198120E-02    2     1000022        21   # BR(~g -> ~chi_10 g)
     2.11111211E-02    2     1000023        21   # BR(~g -> ~chi_20 g)
     9.08494377E-03    2     1000025        21   # BR(~g -> ~chi_30 g)
#          BR         NDA      ID1       ID2
0.0E+00    2     1000039    21 # BR(~g -> ~G      g)
#           BR         NDA      ID1       ID2       ID3
     2.74493858E-03    3     1000022         1        -1   # BR(~g -> ~chi_10 d  db)
     6.59483621E-08    3     1000023         1        -1   # BR(~g -> ~chi_20 d  db)
     7.42381921E-04    3     1000025         1        -1   # BR(~g -> ~chi_30 d  db)
     7.89757379E-03    3     1000022         2        -2   # BR(~g -> ~chi_10 u  ub)
     5.03987515E-08    3     1000023         2        -2   # BR(~g -> ~chi_20 u  ub)
     3.05644645E-03    3     1000025         2        -2   # BR(~g -> ~chi_30 u  ub)
     2.74493858E-03    3     1000022         3        -3   # BR(~g -> ~chi_10 s  sb)
     6.59483621E-08    3     1000023         3        -3   # BR(~g -> ~chi_20 s  sb)
     7.42381921E-04    3     1000025         3        -3   # BR(~g -> ~chi_30 s  sb)
     7.89757379E-03    3     1000022         4        -4   # BR(~g -> ~chi_10 c  cb)
     5.03987515E-08    3     1000023         4        -4   # BR(~g -> ~chi_20 c  cb)
     3.05644645E-03    3     1000025         4        -4   # BR(~g -> ~chi_30 c  cb)
     2.76137874E-03    3     1000022         5        -5   # BR(~g -> ~chi_10 b  bb)
     5.74569668E-05    3     1000023         5        -5   # BR(~g -> ~chi_20 b  bb)
     7.72367349E-04    3     1000025         5        -5   # BR(~g -> ~chi_30 b  bb)
     1.12127225E-02    3     1000022         6        -6   # BR(~g -> ~chi_10 t  tb)
     5.29466438E-03    3     1000023         6        -6   # BR(~g -> ~chi_20 t  tb)
     3.22248828E-03    3     1000025         6        -6   # BR(~g -> ~chi_30 t  tb)
     1.42186937E-04    3     1000024         1        -2   # BR(~g -> ~chi_1+ d  ub)
     1.42186937E-04    3    -1000024         2        -1   # BR(~g -> ~chi_1- u  db)
     1.42186937E-04    3     1000024         3        -4   # BR(~g -> ~chi_1+ s  cb)
     1.42186937E-04    3    -1000024         4        -3   # BR(~g -> ~chi_1- c  sb)
     3.40673770E-02    3     1000024         5        -6   # BR(~g -> ~chi_1+ b  tb)
     3.40673770E-02    3    -1000024         6        -5   # BR(~g -> ~chi_1- t  bb)
#
#         PDG            Width
DECAY   1000006     2.32965593E+02   # stop1 decays
#          BR         NDA      ID1       ID2
     5.06956852E-02    2     1000022         6   # BR(~t_1 -> ~chi_10 t )
     1.09948187E-01    2     1000023         6   # BR(~t_1 -> ~chi_20 t )
     6.10792651E-02    2     1000025         6   # BR(~t_1 -> ~chi_30 t )
     3.08920966E-02    2     1000035         6   # BR(~t_1 -> ~chi_40 t )
    -6.19897260E-05    2     1000024         5   # BR(~t_1 -> ~chi_1+ b )
     6.08188161E-02    2     1000037         5   # BR(~t_1 -> ~chi_2+ b )
     6.75492020E-01    2     1000021         6   # BR(~t_1 -> ~g      t )
     5.39804057E-03    2     1000005        24   # BR(~t_1 -> ~b_1    W+)
     5.73787834E-03    2     2000005        24   # BR(~t_1 -> ~b_2    W+)
#
#         PDG            Width
DECAY   2000006     2.97312592E+02   # stop2 decays
#          BR         NDA      ID1       ID2
     5.94808083E-02    2     1000022         6   # BR(~t_2 -> ~chi_10 t )
     9.56569922E-02    2     1000023         6   # BR(~t_2 -> ~chi_20 t )
     6.40021878E-02    2     1000025         6   # BR(~t_2 -> ~chi_30 t )
     1.00670191E-04    2     1000035         6   # BR(~t_2 -> ~chi_40 t )
     1.91572861E-01    2     1000024         5   # BR(~t_2 -> ~chi_1+ b )
     2.04041582E-04    2     1000037         5   # BR(~t_2 -> ~chi_2+ b )
     5.88819961E-01    2     1000021         6   # BR(~t_2 -> ~g      t )
    -9.38827853E-05    2     1000006        25   # BR(~t_2 -> ~t_1    h )
     3.66634962E-05    2     1000006        23   # BR(~t_2 -> ~t_1    Z )
     1.02612839E-04    2     1000005        24   # BR(~t_2 -> ~b_1    W+)
     1.17083964E-04    2     2000005        24   # BR(~t_2 -> ~b_2    W+)
#
#         PDG            Width
DECAY   1000005     1.82938694E+02   # sbottom1 decays
#          BR         NDA      ID1       ID2
     4.99290852E-03    2     1000022         5   # BR(~b_1 -> ~chi_10 b )
     8.44877189E-05    2     1000023         5   # BR(~b_1 -> ~chi_20 b )
     2.11572263E-03    2     1000025         5   # BR(~b_1 -> ~chi_30 b )
     1.57490391E-02    2     1000035         5   # BR(~b_1 -> ~chi_40 b )
     1.18056606E-01    2    -1000024         6   # BR(~b_1 -> ~chi_1- t )
     3.20063915E-02    2    -1000037         6   # BR(~b_1 -> ~chi_2- t )
     8.26994845E-01    2     1000021         5   # BR(~b_1 -> ~g      b )
#
#         PDG            Width
DECAY   2000005     1.90844036E+02   # sbottom2 decays
#          BR         NDA      ID1       ID2
     2.87524796E-03    2     1000022         5   # BR(~b_2 -> ~chi_10 b )
     1.02488585E-04    2     1000023         5   # BR(~b_2 -> ~chi_20 b )
     2.80510503E-03    2     1000025         5   # BR(~b_2 -> ~chi_30 b )
     1.89543549E-02    2     1000035         5   # BR(~b_2 -> ~chi_40 b )
     1.44589161E-01    2    -1000024         6   # BR(~b_2 -> ~chi_1- t )
     3.85305135E-02    2    -1000037         6   # BR(~b_2 -> ~chi_2- t )
     7.92143129E-01    2     1000021         5   # BR(~b_2 -> ~g      b )
#
#         PDG            Width
DECAY   1000002     1.71331635E+02   # sup_L decays
#          BR         NDA      ID1       ID2
     6.94496525E-04    2     1000022         2   # BR(~u_L -> ~chi_10 u)
     5.26515020E-07    2     1000023         2   # BR(~u_L -> ~chi_20 u)
     2.36530027E-03    2     1000025         2   # BR(~u_L -> ~chi_30 u)
     3.78493109E-02    2     1000035         2   # BR(~u_L -> ~chi_40 u)
     7.35190478E-04    2     1000024         1   # BR(~u_L -> ~chi_1+ d)
     7.57406471E-02    2     1000037         1   # BR(~u_L -> ~chi_2+ d)
     8.82614528E-01    2     1000021         2   # BR(~u_L -> ~g      u)
#
#         PDG            Width
DECAY   2000002     1.58579825E+02   # sup_R decays
#          BR         NDA      ID1       ID2
     2.54807650E-02    2     1000022         2   # BR(~u_R -> ~chi_10 u)
     2.30033366E-07    2     1000023         2   # BR(~u_R -> ~chi_20 u)
     2.09050633E-02    2     1000025         2   # BR(~u_R -> ~chi_30 u)
     1.43784286E-07    2     1000035         2   # BR(~u_R -> ~chi_40 u)
     9.53613798E-01    2     1000021         2   # BR(~u_R -> ~g      u)
#
#         PDG            Width
DECAY   1000001     1.71340968E+02   # sdown_L decays
#          BR         NDA      ID1       ID2
     2.54344948E-03    2     1000022         1   # BR(~d_L -> ~chi_10 d)
     9.14586430E-07    2     1000023         1   # BR(~d_L -> ~chi_20 d)
     4.37474509E-04    2     1000025         1   # BR(~d_L -> ~chi_30 d)
     3.79253915E-02    2     1000035         1   # BR(~d_L -> ~chi_40 d)
     6.12071987E-04    2    -1000024         2   # BR(~d_L -> ~chi_1- u)
     7.58124099E-02    2    -1000037         2   # BR(~d_L -> ~chi_2- u)
     8.82668288E-01    2     1000021         1   # BR(~d_L -> ~g      d)
#
#         PDG            Width
DECAY   2000001     1.53068466E+02   # sdown_R decays
#          BR         NDA      ID1       ID2
     6.59973762E-03    2     1000022         1   # BR(~d_R -> ~chi_10 d)
     5.95806682E-08    2     1000023         1   # BR(~d_R -> ~chi_20 d)
     5.41459835E-03    2     1000025         1   # BR(~d_R -> ~chi_30 d)
     3.72425614E-08    2     1000035         1   # BR(~d_R -> ~chi_40 d)
     9.87985567E-01    2     1000021         1   # BR(~d_R -> ~g      d)
#
#         PDG            Width
DECAY   1000004     1.71331635E+02   # scharm_L decays
#          BR         NDA      ID1       ID2
     6.94496525E-04    2     1000022         4   # BR(~c_L -> ~chi_10 c)
     5.26515020E-07    2     1000023         4   # BR(~c_L -> ~chi_20 c)
     2.36530027E-03    2     1000025         4   # BR(~c_L -> ~chi_30 c)
     3.78493109E-02    2     1000035         4   # BR(~c_L -> ~chi_40 c)
     7.35190478E-04    2     1000024         3   # BR(~c_L -> ~chi_1+ s)
     7.57406471E-02    2     1000037         3   # BR(~c_L -> ~chi_2+ s)
     8.82614528E-01    2     1000021         4   # BR(~c_L -> ~g      c)
#
#         PDG            Width
DECAY   2000004     1.58579825E+02   # scharm_R decays
#          BR         NDA      ID1       ID2
     2.54807650E-02    2     1000022         4   # BR(~c_R -> ~chi_10 c)
     2.30033366E-07    2     1000023         4   # BR(~c_R -> ~chi_20 c)
     2.09050633E-02    2     1000025         4   # BR(~c_R -> ~chi_30 c)
     1.43784286E-07    2     1000035         4   # BR(~c_R -> ~chi_40 c)
     9.53613798E-01    2     1000021         4   # BR(~c_R -> ~g      c)
#
#         PDG            Width
DECAY   1000003     1.71340968E+02   # sstrange_L decays
#          BR         NDA      ID1       ID2
     2.54344948E-03    2     1000022         3   # BR(~s_L -> ~chi_10 s)
     9.14586430E-07    2     1000023         3   # BR(~s_L -> ~chi_20 s)
     4.37474509E-04    2     1000025         3   # BR(~s_L -> ~chi_30 s)
     3.79253915E-02    2     1000035         3   # BR(~s_L -> ~chi_40 s)
     6.12071987E-04    2    -1000024         4   # BR(~s_L -> ~chi_1- c)
     7.58124099E-02    2    -1000037         4   # BR(~s_L -> ~chi_2- c)
     8.82668288E-01    2     1000021         3   # BR(~s_L -> ~g      s)
#
#         PDG            Width
DECAY   2000003     1.53068466E+02   # sstrange_R decays
#          BR         NDA      ID1       ID2
     6.59973762E-03    2     1000022         3   # BR(~s_R -> ~chi_10 s)
     5.95806682E-08    2     1000023         3   # BR(~s_R -> ~chi_20 s)
     5.41459835E-03    2     1000025         3   # BR(~s_R -> ~chi_30 s)
     3.72425614E-08    2     1000035         3   # BR(~s_R -> ~chi_40 s)
     9.87985567E-01    2     1000021         3   # BR(~s_R -> ~g      s)
#
#         PDG            Width
DECAY   1000011     2.62940369E+01   # selectron_L decays
#          BR         NDA      ID1       ID2
     7.44851914E-02    2     1000022        11   # BR(~e_L -> ~chi_10 e-)
     1.71644206E-06    2     1000023        11   # BR(~e_L -> ~chi_20 e-)
     9.79387057E-02    2     1000025        11   # BR(~e_L -> ~chi_30 e-)
     2.73835378E-01    2     1000035        11   # BR(~e_L -> ~chi_40 e-)
     4.28882985E-03    2    -1000024        12   # BR(~e_L -> ~chi_1- nu_e)
     5.49450179E-01    2    -1000037        12   # BR(~e_L -> ~chi_2- nu_e)
#
#         PDG            Width
DECAY   2000011     1.77963726E+01   # selectron_R decays
#          BR         NDA      ID1       ID2
     5.48972336E-01    2     1000022        11   # BR(~e_R -> ~chi_10 e-)
     4.96006152E-06    2     1000023        11   # BR(~e_R -> ~chi_20 e-)
     4.51019497E-01    2     1000025        11   # BR(~e_R -> ~chi_30 e-)
     3.20667711E-06    2     1000035        11   # BR(~e_R -> ~chi_40 e-)
#
#         PDG            Width
DECAY   1000013     2.62940369E+01   # smuon_L decays
#          BR         NDA      ID1       ID2
     7.44851914E-02    2     1000022        13   # BR(~mu_L -> ~chi_10 mu-)
     1.71644206E-06    2     1000023        13   # BR(~mu_L -> ~chi_20 mu-)
     9.79387057E-02    2     1000025        13   # BR(~mu_L -> ~chi_30 mu-)
     2.73835378E-01    2     1000035        13   # BR(~mu_L -> ~chi_40 mu-)
     4.28882985E-03    2    -1000024        14   # BR(~mu_L -> ~chi_1- nu_mu)
     5.49450179E-01    2    -1000037        14   # BR(~mu_L -> ~chi_2- nu_mu)
#
#         PDG            Width
DECAY   2000013     1.77963726E+01   # smuon_R decays
#          BR         NDA      ID1       ID2
     5.48972336E-01    2     1000022        13   # BR(~mu_R -> ~chi_10 mu-)
     4.96006152E-06    2     1000023        13   # BR(~mu_R -> ~chi_20 mu-)
     4.51019497E-01    2     1000025        13   # BR(~mu_R -> ~chi_30 mu-)
     3.20667711E-06    2     1000035        13   # BR(~mu_R -> ~chi_40 mu-)
#
#         PDG            Width
DECAY   1000015     2.20952059E+01   # stau_1 decays
#          BR         NDA      ID1       ID2
     2.72470936E-01    2     1000022        15   # BR(~tau_1 -> ~chi_10  tau-)
     4.45348081E-04    2     1000023        15   # BR(~tau_1 -> ~chi_20  tau-)
     2.36626437E-01    2     1000025        15   # BR(~tau_1 -> ~chi_30  tau-)
     1.61293892E-01    2     1000035        15   # BR(~tau_1 -> ~chi_40  tau-)
     5.36076719E-03    2    -1000024        16   # BR(~tau_1 -> ~chi_1-  nu_tau)
     3.23639855E-01    2    -1000037        16   # BR(~tau_1 -> ~chi_2-  nu_tau)
     1.62764055E-04    2     1000039        15   # BR(~tau_1 -> ~G       tau-)
#
#         PDG            Width
DECAY   2000015     2.20678074E+01   # stau_2 decays
#          BR         NDA      ID1       ID2
     2.59136881E-01    2     1000022        15   # BR(~tau_2 -> ~chi_10  tau-)
     6.02321342E-04    2     1000023        15   # BR(~tau_2 -> ~chi_20  tau-)
     2.44051523E-01    2     1000025        15   # BR(~tau_2 -> ~chi_30  tau-)
     1.64789645E-01    2     1000035        15   # BR(~tau_2 -> ~chi_40  tau-)
     7.82176219E-04    2    -1000024        16   # BR(~tau_2 -> ~chi_1-  nu_tau)
     3.30637453E-01    2    -1000037        16   # BR(~tau_2 -> ~chi_2-  nu_tau)
#
#         PDG            Width
DECAY   1000012     2.62965915E+01   # snu_eL decays
#          BR         NDA      ID1       ID2
     1.13302999E-01    2     1000022        12   # BR(~nu_eL -> ~chi_10 nu_e)
     9.87267944E-06    2     1000023        12   # BR(~nu_eL -> ~chi_20 nu_e)
     5.73748017E-02    2     1000025        12   # BR(~nu_eL -> ~chi_30 nu_e)
     2.75305432E-01    2     1000035        12   # BR(~nu_eL -> ~chi_40 nu_e)
     5.15078175E-03    2     1000024        11   # BR(~nu_eL -> ~chi_1+ e-)
     5.48856113E-01    2     1000037        11   # BR(~nu_eL -> ~chi_2+ e-)
#
#         PDG            Width
DECAY   1000014     2.62965915E+01   # snu_muL decays
#          BR         NDA      ID1       ID2
     1.13302999E-01    2     1000022        14   # BR(~nu_muL -> ~chi_10 nu_mu)
     9.87267944E-06    2     1000023        14   # BR(~nu_muL -> ~chi_20 nu_mu)
     5.73748017E-02    2     1000025        14   # BR(~nu_muL -> ~chi_30 nu_mu)
     2.75305432E-01    2     1000035        14   # BR(~nu_muL -> ~chi_40 nu_mu)
     5.15078175E-03    2     1000024        13   # BR(~nu_muL -> ~chi_1+ mu-)
     5.48856113E-01    2     1000037        13   # BR(~nu_muL -> ~chi_2+ mu-)
#
#         PDG            Width
DECAY   1000016     2.63195844E+01   # snu_tauL decays
#          BR         NDA      ID1       ID2
     1.13204017E-01    2     1000022        16   # BR(~nu_tauL -> ~chi_10 nu_tau)
     9.86405465E-06    2     1000023        16   # BR(~nu_tauL -> ~chi_20 nu_tau)
     5.73246790E-02    2     1000025        16   # BR(~nu_tauL -> ~chi_30 nu_tau)
     2.75064924E-01    2     1000035        16   # BR(~nu_tauL -> ~chi_40 nu_tau)
     6.01697493E-03    2     1000024        15   # BR(~nu_tauL -> ~chi_1+ tau-)
     5.48379541E-01    2     1000037        15   # BR(~nu_tauL -> ~chi_2+ tau-)
#
#         PDG            Width
DECAY   1000024     1.63899690E-04   # chargino1+ decays
#          BR         NDA      ID1       ID2
     1.00486470E-01    2     1000039        24   # BR(~chi_1+ -> ~G       W+)
#           BR         NDA      ID1       ID2       ID3
     3.00069094E-01    3     1000022         2        -1   # BR(~chi_1+ -> ~chi_10 u    db)
     3.00069094E-01    3     1000022         4        -3   # BR(~chi_1+ -> ~chi_10 c    sb)
     1.00023132E-01    3     1000022       -11        12   # BR(~chi_1+ -> ~chi_10 e+   nu_e)
     1.00023132E-01    3     1000022       -13        14   # BR(~chi_1+ -> ~chi_10 mu+  nu_mu)
     9.93290782E-02    3     1000022       -15        16   # BR(~chi_1+ -> ~chi_10 tau+ nu_tau)
#
#         PDG            Width
DECAY   1000037     3.65787451E+01   # chargino2+ decays
#          BR         NDA      ID1       ID2
     2.53812082E-01    2     1000024        23   # BR(~chi_2+ -> ~chi_1+  Z )
     1.05686530E-01    2     1000022        24   # BR(~chi_2+ -> ~chi_10  W+)
     2.46114707E-01    2     1000023        24   # BR(~chi_2+ -> ~chi_20  W+)
     1.41804270E-01    2     1000025        24   # BR(~chi_2+ -> ~chi_30  W+)
     2.52573065E-01    2     1000024        25   # BR(~chi_2+ -> ~chi_1+  h )
     9.34305877E-06    2     1000039        24   # BR(~chi_2+ -> ~G       W+)
     2.42853664E-09    2     1000039        37   # BR(~chi_2+ -> ~G       H+)
#
#         PDG            Width
DECAY   1000022    1.0E-05    # neutralino1 decays
#          BR         NDA      ID1       ID2
     5.00680773E-01    2     1000039        22   # BR(~chi_10 -> ~G        gam)
     4.88604157E-01    2     1000039        23   # BR(~chi_10 -> ~G        Z)
     1.07150702E-02    2     1000039        25   # BR(~chi_10 -> ~G        h)
#
#         PDG            Width
DECAY   1000023     2.18927820E-04   # neutralino2 decays
#          BR         NDA      ID1       ID2
     2.85774868E-04    2     1000022        22   # BR(~chi_20 -> ~chi_10 gam)
#          BR         NDA      ID1       ID2
     3.06922132E-08    2     1000039        22   # BR(~chi_20 -> ~G        gam)
     2.91789592E-03    2     1000039        23   # BR(~chi_20 -> ~G        Z)
     7.23257224E-02    2     1000039        25   # BR(~chi_20 -> ~G        h)
#           BR         NDA      ID1       ID2       ID3
     1.09493244E-01    3     1000022        -2         2   # BR(~chi_20 -> ~chi_10 ub      u)
     1.41785792E-01    3     1000022        -1         1   # BR(~chi_20 -> ~chi_10 db      d)
     1.09493244E-01    3     1000022        -4         4   # BR(~chi_20 -> ~chi_10 cb      c)
     1.41785792E-01    3     1000022        -3         3   # BR(~chi_20 -> ~chi_10 sb      s)
     1.30973194E-01    3     1000022        -5         5   # BR(~chi_20 -> ~chi_10 bb      b)
     3.23855341E-02    3     1000022       -11        11   # BR(~chi_20 -> ~chi_10 e+      e-)
     3.23855341E-02    3     1000022       -13        13   # BR(~chi_20 -> ~chi_10 mu+     mu-)
     3.20973248E-02    3     1000022       -15        15   # BR(~chi_20 -> ~chi_10 tau+    tau-)
     6.46783259E-02    3     1000022       -12        12   # BR(~chi_20 -> ~chi_10 nu_eb   nu_e)
     6.46783259E-02    3     1000022       -14        14   # BR(~chi_20 -> ~chi_10 nu_mub  nu_mu)
     6.46783259E-02    3     1000022       -16        16   # BR(~chi_20 -> ~chi_10 nu_taub nu_tau)
     6.28994120E-06    3     1000024        -2         1   # BR(~chi_20 -> ~chi_1+ ub      d)
     6.28994120E-06    3    -1000024        -1         2   # BR(~chi_20 -> ~chi_1- db      u)
     6.28994120E-06    3     1000024        -4         3   # BR(~chi_20 -> ~chi_1+ cb      s)
     6.28994120E-06    3    -1000024        -3         4   # BR(~chi_20 -> ~chi_1- sb      c)
     2.09664721E-06    3     1000024       -12        11   # BR(~chi_20 -> ~chi_1+ nu_eb   e-)
     2.09664721E-06    3    -1000024        12       -11   # BR(~chi_20 -> ~chi_1- nu_e    e+)
     2.09664721E-06    3     1000024       -14        13   # BR(~chi_20 -> ~chi_1+ nu_mub  mu-)
     2.09664721E-06    3    -1000024        14       -13   # BR(~chi_20 -> ~chi_1- nu_mu   mu+)
     1.19576417E-06    3     1000024       -16        15   # BR(~chi_20 -> ~chi_1+ nu_taub tau-)
     1.19576417E-06    3    -1000024        16       -15   # BR(~chi_20 -> ~chi_1- nu_tau  tau+)
#
#         PDG            Width
DECAY   1000025     1.95276604E-04   # neutralino3 decays
#          BR         NDA      ID1       ID2
     4.29140936E-04    2     1000022        22   # BR(~chi_30 -> ~chi_10 gam)
     6.29510496E-06    2     1000023        22   # BR(~chi_30 -> ~chi_20 gam)
#          BR         NDA      ID1       ID2
     7.08245203E-02    2     1000039        22   # BR(~chi_30 -> ~G        gam)
     6.34641823E-02    2     1000039        23   # BR(~chi_30 -> ~G        Z)
     1.89833112E-03    2     1000039        25   # BR(~chi_30 -> ~G        h)
#           BR         NDA      ID1       ID2       ID3
     1.54343825E-05    3     1000022        -2         2   # BR(~chi_30 -> ~chi_10 ub      u)
     1.83350623E-05    3     1000022        -1         1   # BR(~chi_30 -> ~chi_10 db      d)
     1.54343825E-05    3     1000022        -4         4   # BR(~chi_30 -> ~chi_10 cb      c)
     1.83350623E-05    3     1000022        -3         3   # BR(~chi_30 -> ~chi_10 sb      s)
     5.96405806E-05    3     1000022        -5         5   # BR(~chi_30 -> ~chi_10 bb      b)
     3.21072478E-06    3     1000022       -11        11   # BR(~chi_30 -> ~chi_10 e+      e-)
     3.21072478E-06    3     1000022       -13        13   # BR(~chi_30 -> ~chi_10 mu+     mu-)
     9.49797705E-06    3     1000022       -15        15   # BR(~chi_30 -> ~chi_10 tau+    tau-)
     8.94425305E-06    3     1000022       -12        12   # BR(~chi_30 -> ~chi_10 nu_eb   nu_e)
     8.94425305E-06    3     1000022       -14        14   # BR(~chi_30 -> ~chi_10 nu_mub  nu_mu)
     8.94425305E-06    3     1000022       -16        16   # BR(~chi_30 -> ~chi_10 nu_taub nu_tau)
     1.66407659E-02    3     1000023        -2         2   # BR(~chi_30 -> ~chi_20 ub      u)
     2.15486047E-02    3     1000023        -1         1   # BR(~chi_30 -> ~chi_20 db      d)
     1.66407659E-02    3     1000023        -4         4   # BR(~chi_30 -> ~chi_20 cb      c)
     2.15486047E-02    3     1000023        -3         3   # BR(~chi_30 -> ~chi_20 sb      s)
     1.81165944E-02    3     1000023        -5         5   # BR(~chi_30 -> ~chi_20 bb      b)
     4.92195795E-03    3     1000023       -11        11   # BR(~chi_30 -> ~chi_20 e+      e-)
     4.92195795E-03    3     1000023       -13        13   # BR(~chi_30 -> ~chi_20 mu+     mu-)
     4.84109034E-03    3     1000023       -15        15   # BR(~chi_30 -> ~chi_20 tau+    tau-)
     9.82977673E-03    3     1000023       -12        12   # BR(~chi_30 -> ~chi_20 nu_eb   nu_e)
     9.82977673E-03    3     1000023       -14        14   # BR(~chi_30 -> ~chi_20 nu_mub  nu_mu)
     9.82977673E-03    3     1000023       -16        16   # BR(~chi_30 -> ~chi_20 nu_taub nu_tau)
     1.20886994E-01    3     1000024        -2         1   # BR(~chi_30 -> ~chi_1+ ub      d)
     1.20886994E-01    3    -1000024        -1         2   # BR(~chi_30 -> ~chi_1- db      u)
     1.20886994E-01    3     1000024        -4         3   # BR(~chi_30 -> ~chi_1+ cb      s)
     1.20886994E-01    3    -1000024        -3         4   # BR(~chi_30 -> ~chi_1- sb      c)
     4.02956042E-02    3     1000024       -12        11   # BR(~chi_30 -> ~chi_1+ nu_eb   e-)
     4.02956042E-02    3    -1000024        12       -11   # BR(~chi_30 -> ~chi_1- nu_e    e+)
     4.02956042E-02    3     1000024       -14        13   # BR(~chi_30 -> ~chi_1+ nu_mub  mu-)
     4.02956042E-02    3    -1000024        14       -13   # BR(~chi_30 -> ~chi_1- nu_mu   mu+)
     3.99037671E-02    3     1000024       -16        15   # BR(~chi_30 -> ~chi_1+ nu_taub tau-)
     3.99037671E-02    3    -1000024        16       -15   # BR(~chi_30 -> ~chi_1- nu_tau  tau+)
#
#         PDG            Width
DECAY   1000035     3.65780053E+01   # neutralino4 decays
#          BR         NDA      ID1       ID2
     2.40589651E-04    2     1000022        23   # BR(~chi_40 -> ~chi_10   Z )
     2.52472937E-01    2     1000023        23   # BR(~chi_40 -> ~chi_20   Z )
     2.91150155E-04    2     1000025        23   # BR(~chi_40 -> ~chi_30   Z )
     2.46907920E-01    2     1000024       -24   # BR(~chi_40 -> ~chi_1+   W-)
     2.46907920E-01    2    -1000024        24   # BR(~chi_40 -> ~chi_1-   W+)
     1.07864408E-01    2     1000022        25   # BR(~chi_40 -> ~chi_10   h )
     5.16291192E-04    2     1000023        25   # BR(~chi_40 -> ~chi_20   h )
     1.44789438E-01    2     1000025        25   # BR(~chi_40 -> ~chi_30   h )
     2.22794380E-06    2     1000039        22   # BR(~chi_40 -> ~G        gam)
     7.11383037E-06    2     1000039        23   # BR(~chi_40 -> ~G        Z)
     1.17883769E-09    2     1000039        25   # BR(~chi_40 -> ~G        h)
     2.36389497E-09    2     1000039        35   # BR(~chi_40 -> ~G        H)
     5.78634304E-11    2     1000039        36   # BR(~chi_40 -> ~G        A)
#
#         PDG            Width
DECAY        25     4.22260198E-03   # h decays
#          BR         NDA      ID1       ID2
     6.02304391E-01    2           5        -5   # BR(h -> b       bb     )
     6.21756736E-02    2         -15        15   # BR(h -> tau+    tau-   )
     2.20074778E-04    2         -13        13   # BR(h -> mu+     mu-    )
     4.65635764E-04    2           3        -3   # BR(h -> s       sb     )
     2.00887143E-02    2           4        -4   # BR(h -> c       cb     )
     6.63446238E-02    2          21        21   # BR(h -> g       g      )
     2.30407114E-03    2          22        22   # BR(h -> gam     gam    )
     1.62505184E-03    2          22        23   # BR(h -> Z       gam    )
     2.16419030E-01    2          24       -24   # BR(h -> W+      W-     )
     2.80527334E-02    2          23        23   # BR(h -> Z       Z      )
#
#         PDG            Width
DECAY        35     3.78092283E+01   # H decays
#          BR         NDA      ID1       ID2
     1.46528043E-03    2           5        -5   # BR(H -> b       bb     )
     2.46432646E-04    2         -15        15   # BR(H -> tau+    tau-   )
     8.71231152E-07    2         -13        13   # BR(H -> mu+     mu-    )
     1.11549539E-06    2           3        -3   # BR(H -> s       sb     )
     1.00669015E-05    2           4        -4   # BR(H -> c       cb     )
     9.96072944E-01    2           6        -6   # BR(H -> t       tb     )
     7.97741903E-04    2          21        21   # BR(H -> g       g      )
     2.71744236E-06    2          22        22   # BR(H -> gam     gam    )
     1.16031142E-06    2          23        22   # BR(H -> Z       gam    )
     3.33718498E-04    2          24       -24   # BR(H -> W+      W-     )
     1.66404163E-04    2          23        23   # BR(H -> Z       Z      )
     9.01546516E-04    2          25        25   # BR(H -> h       h      )
     7.19548932E-24    2          36        36   # BR(H -> A       A      )
     2.90669134E-11    2          23        36   # BR(H -> Z       A      )
     6.47283714E-12    2          24       -37   # BR(H -> W+      H-     )
     6.47283714E-12    2         -24        37   # BR(H -> W-      H+     )
#
#         PDG            Width
DECAY        36     3.82379753E+01   # A decays
#          BR         NDA      ID1       ID2
     1.46820466E-03    2           5        -5   # BR(A -> b       bb     )
     2.43899326E-04    2         -15        15   # BR(A -> tau+    tau-   )
     8.62272224E-07    2         -13        13   # BR(A -> mu+     mu-    )
     1.13678144E-06    2           3        -3   # BR(A -> s       sb     )
     9.96183040E-06    2           4        -4   # BR(A -> c       cb     )
     9.97002554E-01    2           6        -6   # BR(A -> t       tb     )
     9.43681859E-04    2          21        21   # BR(A -> g       g      )
     3.13389327E-06    2          22        22   # BR(A -> gam     gam    )
     1.35290247E-06    2          23        22   # BR(A -> Z       gam    )
     3.25212087E-04    2          23        25   # BR(A -> Z       h      )
#
#         PDG            Width
DECAY        37     3.74471135E+01   # H+ decays
#          BR         NDA      ID1       ID2
     2.35147795E-06    2           4        -5   # BR(H+ -> c       bb     )
     2.49239561E-04    2         -15        16   # BR(H+ -> tau+    nu_tau )
     8.81151883E-07    2         -13        14   # BR(H+ -> mu+     nu_mu  )
     1.49495721E-08    2           2        -5   # BR(H+ -> u       bb     )
     5.45698246E-08    2           2        -3   # BR(H+ -> u       sb     )
     1.08732445E-05    2           4        -3   # BR(H+ -> c       sb     )
     9.99403276E-01    2           6        -5   # BR(H+ -> t       bb     )
     3.33309445E-04    2          24        25   # BR(H+ -> W+      h      )
     2.84499172E-13    2          24        36   # BR(H+ -> W+      A      )
