#
#                              ======================
#                              | THE SUSYHIT OUTPUT |
#                              ======================
#
#
#              ------------------------------------------------------
#              |     This is the output of the SUSY-HIT package     |
#              |  created by A.Djouadi, M.Muehlleitner and M.Spira. |
#              |  In case of problems with SUSY-HIT email to        |
#              |           margarete.muehlleitner@cern.ch           |
#              |           michael.spira@psi.ch                     |
#              |           abdelhak.djouadi@cern.ch                 |
#              ------------------------------------------------------
#
#              ------------------------------------------------------
#              |  SUSY Les Houches Accord - MSSM Spectrum + Decays  |
#              |              based on the decay programs           |
#              |                                                    |
#              |                     SDECAY 1.3b                    |
#              |                                                    |
#              |  Authors: M.Muhlleitner, A.Djouadi and Y.Mambrini  |
#              |  Ref.:    Comput.Phys.Commun.168(2005)46           |
#              |           [hep-ph/0311167]                         |
#              |                                                    |
#              |                     HDECAY 3.4                     |
#              |                                                    |
#              |  By: A.Djouadi,J.Kalinowski,M.Muhlleitner,M.Spira  |
#              |  Ref.:    Comput.Phys.Commun.108(1998)56           |
#              |           [hep-ph/9704448]                         |
#              |                                                    |
#              |                                                    |
#              |  If not stated otherwise all DRbar couplings and   |
#              |  soft SUSY breaking masses are given at the scale  |
#              |  Q=  0.50007759E+04
#              |                                                    |
#              ------------------------------------------------------
#
#
BLOCK DCINFO  # Decay Program information
     1   SDECAY/HDECAY # decay calculator
     2   1.3b  /3.4    # version number
#
BLOCK SPINFO  # Spectrum calculator information
     1    SOFTSUSY    # spectrum calculator                
     2    3.4.0       # version number                     
#
BLOCK MODSEL  # Model selection
     1     0   #  nonUniversal                                     
#
BLOCK SMINPUTS  # Standard Model inputs
         1     1.25778332E+02   # alpha_em^-1(M_Z)^MSbar
         2     1.16570000E-05   # G_F [GeV^-2]
         3     1.17200002E-01   # alpha_S(M_Z)^MSbar
         4     9.11876000E+01   # M_Z pole mass
         5     4.25000000E+00   # mb(mb)^MSbar
         6     1.72500000E+02   # mt pole mass
         7     1.77682000E+00   # mtau pole mass
#
BLOCK MINPAR  # Input parameters - minimal models
         3     1.00000000E+01   # tanb                
#
BLOCK EXTPAR  # Input parameters - non-minimal models
         0    -1.00000000E+00   # Set                 
         1     6.00000000E+01   # M_1(MX)             
         2     3.00000000E+03   # M_2(MX)             
         3     2.62338300E+03   # M_3(MX)             
        11     5.00000000E+03   # At(MX)              
        12     5.00000000E+03   # Ab(MX)              
        13     0.00000000E+00   # Atau(MX)            
        23    -1.87266000E+02   # mu(MX)              
        26     3.00000000E+03   # mA(pole)            
        31     5.00000000E+03   # meL(MX)             
        32     5.00000000E+03   # mmuL(MX)            
        33     5.00000000E+03   # mtauL(MX)           
        34     5.00000000E+03   # meR(MX)             
        35     5.00000000E+03   # mmuR(MX)            
        36     5.00000000E+03   # mtauR(MX)           
        41     5.00000000E+03   # mqL1(MX)            
        42     5.00000000E+03   # mqL2(MX)            
        43     5.00000000E+03   # mqL3(MX)            
        44     5.00000000E+03   # muR(MX)             
        45     5.00000000E+03   # mcR(MX)             
        46     5.00000000E+03   # mtR(MX)             
        47     5.00000000E+03   # mdR(MX)             
        48     5.00000000E+03   # msR(MX)             
        49     5.00000000E+03   # mbR(MX)             
#
BLOCK MASS  # Mass Spectrum
# PDG code           mass       particle
        24     8.00910662E+01   # W+
        25     1.24791051E+02   # h
        35     3.00009117E+03   # H
        36     2.99999978E+03   # A
        37     3.00148179E+03   # H+
         5     4.87878001E+00   # b-quark pole mass calculated from mb(mb)_Msbar
   1000001     5.09129970E+03   # ~d_L
   2000001     5.07347381E+03   # ~d_R
   1000002     5.09082988E+03   # ~u_L
   2000002     5.07316595E+03   # ~u_R
   1000003     5.09129970E+03   # ~s_L
   2000003     5.07347381E+03   # ~s_R
   1000004     5.09082988E+03   # ~c_L
   2000004     5.07316595E+03   # ~c_R
   1000005     5.03735915E+03   # ~b_1
   2000005     5.07153606E+03   # ~b_2
   1000006     4.93038123E+03   # ~t_1
   2000006     5.07905712E+03   # ~t_2
   1000011     5.01916014E+03   # ~e_L
   2000011     5.00595974E+03   # ~e_R
   1000012     5.01820758E+03   # ~nu_eL
   1000013     5.01916014E+03   # ~mu_L
   2000013     5.00595974E+03   # ~mu_R
   1000014     5.01820758E+03   # ~nu_muL
   1000015     5.00483256E+03   # ~tau_1
   2000015     5.01862562E+03   # ~tau_2
   1000016     5.01765275E+03   # ~nu_tauL
   1000021     3.00000036E+03   # ~g
   1000022     5.87059571E+01   # ~chi_10
   1000023     2.04233301E+02   # ~chi_20
   1000025    -2.05083636E+02   # ~chi_30
   1000035     3.07429586E+03   # ~chi_40
   1000024     2.00000459E+02   # ~chi_1+
   1000037     3.07446398E+03   # ~chi_2+
#
BLOCK NMIX  # Neutralino Mixing Matrix
  1  1     9.72111608E-01   # N_11
  1  2    -5.01151662E-04   # N_12
  1  3    -2.30093925E-01   # N_13
  1  4    -4.53382471E-02   # N_14
  2  1     1.94546411E-01   # N_21
  2  2     1.71129008E-02   # N_22
  2  3     6.83257407E-01   # N_23
  2  4     7.03575268E-01   # N_24
  3  1    -1.30960106E-01   # N_31
  3  2     1.85829324E-02   # N_32
  3  3    -6.92975437E-01   # N_33
  3  4     7.08723620E-01   # N_34
  4  1    -4.08585738E-04   # N_41
  4  2     9.99680735E-01   # N_42
  4  3     1.07002913E-03   # N_43
  4  4    -2.52411568E-02   # N_44
#
BLOCK UMIX  # Chargino Mixing Matrix U
  1  1    -1.50930761E-03   # U_11
  1  2     9.99998861E-01   # U_12
  2  1    -9.99998861E-01   # U_21
  2  2    -1.50930761E-03   # U_22
#
BLOCK VMIX  # Chargino Mixing Matrix V
  1  1     3.57061146E-02   # V_11
  1  2    -9.99362333E-01   # V_12
  2  1    -9.99362333E-01   # V_21
  2  2    -3.57061146E-02   # V_22
#
BLOCK STOPMIX  # Stop Mixing Matrix
  1  1    -4.98202236E-01   # cos(theta_t)
  1  2     8.67060858E-01   # sin(theta_t)
  2  1    -8.67060858E-01   # -sin(theta_t)
  2  2    -4.98202236E-01   # cos(theta_t)
#
BLOCK SBOTMIX  # Sbottom Mixing Matrix
  1  1     9.99421498E-01   # cos(theta_b)
  1  2    -3.40098417E-02   # sin(theta_b)
  2  1     3.40098417E-02   # -sin(theta_b)
  2  2     9.99421498E-01   # cos(theta_b)
#
BLOCK STAUMIX  # Stau Mixing Matrix
  1  1    -2.21920442E-02   # cos(theta_tau)
  1  2     9.99753726E-01   # sin(theta_tau)
  2  1    -9.99753726E-01   # -sin(theta_tau)
  2  2    -2.21920442E-02   # cos(theta_tau)
#
BLOCK ALPHA  # Higgs mixing
          -1.05501947E-01   # Mixing angle in the neutral Higgs boson sector
#
BLOCK HMIX Q=  5.00077587E+03  # DRbar Higgs Parameters
         1    -1.90692221E+02   # mu(Q)MSSM           
         2     9.46810343E+00   # tan                 
         3     2.41672990E+02   # higgs               
         4     8.79028733E+06   # mA^2(Q)MSSM         
#
BLOCK GAUGE Q=  5.00077587E+03  # The gauge couplings
     1     3.71138388E-01   # gprime(Q) DRbar
     2     6.34289473E-01   # g(Q) DRbar
     3     9.92484494E-01   # g3(Q) DRbar
#
BLOCK AU Q=  5.00077587E+03  # The trilinear couplings
  1  1     5.00000002E+03   # A_u(Q) DRbar
  2  2     5.00000002E+03   # A_c(Q) DRbar
  3  3     5.00000003E+03   # A_t(Q) DRbar
#
BLOCK AD Q=  5.00077587E+03  # The trilinear couplings
  1  1     5.00000001E+03   # A_d(Q) DRbar
  2  2     5.00000001E+03   # A_s(Q) DRbar
  3  3     5.00000001E+03   # A_b(Q) DRbar
#
BLOCK AE Q=  5.00077587E+03  # The trilinear couplings
  1  1     0.00000000E+00   # A_e(Q) DRbar
  2  2     3.17418053E-07   # A_mu(Q) DRbar
  3  3     3.17624521E-07   # A_tau(Q) DRbar
#
BLOCK Yu Q=  5.00077587E+03  # The Yukawa couplings
  1  1     0.00000000E+00   # y_u(Q) DRbar
  2  2     0.00000000E+00   # y_c(Q) DRbar
  3  3     8.22165460E-01   # y_t(Q) DRbar
#
BLOCK Yd Q=  5.00077587E+03  # The Yukawa couplings
  1  1     0.00000000E+00   # y_d(Q) DRbar
  2  2     0.00000000E+00   # y_s(Q) DRbar
  3  3     1.30092769E-01   # y_b(Q) DRbar
#
BLOCK Ye Q=  5.00077587E+03  # The Yukawa couplings
  1  1     0.00000000E+00   # y_e(Q) DRbar
  2  2     0.00000000E+00   # y_mu(Q) DRbar
  3  3     9.73414648E-02   # y_tau(Q) DRbar
#
BLOCK MSOFT Q=  5.00077587E+03  # The soft SUSY breaking masses at the scale Q
         1     6.00000000E+01   # M_1(Q)              
         2     3.00000000E+03   # M_2(Q)              
         3     2.62338300E+03   # M_3(Q)              
        21     8.69803117E+06   # mH1^2(Q)            
        22     5.46795746E+05   # mH2^2(Q)            
        31     5.00000000E+03   # meL(Q)              
        32     5.00000000E+03   # mmuL(Q)             
        33     5.00000000E+03   # mtauL(Q)            
        34     5.00000000E+03   # meR(Q)              
        35     5.00000000E+03   # mmuR(Q)             
        36     5.00000000E+03   # mtauR(Q)            
        41     4.99999999E+03   # mqL1(Q)             
        42     4.99999999E+03   # mqL2(Q)             
        43     4.99999999E+03   # mqL3(Q)             
        44     4.99999999E+03   # muR(Q)              
        45     4.99999999E+03   # mcR(Q)              
        46     4.99999999E+03   # mtR(Q)              
        47     4.99999999E+03   # mdR(Q)              
        48     4.99999999E+03   # msR(Q)              
        49     4.99999999E+03   # mbR(Q)              
#
#
#
#                             =================
#                             |The decay table|
#                             =================
#
# - The QCD corrections to the decays gluino -> squark  + quark
#                                     squark -> gaugino + quark_prime
#                                     squark -> squark_prime + Higgs
#                                     squark -> gluino  + quark
#   are included.
#
# - The multi-body decays for the inos, stops and sbottoms are included.
#
# - The loop induced decays for the gluino, neutralinos and stops
#   are included.
#
# - The SUSY decays of the top quark are included.
#
#
#         PDG            Width
DECAY         6     1.41004968E+00   # top decays
#          BR         NDA      ID1       ID2
     1.00000000E+00    2           5        24   # BR(t ->  b    W+)
#
#         PDG            Width
DECAY   1000021     2.44839530E-02   # gluino decays
#          BR         NDA      ID1       ID2
     7.39600679E-06    2     1000022        21   # BR(~g -> ~chi_10 g)
     2.58561196E-03    2     1000023        21   # BR(~g -> ~chi_20 g)
     2.51321150E-03    2     1000025        21   # BR(~g -> ~chi_30 g)
#           BR         NDA      ID1       ID2       ID3
     7.95564962E-03    3     1000022         1        -1   # BR(~g -> ~chi_10 d  db)
     2.86352551E-04    3     1000023         1        -1   # BR(~g -> ~chi_20 d  db)
     1.67186856E-04    3     1000025         1        -1   # BR(~g -> ~chi_30 d  db)
     2.70837886E-02    3     1000022         2        -2   # BR(~g -> ~chi_10 u  ub)
     1.20475928E-03    3     1000023         2        -2   # BR(~g -> ~chi_20 u  ub)
     3.87619058E-04    3     1000025         2        -2   # BR(~g -> ~chi_30 u  ub)
     7.95564962E-03    3     1000022         3        -3   # BR(~g -> ~chi_10 s  sb)
     2.86352551E-04    3     1000023         3        -3   # BR(~g -> ~chi_20 s  sb)
     1.67186856E-04    3     1000025         3        -3   # BR(~g -> ~chi_30 s  sb)
     2.70837886E-02    3     1000022         4        -4   # BR(~g -> ~chi_10 c  cb)
     1.20475928E-03    3     1000023         4        -4   # BR(~g -> ~chi_20 c  cb)
     3.87619058E-04    3     1000025         4        -4   # BR(~g -> ~chi_30 c  cb)
     8.66906312E-03    3     1000022         5        -5   # BR(~g -> ~chi_10 b  bb)
     5.24300770E-03    3     1000023         5        -5   # BR(~g -> ~chi_20 b  bb)
     5.26945151E-03    3     1000025         5        -5   # BR(~g -> ~chi_30 b  bb)
     2.75112847E-02    3     1000022         6        -6   # BR(~g -> ~chi_10 t  tb)
     2.18544193E-01    3     1000023         6        -6   # BR(~g -> ~chi_20 t  tb)
     2.10146863E-01    3     1000025         6        -6   # BR(~g -> ~chi_30 t  tb)
     5.19059021E-05    3     1000024         1        -2   # BR(~g -> ~chi_1+ d  ub)
     5.19059021E-05    3    -1000024         2        -1   # BR(~g -> ~chi_1- u  db)
     5.19059021E-05    3     1000024         3        -4   # BR(~g -> ~chi_1+ s  cb)
     5.19059021E-05    3    -1000024         4        -3   # BR(~g -> ~chi_1- c  sb)
     2.22565791E-01    3     1000024         5        -6   # BR(~g -> ~chi_1+ b  tb)
     2.22565791E-01    3    -1000024         6        -5   # BR(~g -> ~chi_1- t  bb)
#
#         PDG            Width
DECAY   1000006     2.53985485E+02   # stop1 decays
#          BR         NDA      ID1       ID2
     3.08919419E-02    2     1000022         6   # BR(~t_1 -> ~chi_10 t )
     1.37276933E-01    2     1000023         6   # BR(~t_1 -> ~chi_20 t )
     1.21906243E-01    2     1000025         6   # BR(~t_1 -> ~chi_30 t )
     7.78086636E-03    2     1000035         6   # BR(~t_1 -> ~chi_40 t )
     1.93112301E-01    2     1000024         5   # BR(~t_1 -> ~chi_1+ b )
     1.55117243E-02    2     1000037         5   # BR(~t_1 -> ~chi_2+ b )
     4.93519991E-01    2     1000021         6   # BR(~t_1 -> ~g      t )
#
#         PDG            Width
DECAY   2000006     2.60329463E+02   # stop2 decays
#          BR         NDA      ID1       ID2
     1.57798214E-02    2     1000022         6   # BR(~t_2 -> ~chi_10 t )
     1.21116551E-01    2     1000023         6   # BR(~t_2 -> ~chi_20 t )
     1.39184026E-01    2     1000025         6   # BR(~t_2 -> ~chi_30 t )
     2.22088754E-02    2     1000035         6   # BR(~t_2 -> ~chi_40 t )
     7.23372001E-02    2     1000024         5   # BR(~t_2 -> ~chi_1+ b )
     4.42289088E-02    2     1000037         5   # BR(~t_2 -> ~chi_2+ b )
     5.80846396E-01    2     1000021         6   # BR(~t_2 -> ~g      t )
     9.97366322E-04    2     1000006        25   # BR(~t_2 -> ~t_1    h )
     3.30085573E-03    2     1000006        23   # BR(~t_2 -> ~t_1    Z )
#
#         PDG            Width
DECAY   1000005     2.34640602E+02   # sbottom1 decays
#          BR         NDA      ID1       ID2
     3.56577901E-03    2     1000022         5   # BR(~b_1 -> ~chi_10 b )
     3.28386040E-03    2     1000023         5   # BR(~b_1 -> ~chi_20 b )
     3.50396162E-03    2     1000025         5   # BR(~b_1 -> ~chi_30 b )
     3.28473652E-02    2     1000035         5   # BR(~b_1 -> ~chi_40 b )
     2.85354324E-01    2    -1000024         6   # BR(~b_1 -> ~chi_1- t )
     6.59412137E-02    2    -1000037         6   # BR(~b_1 -> ~chi_2- t )
     6.03294665E-01    2     1000021         5   # BR(~b_1 -> ~g      b )
     2.20883078E-03    2     1000006       -24   # BR(~b_1 -> ~t_1    W-)
#
#         PDG            Width
DECAY   2000005     1.50878661E+02   # sbottom2 decays
#          BR         NDA      ID1       ID2
     1.88781835E-02    2     1000022         5   # BR(~b_2 -> ~chi_10 b )
     6.13372817E-03    2     1000023         5   # BR(~b_2 -> ~chi_20 b )
     5.87731094E-03    2     1000025         5   # BR(~b_2 -> ~chi_30 b )
     4.60053544E-05    2     1000035         5   # BR(~b_2 -> ~chi_40 b )
     1.16155980E-02    2    -1000024         6   # BR(~b_2 -> ~chi_1- t )
     9.24012659E-05    2    -1000037         6   # BR(~b_2 -> ~chi_2- t )
     9.57339492E-01    2     1000021         5   # BR(~b_2 -> ~g      b )
     1.72809727E-05    2     1000006       -24   # BR(~b_2 -> ~t_1    W-)
#
#         PDG            Width
DECAY   1000002     1.70859688E+02   # sup_L decays
#          BR         NDA      ID1       ID2
     4.09975374E-03    2     1000022         2   # BR(~u_L -> ~chi_10 u)
     3.46707959E-04    2     1000023         2   # BR(~u_L -> ~chi_20 u)
     5.53993411E-06    2     1000025         2   # BR(~u_L -> ~chi_30 u)
     4.67460911E-02    2     1000035         2   # BR(~u_L -> ~chi_40 u)
     2.91672918E-04    2     1000024         1   # BR(~u_L -> ~chi_1+ d)
     9.34359164E-02    2     1000037         1   # BR(~u_L -> ~chi_2+ d)
     8.55074318E-01    2     1000021         2   # BR(~u_L -> ~g      u)
#
#         PDG            Width
DECAY   2000002     1.56391077E+02   # sup_R decays
#          BR         NDA      ID1       ID2
     7.17885311E-02    2     1000022         2   # BR(~u_R -> ~chi_10 u)
     2.86828429E-03    2     1000023         2   # BR(~u_R -> ~chi_20 u)
     1.29970084E-03    2     1000025         2   # BR(~u_R -> ~chi_30 u)
     5.13432482E-09    2     1000035         2   # BR(~u_R -> ~chi_40 u)
     9.24043479E-01    2     1000021         2   # BR(~u_R -> ~g      u)
#
#         PDG            Width
DECAY   1000001     1.70876137E+02   # sdown_L decays
#          BR         NDA      ID1       ID2
     4.14332277E-03    2     1000022         1   # BR(~d_L -> ~chi_10 d)
     4.96341456E-05    2     1000023         1   # BR(~d_L -> ~chi_20 d)
     2.22689961E-04    2     1000025         1   # BR(~d_L -> ~chi_30 d)
     4.67706708E-02    2     1000035         1   # BR(~d_L -> ~chi_40 d)
     5.21153841E-07    2    -1000024         2   # BR(~d_L -> ~chi_1- u)
     9.35743326E-02    2    -1000037         2   # BR(~d_L -> ~chi_2- u)
     8.55238829E-01    2     1000021         1   # BR(~d_L -> ~g      d)
#
#         PDG            Width
DECAY   2000001     1.47509703E+02   # sdown_R decays
#          BR         NDA      ID1       ID2
     1.90288923E-02    2     1000022         1   # BR(~d_R -> ~chi_10 d)
     7.60292596E-04    2     1000023         1   # BR(~d_R -> ~chi_20 d)
     3.44510107E-04    2     1000025         1   # BR(~d_R -> ~chi_30 d)
     1.36113733E-09    2     1000035         1   # BR(~d_R -> ~chi_40 d)
     9.79866304E-01    2     1000021         1   # BR(~d_R -> ~g      d)
#
#         PDG            Width
DECAY   1000004     1.70859688E+02   # scharm_L decays
#          BR         NDA      ID1       ID2
     4.09975374E-03    2     1000022         4   # BR(~c_L -> ~chi_10 c)
     3.46707959E-04    2     1000023         4   # BR(~c_L -> ~chi_20 c)
     5.53993411E-06    2     1000025         4   # BR(~c_L -> ~chi_30 c)
     4.67460911E-02    2     1000035         4   # BR(~c_L -> ~chi_40 c)
     2.91672918E-04    2     1000024         3   # BR(~c_L -> ~chi_1+ s)
     9.34359164E-02    2     1000037         3   # BR(~c_L -> ~chi_2+ s)
     8.55074318E-01    2     1000021         4   # BR(~c_L -> ~g      c)
#
#         PDG            Width
DECAY   2000004     1.56391077E+02   # scharm_R decays
#          BR         NDA      ID1       ID2
     7.17885311E-02    2     1000022         4   # BR(~c_R -> ~chi_10 c)
     2.86828429E-03    2     1000023         4   # BR(~c_R -> ~chi_20 c)
     1.29970084E-03    2     1000025         4   # BR(~c_R -> ~chi_30 c)
     5.13432482E-09    2     1000035         4   # BR(~c_R -> ~chi_40 c)
     9.24043479E-01    2     1000021         4   # BR(~c_R -> ~g      c)
#
#         PDG            Width
DECAY   1000003     1.70876137E+02   # sstrange_L decays
#          BR         NDA      ID1       ID2
     4.14332277E-03    2     1000022         3   # BR(~s_L -> ~chi_10 s)
     4.96341456E-05    2     1000023         3   # BR(~s_L -> ~chi_20 s)
     2.22689961E-04    2     1000025         3   # BR(~s_L -> ~chi_30 s)
     4.67706708E-02    2     1000035         3   # BR(~s_L -> ~chi_40 s)
     5.21153841E-07    2    -1000024         4   # BR(~s_L -> ~chi_1- c)
     9.35743326E-02    2    -1000037         4   # BR(~s_L -> ~chi_2- c)
     8.55238829E-01    2     1000021         3   # BR(~s_L -> ~g      s)
#
#         PDG            Width
DECAY   2000003     1.47509703E+02   # sstrange_R decays
#          BR         NDA      ID1       ID2
     1.90288923E-02    2     1000022         3   # BR(~s_R -> ~chi_10 s)
     7.60292596E-04    2     1000023         3   # BR(~s_R -> ~chi_20 s)
     3.44510107E-04    2     1000025         3   # BR(~s_R -> ~chi_30 s)
     1.36113733E-09    2     1000035         3   # BR(~s_R -> ~chi_40 s)
     9.79866304E-01    2     1000021         3   # BR(~s_R -> ~g      s)
#
#         PDG            Width
DECAY   1000011     3.04116834E+01   # selectron_L decays
#          BR         NDA      ID1       ID2
     2.13260441E-01    2     1000022        11   # BR(~e_L -> ~chi_10 e-)
     1.12879780E-02    2     1000023        11   # BR(~e_L -> ~chi_20 e-)
     2.21791431E-03    2     1000025        11   # BR(~e_L -> ~chi_30 e-)
     2.57574613E-01    2     1000035        11   # BR(~e_L -> ~chi_40 e-)
     2.99965296E-06    2    -1000024        12   # BR(~e_L -> ~chi_1- nu_e)
     5.15656054E-01    2    -1000037        12   # BR(~e_L -> ~chi_2- nu_e)
#
#         PDG            Width
DECAY   2000011     2.74237366E+01   # selectron_R decays
#          BR         NDA      ID1       ID2
     9.45160175E-01    2     1000022        11   # BR(~e_R -> ~chi_10 e-)
     3.77391499E-02    2     1000023        11   # BR(~e_R -> ~chi_20 e-)
     1.71006106E-02    2     1000025        11   # BR(~e_R -> ~chi_30 e-)
     6.47922305E-08    2     1000035        11   # BR(~e_R -> ~chi_40 e-)
#
#         PDG            Width
DECAY   1000013     3.04116834E+01   # smuon_L decays
#          BR         NDA      ID1       ID2
     2.13260441E-01    2     1000022        13   # BR(~mu_L -> ~chi_10 mu-)
     1.12879780E-02    2     1000023        13   # BR(~mu_L -> ~chi_20 mu-)
     2.21791431E-03    2     1000025        13   # BR(~mu_L -> ~chi_30 mu-)
     2.57574613E-01    2     1000035        13   # BR(~mu_L -> ~chi_40 mu-)
     2.99965296E-06    2    -1000024        14   # BR(~mu_L -> ~chi_1- nu_mu)
     5.15656054E-01    2    -1000037        14   # BR(~mu_L -> ~chi_2- nu_mu)
#
#         PDG            Width
DECAY   2000013     2.74237366E+01   # smuon_R decays
#          BR         NDA      ID1       ID2
     9.45160175E-01    2     1000022        13   # BR(~mu_R -> ~chi_10 mu-)
     3.77391499E-02    2     1000023        13   # BR(~mu_R -> ~chi_20 mu-)
     1.71006106E-02    2     1000025        13   # BR(~mu_R -> ~chi_30 mu-)
     6.47922305E-08    2     1000035        13   # BR(~mu_R -> ~chi_40 mu-)
#
#         PDG            Width
DECAY   1000015     2.92990134E+01   # stau_1 decays
#          BR         NDA      ID1       ID2
     8.86705969E-01    2     1000022        15   # BR(~tau_1 -> ~chi_10  tau-)
     4.98515135E-02    2     1000023        15   # BR(~tau_1 -> ~chi_20  tau-)
     3.09749616E-02    2     1000025        15   # BR(~tau_1 -> ~chi_30  tau-)
     1.33201110E-04    2     1000035        15   # BR(~tau_1 -> ~chi_40  tau-)
     3.20678403E-02    2    -1000024        16   # BR(~tau_1 -> ~chi_1-  nu_tau)
     2.66514780E-04    2    -1000037        16   # BR(~tau_1 -> ~chi_2-  nu_tau)
#
#         PDG            Width
DECAY   2000015     3.13448132E+01   # stau_2 decays
#          BR         NDA      ID1       ID2
     2.07985224E-01    2     1000022        15   # BR(~tau_2 -> ~chi_10  tau-)
     2.54122933E-02    2     1000023        15   # BR(~tau_2 -> ~chi_20  tau-)
     1.70088321E-02    2     1000025        15   # BR(~tau_2 -> ~chi_30  tau-)
     2.49690449E-01    2     1000035        15   # BR(~tau_2 -> ~chi_40  tau-)
     3.08551400E-05    2    -1000024        16   # BR(~tau_2 -> ~chi_1-  nu_tau)
     4.99872347E-01    2    -1000037        16   # BR(~tau_2 -> ~chi_2-  nu_tau)
#
#         PDG            Width
DECAY   1000012     3.04146235E+01   # snu_eL decays
#          BR         NDA      ID1       ID2
     2.13952024E-01    2     1000022        12   # BR(~nu_eL -> ~chi_10 nu_e)
     6.15662847E-03    2     1000023        12   # BR(~nu_eL -> ~chi_20 nu_e)
     5.96572037E-03    2     1000025        12   # BR(~nu_eL -> ~chi_30 nu_e)
     2.57629773E-01    2     1000035        12   # BR(~nu_eL -> ~chi_40 nu_e)
     1.67832375E-03    2     1000024        11   # BR(~nu_eL -> ~chi_1+ e-)
     5.14617531E-01    2     1000037        11   # BR(~nu_eL -> ~chi_2+ e-)
#
#         PDG            Width
DECAY   1000014     3.04146235E+01   # snu_muL decays
#          BR         NDA      ID1       ID2
     2.13952024E-01    2     1000022        14   # BR(~nu_muL -> ~chi_10 nu_mu)
     6.15662847E-03    2     1000023        14   # BR(~nu_muL -> ~chi_20 nu_mu)
     5.96572037E-03    2     1000025        14   # BR(~nu_muL -> ~chi_30 nu_mu)
     2.57629773E-01    2     1000035        14   # BR(~nu_muL -> ~chi_40 nu_mu)
     1.67832375E-03    2     1000024        13   # BR(~nu_muL -> ~chi_1+ mu-)
     5.14617531E-01    2     1000037        13   # BR(~nu_muL -> ~chi_2+ mu-)
#
#         PDG            Width
DECAY   1000016     3.13478805E+01   # snu_tauL decays
#          BR         NDA      ID1       ID2
     2.07559500E-01    2     1000022        16   # BR(~nu_tauL -> ~chi_10 nu_tau)
     5.97267482E-03    2     1000023        16   # BR(~nu_tauL -> ~chi_20 nu_tau)
     5.78747081E-03    2     1000025        16   # BR(~nu_tauL -> ~chi_30 nu_tau)
     2.49865831E-01    2     1000035        16   # BR(~nu_tauL -> ~chi_40 nu_tau)
     3.17056847E-02    2     1000024        15   # BR(~nu_tauL -> ~chi_1+ tau-)
     4.99108839E-01    2     1000037        15   # BR(~nu_tauL -> ~chi_2+ tau-)
#
#         PDG            Width
DECAY   1000024     8.35856145E-02   # chargino1+ decays
#          BR         NDA      ID1       ID2
     1.00000000E+00    2     1000022        24   # BR(~chi_1+ -> ~chi_10  W+)
#
#         PDG            Width
DECAY   1000037     2.32952197E+01   # chargino2+ decays
#          BR         NDA      ID1       ID2
     2.53776489E-01    2     1000024        23   # BR(~chi_2+ -> ~chi_1+  Z )
     7.55859798E-04    2     1000022        24   # BR(~chi_2+ -> ~chi_10  W+)
     2.44840273E-01    2     1000023        24   # BR(~chi_2+ -> ~chi_20  W+)
     2.44863422E-01    2     1000025        24   # BR(~chi_2+ -> ~chi_30  W+)
     2.55726478E-01    2     1000024        25   # BR(~chi_2+ -> ~chi_1+  h )
     3.74768565E-05    2     1000022        37   # BR(~chi_2+ -> ~chi_10  H+)
#
#         PDG            Width
DECAY   1000022     0.00000000E+00   # neutralino1 decays
#
#         PDG            Width
DECAY   1000023     6.58302226E-02   # neutralino2 decays
#          BR         NDA      ID1       ID2
     5.81828972E-01    2     1000022        23   # BR(~chi_20 -> ~chi_10   Z )
     4.18171028E-01    2     1000022        25   # BR(~chi_20 -> ~chi_10   h )
#
#         PDG            Width
DECAY   1000025     4.88151535E-02   # neutralino3 decays
#          BR         NDA      ID1       ID2
     9.02152679E-01    2     1000022        23   # BR(~chi_30 -> ~chi_10   Z )
     9.78473211E-02    2     1000022        25   # BR(~chi_30 -> ~chi_10   h )
#
#         PDG            Width
DECAY   1000035     2.32974505E+01   # neutralino4 decays
#          BR         NDA      ID1       ID2
     7.78296068E-04    2     1000022        23   # BR(~chi_40 -> ~chi_10   Z )
     1.35970818E-01    2     1000023        23   # BR(~chi_40 -> ~chi_20   Z )
     1.16845011E-01    2     1000025        23   # BR(~chi_40 -> ~chi_30   Z )
     2.45442449E-01    2     1000024       -24   # BR(~chi_40 -> ~chi_1+   W-)
     2.45442449E-01    2    -1000024        24   # BR(~chi_40 -> ~chi_1-   W+)
     1.15441376E-05    2     1000022        25   # BR(~chi_40 -> ~chi_10   h )
     3.59586245E-05    2     1000022        35   # BR(~chi_40 -> ~chi_10   H )
     3.92170199E-06    2     1000022        36   # BR(~chi_40 -> ~chi_10   A )
     1.18329281E-01    2     1000023        25   # BR(~chi_40 -> ~chi_20   h )
     1.37140272E-01    2     1000025        25   # BR(~chi_40 -> ~chi_30   h )
#
#         PDG            Width
DECAY        25     4.08189528E-03   # h decays
#          BR         NDA      ID1       ID2
     6.08701049E-01    2           5        -5   # BR(h -> b       bb     )
     6.35615815E-02    2         -15        15   # BR(h -> tau+    tau-   )
     2.25031032E-04    2         -13        13   # BR(h -> mu+     mu-    )
     4.77038299E-04    2           3        -3   # BR(h -> s       sb     )
     2.06675329E-02    2           4        -4   # BR(h -> c       cb     )
     6.68759160E-02    2          21        21   # BR(h -> g       g      )
     2.29655232E-03    2          22        22   # BR(h -> gam     gam    )
     1.48409075E-03    2          22        23   # BR(h -> Z       gam    )
     2.09529798E-01    2          24       -24   # BR(h -> W+      W-     )
     2.49609043E-02    2          23        23   # BR(h -> Z       Z      )
     1.22050610E-03    2     1000022   1000022   # BR(h -> ~chi_10 ~chi_10)
#
#         PDG            Width
DECAY        35     8.81176671E+00   # H decays
#          BR         NDA      ID1       ID2
     3.58901468E-01    2           5        -5   # BR(H -> b       bb     )
     6.32004458E-02    2         -15        15   # BR(H -> tau+    tau-   )
     2.23481796E-04    2         -13        13   # BR(H -> mu+     mu-    )
     2.73954282E-04    2           3        -3   # BR(H -> s       sb     )
     1.53379730E-06    2           4        -4   # BR(H -> c       cb     )
     1.53238509E-01    2           6        -6   # BR(H -> t       tb     )
     5.09983541E-05    2          21        21   # BR(H -> g       g      )
     1.46859883E-07    2          22        22   # BR(H -> gam     gam    )
     9.03912699E-08    2          23        22   # BR(H -> Z       gam    )
     7.52908329E-05    2          24       -24   # BR(H -> W+      W-     )
     3.75977506E-05    2          23        23   # BR(H -> Z       Z      )
     2.67394653E-04    2          25        25   # BR(H -> h       h      )
     1.38004931E-24    2          36        36   # BR(H -> A       A      )
     5.55680793E-19    2          23        36   # BR(H -> Z       A      )
     3.48492812E-03    2     1000024  -1000024   # BR(H -> ~chi_1+ ~chi_1-)
     4.37536842E-02    2     1000022   1000022   # BR(H -> ~chi_10 ~chi_10)
     1.24691817E-02    2     1000023   1000023   # BR(H -> ~chi_20 ~chi_20)
     8.49339032E-03    2     1000025   1000025   # BR(H -> ~chi_30 ~chi_30)
     2.02496827E-01    2     1000022   1000023   # BR(H -> ~chi_10 ~chi_20)
     1.31812703E-01    2     1000022   1000025   # BR(H -> ~chi_10 ~chi_30)
     2.12183748E-02    2     1000023   1000025   # BR(H -> ~chi_20 ~chi_30)
#
#         PDG            Width
DECAY        36     8.81674948E+00   # A decays
#          BR         NDA      ID1       ID2
     3.58821559E-01    2           5        -5   # BR(A -> b       bb     )
     6.31665572E-02    2         -15        15   # BR(A -> tau+    tau-   )
     2.23361651E-04    2         -13        13   # BR(A -> mu+     mu-    )
     2.74007295E-04    2           3        -3   # BR(A -> s       sb     )
     1.53895039E-06    2           4        -4   # BR(A -> c       cb     )
     1.53668500E-01    2           6        -6   # BR(A -> t       tb     )
     1.52046010E-04    2          21        21   # BR(A -> g       g      )
     5.34016289E-07    2          22        22   # BR(A -> gam     gam    )
     1.83970965E-07    2          23        22   # BR(A -> Z       gam    )
     7.49630195E-05    2          23        25   # BR(A -> Z       h      )
     3.61002991E-03    2     1000024  -1000024   # BR(A -> ~chi_1+ ~chi_1-)
     4.02941799E-02    2     1000022   1000022   # BR(A -> ~chi_10 ~chi_10)
     8.20018168E-03    2     1000023   1000023   # BR(A -> ~chi_20 ~chi_20)
     1.33567128E-02    2     1000025   1000025   # BR(A -> ~chi_30 ~chi_30)
     1.28628835E-01    2     1000022   1000023   # BR(A -> ~chi_10 ~chi_20)
     2.08736506E-01    2     1000022   1000025   # BR(A -> ~chi_10 ~chi_30)
     2.07903035E-02    2     1000023   1000025   # BR(A -> ~chi_20 ~chi_30)
#
#         PDG            Width
DECAY        37     8.75929215E+00   # H+ decays
#          BR         NDA      ID1       ID2
     5.75328356E-04    2           4        -5   # BR(H+ -> c       bb     )
     6.36123129E-02    2         -15        16   # BR(H+ -> tau+    nu_tau )
     2.24937876E-04    2         -13        14   # BR(H+ -> mu+     nu_mu  )
     3.68208201E-06    2           2        -5   # BR(H+ -> u       bb     )
     1.31985393E-05    2           2        -3   # BR(H+ -> u       sb     )
     2.72947696E-04    2           4        -3   # BR(H+ -> c       sb     )
     5.11066504E-01    2           6        -5   # BR(H+ -> t       bb     )
     7.56153538E-05    2          24        25   # BR(H+ -> W+      h      )
     1.07249486E-12    2          24        36   # BR(H+ -> W+      A      )
     3.98130391E-01    2     1000024   1000022   # BR(H+ -> ~chi_1+ ~chi_10)
     2.17801213E-02    2     1000024   1000023   # BR(H+ -> ~chi_1+ ~chi_20)
     4.24496044E-03    2     1000024   1000025   # BR(H+ -> ~chi_1+ ~chi_30)
