#
#                              ======================
#                              | THE SUSYHIT OUTPUT |
#                              ======================
#
#
#              ------------------------------------------------------
#              |     This is the output of the SUSY-HIT package     |
#              |  created by A.Djouadi, M.Muehlleitner and M.Spira. |
#              |  In case of problems with SUSY-HIT email to        |
#              |           margarete.muehlleitner@cern.ch           |
#              |           michael.spira@psi.ch                     |
#              |           abdelhak.djouadi@cern.ch                 |
#              ------------------------------------------------------
#
#              ------------------------------------------------------
#              |  SUSY Les Houches Accord - MSSM Spectrum + Decays  |
#              |              based on the decay programs           |
#              |                                                    |
#              |                     SDECAY 1.3b                    |
#              |                                                    |
#              |  Authors: M.Muhlleitner, A.Djouadi and Y.Mambrini  |
#              |  Ref.:    Comput.Phys.Commun.168(2005)46           |
#              |           [hep-ph/0311167]                         |
#              |                                                    |
#              |                     HDECAY 3.4                     |
#              |                                                    |
#              |  By: A.Djouadi,J.Kalinowski,M.Muhlleitner,M.Spira  |
#              |  Ref.:    Comput.Phys.Commun.108(1998)56           |
#              |           [hep-ph/9704448]                         |
#              |                                                    |
#              |                                                    |
#              |  If not stated otherwise all DRbar couplings and   |
#              |  soft SUSY breaking masses are given at the scale  |
#              |  Q=  0.50007256E+04
#              |                                                    |
#              ------------------------------------------------------
#
#
BLOCK DCINFO  # Decay Program information
     1   SDECAY/HDECAY # decay calculator
     2   1.3b  /3.4    # version number
#
BLOCK SPINFO  # Spectrum calculator information
     1    SOFTSUSY    # spectrum calculator                
     2    3.4.0       # version number                     
#
BLOCK MODSEL  # Model selection
     1     0   #  nonUniversal                                     
#
BLOCK SMINPUTS  # Standard Model inputs
         1     1.25778332E+02   # alpha_em^-1(M_Z)^MSbar
         2     1.16570000E-05   # G_F [GeV^-2]
         3     1.17200002E-01   # alpha_S(M_Z)^MSbar
         4     9.11876000E+01   # M_Z pole mass
         5     4.25000000E+00   # mb(mb)^MSbar
         6     1.72500000E+02   # mt pole mass
         7     1.77682000E+00   # mtau pole mass
#
BLOCK MINPAR  # Input parameters - minimal models
         3     1.00000000E+01   # tanb                
#
BLOCK EXTPAR  # Input parameters - non-minimal models
         0    -1.00000000E+00   # Set                 
         1     6.00000000E+01   # M_1(MX)             
         2     3.00000000E+03   # M_2(MX)             
         3     2.04382000E+03   # M_3(MX)             
        11     5.00000000E+03   # At(MX)              
        12     5.00000000E+03   # Ab(MX)              
        13     0.00000000E+00   # Atau(MX)            
        23    -1.34878200E+03   # mu(MX)              
        26     3.00000000E+03   # mA(pole)            
        31     5.00000000E+03   # meL(MX)             
        32     5.00000000E+03   # mmuL(MX)            
        33     5.00000000E+03   # mtauL(MX)           
        34     5.00000000E+03   # meR(MX)             
        35     5.00000000E+03   # mmuR(MX)            
        36     5.00000000E+03   # mtauR(MX)           
        41     5.00000000E+03   # mqL1(MX)            
        42     5.00000000E+03   # mqL2(MX)            
        43     5.00000000E+03   # mqL3(MX)            
        44     5.00000000E+03   # muR(MX)             
        45     5.00000000E+03   # mcR(MX)             
        46     5.00000000E+03   # mtR(MX)             
        47     5.00000000E+03   # mdR(MX)             
        48     5.00000000E+03   # msR(MX)             
        49     5.00000000E+03   # mbR(MX)             
#
BLOCK MASS  # Mass Spectrum
# PDG code           mass       particle
        24     8.00965566E+01   # W+
        25     1.24820597E+02   # h
        35     3.00008421E+03   # H
        36     2.99999990E+03   # A
        37     3.00087272E+03   # H+
         5     4.87878001E+00   # b-quark pole mass calculated from mb(mb)_Msbar
   1000001     5.07806178E+03   # ~d_L
   2000001     5.06030370E+03   # ~d_R
   1000002     5.07759012E+03   # ~u_L
   2000002     5.06002743E+03   # ~u_R
   1000003     5.07806178E+03   # ~s_L
   2000003     5.06030370E+03   # ~s_R
   1000004     5.07759012E+03   # ~c_L
   2000004     5.06002743E+03   # ~c_R
   1000005     5.02392462E+03   # ~b_1
   2000005     5.05905798E+03   # ~b_2
   1000006     4.91580932E+03   # ~t_1
   2000006     5.06911185E+03   # ~t_2
   1000011     5.01905130E+03   # ~e_L
   2000011     5.00591298E+03   # ~e_R
   1000012     5.01810332E+03   # ~nu_eL
   1000013     5.01905130E+03   # ~mu_L
   2000013     5.00591298E+03   # ~mu_R
   1000014     5.01810332E+03   # ~nu_muL
   1000015     5.00442502E+03   # ~tau_1
   2000015     5.01894679E+03   # ~tau_2
   1000016     5.01756278E+03   # ~nu_tauL
   1000021     2.40000054E+03   # ~g
   1000022     6.03032267E+01   # ~chi_10
   1000023     1.39947358E+03   # ~chi_20
   1000025    -1.40186098E+03   # ~chi_30
   1000035     3.07431359E+03   # ~chi_40
   1000024     1.40000088E+03   # ~chi_1+
   1000037     3.07448102E+03   # ~chi_2+
#
BLOCK NMIX  # Neutralino Mixing Matrix
  1  1     9.99491106E-01   # N_11
  1  2     1.47266402E-04   # N_12
  1  3    -3.18380488E-02   # N_13
  1  4     1.96130157E-03   # N_14
  2  1     2.11270943E-02   # N_21
  2  2     2.90570546E-02   # N_22
  2  3     7.06893188E-01   # N_23
  2  4     7.06407358E-01   # N_24
  3  1    -2.38952822E-02   # N_31
  3  2     1.35647890E-02   # N_32
  3  3    -7.06518432E-01   # N_33
  3  4     7.07161026E-01   # N_34
  4  1    -4.37172968E-04   # N_41
  4  2     9.99485699E-01   # N_42
  4  3    -1.09574072E-02   # N_43
  4  4    -3.01343942E-02   # N_44
#
BLOCK UMIX  # Chargino Mixing Matrix U
  1  1     1.55087802E-02   # U_11
  1  2     9.99879732E-01   # U_12
  2  1    -9.99879732E-01   # U_21
  2  2     1.55087802E-02   # U_22
#
BLOCK VMIX  # Chargino Mixing Matrix V
  1  1     4.26402610E-02   # V_11
  1  2    -9.99090490E-01   # V_12
  2  1    -9.99090490E-01   # V_21
  2  2    -4.26402610E-02   # V_22
#
BLOCK STOPMIX  # Stop Mixing Matrix
  1  1    -5.08528086E-01   # cos(theta_t)
  1  2     8.61045403E-01   # sin(theta_t)
  2  1    -8.61045403E-01   # -sin(theta_t)
  2  2    -5.08528086E-01   # cos(theta_t)
#
BLOCK SBOTMIX  # Sbottom Mixing Matrix
  1  1     9.95135603E-01   # cos(theta_b)
  1  2    -9.85146265E-02   # sin(theta_b)
  2  1     9.85146265E-02   # -sin(theta_b)
  2  2     9.95135603E-01   # cos(theta_b)
#
BLOCK STAUMIX  # Stau Mixing Matrix
  1  1    -1.57626096E-01   # cos(theta_tau)
  1  2     9.87498868E-01   # sin(theta_tau)
  2  1    -9.87498868E-01   # -sin(theta_tau)
  2  2    -1.57626096E-01   # cos(theta_tau)
#
BLOCK ALPHA  # Higgs mixing
          -1.05473094E-01   # Mixing angle in the neutral Higgs boson sector
#
BLOCK HMIX Q=  5.00072558E+03  # DRbar Higgs Parameters
         1    -1.37360883E+03   # mu(Q)MSSM           
         2     9.46964834E+00   # tan                 
         3     2.41933863E+02   # higgs               
         4     8.42243073E+06   # mA^2(Q)MSSM         
#
BLOCK GAUGE Q=  5.00072558E+03  # The gauge couplings
     1     3.70711185E-01   # gprime(Q) DRbar
     2     6.32147975E-01   # g(Q) DRbar
     3     9.95813781E-01   # g3(Q) DRbar
#
BLOCK AU Q=  5.00072558E+03  # The trilinear couplings
  1  1     5.00000002E+03   # A_u(Q) DRbar
  2  2     5.00000002E+03   # A_c(Q) DRbar
  3  3     5.00000002E+03   # A_t(Q) DRbar
#
BLOCK AD Q=  5.00072558E+03  # The trilinear couplings
  1  1     5.00000001E+03   # A_d(Q) DRbar
  2  2     5.00000001E+03   # A_s(Q) DRbar
  3  3     5.00000001E+03   # A_b(Q) DRbar
#
BLOCK AE Q=  5.00072558E+03  # The trilinear couplings
  1  1     0.00000000E+00   # A_e(Q) DRbar
  2  2     2.37312010E-07   # A_mu(Q) DRbar
  3  3     2.37190394E-07   # A_tau(Q) DRbar
#
BLOCK Yu Q=  5.00072558E+03  # The Yukawa couplings
  1  1     0.00000000E+00   # y_u(Q) DRbar
  2  2     0.00000000E+00   # y_c(Q) DRbar
  3  3     8.20651356E-01   # y_t(Q) DRbar
#
BLOCK Yd Q=  5.00072558E+03  # The Yukawa couplings
  1  1     0.00000000E+00   # y_d(Q) DRbar
  2  2     0.00000000E+00   # y_s(Q) DRbar
  3  3     1.31494208E-01   # y_b(Q) DRbar
#
BLOCK Ye Q=  5.00072558E+03  # The Yukawa couplings
  1  1     0.00000000E+00   # y_e(Q) DRbar
  2  2     0.00000000E+00   # y_mu(Q) DRbar
  3  3     9.66665627E-02   # y_tau(Q) DRbar
#
BLOCK MSOFT Q=  5.00072558E+03  # The soft SUSY breaking masses at the scale Q
         1     6.00000000E+01   # M_1(Q)              
         2     3.00000000E+03   # M_2(Q)              
         3     2.04382000E+03   # M_3(Q)              
        21     6.78851385E+06   # mH1^2(Q)            
        22    -1.33345045E+06   # mH2^2(Q)            
        31     5.00000000E+03   # meL(Q)              
        32     5.00000000E+03   # mmuL(Q)             
        33     5.00000000E+03   # mtauL(Q)            
        34     5.00000000E+03   # meR(Q)              
        35     5.00000000E+03   # mmuR(Q)             
        36     5.00000000E+03   # mtauR(Q)            
        41     5.00000000E+03   # mqL1(Q)             
        42     5.00000000E+03   # mqL2(Q)             
        43     4.99999999E+03   # mqL3(Q)             
        44     5.00000000E+03   # muR(Q)              
        45     5.00000000E+03   # mcR(Q)              
        46     4.99999999E+03   # mtR(Q)              
        47     5.00000000E+03   # mdR(Q)              
        48     5.00000000E+03   # msR(Q)              
        49     5.00000000E+03   # mbR(Q)              
#
#
#
#                             =================
#                             |The decay table|
#                             =================
#
# - The QCD corrections to the decays gluino -> squark  + quark
#                                     squark -> gaugino + quark_prime
#                                     squark -> squark_prime + Higgs
#                                     squark -> gluino  + quark
#   are included.
#
# - The multi-body decays for the inos, stops and sbottoms are included.
#
# - The loop induced decays for the gluino, neutralinos and stops
#   are included.
#
# - The SUSY decays of the top quark are included.
#
#
#         PDG            Width
DECAY         6     1.40030480E+00   # top decays
#          BR         NDA      ID1       ID2
     1.00000000E+00    2           5        24   # BR(t ->  b    W+)
#
#         PDG            Width
DECAY   1000021     1.30226247E-03   # gluino decays
#          BR         NDA      ID1       ID2
     4.42765194E-06    2     1000022        21   # BR(~g -> ~chi_10 g)
     6.79240252E-03    2     1000023        21   # BR(~g -> ~chi_20 g)
     6.75404789E-03    2     1000025        21   # BR(~g -> ~chi_30 g)
#           BR         NDA      ID1       ID2       ID3
     4.67389065E-02    3     1000022         1        -1   # BR(~g -> ~chi_10 d  db)
     2.05378562E-05    3     1000023         1        -1   # BR(~g -> ~chi_20 d  db)
     4.55498341E-06    3     1000025         1        -1   # BR(~g -> ~chi_30 d  db)
     1.59359475E-01    3     1000022         2        -2   # BR(~g -> ~chi_10 u  ub)
     4.10130336E-05    3     1000023         2        -2   # BR(~g -> ~chi_20 u  ub)
     4.69416095E-06    3     1000025         2        -2   # BR(~g -> ~chi_30 u  ub)
     4.67389065E-02    3     1000022         3        -3   # BR(~g -> ~chi_10 s  sb)
     2.05378562E-05    3     1000023         3        -3   # BR(~g -> ~chi_20 s  sb)
     4.55498341E-06    3     1000025         3        -3   # BR(~g -> ~chi_30 s  sb)
     1.59359475E-01    3     1000022         4        -4   # BR(~g -> ~chi_10 c  cb)
     4.10130336E-05    3     1000023         4        -4   # BR(~g -> ~chi_20 c  cb)
     4.69416095E-06    3     1000025         4        -4   # BR(~g -> ~chi_30 c  cb)
     4.73402872E-02    3     1000022         5        -5   # BR(~g -> ~chi_10 b  bb)
     2.75253419E-03    3     1000023         5        -5   # BR(~g -> ~chi_20 b  bb)
     2.69751555E-03    3     1000025         5        -5   # BR(~g -> ~chi_30 b  bb)
     1.61114327E-01    3     1000022         6        -6   # BR(~g -> ~chi_10 t  tb)
     9.04487695E-02    3     1000023         6        -6   # BR(~g -> ~chi_20 t  tb)
     7.45860144E-02    3     1000025         6        -6   # BR(~g -> ~chi_30 t  tb)
     5.41955674E-05    3     1000024         1        -2   # BR(~g -> ~chi_1+ d  ub)
     5.41955674E-05    3    -1000024         2        -1   # BR(~g -> ~chi_1- u  db)
     5.41955674E-05    3     1000024         3        -4   # BR(~g -> ~chi_1+ s  cb)
     5.41955674E-05    3    -1000024         4        -3   # BR(~g -> ~chi_1- c  sb)
     9.74772644E-02    3     1000024         5        -6   # BR(~g -> ~chi_1+ b  tb)
     9.74772644E-02    3    -1000024         6        -5   # BR(~g -> ~chi_1- t  bb)
#
#         PDG            Width
DECAY   1000006     2.95263026E+02   # stop1 decays
#          BR         NDA      ID1       ID2
     2.99663739E-02    2     1000022         6   # BR(~t_1 -> ~chi_10 t )
     9.44255459E-02    2     1000023         6   # BR(~t_1 -> ~chi_20 t )
     9.08032569E-02    2     1000025         6   # BR(~t_1 -> ~chi_30 t )
     7.17031960E-03    2     1000035         6   # BR(~t_1 -> ~chi_40 t )
     1.37336111E-01    2     1000024         5   # BR(~t_1 -> ~chi_1+ b )
     1.42684660E-02    2     1000037         5   # BR(~t_1 -> ~chi_2+ b )
     6.26029927E-01    2     1000021         6   # BR(~t_1 -> ~g      t )
#
#         PDG            Width
DECAY   2000006     3.07118602E+02   # stop2 decays
#          BR         NDA      ID1       ID2
     1.13260044E-02    2     1000022         6   # BR(~t_2 -> ~chi_10 t )
     9.38993726E-02    2     1000023         6   # BR(~t_2 -> ~chi_20 t )
     9.76905390E-02    2     1000025         6   # BR(~t_2 -> ~chi_30 t )
     1.80503787E-02    2     1000035         6   # BR(~t_2 -> ~chi_40 t )
     5.61676723E-02    2     1000024         5   # BR(~t_2 -> ~chi_1+ b )
     3.58617960E-02    2     1000037         5   # BR(~t_2 -> ~chi_2+ b )
     6.82923507E-01    2     1000021         6   # BR(~t_2 -> ~g      t )
     9.13869965E-04    2     1000006        25   # BR(~t_2 -> ~t_1    h )
     3.16685978E-03    2     1000006        23   # BR(~t_2 -> ~t_1    Z )
#
#         PDG            Width
DECAY   1000005     2.82498276E+02   # sbottom1 decays
#          BR         NDA      ID1       ID2
     2.75229379E-03    2     1000022         5   # BR(~b_1 -> ~chi_10 b )
     2.68075344E-03    2     1000023         5   # BR(~b_1 -> ~chi_20 b )
     2.55562342E-03    2     1000025         5   # BR(~b_1 -> ~chi_30 b )
     2.66451477E-02    2     1000035         5   # BR(~b_1 -> ~chi_40 b )
     2.00548215E-01    2    -1000024         6   # BR(~b_1 -> ~chi_1- t )
     5.36089052E-02    2    -1000037         6   # BR(~b_1 -> ~chi_2- t )
     7.09292776E-01    2     1000021         5   # BR(~b_1 -> ~g      b )
     1.91628547E-03    2     1000006       -24   # BR(~b_1 -> ~t_1    W-)
#
#         PDG            Width
DECAY   2000005     2.09909733E+02   # sbottom2 decays
#          BR         NDA      ID1       ID2
     1.39397672E-02    2     1000022         5   # BR(~b_2 -> ~chi_10 b )
     3.49238663E-03    2     1000023         5   # BR(~b_2 -> ~chi_20 b )
     3.62929577E-03    2     1000025         5   # BR(~b_2 -> ~chi_30 b )
     3.62806033E-04    2     1000035         5   # BR(~b_2 -> ~chi_40 b )
     9.57630118E-03    2    -1000024         6   # BR(~b_2 -> ~chi_1- t )
     7.29694457E-04    2    -1000037         6   # BR(~b_2 -> ~chi_2- t )
     9.68160417E-01    2     1000021         5   # BR(~b_2 -> ~g      b )
     1.09331828E-04    2     1000006       -24   # BR(~b_2 -> ~t_1    W-)
#
#         PDG            Width
DECAY   1000002     2.29160528E+02   # sup_L decays
#          BR         NDA      ID1       ID2
     3.25200698E-03    2     1000022         2   # BR(~u_L -> ~chi_10 u)
     8.02415882E-05    2     1000023         2   # BR(~u_L -> ~chi_20 u)
     5.75969150E-06    2     1000025         2   # BR(~u_L -> ~chi_30 u)
     3.43574632E-02    2     1000035         2   # BR(~u_L -> ~chi_40 u)
     2.64900004E-04    2     1000024         1   # BR(~u_L -> ~chi_1+ d)
     6.86637507E-02    2     1000037         1   # BR(~u_L -> ~chi_2+ d)
     8.93375878E-01    2     1000021         2   # BR(~u_L -> ~g      u)
#
#         PDG            Width
DECAY   2000002     2.15077085E+02   # sup_R decays
#          BR         NDA      ID1       ID2
     5.51608930E-02    2     1000022         2   # BR(~u_R -> ~chi_10 u)
     2.10856150E-05    2     1000023         2   # BR(~u_R -> ~chi_20 u)
     2.69579566E-05    2     1000025         2   # BR(~u_R -> ~chi_30 u)
     4.23370746E-09    2     1000035         2   # BR(~u_R -> ~chi_40 u)
     9.44791059E-01    2     1000021         2   # BR(~u_R -> ~g      u)
#
#         PDG            Width
DECAY   1000001     2.29177609E+02   # sdown_L decays
#          BR         NDA      ID1       ID2
     3.24228172E-03    2     1000022         1   # BR(~d_L -> ~chi_10 d)
     4.52724628E-05    2     1000023         1   # BR(~d_L -> ~chi_20 d)
     2.42154873E-05    2     1000025         1   # BR(~d_L -> ~chi_30 d)
     3.43771896E-02    2     1000035         1   # BR(~d_L -> ~chi_40 d)
     3.50444440E-05    2    -1000024         2   # BR(~d_L -> ~chi_1- u)
     6.87882351E-02    2    -1000037         2   # BR(~d_L -> ~chi_2- u)
     8.93487761E-01    2     1000021         1   # BR(~d_L -> ~g      d)
#
#         PDG            Width
DECAY   2000001     2.06195592E+02   # sdown_R decays
#          BR         NDA      ID1       ID2
     1.43850108E-02    2     1000022         1   # BR(~d_R -> ~chi_10 d)
     5.49886226E-06    2     1000023         1   # BR(~d_R -> ~chi_20 d)
     7.03029531E-06    2     1000025         1   # BR(~d_R -> ~chi_30 d)
     1.10421709E-09    2     1000035         1   # BR(~d_R -> ~chi_40 d)
     9.85602459E-01    2     1000021         1   # BR(~d_R -> ~g      d)
#
#         PDG            Width
DECAY   1000004     2.29160528E+02   # scharm_L decays
#          BR         NDA      ID1       ID2
     3.25200698E-03    2     1000022         4   # BR(~c_L -> ~chi_10 c)
     8.02415882E-05    2     1000023         4   # BR(~c_L -> ~chi_20 c)
     5.75969150E-06    2     1000025         4   # BR(~c_L -> ~chi_30 c)
     3.43574632E-02    2     1000035         4   # BR(~c_L -> ~chi_40 c)
     2.64900004E-04    2     1000024         3   # BR(~c_L -> ~chi_1+ s)
     6.86637507E-02    2     1000037         3   # BR(~c_L -> ~chi_2+ s)
     8.93375878E-01    2     1000021         4   # BR(~c_L -> ~g      c)
#
#         PDG            Width
DECAY   2000004     2.15077085E+02   # scharm_R decays
#          BR         NDA      ID1       ID2
     5.51608930E-02    2     1000022         4   # BR(~c_R -> ~chi_10 c)
     2.10856150E-05    2     1000023         4   # BR(~c_R -> ~chi_20 c)
     2.69579566E-05    2     1000025         4   # BR(~c_R -> ~chi_30 c)
     4.23370746E-09    2     1000035         4   # BR(~c_R -> ~chi_40 c)
     9.44791059E-01    2     1000021         4   # BR(~c_R -> ~g      c)
#
#         PDG            Width
DECAY   1000003     2.29177609E+02   # sstrange_L decays
#          BR         NDA      ID1       ID2
     3.24228172E-03    2     1000022         3   # BR(~s_L -> ~chi_10 s)
     4.52724628E-05    2     1000023         3   # BR(~s_L -> ~chi_20 s)
     2.42154873E-05    2     1000025         3   # BR(~s_L -> ~chi_30 s)
     3.43771896E-02    2     1000035         3   # BR(~s_L -> ~chi_40 s)
     3.50444440E-05    2    -1000024         4   # BR(~s_L -> ~chi_1- c)
     6.87882351E-02    2    -1000037         4   # BR(~s_L -> ~chi_2- c)
     8.93487761E-01    2     1000021         3   # BR(~s_L -> ~g      s)
#
#         PDG            Width
DECAY   2000003     2.06195592E+02   # sstrange_R decays
#          BR         NDA      ID1       ID2
     1.43850108E-02    2     1000022         3   # BR(~s_R -> ~chi_10 s)
     5.49886226E-06    2     1000023         3   # BR(~s_R -> ~chi_20 s)
     7.03029531E-06    2     1000025         3   # BR(~s_R -> ~chi_30 s)
     1.10421709E-09    2     1000035         3   # BR(~s_R -> ~chi_40 s)
     9.85602459E-01    2     1000021         3   # BR(~s_R -> ~g      s)
#
#         PDG            Width
DECAY   1000011     3.02405645E+01   # selectron_L decays
#          BR         NDA      ID1       ID2
     2.26701267E-01    2     1000022        11   # BR(~e_L -> ~chi_10 e-)
     9.63934986E-04    2     1000023        11   # BR(~e_L -> ~chi_20 e-)
     1.12630958E-07    2     1000025        11   # BR(~e_L -> ~chi_30 e-)
     2.57154134E-01    2     1000035        11   # BR(~e_L -> ~chi_40 e-)
     2.69897717E-04    2    -1000024        12   # BR(~e_L -> ~chi_1- nu_e)
     5.14910654E-01    2    -1000037        12   # BR(~e_L -> ~chi_2- nu_e)
#
#         PDG            Width
DECAY   2000011     2.73603928E+01   # selectron_R decays
#          BR         NDA      ID1       ID2
     9.99135293E-01    2     1000022        11   # BR(~e_R -> ~chi_10 e-)
     3.79478183E-04    2     1000023        11   # BR(~e_R -> ~chi_20 e-)
     4.85154535E-04    2     1000025        11   # BR(~e_R -> ~chi_30 e-)
     7.41732145E-08    2     1000035        11   # BR(~e_R -> ~chi_40 e-)
#
#         PDG            Width
DECAY   1000013     3.02405645E+01   # smuon_L decays
#          BR         NDA      ID1       ID2
     2.26701267E-01    2     1000022        13   # BR(~mu_L -> ~chi_10 mu-)
     9.63934986E-04    2     1000023        13   # BR(~mu_L -> ~chi_20 mu-)
     1.12630958E-07    2     1000025        13   # BR(~mu_L -> ~chi_30 mu-)
     2.57154134E-01    2     1000035        13   # BR(~mu_L -> ~chi_40 mu-)
     2.69897717E-04    2    -1000024        14   # BR(~mu_L -> ~chi_1- nu_mu)
     5.14910654E-01    2    -1000037        14   # BR(~mu_L -> ~chi_2- nu_mu)
#
#         PDG            Width
DECAY   2000013     2.73603928E+01   # smuon_R decays
#          BR         NDA      ID1       ID2
     9.99135293E-01    2     1000022        13   # BR(~mu_R -> ~chi_10 mu-)
     3.79478183E-04    2     1000023        13   # BR(~mu_R -> ~chi_20 mu-)
     4.85154535E-04    2     1000025        13   # BR(~mu_R -> ~chi_30 mu-)
     7.41732145E-08    2     1000035        13   # BR(~mu_R -> ~chi_40 mu-)
#
#         PDG            Width
DECAY   1000015     2.90028796E+01   # stau_1 decays
#          BR         NDA      ID1       ID2
     9.25608616E-01    2     1000022        15   # BR(~tau_1 -> ~chi_10  tau-)
     1.44560108E-02    2     1000023        15   # BR(~tau_1 -> ~chi_20  tau-)
     1.32798141E-02    2     1000025        15   # BR(~tau_1 -> ~chi_30  tau-)
     6.40135285E-03    2     1000035        15   # BR(~tau_1 -> ~chi_40  tau-)
     2.74366022E-02    2    -1000024        16   # BR(~tau_1 -> ~chi_1-  nu_tau)
     1.28176044E-02    2    -1000037        16   # BR(~tau_1 -> ~chi_2-  nu_tau)
#
#         PDG            Width
DECAY   2000015     3.09581517E+01   # stau_2 decays
#          BR         NDA      ID1       ID2
     2.37159080E-01    2     1000022        15   # BR(~tau_2 -> ~chi_10  tau-)
     1.33016426E-02    2     1000023        15   # BR(~tau_2 -> ~chi_20  tau-)
     1.35185602E-02    2     1000025        15   # BR(~tau_2 -> ~chi_30  tau-)
     2.45120939E-01    2     1000035        15   # BR(~tau_2 -> ~chi_40  tau-)
     8.46115461E-05    2    -1000024        16   # BR(~tau_2 -> ~chi_1-  nu_tau)
     4.90815167E-01    2    -1000037        16   # BR(~tau_2 -> ~chi_2-  nu_tau)
#
#         PDG            Width
DECAY   1000012     3.02427774E+01   # snu_eL decays
#          BR         NDA      ID1       ID2
     2.26414177E-01    2     1000022        12   # BR(~nu_eL -> ~chi_10 nu_e)
     1.55835737E-04    2     1000023        12   # BR(~nu_eL -> ~chi_20 nu_e)
     4.26377518E-04    2     1000025        12   # BR(~nu_eL -> ~chi_30 nu_e)
     2.57233888E-01    2     1000035        12   # BR(~nu_eL -> ~chi_40 nu_e)
     2.03958651E-03    2     1000024        11   # BR(~nu_eL -> ~chi_1+ e-)
     5.13730135E-01    2     1000037        11   # BR(~nu_eL -> ~chi_2+ e-)
#
#         PDG            Width
DECAY   1000014     3.02427774E+01   # snu_muL decays
#          BR         NDA      ID1       ID2
     2.26414177E-01    2     1000022        14   # BR(~nu_muL -> ~chi_10 nu_mu)
     1.55835737E-04    2     1000023        14   # BR(~nu_muL -> ~chi_20 nu_mu)
     4.26377518E-04    2     1000025        14   # BR(~nu_muL -> ~chi_30 nu_mu)
     2.57233888E-01    2     1000035        14   # BR(~nu_muL -> ~chi_40 nu_mu)
     2.03958651E-03    2     1000024        13   # BR(~nu_muL -> ~chi_1+ mu-)
     5.13730135E-01    2     1000037        13   # BR(~nu_muL -> ~chi_2+ mu-)
#
#         PDG            Width
DECAY   1000016     3.10265983E+01   # snu_tauL decays
#          BR         NDA      ID1       ID2
     2.20670519E-01    2     1000022        16   # BR(~nu_tauL -> ~chi_10 nu_tau)
     1.51876997E-04    2     1000023        16   # BR(~nu_tauL -> ~chi_20 nu_tau)
     4.15546072E-04    2     1000025        16   # BR(~nu_tauL -> ~chi_30 nu_tau)
     2.50643501E-01    2     1000035        16   # BR(~nu_tauL -> ~chi_40 nu_tau)
     2.75494723E-02    2     1000024        15   # BR(~nu_tauL -> ~chi_1+ tau-)
     5.00569084E-01    2     1000037        15   # BR(~nu_tauL -> ~chi_2+ tau-)
#
#         PDG            Width
DECAY   1000024     8.59873345E-01   # chargino1+ decays
#          BR         NDA      ID1       ID2
     1.00000000E+00    2     1000022        24   # BR(~chi_1+ -> ~chi_10  W+)
#
#         PDG            Width
DECAY   1000037     1.88513120E+01   # chargino2+ decays
#          BR         NDA      ID1       ID2
     2.52813617E-01    2     1000024        23   # BR(~chi_2+ -> ~chi_1+  Z )
     2.42473770E-04    2     1000022        24   # BR(~chi_2+ -> ~chi_10  W+)
     2.43962126E-01    2     1000023        24   # BR(~chi_2+ -> ~chi_20  W+)
     2.43776936E-01    2     1000025        24   # BR(~chi_2+ -> ~chi_30  W+)
     2.59204380E-01    2     1000024        25   # BR(~chi_2+ -> ~chi_1+  h )
     4.67083466E-07    2     1000022        37   # BR(~chi_2+ -> ~chi_10  H+)
#
#         PDG            Width
DECAY   1000022     0.00000000E+00   # neutralino1 decays
#
#         PDG            Width
DECAY   1000023     9.03006064E-01   # neutralino2 decays
#          BR         NDA      ID1       ID2
     5.54023035E-01    2     1000022        23   # BR(~chi_20 -> ~chi_10   Z )
     4.45976965E-01    2     1000022        25   # BR(~chi_20 -> ~chi_10   h )
#
#         PDG            Width
DECAY   1000025     9.11362984E-01   # neutralino3 decays
#          BR         NDA      ID1       ID2
     4.29712352E-01    2     1000022        23   # BR(~chi_30 -> ~chi_10   Z )
     5.70287648E-01    2     1000022        25   # BR(~chi_30 -> ~chi_10   h )
#
#         PDG            Width
DECAY   1000035     1.88564136E+01   # neutralino4 decays
#          BR         NDA      ID1       ID2
     8.22957600E-05    2     1000022        23   # BR(~chi_40 -> ~chi_10   Z )
     4.53970288E-02    2     1000023        23   # BR(~chi_40 -> ~chi_20   Z )
     2.06799554E-01    2     1000025        23   # BR(~chi_40 -> ~chi_30   Z )
     2.44418439E-01    2     1000024       -24   # BR(~chi_40 -> ~chi_1+   W-)
     2.44418439E-01    2    -1000024        24   # BR(~chi_40 -> ~chi_1-   W+)
     1.65202867E-04    2     1000022        25   # BR(~chi_40 -> ~chi_10   h )
     4.23738950E-07    2     1000022        35   # BR(~chi_40 -> ~chi_10   H )
     6.02162068E-08    2     1000022        36   # BR(~chi_40 -> ~chi_10   A )
     2.13305756E-01    2     1000023        25   # BR(~chi_40 -> ~chi_20   h )
     4.54127993E-02    2     1000025        25   # BR(~chi_40 -> ~chi_30   h )
#
#         PDG            Width
DECAY        25     4.04780364E-03   # h decays
#          BR         NDA      ID1       ID2
     6.05933874E-01    2           5        -5   # BR(h -> b       bb     )
     6.40978759E-02    2         -15        15   # BR(h -> tau+    tau-   )
     2.26929578E-04    2         -13        13   # BR(h -> mu+     mu-    )
     4.81042204E-04    2           3        -3   # BR(h -> s       sb     )
     2.08456233E-02    2           4        -4   # BR(h -> c       cb     )
     6.74848782E-02    2          21        21   # BR(h -> g       g      )
     2.32152032E-03    2          22        22   # BR(h -> gam     gam    )
     1.50087404E-03    2          22        23   # BR(h -> Z       gam    )
     2.11805760E-01    2          24       -24   # BR(h -> W+      W-     )
     2.52647266E-02    2          23        23   # BR(h -> Z       Z      )
     3.68959053E-05    2     1000022   1000022   # BR(h -> ~chi_10 ~chi_10)
#
#         PDG            Width
DECAY        35     7.45223956E+00   # H decays
#          BR         NDA      ID1       ID2
     4.37714366E-01    2           5        -5   # BR(H -> b       bb     )
     7.47546347E-02    2         -15        15   # BR(H -> tau+    tau-   )
     2.64338326E-04    2         -13        13   # BR(H -> mu+     mu-    )
     3.24038237E-04    2           3        -3   # BR(H -> s       sb     )
     1.81261270E-06    2           4        -4   # BR(H -> c       cb     )
     1.81094368E-01    2           6        -6   # BR(H -> t       tb     )
     6.01344112E-05    2          21        21   # BR(H -> g       g      )
     3.84068835E-07    2          22        22   # BR(H -> gam     gam    )
     1.06961739E-07    2          23        22   # BR(H -> Z       gam    )
     8.15230530E-05    2          24       -24   # BR(H -> W+      W-     )
     4.07099387E-05    2          23        23   # BR(H -> Z       Z      )
     3.06251749E-04    2          25        25   # BR(H -> h       h      )
    -2.96783510E-23    2          36        36   # BR(H -> A       A      )
     5.91112008E-19    2          23        36   # BR(H -> Z       A      )
     3.04100769E-04    2     1000024  -1000024   # BR(H -> ~chi_1+ ~chi_1-)
     9.88704650E-04    2     1000022   1000022   # BR(H -> ~chi_10 ~chi_10)
     2.94524973E-05    2     1000023   1000023   # BR(H -> ~chi_20 ~chi_20)
     4.25158681E-05    2     1000025   1000025   # BR(H -> ~chi_30 ~chi_30)
     1.81055077E-01    2     1000022   1000023   # BR(H -> ~chi_10 ~chi_20)
     1.22881349E-01    2     1000022   1000025   # BR(H -> ~chi_10 ~chi_30)
     5.61323845E-05    2     1000023   1000025   # BR(H -> ~chi_20 ~chi_30)
#
#         PDG            Width
DECAY        36     7.47139350E+00   # A decays
#          BR         NDA      ID1       ID2
     4.36738211E-01    2           5        -5   # BR(A -> b       bb     )
     7.45651389E-02    2         -15        15   # BR(A -> tau+    tau-   )
     2.63667885E-04    2         -13        13   # BR(A -> mu+     mu-    )
     3.23452628E-04    2           3        -3   # BR(A -> s       sb     )
     1.81547306E-06    2           4        -4   # BR(A -> c       cb     )
     1.81280063E-01    2           6        -6   # BR(A -> t       tb     )
     1.79390362E-04    2          21        21   # BR(A -> g       g      )
     4.26129218E-07    2          22        22   # BR(A -> gam     gam    )
     2.17328912E-07    2          23        22   # BR(A -> Z       gam    )
     8.10062221E-05    2          23        25   # BR(A -> Z       h      )
     2.01684702E-03    2     1000024  -1000024   # BR(A -> ~chi_1+ ~chi_1-)
     1.01386780E-03    2     1000022   1000022   # BR(A -> ~chi_10 ~chi_10)
     1.48300390E-04    2     1000023   1000023   # BR(A -> ~chi_20 ~chi_20)
     5.12177100E-04    2     1000025   1000025   # BR(A -> ~chi_30 ~chi_30)
     1.24051001E-01    2     1000022   1000023   # BR(A -> ~chi_10 ~chi_20)
     1.78823691E-01    2     1000022   1000025   # BR(A -> ~chi_10 ~chi_30)
     7.26728422E-07    2     1000023   1000025   # BR(A -> ~chi_20 ~chi_30)
#
#         PDG            Width
DECAY        37     7.46273238E+00   # H+ decays
#          BR         NDA      ID1       ID2
     7.05072848E-04    2           4        -5   # BR(H+ -> c       bb     )
     7.46733971E-02    2         -15        16   # BR(H+ -> tau+    nu_tau )
     2.64050694E-04    2         -13        14   # BR(H+ -> mu+     nu_mu  )
     4.51244317E-06    2           2        -5   # BR(H+ -> u       bb     )
     1.54939451E-05    2           2        -3   # BR(H+ -> u       sb     )
     3.20415880E-04    2           4        -3   # BR(H+ -> c       sb     )
     6.18357938E-01    2           6        -5   # BR(H+ -> t       bb     )
     8.12231188E-05    2          24        25   # BR(H+ -> W+      h      )
     8.92103969E-14    2          24        36   # BR(H+ -> W+      A      )
     3.05304874E-01    2     1000024   1000022   # BR(H+ -> ~chi_1+ ~chi_10)
     2.16456128E-04    2     1000024   1000023   # BR(H+ -> ~chi_1+ ~chi_20)
     5.65654217E-05    2     1000024   1000025   # BR(H+ -> ~chi_1+ ~chi_30)
