#
#                              ======================
#                              | THE SUSYHIT OUTPUT |
#                              ======================
#
#
#              ------------------------------------------------------
#              |     This is the output of the SUSY-HIT package     |
#              |  created by A.Djouadi, M.Muehlleitner and M.Spira. |
#              |  In case of problems with SUSY-HIT email to        |
#              |           margarete.muehlleitner@cern.ch           |
#              |           michael.spira@psi.ch                     |
#              |           abdelhak.djouadi@cern.ch                 |
#              ------------------------------------------------------
#
#              ------------------------------------------------------
#              |  SUSY Les Houches Accord - MSSM Spectrum + Decays  |
#              |              based on the decay programs           |
#              |                                                    |
#              |                     SDECAY 1.3b                    |
#              |                                                    |
#              |  Authors: M.Muhlleitner, A.Djouadi and Y.Mambrini  |
#              |  Ref.:    Comput.Phys.Commun.168(2005)46           |
#              |           [hep-ph/0311167]                         |
#              |                                                    |
#              |                     HDECAY 3.4                     |
#              |                                                    |
#              |  By: A.Djouadi,J.Kalinowski,M.Muhlleitner,M.Spira  |
#              |  Ref.:    Comput.Phys.Commun.108(1998)56           |
#              |           [hep-ph/9704448]                         |
#              |                                                    |
#              |                                                    |
#              |  If not stated otherwise all DRbar couplings and   |
#              |  soft SUSY breaking masses are given at the scale  |
#              |  Q=  0.50007342E+04
#              |                                                    |
#              ------------------------------------------------------
#
#
BLOCK DCINFO  # Decay Program information
     1   SDECAY/HDECAY # decay calculator
     2   1.3b  /3.4    # version number
#
BLOCK SPINFO  # Spectrum calculator information
     1    SOFTSUSY    # spectrum calculator                
     2    3.4.0       # version number                     
#
BLOCK MODSEL  # Model selection
     1     0   #  nonUniversal                                     
#
BLOCK SMINPUTS  # Standard Model inputs
         1     1.25778332E+02   # alpha_em^-1(M_Z)^MSbar
         2     1.16570000E-05   # G_F [GeV^-2]
         3     1.17200002E-01   # alpha_S(M_Z)^MSbar
         4     9.11876000E+01   # M_Z pole mass
         5     4.25000000E+00   # mb(mb)^MSbar
         6     1.72500000E+02   # mt pole mass
         7     1.77682000E+00   # mtau pole mass
#
BLOCK MINPAR  # Input parameters - minimal models
         3     1.00000000E+01   # tanb                
#
BLOCK EXTPAR  # Input parameters - non-minimal models
         0    -1.00000000E+00   # Set                 
         1     6.00000000E+01   # M_1(MX)             
         2     3.00000000E+03   # M_2(MX)             
         3     1.48350300E+03   # M_3(MX)             
        11     5.00000000E+03   # At(MX)              
        12     5.00000000E+03   # Ab(MX)              
        13     0.00000000E+00   # Atau(MX)            
        23    -1.05634400E+03   # mu(MX)              
        26     3.00000000E+03   # mA(pole)            
        31     5.00000000E+03   # meL(MX)             
        32     5.00000000E+03   # mmuL(MX)            
        33     5.00000000E+03   # mtauL(MX)           
        34     5.00000000E+03   # meR(MX)             
        35     5.00000000E+03   # mmuR(MX)            
        36     5.00000000E+03   # mtauR(MX)           
        41     5.00000000E+03   # mqL1(MX)            
        42     5.00000000E+03   # mqL2(MX)            
        43     5.00000000E+03   # mqL3(MX)            
        44     5.00000000E+03   # muR(MX)             
        45     5.00000000E+03   # mcR(MX)             
        46     5.00000000E+03   # mtR(MX)             
        47     5.00000000E+03   # mdR(MX)             
        48     5.00000000E+03   # msR(MX)             
        49     5.00000000E+03   # mbR(MX)             
#
BLOCK MASS  # Mass Spectrum
# PDG code           mass       particle
        24     8.00951206E+01   # W+
        25     1.24722342E+02   # h
        35     3.00008334E+03   # H
        36     2.99999721E+03   # A
        37     3.00101618E+03   # H+
         5     4.87878001E+00   # b-quark pole mass calculated from mb(mb)_Msbar
   1000001     5.06950582E+03   # ~d_L
   2000001     5.05170039E+03   # ~d_R
   1000002     5.06903127E+03   # ~u_L
   2000002     5.05141691E+03   # ~u_R
   1000003     5.06950582E+03   # ~s_L
   2000003     5.05170039E+03   # ~s_R
   1000004     5.06903127E+03   # ~c_L
   2000004     5.05141691E+03   # ~c_R
   1000005     5.01533087E+03   # ~b_1
   2000005     5.05029002E+03   # ~b_2
   1000006     4.90616266E+03   # ~t_1
   2000006     5.06072990E+03   # ~t_2
   1000011     5.01906633E+03   # ~e_L
   2000011     5.00592117E+03   # ~e_R
   1000012     5.01811779E+03   # ~nu_eL
   1000013     5.01906633E+03   # ~mu_L
   2000013     5.00592117E+03   # ~mu_R
   1000014     5.01811779E+03   # ~nu_muL
   1000015     5.00457007E+03   # ~tau_1
   2000015     5.01880592E+03   # ~tau_2
   1000016     5.01757290E+03   # ~nu_tauL
   1000021     1.80000013E+03   # ~g
   1000022     6.03009466E+01   # ~chi_10
   1000023     1.09958988E+03   # ~chi_20
   1000025    -1.10186399E+03   # ~chi_30
   1000035     3.07427442E+03   # ~chi_40
   1000024     1.10000013E+03   # ~chi_1+
   1000037     3.07444187E+03   # ~chi_2+
#
BLOCK NMIX  # Neutralino Mixing Matrix
  1  1     9.99178379E-01   # N_11
  1  2     1.73956584E-04   # N_12
  1  3    -4.04784728E-02   # N_13
  1  4     2.00766956E-03   # N_14
  2  1     2.72092755E-02   # N_21
  2  2     2.46706742E-02   # N_22
  2  3     7.06785024E-01   # N_23
  2  4     7.06474304E-01   # N_24
  3  1    -3.00342545E-02   # N_31
  3  2     1.45513298E-02   # N_32
  3  3    -7.06233115E-01   # N_33
  3  4     7.07192329E-01   # N_34
  4  1    -4.08213971E-04   # N_41
  4  2     9.99589709E-01   # N_42
  4  3    -7.15612665E-03   # N_43
  4  4    -2.77315134E-02   # N_44
#
BLOCK UMIX  # Chargino Mixing Matrix U
  1  1     1.01348554E-02   # U_11
  1  2     9.99948641E-01   # U_12
  2  1    -9.99948641E-01   # U_21
  2  2     1.01348554E-02   # U_22
#
BLOCK VMIX  # Chargino Mixing Matrix V
  1  1     3.92479315E-02   # V_11
  1  2    -9.99229503E-01   # V_12
  2  1    -9.99229503E-01   # V_21
  2  2    -3.92479315E-02   # V_22
#
BLOCK STOPMIX  # Stop Mixing Matrix
  1  1    -5.08310064E-01   # cos(theta_t)
  1  2     8.61174128E-01   # sin(theta_t)
  2  1    -8.61174128E-01   # -sin(theta_t)
  2  2    -5.08310064E-01   # cos(theta_t)
#
BLOCK SBOTMIX  # Sbottom Mixing Matrix
  1  1     9.96641842E-01   # cos(theta_b)
  1  2    -8.18843012E-02   # sin(theta_b)
  2  1     8.18843012E-02   # -sin(theta_b)
  2  2     9.96641842E-01   # cos(theta_b)
#
BLOCK STAUMIX  # Stau Mixing Matrix
  1  1    -1.25028507E-01   # cos(theta_tau)
  1  2     9.92153150E-01   # sin(theta_tau)
  2  1    -9.92153150E-01   # -sin(theta_tau)
  2  2    -1.25028507E-01   # cos(theta_tau)
#
BLOCK ALPHA  # Higgs mixing
          -1.05466507E-01   # Mixing angle in the neutral Higgs boson sector
#
BLOCK HMIX Q=  5.00073419E+03  # DRbar Higgs Parameters
         1    -1.07562758E+03   # mu(Q)MSSM           
         2     9.47042880E+00   # tan                 
         3     2.41881426E+02   # higgs               
         4     8.48844292E+06   # mA^2(Q)MSSM         
#
BLOCK GAUGE Q=  5.00073419E+03  # The gauge couplings
     1     3.70779121E-01   # gprime(Q) DRbar
     2     6.32456390E-01   # g(Q) DRbar
     3     1.00004481E+00   # g3(Q) DRbar
#
BLOCK AU Q=  5.00073419E+03  # The trilinear couplings
  1  1     5.00000001E+03   # A_u(Q) DRbar
  2  2     5.00000001E+03   # A_c(Q) DRbar
  3  3     5.00000002E+03   # A_t(Q) DRbar
#
BLOCK AD Q=  5.00073419E+03  # The trilinear couplings
  1  1     5.00000001E+03   # A_d(Q) DRbar
  2  2     5.00000001E+03   # A_s(Q) DRbar
  3  3     5.00000001E+03   # A_b(Q) DRbar
#
BLOCK AE Q=  5.00073419E+03  # The trilinear couplings
  1  1     0.00000000E+00   # A_e(Q) DRbar
  2  2     1.44168396E-07   # A_mu(Q) DRbar
  3  3     1.43687611E-07   # A_tau(Q) DRbar
#
BLOCK Yu Q=  5.00073419E+03  # The Yukawa couplings
  1  1     0.00000000E+00   # y_u(Q) DRbar
  2  2     0.00000000E+00   # y_c(Q) DRbar
  3  3     8.19107363E-01   # y_t(Q) DRbar
#
BLOCK Yd Q=  5.00073419E+03  # The Yukawa couplings
  1  1     0.00000000E+00   # y_d(Q) DRbar
  2  2     0.00000000E+00   # y_s(Q) DRbar
  3  3     1.30564262E-01   # y_b(Q) DRbar
#
BLOCK Ye Q=  5.00073419E+03  # The Yukawa couplings
  1  1     0.00000000E+00   # y_e(Q) DRbar
  2  2     0.00000000E+00   # y_mu(Q) DRbar
  3  3     9.68080255E-02   # y_tau(Q) DRbar
#
BLOCK MSOFT Q=  5.00073419E+03  # The soft SUSY breaking masses at the scale Q
         1     6.00000000E+01   # M_1(Q)              
         2     3.00000000E+03   # M_2(Q)              
         3     1.48350300E+03   # M_3(Q)              
        21     7.53403030E+06   # mH1^2(Q)            
        22    -5.96312058E+05   # mH2^2(Q)            
        31     5.00000000E+03   # meL(Q)              
        32     5.00000000E+03   # mmuL(Q)             
        33     5.00000000E+03   # mtauL(Q)            
        34     5.00000000E+03   # meR(Q)              
        35     5.00000000E+03   # mmuR(Q)             
        36     5.00000000E+03   # mtauR(Q)            
        41     5.00000000E+03   # mqL1(Q)             
        42     5.00000000E+03   # mqL2(Q)             
        43     5.00000000E+03   # mqL3(Q)             
        44     5.00000000E+03   # muR(Q)              
        45     5.00000000E+03   # mcR(Q)              
        46     4.99999999E+03   # mtR(Q)              
        47     5.00000000E+03   # mdR(Q)              
        48     5.00000000E+03   # msR(Q)              
        49     5.00000000E+03   # mbR(Q)              
#
#
#
#                             =================
#                             |The decay table|
#                             =================
#
# - The QCD corrections to the decays gluino -> squark  + quark
#                                     squark -> gaugino + quark_prime
#                                     squark -> squark_prime + Higgs
#                                     squark -> gluino  + quark
#   are included.
#
# - The multi-body decays for the inos, stops and sbottoms are included.
#
# - The loop induced decays for the gluino, neutralinos and stops
#   are included.
#
# - The SUSY decays of the top quark are included.
#
#
#         PDG            Width
DECAY         6     1.40173425E+00   # top decays
#          BR         NDA      ID1       ID2
     1.00000000E+00    2           5        24   # BR(t ->  b    W+)
#
#         PDG            Width
DECAY   1000021     2.41630355E-04   # gluino decays
#          BR         NDA      ID1       ID2
     6.84272506E-06    2     1000022        21   # BR(~g -> ~chi_10 g)
     1.19936961E-02    2     1000023        21   # BR(~g -> ~chi_20 g)
     1.18038625E-02    2     1000025        21   # BR(~g -> ~chi_30 g)
#           BR         NDA      ID1       ID2       ID3
     5.61481467E-02    3     1000022         1        -1   # BR(~g -> ~chi_10 d  db)
     1.24229443E-05    3     1000023         1        -1   # BR(~g -> ~chi_20 d  db)
     5.00614993E-06    3     1000025         1        -1   # BR(~g -> ~chi_30 d  db)
     1.91436133E-01    3     1000022         2        -2   # BR(~g -> ~chi_10 u  ub)
     3.44998325E-05    3     1000023         2        -2   # BR(~g -> ~chi_20 u  ub)
     5.71041750E-06    3     1000025         2        -2   # BR(~g -> ~chi_30 u  ub)
     5.61481467E-02    3     1000022         3        -3   # BR(~g -> ~chi_10 s  sb)
     1.24229443E-05    3     1000023         3        -3   # BR(~g -> ~chi_20 s  sb)
     5.00614993E-06    3     1000025         3        -3   # BR(~g -> ~chi_30 s  sb)
     1.91436133E-01    3     1000022         4        -4   # BR(~g -> ~chi_10 c  cb)
     3.44998325E-05    3     1000023         4        -4   # BR(~g -> ~chi_20 c  cb)
     5.71041750E-06    3     1000025         4        -4   # BR(~g -> ~chi_30 c  cb)
     5.69156779E-02    3     1000022         5        -5   # BR(~g -> ~chi_10 b  bb)
     2.28945878E-03    3     1000023         5        -5   # BR(~g -> ~chi_20 b  bb)
     2.23914938E-03    3     1000025         5        -5   # BR(~g -> ~chi_30 b  bb)
     1.80217705E-01    3     1000022         6        -6   # BR(~g -> ~chi_10 t  tb)
     5.81002571E-02    3     1000023         6        -6   # BR(~g -> ~chi_20 t  tb)
     3.99113505E-02    3     1000025         6        -6   # BR(~g -> ~chi_30 t  tb)
     3.47426354E-05    3     1000024         1        -2   # BR(~g -> ~chi_1+ d  ub)
     3.47426354E-05    3    -1000024         2        -1   # BR(~g -> ~chi_1- u  db)
     3.47426354E-05    3     1000024         3        -4   # BR(~g -> ~chi_1+ s  cb)
     3.47426354E-05    3    -1000024         4        -3   # BR(~g -> ~chi_1- c  sb)
     7.05495953E-02    3     1000024         5        -6   # BR(~g -> ~chi_1+ b  tb)
     7.05495953E-02    3    -1000024         6        -5   # BR(~g -> ~chi_1- t  bb)
#
#         PDG            Width
DECAY   1000006     3.56755631E+02   # stop1 decays
#          BR         NDA      ID1       ID2
     2.47597348E-02    2     1000022         6   # BR(~t_1 -> ~chi_10 t )
     8.36583183E-02    2     1000023         6   # BR(~t_1 -> ~chi_20 t )
     8.04142883E-02    2     1000025         6   # BR(~t_1 -> ~chi_30 t )
     5.87353829E-03    2     1000035         6   # BR(~t_1 -> ~chi_40 t )
     1.21392624E-01    2     1000024         5   # BR(~t_1 -> ~chi_1+ b )
     1.16990449E-02    2     1000037         5   # BR(~t_1 -> ~chi_2+ b )
     6.72202452E-01    2     1000021         6   # BR(~t_1 -> ~g      t )
#
#         PDG            Width
DECAY   2000006     3.63497529E+02   # stop2 decays
#          BR         NDA      ID1       ID2
     9.66257548E-03    2     1000022         6   # BR(~t_2 -> ~chi_10 t )
     8.42566874E-02    2     1000023         6   # BR(~t_2 -> ~chi_20 t )
     8.77378153E-02    2     1000025         6   # BR(~t_2 -> ~chi_30 t )
     1.51892419E-02    2     1000035         6   # BR(~t_2 -> ~chi_40 t )
     5.04839944E-02    2     1000024         5   # BR(~t_2 -> ~chi_1+ b )
     3.02117017E-02    2     1000037         5   # BR(~t_2 -> ~chi_2+ b )
     7.18945476E-01    2     1000021         6   # BR(~t_2 -> ~g      t )
     7.92952420E-04    2     1000006        25   # BR(~t_2 -> ~t_1    h )
     2.71955520E-03    2     1000006        23   # BR(~t_2 -> ~t_1    Z )
#
#         PDG            Width
DECAY   1000005     3.39523506E+02   # sbottom1 decays
#          BR         NDA      ID1       ID2
     2.28131253E-03    2     1000022         5   # BR(~b_1 -> ~chi_10 b )
     2.31851863E-03    2     1000023         5   # BR(~b_1 -> ~chi_20 b )
     2.24529502E-03    2     1000025         5   # BR(~b_1 -> ~chi_30 b )
     2.21420608E-02    2     1000035         5   # BR(~b_1 -> ~chi_40 b )
     1.78299975E-01    2    -1000024         6   # BR(~b_1 -> ~chi_1- t )
     4.45004651E-02    2    -1000037         6   # BR(~b_1 -> ~chi_2- t )
     7.46556572E-01    2     1000021         5   # BR(~b_1 -> ~g      b )
     1.65580173E-03    2     1000006       -24   # BR(~b_1 -> ~t_1    W-)
#
#         PDG            Width
DECAY   2000005     2.62674548E+02   # sbottom2 decays
#          BR         NDA      ID1       ID2
     1.11788042E-02    2     1000022         5   # BR(~b_2 -> ~chi_10 b )
     2.96530901E-03    2     1000023         5   # BR(~b_2 -> ~chi_20 b )
     3.05349385E-03    2     1000025         5   # BR(~b_2 -> ~chi_30 b )
     1.98108133E-04    2     1000035         5   # BR(~b_2 -> ~chi_40 b )
     7.43925429E-03    2    -1000024         6   # BR(~b_2 -> ~chi_1- t )
     3.98078538E-04    2    -1000037         6   # BR(~b_2 -> ~chi_2- t )
     9.74706702E-01    2     1000021         5   # BR(~b_2 -> ~g      b )
     6.02498230E-05    2     1000006       -24   # BR(~b_2 -> ~t_1    W-)
#
#         PDG            Width
DECAY   1000002     2.81756999E+02   # sup_L decays
#          BR         NDA      ID1       ID2
     2.64952466E-03    2     1000022         2   # BR(~u_L -> ~chi_10 u)
     5.67409501E-05    2     1000023         2   # BR(~u_L -> ~chi_20 u)
     4.75422637E-06    2     1000025         2   # BR(~u_L -> ~chi_30 u)
     2.78291442E-02    2     1000035         2   # BR(~u_L -> ~chi_40 u)
     1.94373835E-04    2     1000024         1   # BR(~u_L -> ~chi_1+ d)
     5.56200558E-02    2     1000037         1   # BR(~u_L -> ~chi_2+ d)
     9.13645406E-01    2     1000021         2   # BR(~u_L -> ~g      u)
#
#         PDG            Width
DECAY   2000002     2.67913569E+02   # sup_R decays
#          BR         NDA      ID1       ID2
     4.43473858E-02    2     1000022         2   # BR(~u_R -> ~chi_10 u)
     2.98914686E-05    2     1000023         2   # BR(~u_R -> ~chi_20 u)
     3.64056449E-05    2     1000025         2   # BR(~u_R -> ~chi_30 u)
     2.94850859E-09    2     1000035         2   # BR(~u_R -> ~chi_40 u)
     9.55586314E-01    2     1000021         2   # BR(~u_R -> ~g      u)
#
#         PDG            Width
DECAY   1000001     2.81770419E+02   # sdown_L decays
#          BR         NDA      ID1       ID2
     2.64022329E-03    2     1000022         1   # BR(~d_L -> ~chi_10 d)
     2.36348951E-05    2     1000023         1   # BR(~d_L -> ~chi_20 d)
     2.63022094E-05    2     1000025         1   # BR(~d_L -> ~chi_30 d)
     2.78453339E-02    2     1000035         1   # BR(~d_L -> ~chi_40 d)
     1.29618681E-05    2    -1000024         2   # BR(~d_L -> ~chi_1- u)
     5.57147610E-02    2    -1000037         2   # BR(~d_L -> ~chi_2- u)
     9.13736783E-01    2     1000021         1   # BR(~d_L -> ~g      d)
#
#         PDG            Width
DECAY   2000001     2.59012192E+02   # sdown_R decays
#          BR         NDA      ID1       ID2
     1.14685139E-02    2     1000022         1   # BR(~d_R -> ~chi_10 d)
     7.73020693E-06    2     1000023         1   # BR(~d_R -> ~chi_20 d)
     9.41483290E-06    2     1000025         1   # BR(~d_R -> ~chi_30 d)
     7.62602523E-10    2     1000035         1   # BR(~d_R -> ~chi_40 d)
     9.88514340E-01    2     1000021         1   # BR(~d_R -> ~g      d)
#
#         PDG            Width
DECAY   1000004     2.81756999E+02   # scharm_L decays
#          BR         NDA      ID1       ID2
     2.64952466E-03    2     1000022         4   # BR(~c_L -> ~chi_10 c)
     5.67409501E-05    2     1000023         4   # BR(~c_L -> ~chi_20 c)
     4.75422637E-06    2     1000025         4   # BR(~c_L -> ~chi_30 c)
     2.78291442E-02    2     1000035         4   # BR(~c_L -> ~chi_40 c)
     1.94373835E-04    2     1000024         3   # BR(~c_L -> ~chi_1+ s)
     5.56200558E-02    2     1000037         3   # BR(~c_L -> ~chi_2+ s)
     9.13645406E-01    2     1000021         4   # BR(~c_L -> ~g      c)
#
#         PDG            Width
DECAY   2000004     2.67913569E+02   # scharm_R decays
#          BR         NDA      ID1       ID2
     4.43473858E-02    2     1000022         4   # BR(~c_R -> ~chi_10 c)
     2.98914686E-05    2     1000023         4   # BR(~c_R -> ~chi_20 c)
     3.64056449E-05    2     1000025         4   # BR(~c_R -> ~chi_30 c)
     2.94850859E-09    2     1000035         4   # BR(~c_R -> ~chi_40 c)
     9.55586314E-01    2     1000021         4   # BR(~c_R -> ~g      c)
#
#         PDG            Width
DECAY   1000003     2.81770419E+02   # sstrange_L decays
#          BR         NDA      ID1       ID2
     2.64022329E-03    2     1000022         3   # BR(~s_L -> ~chi_10 s)
     2.36348951E-05    2     1000023         3   # BR(~s_L -> ~chi_20 s)
     2.63022094E-05    2     1000025         3   # BR(~s_L -> ~chi_30 s)
     2.78453339E-02    2     1000035         3   # BR(~s_L -> ~chi_40 s)
     1.29618681E-05    2    -1000024         4   # BR(~s_L -> ~chi_1- c)
     5.57147610E-02    2    -1000037         4   # BR(~s_L -> ~chi_2- c)
     9.13736783E-01    2     1000021         3   # BR(~s_L -> ~g      s)
#
#         PDG            Width
DECAY   2000003     2.59012192E+02   # sstrange_R decays
#          BR         NDA      ID1       ID2
     1.14685139E-02    2     1000022         3   # BR(~s_R -> ~chi_10 s)
     7.73020693E-06    2     1000023         3   # BR(~s_R -> ~chi_20 s)
     9.41483290E-06    2     1000025         3   # BR(~s_R -> ~chi_30 s)
     7.62602523E-10    2     1000035         3   # BR(~s_R -> ~chi_40 s)
     9.88514340E-01    2     1000021         3   # BR(~s_R -> ~g      s)
#
#         PDG            Width
DECAY   1000011     3.02636476E+01   # selectron_L decays
#          BR         NDA      ID1       ID2
     2.26490990E-01    2     1000022        11   # BR(~e_L -> ~chi_10 e-)
     9.86883526E-04    2     1000023        11   # BR(~e_L -> ~chi_20 e-)
     5.58415548E-06    2     1000025        11   # BR(~e_L -> ~chi_30 e-)
     2.57281611E-01    2     1000035        11   # BR(~e_L -> ~chi_40 e-)
     1.22849075E-04    2    -1000024        12   # BR(~e_L -> ~chi_1- nu_e)
     5.15112082E-01    2    -1000037        12   # BR(~e_L -> ~chi_2- nu_e)
#
#         PDG            Width
DECAY   2000011     2.73704200E+01   # selectron_R decays
#          BR         NDA      ID1       ID2
     9.98511882E-01    2     1000022        11   # BR(~e_R -> ~chi_10 e-)
     6.70924027E-04    2     1000023        11   # BR(~e_R -> ~chi_20 e-)
     8.17129254E-04    2     1000025        11   # BR(~e_R -> ~chi_30 e-)
     6.46743529E-08    2     1000035        11   # BR(~e_R -> ~chi_40 e-)
#
#         PDG            Width
DECAY   1000013     3.02636476E+01   # smuon_L decays
#          BR         NDA      ID1       ID2
     2.26490990E-01    2     1000022        13   # BR(~mu_L -> ~chi_10 mu-)
     9.86883526E-04    2     1000023        13   # BR(~mu_L -> ~chi_20 mu-)
     5.58415548E-06    2     1000025        13   # BR(~mu_L -> ~chi_30 mu-)
     2.57281611E-01    2     1000035        13   # BR(~mu_L -> ~chi_40 mu-)
     1.22849075E-04    2    -1000024        14   # BR(~mu_L -> ~chi_1- nu_mu)
     5.15112082E-01    2    -1000037        14   # BR(~mu_L -> ~chi_2- nu_mu)
#
#         PDG            Width
DECAY   2000013     2.73704200E+01   # smuon_R decays
#          BR         NDA      ID1       ID2
     9.98511882E-01    2     1000022        13   # BR(~mu_R -> ~chi_10 mu-)
     6.70924027E-04    2     1000023        13   # BR(~mu_R -> ~chi_20 mu-)
     8.17129254E-04    2     1000025        13   # BR(~mu_R -> ~chi_30 mu-)
     6.46743529E-08    2     1000035        13   # BR(~mu_R -> ~chi_40 mu-)
#
#         PDG            Width
DECAY   1000015     2.90956832E+01   # stau_1 decays
#          BR         NDA      ID1       ID2
     9.28965327E-01    2     1000022        15   # BR(~tau_1 -> ~chi_10  tau-)
     1.53525153E-02    2     1000023        15   # BR(~tau_1 -> ~chi_20  tau-)
     1.44831516E-02    2     1000025        15   # BR(~tau_1 -> ~chi_30  tau-)
     4.04096618E-03    2     1000035        15   # BR(~tau_1 -> ~chi_40  tau-)
     2.90677282E-02    2    -1000024        16   # BR(~tau_1 -> ~chi_1-  nu_tau)
     8.09031129E-03    2    -1000037        16   # BR(~tau_1 -> ~chi_2-  nu_tau)
#
#         PDG            Width
DECAY   2000015     3.10621275E+01   # stau_2 decays
#          BR         NDA      ID1       ID2
     2.30229221E-01    2     1000022        15   # BR(~tau_2 -> ~chi_10  tau-)
     1.44020514E-02    2     1000023        15   # BR(~tau_2 -> ~chi_20  tau-)
     1.43390780E-02    2     1000025        15   # BR(~tau_2 -> ~chi_30  tau-)
     2.46802252E-01    2     1000035        15   # BR(~tau_2 -> ~chi_40  tau-)
     9.60958445E-05    2    -1000024        16   # BR(~tau_2 -> ~chi_1-  nu_tau)
     4.94131301E-01    2    -1000037        16   # BR(~tau_2 -> ~chi_2-  nu_tau)
#
#         PDG            Width
DECAY   1000012     3.02663132E+01   # snu_eL decays
#          BR         NDA      ID1       ID2
     2.26159408E-01    2     1000022        12   # BR(~nu_eL -> ~chi_10 nu_e)
     4.54519779E-05    2     1000023        12   # BR(~nu_eL -> ~chi_20 nu_e)
     6.18053180E-04    2     1000025        12   # BR(~nu_eL -> ~chi_30 nu_e)
     2.57339887E-01    2     1000035        12   # BR(~nu_eL -> ~chi_40 nu_e)
     1.84176162E-03    2     1000024        11   # BR(~nu_eL -> ~chi_1+ e-)
     5.13995438E-01    2     1000037        11   # BR(~nu_eL -> ~chi_2+ e-)
#
#         PDG            Width
DECAY   1000014     3.02663132E+01   # snu_muL decays
#          BR         NDA      ID1       ID2
     2.26159408E-01    2     1000022        14   # BR(~nu_muL -> ~chi_10 nu_mu)
     4.54519779E-05    2     1000023        14   # BR(~nu_muL -> ~chi_20 nu_mu)
     6.18053180E-04    2     1000025        14   # BR(~nu_muL -> ~chi_30 nu_mu)
     2.57339887E-01    2     1000035        14   # BR(~nu_muL -> ~chi_40 nu_mu)
     1.84176162E-03    2     1000024        13   # BR(~nu_muL -> ~chi_1+ mu-)
     5.13995438E-01    2     1000037        13   # BR(~nu_muL -> ~chi_2+ mu-)
#
#         PDG            Width
DECAY   1000016     3.11046523E+01   # snu_tauL decays
#          BR         NDA      ID1       ID2
     2.20040003E-01    2     1000022        16   # BR(~nu_tauL -> ~chi_10 nu_tau)
     4.42211753E-05    2     1000023        16   # BR(~nu_tauL -> ~chi_20 nu_tau)
     6.01316745E-04    2     1000025        16   # BR(~nu_tauL -> ~chi_30 nu_tau)
     2.50311473E-01    2     1000035        16   # BR(~nu_tauL -> ~chi_40 nu_tau)
     2.90459039E-02    2     1000024        15   # BR(~nu_tauL -> ~chi_1+ tau-)
     4.99957082E-01    2     1000037        15   # BR(~nu_tauL -> ~chi_2+ tau-)
#
#         PDG            Width
DECAY   1000024     6.71800922E-01   # chargino1+ decays
#          BR         NDA      ID1       ID2
     1.00000000E+00    2     1000022        24   # BR(~chi_1+ -> ~chi_10  W+)
#
#         PDG            Width
DECAY   1000037     2.00523050E+01   # chargino2+ decays
#          BR         NDA      ID1       ID2
     2.53109388E-01    2     1000024        23   # BR(~chi_2+ -> ~chi_1+  Z )
     2.05837108E-04    2     1000022        24   # BR(~chi_2+ -> ~chi_10  W+)
     2.44066459E-01    2     1000023        24   # BR(~chi_2+ -> ~chi_20  W+)
     2.44040549E-01    2     1000025        24   # BR(~chi_2+ -> ~chi_30  W+)
     2.58576835E-01    2     1000024        25   # BR(~chi_2+ -> ~chi_1+  h )
     9.30915059E-07    2     1000022        37   # BR(~chi_2+ -> ~chi_10  H+)
#
#         PDG            Width
DECAY   1000022     0.00000000E+00   # neutralino1 decays
#
#         PDG            Width
DECAY   1000023     7.02984026E-01   # neutralino2 decays
#          BR         NDA      ID1       ID2
     5.44442545E-01    2     1000022        23   # BR(~chi_20 -> ~chi_10   Z )
     4.55557455E-01    2     1000022        25   # BR(~chi_20 -> ~chi_10   h )
#
#         PDG            Width
DECAY   1000025     7.07455473E-01   # neutralino3 decays
#          BR         NDA      ID1       ID2
     4.43603444E-01    2     1000022        23   # BR(~chi_30 -> ~chi_10   Z )
     5.56396556E-01    2     1000022        25   # BR(~chi_30 -> ~chi_10   h )
#
#         PDG            Width
DECAY   1000035     2.00659737E+01   # neutralino4 decays
#          BR         NDA      ID1       ID2
     5.54594476E-05    2     1000022        23   # BR(~chi_40 -> ~chi_10   Z )
     6.53746059E-02    2     1000023        23   # BR(~chi_40 -> ~chi_20   Z )
     1.87016946E-01    2     1000025        23   # BR(~chi_40 -> ~chi_30   Z )
     2.44703821E-01    2     1000024       -24   # BR(~chi_40 -> ~chi_1+   W-)
     2.44703821E-01    2    -1000024        24   # BR(~chi_40 -> ~chi_1-   W+)
     1.52323663E-04    2     1000022        25   # BR(~chi_40 -> ~chi_10   h )
     8.62398432E-07    2     1000022        35   # BR(~chi_40 -> ~chi_10   H )
     1.09077880E-07    2     1000022        36   # BR(~chi_40 -> ~chi_10   A )
     1.92465740E-01    2     1000023        25   # BR(~chi_40 -> ~chi_20   h )
     6.55263117E-02    2     1000025        25   # BR(~chi_40 -> ~chi_30   h )
#
#         PDG            Width
DECAY        25     4.05240596E-03   # h decays
#          BR         NDA      ID1       ID2
     6.09123579E-01    2           5        -5   # BR(h -> b       bb     )
     6.39770259E-02    2         -15        15   # BR(h -> tau+    tau-   )
     2.26502158E-04    2         -13        13   # BR(h -> mu+     mu-    )
     4.80209592E-04    2           3        -3   # BR(h -> s       sb     )
     2.08087496E-02    2           4        -4   # BR(h -> c       cb     )
     6.72522769E-02    2          21        21   # BR(h -> g       g      )
     2.31112274E-03    2          22        22   # BR(h -> gam     gam    )
     1.48586880E-03    2          22        23   # BR(h -> Z       gam    )
     2.09358745E-01    2          24       -24   # BR(h -> W+      W-     )
     2.49262725E-02    2          23        23   # BR(h -> Z       Z      )
     4.96479719E-05    2     1000022   1000022   # BR(h -> ~chi_10 ~chi_10)
#
#         PDG            Width
DECAY        35     7.95241278E+00   # H decays
#          BR         NDA      ID1       ID2
     4.06876953E-01    2           5        -5   # BR(H -> b       bb     )
     7.00643811E-02    2         -15        15   # BR(H -> tau+    tau-   )
     2.47753217E-04    2         -13        13   # BR(H -> mu+     mu-    )
     3.03707462E-04    2           3        -3   # BR(H -> s       sb     )
     1.69839213E-06    2           4        -4   # BR(H -> c       cb     )
     1.69682827E-01    2           6        -6   # BR(H -> t       tb     )
     5.63683041E-05    2          21        21   # BR(H -> g       g      )
     3.01279744E-07    2          22        22   # BR(H -> gam     gam    )
     1.00178248E-07    2          23        22   # BR(H -> Z       gam    )
     7.75756819E-05    2          24       -24   # BR(H -> W+      W-     )
     3.87387451E-05    2          23        23   # BR(H -> Z       Z      )
     2.89244132E-04    2          25        25   # BR(H -> h       h      )
     2.12998022E-23    2          36        36   # BR(H -> A       A      )
     4.85674462E-19    2          23        36   # BR(H -> Z       A      )
     1.60403539E-03    2     1000024  -1000024   # BR(H -> ~chi_1+ ~chi_1-)
     1.50057977E-03    2     1000022   1000022   # BR(H -> ~chi_10 ~chi_10)
     5.87154361E-05    2     1000023   1000023   # BR(H -> ~chi_20 ~chi_20)
     3.73267542E-04    2     1000025   1000025   # BR(H -> ~chi_30 ~chi_30)
     2.08894457E-01    2     1000022   1000023   # BR(H -> ~chi_10 ~chi_20)
     1.39586794E-01    2     1000022   1000025   # BR(H -> ~chi_10 ~chi_30)
     3.42502982E-04    2     1000023   1000025   # BR(H -> ~chi_20 ~chi_30)
#
#         PDG            Width
DECAY        36     7.97089956E+00   # A decays
#          BR         NDA      ID1       ID2
     4.06070051E-01    2           5        -5   # BR(A -> b       bb     )
     6.99038827E-02    2         -15        15   # BR(A -> tau+    tau-   )
     2.47185336E-04    2         -13        13   # BR(A -> mu+     mu-    )
     3.03232797E-04    2           3        -3   # BR(A -> s       sb     )
     1.70142246E-06    2           4        -4   # BR(A -> c       cb     )
     1.69891790E-01    2           6        -6   # BR(A -> t       tb     )
     1.68132487E-04    2          21        21   # BR(A -> g       g      )
     5.55162902E-07    2          22        22   # BR(A -> gam     gam    )
     2.03616874E-07    2          23        22   # BR(A -> Z       gam    )
     7.71032401E-05    2          23        25   # BR(A -> Z       h      )
     3.10399567E-03    2     1000024  -1000024   # BR(A -> ~chi_1+ ~chi_1-)
     1.53134997E-03    2     1000022   1000022   # BR(A -> ~chi_10 ~chi_10)
     8.28398320E-05    2     1000023   1000023   # BR(A -> ~chi_20 ~chi_20)
     1.23730699E-03    2     1000025   1000025   # BR(A -> ~chi_30 ~chi_30)
     1.41146689E-01    2     1000022   1000023   # BR(A -> ~chi_10 ~chi_20)
     2.06165256E-01    2     1000022   1000025   # BR(A -> ~chi_10 ~chi_30)
     6.87245156E-05    2     1000023   1000025   # BR(A -> ~chi_20 ~chi_30)
#
#         PDG            Width
DECAY        37     7.93191963E+00   # H+ decays
#          BR         NDA      ID1       ID2
     6.53604869E-04    2           4        -5   # BR(H+ -> c       bb     )
     7.02712723E-02    2         -15        16   # BR(H+ -> tau+    nu_tau )
     2.48484453E-04    2         -13        14   # BR(H+ -> mu+     nu_mu  )
     4.18304955E-06    2           2        -5   # BR(H+ -> u       bb     )
     1.45804601E-05    2           2        -3   # BR(H+ -> u       sb     )
     3.01524406E-04    2           4        -3   # BR(H+ -> c       sb     )
     5.75668377E-01    2           6        -5   # BR(H+ -> t       bb     )
     7.76109491E-05    2          24        25   # BR(H+ -> W+      h      )
     1.82007743E-13    2          24        36   # BR(H+ -> W+      A      )
     3.52037984E-01    2     1000024   1000022   # BR(H+ -> ~chi_1+ ~chi_10)
     6.74242048E-04    2     1000024   1000023   # BR(H+ -> ~chi_1+ ~chi_20)
     4.81360584E-05    2     1000024   1000025   # BR(H+ -> ~chi_1+ ~chi_30)
