#
#                              ======================
#                              | THE SUSYHIT OUTPUT |
#                              ======================
#
#
#              ------------------------------------------------------
#              |     This is the output of the SUSY-HIT package     |
#              |  created by A.Djouadi, M.Muehlleitner and M.Spira. |
#              |  In case of problems with SUSY-HIT email to        |
#              |           margarete.muehlleitner@cern.ch           |
#              |           michael.spira@psi.ch                     |
#              |           abdelhak.djouadi@cern.ch                 |
#              ------------------------------------------------------
#
#              ------------------------------------------------------
#              |  SUSY Les Houches Accord - MSSM Spectrum + Decays  |
#              |              based on the decay programs           |
#              |                                                    |
#              |                     SDECAY 1.3b                    |
#              |                                                    |
#              |  Authors: M.Muhlleitner, A.Djouadi and Y.Mambrini  |
#              |  Ref.:    Comput.Phys.Commun.168(2005)46           |
#              |           [hep-ph/0311167]                         |
#              |                                                    |
#              |                     HDECAY 3.4                     |
#              |                                                    |
#              |  By: A.Djouadi,J.Kalinowski,M.Muhlleitner,M.Spira  |
#              |  Ref.:    Comput.Phys.Commun.108(1998)56           |
#              |           [hep-ph/9704448]                         |
#              |                                                    |
#              |                                                    |
#              |  If not stated otherwise all DRbar couplings and   |
#              |  soft SUSY breaking masses are given at the scale  |
#              |  Q=  0.50007055E+04
#              |                                                    |
#              ------------------------------------------------------
#
#
BLOCK DCINFO  # Decay Program information
     1   SDECAY/HDECAY # decay calculator
     2   1.3b  /3.4    # version number
#
BLOCK SPINFO  # Spectrum calculator information
     1    SOFTSUSY    # spectrum calculator                
     2    3.4.0       # version number                     
#
BLOCK MODSEL  # Model selection
     1     0   #  nonUniversal                                     
#
BLOCK SMINPUTS  # Standard Model inputs
         1     1.25778332E+02   # alpha_em^-1(M_Z)^MSbar
         2     1.16570000E-05   # G_F [GeV^-2]
         3     1.17200002E-01   # alpha_S(M_Z)^MSbar
         4     9.11876000E+01   # M_Z pole mass
         5     4.25000000E+00   # mb(mb)^MSbar
         6     1.72500000E+02   # mt pole mass
         7     1.77682000E+00   # mtau pole mass
#
BLOCK MINPAR  # Input parameters - minimal models
         3     1.00000000E+01   # tanb                
#
BLOCK EXTPAR  # Input parameters - non-minimal models
         0    -1.00000000E+00   # Set                 
         1     6.00000000E+01   # M_1(MX)             
         2     3.00000000E+03   # M_2(MX)             
         3     2.33133300E+03   # M_3(MX)             
        11     5.00000000E+03   # At(MX)              
        12     5.00000000E+03   # Ab(MX)              
        13     0.00000000E+00   # Atau(MX)            
        23    -1.83859100E+03   # mu(MX)              
        26     3.00000000E+03   # mA(pole)            
        31     5.00000000E+03   # meL(MX)             
        32     5.00000000E+03   # mmuL(MX)            
        33     5.00000000E+03   # mtauL(MX)           
        34     5.00000000E+03   # meR(MX)             
        35     5.00000000E+03   # mmuR(MX)            
        36     5.00000000E+03   # mtauR(MX)           
        41     5.00000000E+03   # mqL1(MX)            
        42     5.00000000E+03   # mqL2(MX)            
        43     5.00000000E+03   # mqL3(MX)            
        44     5.00000000E+03   # muR(MX)             
        45     5.00000000E+03   # mcR(MX)             
        46     5.00000000E+03   # mtR(MX)             
        47     5.00000000E+03   # mdR(MX)             
        48     5.00000000E+03   # msR(MX)             
        49     5.00000000E+03   # mbR(MX)             
#
BLOCK MASS  # Mass Spectrum
# PDG code           mass       particle
        24     8.00976338E+01   # W+
        25     1.24831384E+02   # h
        35     3.00007740E+03   # H
        36     2.99999995E+03   # A
        37     3.00087233E+03   # H+
         5     4.87878001E+00   # b-quark pole mass calculated from mb(mb)_Msbar
   1000001     5.08398311E+03   # ~d_L
   2000001     5.06626595E+03   # ~d_R
   1000002     5.08351312E+03   # ~u_L
   2000002     5.06599768E+03   # ~u_R
   1000003     5.08398311E+03   # ~s_L
   2000003     5.06626595E+03   # ~s_R
   1000004     5.08351312E+03   # ~c_L
   2000004     5.06599768E+03   # ~c_R
   1000005     5.03051500E+03   # ~b_1
   2000005     5.06538810E+03   # ~b_2
   1000006     4.92373769E+03   # ~t_1
   2000006     5.07635282E+03   # ~t_2
   1000011     5.01903332E+03   # ~e_L
   2000011     5.00590325E+03   # ~e_R
   1000012     5.01808566E+03   # ~nu_eL
   1000013     5.01903332E+03   # ~mu_L
   2000013     5.00590325E+03   # ~mu_R
   1000014     5.01808566E+03   # ~nu_muL
   1000015     5.00412555E+03   # ~tau_1
   2000015     5.01925706E+03   # ~tau_2
   1000016     5.01755499E+03   # ~nu_tauL
   1000021     2.70000087E+03   # ~g
   1000022     6.03003850E+01   # ~chi_10
   1000023     1.89939127E+03   # ~chi_20
   1000025    -1.90224238E+03   # ~chi_30
   1000035     3.07442236E+03   # ~chi_40
   1000024     1.90000084E+03   # ~chi_1+
   1000037     3.07459009E+03   # ~chi_2+
#
BLOCK NMIX  # Neutralino Mixing Matrix
  1  1     9.99722542E-01   # N_11
  1  2     1.16376105E-04   # N_12
  1  3    -2.34916729E-02   # N_13
  1  4     1.72250942E-03   # N_14
  2  1     1.53865008E-02   # N_21
  2  2     4.14151262E-02   # N_22
  2  3     7.06771629E-01   # N_23
  2  4     7.06060839E-01   # N_24
  3  1    -1.78271325E-02   # N_31
  3  2     1.21847392E-02   # N_32
  3  3    -7.06749254E-01   # N_33
  3  4     7.07134511E-01   # N_34
  4  1    -5.36859234E-04   # N_41
  4  2     9.99067718E-01   # N_42
  4  3    -2.06760228E-02   # N_43
  4  4    -3.78933761E-02   # N_44
#
BLOCK UMIX  # Chargino Mixing Matrix U
  1  1     2.92014888E-02   # U_11
  1  2     9.99573546E-01   # U_12
  2  1    -9.99573546E-01   # U_21
  2  2     2.92014888E-02   # U_22
#
BLOCK VMIX  # Chargino Mixing Matrix V
  1  1     5.35534661E-02   # V_11
  1  2    -9.98564983E-01   # V_12
  2  1    -9.98564983E-01   # V_21
  2  2    -5.35534661E-02   # V_22
#
BLOCK STOPMIX  # Stop Mixing Matrix
  1  1    -5.12672384E-01   # cos(theta_t)
  1  2     8.58584315E-01   # sin(theta_t)
  2  1    -8.58584315E-01   # -sin(theta_t)
  2  2    -5.12672384E-01   # cos(theta_t)
#
BLOCK SBOTMIX  # Sbottom Mixing Matrix
  1  1     9.91603549E-01   # cos(theta_b)
  1  2    -1.29315125E-01   # sin(theta_b)
  2  1     1.29315125E-01   # -sin(theta_b)
  2  2     9.91603549E-01   # cos(theta_b)
#
BLOCK STAUMIX  # Stau Mixing Matrix
  1  1    -2.08933540E-01   # cos(theta_tau)
  1  2     9.77929842E-01   # sin(theta_tau)
  2  1    -9.77929842E-01   # -sin(theta_tau)
  2  2    -2.08933540E-01   # cos(theta_tau)
#
BLOCK ALPHA  # Higgs mixing
          -1.05465500E-01   # Mixing angle in the neutral Higgs boson sector
#
BLOCK HMIX Q=  5.00070554E+03  # DRbar Higgs Parameters
         1    -1.87251139E+03   # mu(Q)MSSM           
         2     9.47000801E+00   # tan                 
         3     2.42039752E+02   # higgs               
         4     8.34307864E+06   # mA^2(Q)MSSM         
#
BLOCK GAUGE Q=  5.00070554E+03  # The gauge couplings
     1     3.70632732E-01   # gprime(Q) DRbar
     2     6.31778793E-01   # g(Q) DRbar
     3     9.94055501E-01   # g3(Q) DRbar
#
BLOCK AU Q=  5.00070554E+03  # The trilinear couplings
  1  1     5.00000002E+03   # A_u(Q) DRbar
  2  2     5.00000002E+03   # A_c(Q) DRbar
  3  3     5.00000002E+03   # A_t(Q) DRbar
#
BLOCK AD Q=  5.00070554E+03  # The trilinear couplings
  1  1     5.00000001E+03   # A_d(Q) DRbar
  2  2     5.00000001E+03   # A_s(Q) DRbar
  3  3     5.00000001E+03   # A_b(Q) DRbar
#
BLOCK AE Q=  5.00070554E+03  # The trilinear couplings
  1  1     0.00000000E+00   # A_e(Q) DRbar
  2  2     2.86250202E-07   # A_mu(Q) DRbar
  3  3     2.86309693E-07   # A_tau(Q) DRbar
#
BLOCK Yu Q=  5.00070554E+03  # The Yukawa couplings
  1  1     0.00000000E+00   # y_u(Q) DRbar
  2  2     0.00000000E+00   # y_c(Q) DRbar
  3  3     8.20829270E-01   # y_t(Q) DRbar
#
BLOCK Yd Q=  5.00070554E+03  # The Yukawa couplings
  1  1     0.00000000E+00   # y_d(Q) DRbar
  2  2     0.00000000E+00   # y_s(Q) DRbar
  3  3     1.32488962E-01   # y_b(Q) DRbar
#
BLOCK Ye Q=  5.00070554E+03  # The Yukawa couplings
  1  1     0.00000000E+00   # y_e(Q) DRbar
  2  2     0.00000000E+00   # y_mu(Q) DRbar
  3  3     9.64803059E-02   # y_tau(Q) DRbar
#
BLOCK MSOFT Q=  5.00070554E+03  # The soft SUSY breaking masses at the scale Q
         1     6.00000000E+01   # M_1(Q)              
         2     3.00000000E+03   # M_2(Q)              
         3     2.33133300E+03   # M_3(Q)              
        21     5.14250117E+06   # mH1^2(Q)            
        22    -2.96935573E+06   # mH2^2(Q)            
        31     5.00000000E+03   # meL(Q)              
        32     5.00000000E+03   # mmuL(Q)             
        33     5.00000000E+03   # mtauL(Q)            
        34     5.00000000E+03   # meR(Q)              
        35     5.00000000E+03   # mmuR(Q)             
        36     5.00000000E+03   # mtauR(Q)            
        41     4.99999999E+03   # mqL1(Q)             
        42     4.99999999E+03   # mqL2(Q)             
        43     4.99999999E+03   # mqL3(Q)             
        44     4.99999999E+03   # muR(Q)              
        45     4.99999999E+03   # mcR(Q)              
        46     4.99999999E+03   # mtR(Q)              
        47     4.99999999E+03   # mdR(Q)              
        48     4.99999999E+03   # msR(Q)              
        49     4.99999999E+03   # mbR(Q)              
#
#
#
#                             =================
#                             |The decay table|
#                             =================
#
# - The QCD corrections to the decays gluino -> squark  + quark
#                                     squark -> gaugino + quark_prime
#                                     squark -> squark_prime + Higgs
#                                     squark -> gluino  + quark
#   are included.
#
# - The multi-body decays for the inos, stops and sbottoms are included.
#
# - The loop induced decays for the gluino, neutralinos and stops
#   are included.
#
# - The SUSY decays of the top quark are included.
#
#
#         PDG            Width
DECAY         6     1.39862272E+00   # top decays
#          BR         NDA      ID1       ID2
     1.00000000E+00    2           5        24   # BR(t ->  b    W+)
#
#         PDG            Width
DECAY   1000021     1.74611718E-03   # gluino decays
#          BR         NDA      ID1       ID2
     5.50313730E-06    2     1000022        21   # BR(~g -> ~chi_10 g)
     3.56839983E-03    2     1000023        21   # BR(~g -> ~chi_20 g)
     3.59413454E-03    2     1000025        21   # BR(~g -> ~chi_30 g)
#           BR         NDA      ID1       ID2       ID3
     6.57092892E-02    3     1000022         1        -1   # BR(~g -> ~chi_10 d  db)
     1.63024496E-05    3     1000023         1        -1   # BR(~g -> ~chi_20 d  db)
     1.09636535E-06    3     1000025         1        -1   # BR(~g -> ~chi_30 d  db)
     2.24035933E-01    3     1000022         2        -2   # BR(~g -> ~chi_10 u  ub)
     2.28796801E-05    3     1000023         2        -2   # BR(~g -> ~chi_20 u  ub)
     1.01698038E-06    3     1000025         2        -2   # BR(~g -> ~chi_30 u  ub)
     6.57092892E-02    3     1000022         3        -3   # BR(~g -> ~chi_10 s  sb)
     1.63024496E-05    3     1000023         3        -3   # BR(~g -> ~chi_20 s  sb)
     1.09636535E-06    3     1000025         3        -3   # BR(~g -> ~chi_30 s  sb)
     2.24035933E-01    3     1000022         4        -4   # BR(~g -> ~chi_10 c  cb)
     2.28796801E-05    3     1000023         4        -4   # BR(~g -> ~chi_20 c  cb)
     1.01698038E-06    3     1000025         4        -4   # BR(~g -> ~chi_30 c  cb)
     6.65056218E-02    3     1000022         5        -5   # BR(~g -> ~chi_10 b  bb)
     1.01534267E-03    3     1000023         5        -5   # BR(~g -> ~chi_20 b  bb)
     9.78082545E-04    3     1000025         5        -5   # BR(~g -> ~chi_30 b  bb)
     2.30708371E-01    3     1000022         6        -6   # BR(~g -> ~chi_10 t  tb)
     2.83993352E-02    3     1000023         6        -6   # BR(~g -> ~chi_20 t  tb)
     2.12173916E-02    3     1000025         6        -6   # BR(~g -> ~chi_30 t  tb)
     3.79302220E-05    3     1000024         1        -2   # BR(~g -> ~chi_1+ d  ub)
     3.79302220E-05    3    -1000024         2        -1   # BR(~g -> ~chi_1- u  db)
     3.79302220E-05    3     1000024         3        -4   # BR(~g -> ~chi_1+ s  cb)
     3.79302220E-05    3    -1000024         4        -3   # BR(~g -> ~chi_1- c  sb)
     3.21415305E-02    3     1000024         5        -6   # BR(~g -> ~chi_1+ b  tb)
     3.21415305E-02    3    -1000024         6        -5   # BR(~g -> ~chi_1- t  bb)
#
#         PDG            Width
DECAY   1000006     2.51633737E+02   # stop1 decays
#          BR         NDA      ID1       ID2
     3.50004905E-02    2     1000022         6   # BR(~t_1 -> ~chi_10 t )
     9.45151920E-02    2     1000023         6   # BR(~t_1 -> ~chi_20 t )
     9.07388586E-02    2     1000025         6   # BR(~t_1 -> ~chi_30 t )
     8.93960808E-03    2     1000035         6   # BR(~t_1 -> ~chi_40 t )
     1.36013865E-01    2     1000024         5   # BR(~t_1 -> ~chi_1+ b )
     1.77313838E-02    2     1000037         5   # BR(~t_1 -> ~chi_2+ b )
     6.17060602E-01    2     1000021         6   # BR(~t_1 -> ~g      t )
#
#         PDG            Width
DECAY   2000006     2.68813131E+02   # stop2 decays
#          BR         NDA      ID1       ID2
     1.30651159E-02    2     1000022         6   # BR(~t_2 -> ~chi_10 t )
     9.30212849E-02    2     1000023         6   # BR(~t_2 -> ~chi_20 t )
     9.69254518E-02    2     1000025         6   # BR(~t_2 -> ~chi_30 t )
     2.02996369E-02    2     1000035         6   # BR(~t_2 -> ~chi_40 t )
     5.75255294E-02    2     1000024         5   # BR(~t_2 -> ~chi_1+ b )
     4.01732848E-02    2     1000037         5   # BR(~t_2 -> ~chi_2+ b )
     6.74342747E-01    2     1000021         6   # BR(~t_2 -> ~g      t )
     1.00653616E-03    2     1000006        25   # BR(~t_2 -> ~t_1    h )
     3.64041337E-03    2     1000006        23   # BR(~t_2 -> ~t_1    Z )
#
#         PDG            Width
DECAY   1000005     2.45008365E+02   # sbottom1 decays
#          BR         NDA      ID1       ID2
     3.22724973E-03    2     1000022         5   # BR(~b_1 -> ~chi_10 b )
     2.81425035E-03    2     1000023         5   # BR(~b_1 -> ~chi_20 b )
     2.57033415E-03    2     1000025         5   # BR(~b_1 -> ~chi_30 b )
     3.05397244E-02    2     1000035         5   # BR(~b_1 -> ~chi_40 b )
     1.97807586E-01    2    -1000024         6   # BR(~b_1 -> ~chi_1- t )
     6.16726785E-02    2    -1000037         6   # BR(~b_1 -> ~chi_2- t )
     6.99273617E-01    2     1000021         5   # BR(~b_1 -> ~g      b )
     2.09455978E-03    2     1000006       -24   # BR(~b_1 -> ~t_1    W-)
#
#         PDG            Width
DECAY   2000005     1.81020688E+02   # sbottom2 decays
#          BR         NDA      ID1       ID2
     1.60661298E-02    2     1000022         5   # BR(~b_2 -> ~chi_10 b )
     3.46759434E-03    2     1000023         5   # BR(~b_2 -> ~chi_20 b )
     3.69670840E-03    2     1000025         5   # BR(~b_2 -> ~chi_30 b )
     7.53134870E-04    2     1000035         5   # BR(~b_2 -> ~chi_40 b )
     1.14956625E-02    2    -1000024         6   # BR(~b_2 -> ~chi_1- t )
     1.51933014E-03    2    -1000037         6   # BR(~b_2 -> ~chi_2- t )
     9.62785510E-01    2     1000021         5   # BR(~b_2 -> ~g      b )
     2.15930120E-04    2     1000006       -24   # BR(~b_2 -> ~t_1    W-)
#
#         PDG            Width
DECAY   1000002     2.00275300E+02   # sup_L decays
#          BR         NDA      ID1       ID2
     3.71639381E-03    2     1000022         2   # BR(~u_L -> ~chi_10 u)
     1.42576522E-04    2     1000023         2   # BR(~u_L -> ~chi_20 u)
     5.46130360E-06    2     1000025         2   # BR(~u_L -> ~chi_30 u)
     3.93584201E-02    2     1000035         2   # BR(~u_L -> ~chi_40 u)
     4.14313326E-04    2     1000024         1   # BR(~u_L -> ~chi_1+ d)
     7.86443583E-02    2     1000037         1   # BR(~u_L -> ~chi_2+ d)
     8.77718477E-01    2     1000021         2   # BR(~u_L -> ~g      u)
#
#         PDG            Width
DECAY   2000002     1.86084970E+02   # sup_R decays
#          BR         NDA      ID1       ID2
     6.36955040E-02    2     1000022         2   # BR(~u_R -> ~chi_10 u)
     1.11983735E-05    2     1000023         2   # BR(~u_R -> ~chi_20 u)
     1.50180733E-05    2     1000025         2   # BR(~u_R -> ~chi_30 u)
     7.40040930E-09    2     1000035         2   # BR(~u_R -> ~chi_40 u)
     9.36278272E-01    2     1000021         2   # BR(~u_R -> ~g      u)
#
#         PDG            Width
DECAY   1000001     2.00294696E+02   # sdown_L decays
#          BR         NDA      ID1       ID2
     3.70754631E-03    2     1000022         1   # BR(~d_L -> ~chi_10 d)
     1.06571974E-04    2     1000023         1   # BR(~d_L -> ~chi_20 d)
     1.77256310E-05    2     1000025         1   # BR(~d_L -> ~chi_30 d)
     3.93831416E-02    2     1000035         1   # BR(~d_L -> ~chi_40 d)
     1.23193630E-04    2    -1000024         2   # BR(~d_L -> ~chi_1- u)
     7.88196656E-02    2    -1000037         2   # BR(~d_L -> ~chi_2- u)
     8.77842155E-01    2     1000021         1   # BR(~d_L -> ~g      d)
#
#         PDG            Width
DECAY   2000001     1.77215757E+02   # sdown_R decays
#          BR         NDA      ID1       ID2
     1.67217320E-02    2     1000022         1   # BR(~d_R -> ~chi_10 d)
     2.93996508E-06    2     1000023         1   # BR(~d_R -> ~chi_20 d)
     3.94277048E-06    2     1000025         1   # BR(~d_R -> ~chi_30 d)
     1.94303677E-09    2     1000035         1   # BR(~d_R -> ~chi_40 d)
     9.83271383E-01    2     1000021         1   # BR(~d_R -> ~g      d)
#
#         PDG            Width
DECAY   1000004     2.00275300E+02   # scharm_L decays
#          BR         NDA      ID1       ID2
     3.71639381E-03    2     1000022         4   # BR(~c_L -> ~chi_10 c)
     1.42576522E-04    2     1000023         4   # BR(~c_L -> ~chi_20 c)
     5.46130360E-06    2     1000025         4   # BR(~c_L -> ~chi_30 c)
     3.93584201E-02    2     1000035         4   # BR(~c_L -> ~chi_40 c)
     4.14313326E-04    2     1000024         3   # BR(~c_L -> ~chi_1+ s)
     7.86443583E-02    2     1000037         3   # BR(~c_L -> ~chi_2+ s)
     8.77718477E-01    2     1000021         4   # BR(~c_L -> ~g      c)
#
#         PDG            Width
DECAY   2000004     1.86084970E+02   # scharm_R decays
#          BR         NDA      ID1       ID2
     6.36955040E-02    2     1000022         4   # BR(~c_R -> ~chi_10 c)
     1.11983735E-05    2     1000023         4   # BR(~c_R -> ~chi_20 c)
     1.50180733E-05    2     1000025         4   # BR(~c_R -> ~chi_30 c)
     7.40040930E-09    2     1000035         4   # BR(~c_R -> ~chi_40 c)
     9.36278272E-01    2     1000021         4   # BR(~c_R -> ~g      c)
#
#         PDG            Width
DECAY   1000003     2.00294696E+02   # sstrange_L decays
#          BR         NDA      ID1       ID2
     3.70754631E-03    2     1000022         3   # BR(~s_L -> ~chi_10 s)
     1.06571974E-04    2     1000023         3   # BR(~s_L -> ~chi_20 s)
     1.77256310E-05    2     1000025         3   # BR(~s_L -> ~chi_30 s)
     3.93831416E-02    2     1000035         3   # BR(~s_L -> ~chi_40 s)
     1.23193630E-04    2    -1000024         4   # BR(~s_L -> ~chi_1- c)
     7.88196656E-02    2    -1000037         4   # BR(~s_L -> ~chi_2- c)
     8.77842155E-01    2     1000021         3   # BR(~s_L -> ~g      s)
#
#         PDG            Width
DECAY   2000003     1.77215757E+02   # sstrange_R decays
#          BR         NDA      ID1       ID2
     1.67217320E-02    2     1000022         3   # BR(~s_R -> ~chi_10 s)
     2.93996508E-06    2     1000023         3   # BR(~s_R -> ~chi_20 s)
     3.94277048E-06    2     1000025         3   # BR(~s_R -> ~chi_30 s)
     1.94303677E-09    2     1000035         3   # BR(~s_R -> ~chi_40 s)
     9.83271383E-01    2     1000021         3   # BR(~s_R -> ~g      s)
#
#         PDG            Width
DECAY   1000011     3.02185171E+01   # selectron_L decays
#          BR         NDA      ID1       ID2
     2.26850918E-01    2     1000022        11   # BR(~e_L -> ~chi_10 e-)
     1.23168224E-03    2     1000023        11   # BR(~e_L -> ~chi_20 e-)
     1.44144370E-06    2     1000025        11   # BR(~e_L -> ~chi_30 e-)
     2.56771187E-01    2     1000035        11   # BR(~e_L -> ~chi_40 e-)
     8.25405919E-04    2    -1000024        12   # BR(~e_L -> ~chi_1- nu_e)
     5.14319365E-01    2    -1000037        12   # BR(~e_L -> ~chi_2- nu_e)
#
#         PDG            Width
DECAY   2000011     2.73488837E+01   # selectron_R decays
#          BR         NDA      ID1       ID2
     9.99593575E-01    2     1000022        11   # BR(~e_R -> ~chi_10 e-)
     1.73560515E-04    2     1000023        11   # BR(~e_R -> ~chi_20 e-)
     2.32752952E-04    2     1000025        11   # BR(~e_R -> ~chi_30 e-)
     1.11845917E-07    2     1000035        11   # BR(~e_R -> ~chi_40 e-)
#
#         PDG            Width
DECAY   1000013     3.02185171E+01   # smuon_L decays
#          BR         NDA      ID1       ID2
     2.26850918E-01    2     1000022        13   # BR(~mu_L -> ~chi_10 mu-)
     1.23168224E-03    2     1000023        13   # BR(~mu_L -> ~chi_20 mu-)
     1.44144370E-06    2     1000025        13   # BR(~mu_L -> ~chi_30 mu-)
     2.56771187E-01    2     1000035        13   # BR(~mu_L -> ~chi_40 mu-)
     8.25405919E-04    2    -1000024        14   # BR(~mu_L -> ~chi_1- nu_mu)
     5.14319365E-01    2    -1000037        14   # BR(~mu_L -> ~chi_2- nu_mu)
#
#         PDG            Width
DECAY   2000013     2.73488837E+01   # smuon_R decays
#          BR         NDA      ID1       ID2
     9.99593575E-01    2     1000022        13   # BR(~mu_R -> ~chi_10 mu-)
     1.73560515E-04    2     1000023        13   # BR(~mu_R -> ~chi_20 mu-)
     2.32752952E-04    2     1000025        13   # BR(~mu_R -> ~chi_30 mu-)
     1.11845917E-07    2     1000035        13   # BR(~mu_R -> ~chi_40 mu-)
#
#         PDG            Width
DECAY   1000015     2.88250101E+01   # stau_1 decays
#          BR         NDA      ID1       ID2
     9.17885531E-01    2     1000022        15   # BR(~tau_1 -> ~chi_10  tau-)
     1.29996190E-02    2     1000023        15   # BR(~tau_1 -> ~chi_20  tau-)
     1.12507405E-02    2     1000025        15   # BR(~tau_1 -> ~chi_30  tau-)
     1.11502992E-02    2     1000035        15   # BR(~tau_1 -> ~chi_40  tau-)
     2.43774392E-02    2    -1000024        16   # BR(~tau_1 -> ~chi_1-  nu_tau)
     2.23363711E-02    2    -1000037        16   # BR(~tau_1 -> ~chi_2-  nu_tau)
#
#         PDG            Width
DECAY   2000015     3.07680543E+01   # stau_2 decays
#          BR         NDA      ID1       ID2
     2.51203693E-01    2     1000022        15   # BR(~tau_2 -> ~chi_10  tau-)
     1.12819479E-02    2     1000023        15   # BR(~tau_2 -> ~chi_20  tau-)
     1.17489903E-02    2     1000025        15   # BR(~tau_2 -> ~chi_30  tau-)
     2.41677431E-01    2     1000035        15   # BR(~tau_2 -> ~chi_40  tau-)
     1.05812164E-05    2    -1000024        16   # BR(~tau_2 -> ~chi_1-  nu_tau)
     4.84077357E-01    2    -1000037        16   # BR(~tau_2 -> ~chi_2-  nu_tau)
#
#         PDG            Width
DECAY   1000012     3.02197590E+01   # snu_eL decays
#          BR         NDA      ID1       ID2
     2.26618798E-01    2     1000022        12   # BR(~nu_eL -> ~chi_10 nu_e)
     5.07635054E-04    2     1000023        12   # BR(~nu_eL -> ~chi_20 nu_e)
     2.47855312E-04    2     1000025        12   # BR(~nu_eL -> ~chi_30 nu_e)
     2.56919460E-01    2     1000035        12   # BR(~nu_eL -> ~chi_40 nu_e)
     2.77509605E-03    2     1000024        11   # BR(~nu_eL -> ~chi_1+ e-)
     5.12931156E-01    2     1000037        11   # BR(~nu_eL -> ~chi_2+ e-)
#
#         PDG            Width
DECAY   1000014     3.02197590E+01   # snu_muL decays
#          BR         NDA      ID1       ID2
     2.26618798E-01    2     1000022        14   # BR(~nu_muL -> ~chi_10 nu_mu)
     5.07635054E-04    2     1000023        14   # BR(~nu_muL -> ~chi_20 nu_mu)
     2.47855312E-04    2     1000025        14   # BR(~nu_muL -> ~chi_30 nu_mu)
     2.56919460E-01    2     1000035        14   # BR(~nu_muL -> ~chi_40 nu_mu)
     2.77509605E-03    2     1000024        13   # BR(~nu_muL -> ~chi_1+ mu-)
     5.12931156E-01    2     1000037        13   # BR(~nu_muL -> ~chi_2+ mu-)
#
#         PDG            Width
DECAY   1000016     3.08922233E+01   # snu_tauL decays
#          BR         NDA      ID1       ID2
     2.21662285E-01    2     1000022        16   # BR(~nu_tauL -> ~chi_10 nu_tau)
     4.96497171E-04    2     1000023        16   # BR(~nu_tauL -> ~chi_20 nu_tau)
     2.42417125E-04    2     1000025        16   # BR(~nu_tauL -> ~chi_30 nu_tau)
     2.51236353E-01    2     1000035        16   # BR(~nu_tauL -> ~chi_40 nu_tau)
     2.47708807E-02    2     1000024        15   # BR(~nu_tauL -> ~chi_1+ tau-)
     5.01591567E-01    2     1000037        15   # BR(~nu_tauL -> ~chi_2+ tau-)
#
#         PDG            Width
DECAY   1000024     1.17261401E+00   # chargino1+ decays
#          BR         NDA      ID1       ID2
     1.00000000E+00    2     1000022        24   # BR(~chi_1+ -> ~chi_10  W+)
#
#         PDG            Width
DECAY   1000037     1.60987261E+01   # chargino2+ decays
#          BR         NDA      ID1       ID2
     2.52102437E-01    2     1000024        23   # BR(~chi_2+ -> ~chi_1+  Z )
     4.06522020E-04    2     1000022        24   # BR(~chi_2+ -> ~chi_10  W+)
     2.44881897E-01    2     1000023        24   # BR(~chi_2+ -> ~chi_20  W+)
     2.43023111E-01    2     1000025        24   # BR(~chi_2+ -> ~chi_30  W+)
     2.59585946E-01    2     1000024        25   # BR(~chi_2+ -> ~chi_1+  h )
     8.63371361E-08    2     1000022        37   # BR(~chi_2+ -> ~chi_10  H+)
#
#         PDG            Width
DECAY   1000022     0.00000000E+00   # neutralino1 decays
#
#         PDG            Width
DECAY   1000023     1.23476608E+00   # neutralino2 decays
#          BR         NDA      ID1       ID2
     5.64021475E-01    2     1000022        23   # BR(~chi_20 -> ~chi_10   Z )
     4.35978525E-01    2     1000022        25   # BR(~chi_20 -> ~chi_10   h )
#
#         PDG            Width
DECAY   1000025     1.24954819E+00   # neutralino3 decays
#          BR         NDA      ID1       ID2
     4.16959223E-01    2     1000022        23   # BR(~chi_30 -> ~chi_10   Z )
     5.83040777E-01    2     1000022        25   # BR(~chi_30 -> ~chi_10   h )
#
#         PDG            Width
DECAY   1000035     1.60655376E+01   # neutralino4 decays
#          BR         NDA      ID1       ID2
     1.76034616E-04    2     1000022        23   # BR(~chi_40 -> ~chi_10   Z )
     2.04006983E-02    2     1000023        23   # BR(~chi_40 -> ~chi_20   Z )
     2.31971087E-01    2     1000025        23   # BR(~chi_40 -> ~chi_30   Z )
     2.43766816E-01    2     1000024       -24   # BR(~chi_40 -> ~chi_1+   W-)
     2.43766816E-01    2    -1000024        24   # BR(~chi_40 -> ~chi_1-   W+)
     2.46011403E-04    2     1000022        25   # BR(~chi_40 -> ~chi_10   h )
     7.13584352E-08    2     1000022        35   # BR(~chi_40 -> ~chi_10   H )
     1.82343381E-08    2     1000022        36   # BR(~chi_40 -> ~chi_10   A )
     2.39486397E-01    2     1000023        25   # BR(~chi_40 -> ~chi_20   h )
     2.01860486E-02    2     1000025        25   # BR(~chi_40 -> ~chi_30   h )
#
#         PDG            Width
DECAY        25     4.02978901E-03   # h decays
#          BR         NDA      ID1       ID2
     6.03913186E-01    2           5        -5   # BR(h -> b       bb     )
     6.43855938E-02    2         -15        15   # BR(h -> tau+    tau-   )
     2.27948155E-04    2         -13        13   # BR(h -> mu+     mu-    )
     4.83193670E-04    2           3        -3   # BR(h -> s       sb     )
     2.09402832E-02    2           4        -4   # BR(h -> c       cb     )
     6.78035075E-02    2          21        21   # BR(h -> g       g      )
     2.33286205E-03    2          22        22   # BR(h -> gam     gam    )
     1.50910667E-03    2          22        23   # BR(h -> Z       gam    )
     2.12969011E-01    2          24       -24   # BR(h -> W+      W-     )
     2.54120664E-02    2          23        23   # BR(h -> Z       Z      )
     2.32416644E-05    2     1000022   1000022   # BR(h -> ~chi_10 ~chi_10)
#
#         PDG            Width
DECAY        35     6.54632407E+00   # H decays
#          BR         NDA      ID1       ID2
     5.04801110E-01    2           5        -5   # BR(H -> b       bb     )
     8.51059196E-02    2         -15        15   # BR(H -> tau+    tau-   )
     3.00941292E-04    2         -13        13   # BR(H -> mu+     mu-    )
     3.68907981E-04    2           3        -3   # BR(H -> s       sb     )
     2.06314997E-06    2           4        -4   # BR(H -> c       cb     )
     2.06125016E-01    2           6        -6   # BR(H -> t       tb     )
     6.83854878E-05    2          21        21   # BR(H -> g       g      )
     3.91287237E-07    2          22        22   # BR(H -> gam     gam    )
     1.21773958E-07    2          23        22   # BR(H -> Z       gam    )
     9.02565879E-05    2          24       -24   # BR(H -> W+      W-     )
     4.50711845E-05    2          23        23   # BR(H -> Z       Z      )
     3.43827560E-04    2          25        25   # BR(H -> h       h      )
     5.58133456E-23    2          36        36   # BR(H -> A       A      )
     4.98073384E-19    2          23        36   # BR(H -> Z       A      )
     6.11528344E-04    2     1000022   1000022   # BR(H -> ~chi_10 ~chi_10)
     1.18598582E-01    2     1000022   1000023   # BR(H -> ~chi_10 ~chi_20)
     8.35378772E-02    2     1000022   1000025   # BR(H -> ~chi_10 ~chi_30)
#
#         PDG            Width
DECAY        36     6.54954728E+00   # A decays
#          BR         NDA      ID1       ID2
     5.04720191E-01    2           5        -5   # BR(A -> b       bb     )
     8.50666160E-02    2         -15        15   # BR(A -> tau+    tau-   )
     3.00801891E-04    2         -13        13   # BR(A -> mu+     mu-    )
     3.69006482E-04    2           3        -3   # BR(A -> s       sb     )
     2.07084291E-06    2           4        -4   # BR(A -> c       cb     )
     2.06779456E-01    2           6        -6   # BR(A -> t       tb     )
     2.04630403E-04    2          21        21   # BR(A -> g       g      )
     3.92052787E-07    2          22        22   # BR(A -> gam     gam    )
     2.47967414E-07    2          23        22   # BR(A -> Z       gam    )
     8.98711962E-05    2          23        25   # BR(A -> Z       h      )
     6.31517511E-04    2     1000022   1000022   # BR(A -> ~chi_10 ~chi_10)
     8.45371817E-02    2     1000022   1000023   # BR(A -> ~chi_10 ~chi_20)
     1.17298017E-01    2     1000022   1000025   # BR(A -> ~chi_10 ~chi_30)
#
#         PDG            Width
DECAY        37     6.58037395E+00   # H+ decays
#          BR         NDA      ID1       ID2
     8.16043743E-04    2           4        -5   # BR(H+ -> c       bb     )
     8.46927306E-02    2         -15        16   # BR(H+ -> tau+    nu_tau )
     2.99479804E-04    2         -13        14   # BR(H+ -> mu+     nu_mu  )
     5.22265369E-06    2           2        -5   # BR(H+ -> u       bb     )
     1.75728517E-05    2           2        -3   # BR(H+ -> u       sb     )
     3.63407517E-04    2           4        -3   # BR(H+ -> c       sb     )
     7.11510209E-01    2           6        -5   # BR(H+ -> t       bb     )
     8.95856714E-05    2          24        25   # BR(H+ -> W+      h      )
     1.00914823E-13    2          24        36   # BR(H+ -> W+      A      )
     2.02205748E-01    2     1000024   1000022   # BR(H+ -> ~chi_1+ ~chi_10)
