#
#                              ======================
#                              | THE SUSYHIT OUTPUT |
#                              ======================
#
#
#              ------------------------------------------------------
#              |     This is the output of the SUSY-HIT package     |
#              |  created by A.Djouadi, M.Muehlleitner and M.Spira. |
#              |  In case of problems with SUSY-HIT email to        |
#              |           margarete.muehlleitner@cern.ch           |
#              |           michael.spira@psi.ch                     |
#              |           abdelhak.djouadi@cern.ch                 |
#              ------------------------------------------------------
#
#              ------------------------------------------------------
#              |  SUSY Les Houches Accord - MSSM Spectrum + Decays  |
#              |              based on the decay programs           |
#              |                                                    |
#              |                     SDECAY 1.3b                    |
#              |                                                    |
#              |  Authors: M.Muhlleitner, A.Djouadi and Y.Mambrini  |
#              |  Ref.:    Comput.Phys.Commun.168(2005)46           |
#              |           [hep-ph/0311167]                         |
#              |                                                    |
#              |                     HDECAY 3.4                     |
#              |                                                    |
#              |  By: A.Djouadi,J.Kalinowski,M.Muhlleitner,M.Spira  |
#              |  Ref.:    Comput.Phys.Commun.108(1998)56           |
#              |           [hep-ph/9704448]                         |
#              |                                                    |
#              |                                                    |
#              |  If not stated otherwise all DRbar couplings and   |
#              |  soft SUSY breaking masses are given at the scale  |
#              |  Q=  0.50007272E+04
#              |                                                    |
#              ------------------------------------------------------
#
#
BLOCK DCINFO  # Decay Program information
     1   SDECAY/HDECAY # decay calculator
     2   1.3b  /3.4    # version number
#
BLOCK SPINFO  # Spectrum calculator information
     1    SOFTSUSY    # spectrum calculator                
     2    3.4.0       # version number                     
#
BLOCK MODSEL  # Model selection
     1     0   #  nonUniversal                                     
#
BLOCK SMINPUTS  # Standard Model inputs
         1     1.25778332E+02   # alpha_em^-1(M_Z)^MSbar
         2     1.16570000E-05   # G_F [GeV^-2]
         3     1.17200002E-01   # alpha_S(M_Z)^MSbar
         4     9.11876000E+01   # M_Z pole mass
         5     4.25000000E+00   # mb(mb)^MSbar
         6     1.72500000E+02   # mt pole mass
         7     1.77682000E+00   # mtau pole mass
#
BLOCK MINPAR  # Input parameters - minimal models
         3     1.00000000E+01   # tanb                
#
BLOCK EXTPAR  # Input parameters - non-minimal models
         0    -1.00000000E+00   # Set                 
         1     6.00000000E+01   # M_1(MX)             
         2     3.00000000E+03   # M_2(MX)             
         3     2.62339300E+03   # M_3(MX)             
        11     5.00000000E+03   # At(MX)              
        12     5.00000000E+03   # Ab(MX)              
        13     0.00000000E+00   # Atau(MX)            
        23    -1.34875400E+03   # mu(MX)              
        26     3.00000000E+03   # mA(pole)            
        31     5.00000000E+03   # meL(MX)             
        32     5.00000000E+03   # mmuL(MX)            
        33     5.00000000E+03   # mtauL(MX)           
        34     5.00000000E+03   # meR(MX)             
        35     5.00000000E+03   # mmuR(MX)            
        36     5.00000000E+03   # mtauR(MX)           
        41     5.00000000E+03   # mqL1(MX)            
        42     5.00000000E+03   # mqL2(MX)            
        43     5.00000000E+03   # mqL3(MX)            
        44     5.00000000E+03   # muR(MX)             
        45     5.00000000E+03   # mcR(MX)             
        46     5.00000000E+03   # mtR(MX)             
        47     5.00000000E+03   # mdR(MX)             
        48     5.00000000E+03   # msR(MX)             
        49     5.00000000E+03   # mbR(MX)             
#
BLOCK MASS  # Mass Spectrum
# PDG code           mass       particle
        24     8.00965937E+01   # W+
        25     1.24818272E+02   # h
        35     3.00008430E+03   # H
        36     2.99999990E+03   # A
        37     3.00087260E+03   # H+
         5     4.87878001E+00   # b-quark pole mass calculated from mb(mb)_Msbar
   1000001     5.09116764E+03   # ~d_L
   2000001     5.07345905E+03   # ~d_R
   1000002     5.09069984E+03   # ~u_L
   2000002     5.07318432E+03   # ~u_R
   1000003     5.09116764E+03   # ~s_L
   2000003     5.07345905E+03   # ~s_R
   1000004     5.09069984E+03   # ~c_L
   2000004     5.07318432E+03   # ~c_R
   1000005     5.03709977E+03   # ~b_1
   2000005     5.07217924E+03   # ~b_2
   1000006     4.93022667E+03   # ~t_1
   2000006     5.08116862E+03   # ~t_2
   1000011     5.01904870E+03   # ~e_L
   2000011     5.00591267E+03   # ~e_R
   1000012     5.01810080E+03   # ~nu_eL
   1000013     5.01904870E+03   # ~mu_L
   2000013     5.00591267E+03   # ~mu_R
   1000014     5.01810080E+03   # ~nu_muL
   1000015     5.00442477E+03   # ~tau_1
   2000015     5.01894429E+03   # ~tau_2
   1000016     5.01756031E+03   # ~nu_tauL
   1000021     3.00000080E+03   # ~g
   1000022     6.03032568E+01   # ~chi_10
   1000023     1.39947334E+03   # ~chi_20
   1000025    -1.40186036E+03   # ~chi_30
   1000035     3.07430431E+03   # ~chi_40
   1000024     1.40000036E+03   # ~chi_1+
   1000037     3.07447172E+03   # ~chi_2+
#
BLOCK NMIX  # Neutralino Mixing Matrix
  1  1     9.99491077E-01   # N_11
  1  2     1.47274380E-04   # N_12
  1  3    -3.18389431E-02   # N_13
  1  4     1.96140482E-03   # N_14
  2  1     2.11276520E-02   # N_21
  2  2     2.90568552E-02   # N_22
  2  3     7.06893122E-01   # N_23
  2  4     7.06407415E-01   # N_24
  3  1    -2.38959889E-02   # N_31
  3  2     1.35646723E-02   # N_32
  3  3    -7.06518458E-01   # N_33
  3  4     7.07160978E-01   # N_34
  4  1    -4.37186137E-04   # N_41
  4  2     9.99485706E-01   # N_42
  4  3    -1.09573460E-02   # N_43
  4  4    -3.01341715E-02   # N_44
#
BLOCK UMIX  # Chargino Mixing Matrix U
  1  1     1.55086913E-02   # U_11
  1  2     9.99879733E-01   # U_12
  2  1    -9.99879733E-01   # U_21
  2  2     1.55086913E-02   # U_22
#
BLOCK VMIX  # Chargino Mixing Matrix V
  1  1     4.26399535E-02   # V_11
  1  2    -9.99090504E-01   # V_12
  2  1    -9.99090504E-01   # V_21
  2  2    -4.26399535E-02   # V_22
#
BLOCK STOPMIX  # Stop Mixing Matrix
  1  1    -5.06109738E-01   # cos(theta_t)
  1  2     8.62469091E-01   # sin(theta_t)
  2  1    -8.62469091E-01   # -sin(theta_t)
  2  2    -5.06109738E-01   # cos(theta_t)
#
BLOCK SBOTMIX  # Sbottom Mixing Matrix
  1  1     9.95158244E-01   # cos(theta_b)
  1  2    -9.82856520E-02   # sin(theta_b)
  2  1     9.82856520E-02   # -sin(theta_b)
  2  2     9.95158244E-01   # cos(theta_b)
#
BLOCK STAUMIX  # Stau Mixing Matrix
  1  1    -1.57650738E-01   # cos(theta_tau)
  1  2     9.87494934E-01   # sin(theta_tau)
  2  1    -9.87494934E-01   # -sin(theta_tau)
  2  2    -1.57650738E-01   # cos(theta_tau)
#
BLOCK ALPHA  # Higgs mixing
          -1.05474697E-01   # Mixing angle in the neutral Higgs boson sector
#
BLOCK HMIX Q=  5.00072725E+03  # DRbar Higgs Parameters
         1    -1.37362077E+03   # mu(Q)MSSM           
         2     9.46952226E+00   # tan                 
         3     2.41944911E+02   # higgs               
         4     8.42336275E+06   # mA^2(Q)MSSM         
#
BLOCK GAUGE Q=  5.00072725E+03  # The gauge couplings
     1     3.70698419E-01   # gprime(Q) DRbar
     2     6.32104509E-01   # g(Q) DRbar
     3     9.92475334E-01   # g3(Q) DRbar
#
BLOCK AU Q=  5.00072725E+03  # The trilinear couplings
  1  1     5.00000002E+03   # A_u(Q) DRbar
  2  2     5.00000002E+03   # A_c(Q) DRbar
  3  3     5.00000003E+03   # A_t(Q) DRbar
#
BLOCK AD Q=  5.00072725E+03  # The trilinear couplings
  1  1     5.00000001E+03   # A_d(Q) DRbar
  2  2     5.00000001E+03   # A_s(Q) DRbar
  3  3     5.00000001E+03   # A_b(Q) DRbar
#
BLOCK AE Q=  5.00072725E+03  # The trilinear couplings
  1  1     0.00000000E+00   # A_e(Q) DRbar
  2  2     3.27210457E-07   # A_mu(Q) DRbar
  3  3     3.27439871E-07   # A_tau(Q) DRbar
#
BLOCK Yu Q=  5.00072725E+03  # The Yukawa couplings
  1  1     0.00000000E+00   # y_u(Q) DRbar
  2  2     0.00000000E+00   # y_c(Q) DRbar
  3  3     8.21360487E-01   # y_t(Q) DRbar
#
BLOCK Yd Q=  5.00072725E+03  # The Yukawa couplings
  1  1     0.00000000E+00   # y_d(Q) DRbar
  2  2     0.00000000E+00   # y_s(Q) DRbar
  3  3     1.31839341E-01   # y_b(Q) DRbar
#
BLOCK Ye Q=  5.00072725E+03  # The Yukawa couplings
  1  1     0.00000000E+00   # y_e(Q) DRbar
  2  2     0.00000000E+00   # y_mu(Q) DRbar
  3  3     9.66610157E-02   # y_tau(Q) DRbar
#
BLOCK MSOFT Q=  5.00072725E+03  # The soft SUSY breaking masses at the scale Q
         1     6.00000000E+01   # M_1(Q)              
         2     3.00000000E+03   # M_2(Q)              
         3     2.62339300E+03   # M_3(Q)              
        21     6.78873726E+06   # mH1^2(Q)            
        22    -1.33129266E+06   # mH2^2(Q)            
        31     5.00000000E+03   # meL(Q)              
        32     5.00000000E+03   # mmuL(Q)             
        33     5.00000000E+03   # mtauL(Q)            
        34     5.00000000E+03   # meR(Q)              
        35     5.00000000E+03   # mmuR(Q)             
        36     5.00000000E+03   # mtauR(Q)            
        41     4.99999999E+03   # mqL1(Q)             
        42     4.99999999E+03   # mqL2(Q)             
        43     4.99999999E+03   # mqL3(Q)             
        44     4.99999999E+03   # muR(Q)              
        45     4.99999999E+03   # mcR(Q)              
        46     4.99999999E+03   # mtR(Q)              
        47     4.99999999E+03   # mdR(Q)              
        48     4.99999999E+03   # msR(Q)              
        49     4.99999999E+03   # mbR(Q)              
#
#
#
#                             =================
#                             |The decay table|
#                             =================
#
# - The QCD corrections to the decays gluino -> squark  + quark
#                                     squark -> gaugino + quark_prime
#                                     squark -> squark_prime + Higgs
#                                     squark -> gluino  + quark
#   are included.
#
# - The multi-body decays for the inos, stops and sbottoms are included.
#
# - The loop induced decays for the gluino, neutralinos and stops
#   are included.
#
# - The SUSY decays of the top quark are included.
#
#
#         PDG            Width
DECAY         6     1.40011062E+00   # top decays
#          BR         NDA      ID1       ID2
     1.00000000E+00    2           5        24   # BR(t ->  b    W+)
#
#         PDG            Width
DECAY   1000021     7.82489091E-03   # gluino decays
#          BR         NDA      ID1       ID2
     2.19778700E-06    2     1000022        21   # BR(~g -> ~chi_10 g)
     4.12816549E-03    2     1000023        21   # BR(~g -> ~chi_20 g)
     4.10885849E-03    2     1000025        21   # BR(~g -> ~chi_30 g)
#           BR         NDA      ID1       ID2       ID3
     2.62371794E-02    3     1000022         1        -1   # BR(~g -> ~chi_10 d  db)
     3.04158552E-05    3     1000023         1        -1   # BR(~g -> ~chi_20 d  db)
     7.48610906E-06    3     1000025         1        -1   # BR(~g -> ~chi_30 d  db)
     8.94715478E-02    3     1000022         2        -2   # BR(~g -> ~chi_10 u  ub)
     6.07498950E-05    3     1000023         2        -2   # BR(~g -> ~chi_20 u  ub)
     7.72190754E-06    3     1000025         2        -2   # BR(~g -> ~chi_30 u  ub)
     2.62371794E-02    3     1000022         3        -3   # BR(~g -> ~chi_10 s  sb)
     3.04158552E-05    3     1000023         3        -3   # BR(~g -> ~chi_20 s  sb)
     7.48610906E-06    3     1000025         3        -3   # BR(~g -> ~chi_30 s  sb)
     8.94715478E-02    3     1000022         4        -4   # BR(~g -> ~chi_10 c  cb)
     6.07498950E-05    3     1000023         4        -4   # BR(~g -> ~chi_20 c  cb)
     7.72190754E-06    3     1000025         4        -4   # BR(~g -> ~chi_30 c  cb)
     2.65924561E-02    3     1000022         5        -5   # BR(~g -> ~chi_10 b  bb)
     4.21214416E-03    3     1000023         5        -5   # BR(~g -> ~chi_20 b  bb)
     4.15135492E-03    3     1000025         5        -5   # BR(~g -> ~chi_30 b  bb)
     9.38413097E-02    3     1000022         6        -6   # BR(~g -> ~chi_10 t  tb)
     1.58027357E-01    3     1000023         6        -6   # BR(~g -> ~chi_20 t  tb)
     1.46023275E-01    3     1000025         6        -6   # BR(~g -> ~chi_30 t  tb)
     8.09559482E-05    3     1000024         1        -2   # BR(~g -> ~chi_1+ d  ub)
     8.09559482E-05    3    -1000024         2        -1   # BR(~g -> ~chi_1- u  db)
     8.09559482E-05    3     1000024         3        -4   # BR(~g -> ~chi_1+ s  cb)
     8.09559482E-05    3    -1000024         4        -3   # BR(~g -> ~chi_1- c  sb)
     1.63479428E-01    3     1000024         5        -6   # BR(~g -> ~chi_1+ b  tb)
     1.63479428E-01    3    -1000024         6        -5   # BR(~g -> ~chi_1- t  bb)
#
#         PDG            Width
DECAY   1000006     2.35711016E+02   # stop1 decays
#          BR         NDA      ID1       ID2
     3.77246790E-02    2     1000022         6   # BR(~t_1 -> ~chi_10 t )
     1.17946496E-01    2     1000023         6   # BR(~t_1 -> ~chi_20 t )
     1.13484414E-01    2     1000025         6   # BR(~t_1 -> ~chi_30 t )
     8.86794492E-03    2     1000035         6   # BR(~t_1 -> ~chi_40 t )
     1.72950226E-01    2     1000024         5   # BR(~t_1 -> ~chi_1+ b )
     1.76470151E-02    2     1000037         5   # BR(~t_1 -> ~chi_2+ b )
     5.31379224E-01    2     1000021         6   # BR(~t_1 -> ~g      t )
#
#         PDG            Width
DECAY   2000006     2.48490095E+02   # stop2 decays
#          BR         NDA      ID1       ID2
     1.37149284E-02    2     1000022         6   # BR(~t_2 -> ~chi_10 t )
     1.15825767E-01    2     1000023         6   # BR(~t_2 -> ~chi_20 t )
     1.20449223E-01    2     1000025         6   # BR(~t_2 -> ~chi_30 t )
     2.26496237E-02    2     1000035         6   # BR(~t_2 -> ~chi_40 t )
     6.79775870E-02    2     1000024         5   # BR(~t_2 -> ~chi_1+ b )
     4.50009461E-02    2     1000037         5   # BR(~t_2 -> ~chi_2+ b )
     6.09531047E-01    2     1000021         6   # BR(~t_2 -> ~g      t )
     1.08039247E-03    2     1000006        25   # BR(~t_2 -> ~t_1    h )
     3.77048488E-03    2     1000006        23   # BR(~t_2 -> ~t_1    Z )
#
#         PDG            Width
DECAY   1000005     2.23665736E+02   # sbottom1 decays
#          BR         NDA      ID1       ID2
     3.46621577E-03    2     1000022         5   # BR(~b_1 -> ~chi_10 b )
     3.38925463E-03    2     1000023         5   # BR(~b_1 -> ~chi_20 b )
     3.23264757E-03    2     1000025         5   # BR(~b_1 -> ~chi_30 b )
     3.39058454E-02    2     1000035         5   # BR(~b_1 -> ~chi_40 b )
     2.52772480E-01    2    -1000024         6   # BR(~b_1 -> ~chi_1- t )
     6.82157568E-02    2    -1000037         6   # BR(~b_1 -> ~chi_2- t )
     6.32679913E-01    2     1000021         5   # BR(~b_1 -> ~g      b )
     2.33788601E-03    2     1000006       -24   # BR(~b_1 -> ~t_1    W-)
#
#         PDG            Width
DECAY   2000005     1.51181912E+02   # sbottom2 decays
#          BR         NDA      ID1       ID2
     1.93206240E-02    2     1000022         5   # BR(~b_2 -> ~chi_10 b )
     4.85604957E-03    2     1000023         5   # BR(~b_2 -> ~chi_20 b )
     5.04392064E-03    2     1000025         5   # BR(~b_2 -> ~chi_30 b )
     4.96221339E-04    2     1000035         5   # BR(~b_2 -> ~chi_40 b )
     1.32222666E-02    2    -1000024         6   # BR(~b_2 -> ~chi_1- t )
     9.98021984E-04    2    -1000037         6   # BR(~b_2 -> ~chi_2- t )
     9.55911429E-01    2     1000021         5   # BR(~b_2 -> ~g      b )
     1.51466489E-04    2     1000006       -24   # BR(~b_2 -> ~t_1    W-)
#
#         PDG            Width
DECAY   1000002     1.70680228E+02   # sup_L decays
#          BR         NDA      ID1       ID2
     4.35760778E-03    2     1000022         2   # BR(~u_L -> ~chi_10 u)
     1.07738461E-04    2     1000023         2   # BR(~u_L -> ~chi_20 u)
     7.73269678E-06    2     1000025         2   # BR(~u_L -> ~chi_30 u)
     4.64505695E-02    2     1000035         2   # BR(~u_L -> ~chi_40 u)
     3.55669117E-04    2     1000024         1   # BR(~u_L -> ~chi_1+ d)
     9.28320678E-02    2     1000037         1   # BR(~u_L -> ~chi_2+ d)
     8.55888615E-01    2     1000021         2   # BR(~u_L -> ~g      u)
#
#         PDG            Width
DECAY   2000002     1.56361619E+02   # sup_R decays
#          BR         NDA      ID1       ID2
     7.57234663E-02    2     1000022         2   # BR(~u_R -> ~chi_10 u)
     2.90080979E-05    2     1000023         2   # BR(~u_R -> ~chi_20 u)
     3.70872931E-05    2     1000025         2   # BR(~u_R -> ~chi_30 u)
     5.86548482E-09    2     1000035         2   # BR(~u_R -> ~chi_40 u)
     9.24210432E-01    2     1000021         2   # BR(~u_R -> ~g      u)
#
#         PDG            Width
DECAY   1000001     1.70698535E+02   # sdown_L decays
#          BR         NDA      ID1       ID2
     4.34443279E-03    2     1000022         1   # BR(~d_L -> ~chi_10 d)
     6.07818276E-05    2     1000023         1   # BR(~d_L -> ~chi_20 d)
     3.25131907E-05    2     1000025         1   # BR(~d_L -> ~chi_30 d)
     4.64755004E-02    2     1000035         1   # BR(~d_L -> ~chi_40 d)
     4.70511307E-05    2    -1000024         2   # BR(~d_L -> ~chi_1- u)
     9.29968844E-02    2    -1000037         2   # BR(~d_L -> ~chi_2- u)
     8.56042836E-01    2     1000021         1   # BR(~d_L -> ~g      d)
#
#         PDG            Width
DECAY   2000001     1.47498507E+02   # sdown_R decays
#          BR         NDA      ID1       ID2
     2.00695283E-02    2     1000022         1   # BR(~d_R -> ~chi_10 d)
     7.68835543E-06    2     1000023         1   # BR(~d_R -> ~chi_20 d)
     9.82967966E-06    2     1000025         1   # BR(~d_R -> ~chi_30 d)
     1.55476331E-09    2     1000035         1   # BR(~d_R -> ~chi_40 d)
     9.79912952E-01    2     1000021         1   # BR(~d_R -> ~g      d)
#
#         PDG            Width
DECAY   1000004     1.70680228E+02   # scharm_L decays
#          BR         NDA      ID1       ID2
     4.35760778E-03    2     1000022         4   # BR(~c_L -> ~chi_10 c)
     1.07738461E-04    2     1000023         4   # BR(~c_L -> ~chi_20 c)
     7.73269678E-06    2     1000025         4   # BR(~c_L -> ~chi_30 c)
     4.64505695E-02    2     1000035         4   # BR(~c_L -> ~chi_40 c)
     3.55669117E-04    2     1000024         3   # BR(~c_L -> ~chi_1+ s)
     9.28320678E-02    2     1000037         3   # BR(~c_L -> ~chi_2+ s)
     8.55888615E-01    2     1000021         4   # BR(~c_L -> ~g      c)
#
#         PDG            Width
DECAY   2000004     1.56361619E+02   # scharm_R decays
#          BR         NDA      ID1       ID2
     7.57234663E-02    2     1000022         4   # BR(~c_R -> ~chi_10 c)
     2.90080979E-05    2     1000023         4   # BR(~c_R -> ~chi_20 c)
     3.70872931E-05    2     1000025         4   # BR(~c_R -> ~chi_30 c)
     5.86548482E-09    2     1000035         4   # BR(~c_R -> ~chi_40 c)
     9.24210432E-01    2     1000021         4   # BR(~c_R -> ~g      c)
#
#         PDG            Width
DECAY   1000003     1.70698535E+02   # sstrange_L decays
#          BR         NDA      ID1       ID2
     4.34443279E-03    2     1000022         3   # BR(~s_L -> ~chi_10 s)
     6.07818276E-05    2     1000023         3   # BR(~s_L -> ~chi_20 s)
     3.25131907E-05    2     1000025         3   # BR(~s_L -> ~chi_30 s)
     4.64755004E-02    2     1000035         3   # BR(~s_L -> ~chi_40 s)
     4.70511307E-05    2    -1000024         4   # BR(~s_L -> ~chi_1- c)
     9.29968844E-02    2    -1000037         4   # BR(~s_L -> ~chi_2- c)
     8.56042836E-01    2     1000021         3   # BR(~s_L -> ~g      s)
#
#         PDG            Width
DECAY   2000003     1.47498507E+02   # sstrange_R decays
#          BR         NDA      ID1       ID2
     2.00695283E-02    2     1000022         3   # BR(~s_R -> ~chi_10 s)
     7.68835543E-06    2     1000023         3   # BR(~s_R -> ~chi_20 s)
     9.82967966E-06    2     1000025         3   # BR(~s_R -> ~chi_30 s)
     1.55476331E-09    2     1000035         3   # BR(~s_R -> ~chi_40 s)
     9.79912952E-01    2     1000021         3   # BR(~s_R -> ~g      s)
#
#         PDG            Width
DECAY   1000011     3.02370016E+01   # selectron_L decays
#          BR         NDA      ID1       ID2
     2.26712236E-01    2     1000022        11   # BR(~e_L -> ~chi_10 e-)
     9.63941105E-04    2     1000023        11   # BR(~e_L -> ~chi_20 e-)
     1.13137997E-07    2     1000025        11   # BR(~e_L -> ~chi_30 e-)
     2.57150475E-01    2     1000035        11   # BR(~e_L -> ~chi_40 e-)
     2.69889153E-04    2    -1000024        12   # BR(~e_L -> ~chi_1- nu_e)
     5.14903346E-01    2    -1000037        12   # BR(~e_L -> ~chi_2- nu_e)
#
#         PDG            Width
DECAY   2000011     2.73585065E+01   # selectron_R decays
#          BR         NDA      ID1       ID2
     9.99135244E-01    2     1000022        11   # BR(~e_R -> ~chi_10 e-)
     3.79498235E-04    2     1000023        11   # BR(~e_R -> ~chi_20 e-)
     4.85183299E-04    2     1000025        11   # BR(~e_R -> ~chi_30 e-)
     7.41782151E-08    2     1000035        11   # BR(~e_R -> ~chi_40 e-)
#
#         PDG            Width
DECAY   1000013     3.02370016E+01   # smuon_L decays
#          BR         NDA      ID1       ID2
     2.26712236E-01    2     1000022        13   # BR(~mu_L -> ~chi_10 mu-)
     9.63941105E-04    2     1000023        13   # BR(~mu_L -> ~chi_20 mu-)
     1.13137997E-07    2     1000025        13   # BR(~mu_L -> ~chi_30 mu-)
     2.57150475E-01    2     1000035        13   # BR(~mu_L -> ~chi_40 mu-)
     2.69889153E-04    2    -1000024        14   # BR(~mu_L -> ~chi_1- nu_mu)
     5.14903346E-01    2    -1000037        14   # BR(~mu_L -> ~chi_2- nu_mu)
#
#         PDG            Width
DECAY   2000013     2.73585065E+01   # smuon_R decays
#          BR         NDA      ID1       ID2
     9.99135244E-01    2     1000022        13   # BR(~mu_R -> ~chi_10 mu-)
     3.79498235E-04    2     1000023        13   # BR(~mu_R -> ~chi_20 mu-)
     4.85183299E-04    2     1000025        13   # BR(~mu_R -> ~chi_30 mu-)
     7.41782151E-08    2     1000035        13   # BR(~mu_R -> ~chi_40 mu-)
#
#         PDG            Width
DECAY   1000015     2.90007902E+01   # stau_1 decays
#          BR         NDA      ID1       ID2
     9.25606095E-01    2     1000022        15   # BR(~tau_1 -> ~chi_10  tau-)
     1.44554688E-02    2     1000023        15   # BR(~tau_1 -> ~chi_20  tau-)
     1.32791627E-02    2     1000025        15   # BR(~tau_1 -> ~chi_30  tau-)
     6.40301067E-03    2     1000035        15   # BR(~tau_1 -> ~chi_40  tau-)
     2.74353382E-02    2    -1000024        16   # BR(~tau_1 -> ~chi_1-  nu_tau)
     1.28209245E-02    2    -1000037        16   # BR(~tau_1 -> ~chi_2-  nu_tau)
#
#         PDG            Width
DECAY   2000015     3.09545220E+01   # stau_2 decays
#          BR         NDA      ID1       ID2
     2.37175455E-01    2     1000022        15   # BR(~tau_2 -> ~chi_10  tau-)
     1.33016283E-02    2     1000023        15   # BR(~tau_2 -> ~chi_20  tau-)
     1.35187144E-02    2     1000025        15   # BR(~tau_2 -> ~chi_30  tau-)
     2.45115406E-01    2     1000035        15   # BR(~tau_2 -> ~chi_40  tau-)
     8.46905200E-05    2    -1000024        16   # BR(~tau_2 -> ~chi_1-  nu_tau)
     4.90804106E-01    2    -1000037        16   # BR(~tau_2 -> ~chi_2-  nu_tau)
#
#         PDG            Width
DECAY   1000012     3.02392143E+01   # snu_eL decays
#          BR         NDA      ID1       ID2
     2.26425131E-01    2     1000022        12   # BR(~nu_eL -> ~chi_10 nu_e)
     1.55814775E-04    2     1000023        12   # BR(~nu_eL -> ~chi_20 nu_e)
     4.26392976E-04    2     1000025        12   # BR(~nu_eL -> ~chi_30 nu_e)
     2.57230259E-01    2     1000035        12   # BR(~nu_eL -> ~chi_40 nu_e)
     2.03951580E-03    2     1000024        11   # BR(~nu_eL -> ~chi_1+ e-)
     5.13722886E-01    2     1000037        11   # BR(~nu_eL -> ~chi_2+ e-)
#
#         PDG            Width
DECAY   1000014     3.02392143E+01   # snu_muL decays
#          BR         NDA      ID1       ID2
     2.26425131E-01    2     1000022        14   # BR(~nu_muL -> ~chi_10 nu_mu)
     1.55814775E-04    2     1000023        14   # BR(~nu_muL -> ~chi_20 nu_mu)
     4.26392976E-04    2     1000025        14   # BR(~nu_muL -> ~chi_30 nu_mu)
     2.57230259E-01    2     1000035        14   # BR(~nu_muL -> ~chi_40 nu_mu)
     2.03951580E-03    2     1000024        13   # BR(~nu_muL -> ~chi_1+ mu-)
     5.13722886E-01    2     1000037        13   # BR(~nu_muL -> ~chi_2+ mu-)
#
#         PDG            Width
DECAY   1000016     3.10229458E+01   # snu_tauL decays
#          BR         NDA      ID1       ID2
     2.20681176E-01    2     1000022        16   # BR(~nu_tauL -> ~chi_10 nu_tau)
     1.51856555E-04    2     1000023        16   # BR(~nu_tauL -> ~chi_20 nu_tau)
     4.15561102E-04    2     1000025        16   # BR(~nu_tauL -> ~chi_30 nu_tau)
     2.50639950E-01    2     1000035        16   # BR(~nu_tauL -> ~chi_40 nu_tau)
     2.75494652E-02    2     1000024        15   # BR(~nu_tauL -> ~chi_1+ tau-)
     5.00561991E-01    2     1000037        15   # BR(~nu_tauL -> ~chi_2+ tau-)
#
#         PDG            Width
DECAY   1000024     8.59801799E-01   # chargino1+ decays
#          BR         NDA      ID1       ID2
     1.00000000E+00    2     1000022        24   # BR(~chi_1+ -> ~chi_10  W+)
#
#         PDG            Width
DECAY   1000037     1.88483785E+01   # chargino2+ decays
#          BR         NDA      ID1       ID2
     2.52815727E-01    2     1000024        23   # BR(~chi_2+ -> ~chi_1+  Z )
     2.42491568E-04    2     1000022        24   # BR(~chi_2+ -> ~chi_10  W+)
     2.43959538E-01    2     1000023        24   # BR(~chi_2+ -> ~chi_20  W+)
     2.43774380E-01    2     1000025        24   # BR(~chi_2+ -> ~chi_30  W+)
     2.59207397E-01    2     1000024        25   # BR(~chi_2+ -> ~chi_1+  h )
     4.66875500E-07    2     1000022        37   # BR(~chi_2+ -> ~chi_10  H+)
#
#         PDG            Width
DECAY   1000022     0.00000000E+00   # neutralino1 decays
#
#         PDG            Width
DECAY   1000023     9.02946148E-01   # neutralino2 decays
#          BR         NDA      ID1       ID2
     5.54025659E-01    2     1000022        23   # BR(~chi_20 -> ~chi_10   Z )
     4.45974341E-01    2     1000022        25   # BR(~chi_20 -> ~chi_10   h )
#
#         PDG            Width
DECAY   1000025     9.11301736E-01   # neutralino3 decays
#          BR         NDA      ID1       ID2
     4.29711900E-01    2     1000022        23   # BR(~chi_30 -> ~chi_10   Z )
     5.70288100E-01    2     1000022        25   # BR(~chi_30 -> ~chi_10   h )
#
#         PDG            Width
DECAY   1000035     1.88534854E+01   # neutralino4 decays
#          BR         NDA      ID1       ID2
     8.23021695E-05    2     1000022        23   # BR(~chi_40 -> ~chi_10   Z )
     4.53972732E-02    2     1000023        23   # BR(~chi_40 -> ~chi_20   Z )
     2.06801268E-01    2     1000025        23   # BR(~chi_40 -> ~chi_30   Z )
     2.44415951E-01    2     1000024       -24   # BR(~chi_40 -> ~chi_1+   W-)
     2.44415951E-01    2    -1000024        24   # BR(~chi_40 -> ~chi_1-   W+)
     1.65215577E-04    2     1000022        25   # BR(~chi_40 -> ~chi_10   h )
     4.23584171E-07    2     1000022        35   # BR(~chi_40 -> ~chi_10   H )
     6.01590388E-08    2     1000022        36   # BR(~chi_40 -> ~chi_10   A )
     2.13308218E-01    2     1000023        25   # BR(~chi_40 -> ~chi_20   h )
     4.54133356E-02    2     1000025        25   # BR(~chi_40 -> ~chi_30   h )
#
#         PDG            Width
DECAY        25     4.03969091E-03   # h decays
#          BR         NDA      ID1       ID2
     6.05209742E-01    2           5        -5   # BR(h -> b       bb     )
     6.42256551E-02    2         -15        15   # BR(h -> tau+    tau-   )
     2.27381973E-04    2         -13        13   # BR(h -> mu+     mu-    )
     4.82002909E-04    2           3        -3   # BR(h -> s       sb     )
     2.08871726E-02    2           4        -4   # BR(h -> c       cb     )
     6.76171347E-02    2          21        21   # BR(h -> g       g      )
     2.32599422E-03    2          22        22   # BR(h -> gam     gam    )
     1.50357530E-03    2          22        23   # BR(h -> Z       gam    )
     2.12176325E-01    2          24       -24   # BR(h -> W+      W-     )
     2.53080740E-02    2          23        23   # BR(h -> Z       Z      )
     3.69428098E-05    2     1000022   1000022   # BR(h -> ~chi_10 ~chi_10)
#
#         PDG            Width
DECAY        35     7.45713882E+00   # H decays
#          BR         NDA      ID1       ID2
     4.38080962E-01    2           5        -5   # BR(H -> b       bb     )
     7.47035313E-02    2         -15        15   # BR(H -> tau+    tau-   )
     2.64157620E-04    2         -13        13   # BR(H -> mu+     mu-    )
     3.23816716E-04    2           3        -3   # BR(H -> s       sb     )
     1.81147727E-06    2           4        -4   # BR(H -> c       cb     )
     1.80980930E-01    2           6        -6   # BR(H -> t       tb     )
     6.01006080E-05    2          21        21   # BR(H -> g       g      )
     3.83882179E-07    2          22        22   # BR(H -> gam     gam    )
     1.06897145E-07    2          23        22   # BR(H -> Z       gam    )
     8.16014726E-05    2          24       -24   # BR(H -> W+      W-     )
     4.07490991E-05    2          23        23   # BR(H -> Z       Z      )
     3.06000542E-04    2          25        25   # BR(H -> h       h      )
     7.57274582E-24    2          36        36   # BR(H -> A       A      )
     2.34210300E-19    2          23        36   # BR(H -> Z       A      )
     3.03899634E-04    2     1000024  -1000024   # BR(H -> ~chi_1+ ~chi_1-)
     9.88106586E-04    2     1000022   1000022   # BR(H -> ~chi_10 ~chi_10)
     2.94317591E-05    2     1000023   1000023   # BR(H -> ~chi_20 ~chi_20)
     4.24889995E-05    2     1000025   1000025   # BR(H -> ~chi_30 ~chi_30)
     1.80936030E-01    2     1000022   1000023   # BR(H -> ~chi_10 ~chi_20)
     1.22799790E-01    2     1000022   1000025   # BR(H -> ~chi_10 ~chi_30)
     5.61019325E-05    2     1000023   1000025   # BR(H -> ~chi_20 ~chi_30)
#
#         PDG            Width
DECAY        36     7.47628617E+00   # A decays
#          BR         NDA      ID1       ID2
     4.37104761E-01    2           5        -5   # BR(A -> b       bb     )
     7.45143574E-02    2         -15        15   # BR(A -> tau+    tau-   )
     2.63488318E-04    2         -13        13   # BR(A -> mu+     mu-    )
     3.23232349E-04    2           3        -3   # BR(A -> s       sb     )
     1.81433328E-06    2           4        -4   # BR(A -> c       cb     )
     1.81166252E-01    2           6        -6   # BR(A -> t       tb     )
     1.79275754E-04    2          21        21   # BR(A -> g       g      )
     4.25859626E-07    2          22        22   # BR(A -> gam     gam    )
     2.17192703E-07    2          23        22   # BR(A -> Z       gam    )
     8.10843614E-05    2          23        25   # BR(A -> Z       h      )
     2.01550203E-03    2     1000024  -1000024   # BR(A -> ~chi_1+ ~chi_1-)
     1.01325816E-03    2     1000022   1000022   # BR(A -> ~chi_10 ~chi_10)
     1.48195009E-04    2     1000023   1000023   # BR(A -> ~chi_20 ~chi_20)
     5.11854439E-04    2     1000025   1000025   # BR(A -> ~chi_30 ~chi_30)
     1.23968992E-01    2     1000022   1000023   # BR(A -> ~chi_10 ~chi_20)
     1.78706563E-01    2     1000022   1000025   # BR(A -> ~chi_10 ~chi_30)
     7.26484757E-07    2     1000023   1000025   # BR(A -> ~chi_20 ~chi_30)
#
#         PDG            Width
DECAY        37     7.47789059E+00   # H+ decays
#          BR         NDA      ID1       ID2
     7.06883295E-04    2           4        -5   # BR(H+ -> c       bb     )
     7.45200415E-02    2         -15        16   # BR(H+ -> tau+    nu_tau )
     2.63508417E-04    2         -13        14   # BR(H+ -> mu+     nu_mu  )
     4.52403006E-06    2           2        -5   # BR(H+ -> u       bb     )
     1.54621254E-05    2           2        -3   # BR(H+ -> u       sb     )
     3.19757941E-04    2           4        -3   # BR(H+ -> c       sb     )
     6.19131030E-01    2           6        -5   # BR(H+ -> t       bb     )
     8.11897861E-05    2          24        25   # BR(H+ -> W+      h      )
     8.89672287E-14    2          24        36   # BR(H+ -> W+      A      )
     3.04685137E-01    2     1000024   1000022   # BR(H+ -> ~chi_1+ ~chi_10)
     2.16020326E-04    2     1000024   1000023   # BR(H+ -> ~chi_1+ ~chi_20)
     5.64458069E-05    2     1000024   1000025   # BR(H+ -> ~chi_1+ ~chi_30)
