#
#                              ======================
#                              | THE SUSYHIT OUTPUT |
#                              ======================
#
#
#              ------------------------------------------------------
#              |     This is the output of the SUSY-HIT package     |
#              |  created by A.Djouadi, M.Muehlleitner and M.Spira. |
#              |  In case of problems with SUSY-HIT email to        |
#              |           margarete.muehlleitner@kit.edu           |
#              |           michael.spira@psi.ch                     |
#              |           abdelhak.djouadi@cern.ch                 |
#              ------------------------------------------------------
#
#              ------------------------------------------------------
#              |  SUSY Les Houches Accord - MSSM Spectrum + Decays  |
#              |              based on the decay programs           |
#              |                                                    |
#              |                     SDECAY 1.5                     |
#              |                                                    |
#              |  Authors: M.Muhlleitner, A.Djouadi and Y.Mambrini  |
#              |  Ref.:    Comput.Phys.Commun.168(2005)46           |
#              |           [hep-ph/0311167]                         |
#              |                                                    |
#              |                     HDECAY 3.4                     |
#              |                                                    |
#              |  By: A.Djouadi,J.Kalinowski,M.Muhlleitner,M.Spira  |
#              |  Ref.:    Comput.Phys.Commun.108(1998)56           |
#              |           [hep-ph/9704448]                         |
#              |                                                    |
#              |                                                    |
#              |  If not stated otherwise all DRbar couplings and   |
#              |  soft SUSY breaking masses are given at the scale  |
#              |  Q=  0.91187600E+02
#              |                                                    |
#              ------------------------------------------------------
#
#
BLOCK DCINFO  # Decay Program information
     1   SDECAY/HDECAY # decay calculator
     2   1.5  /3.4    # version number
#
BLOCK SPINFO  # Spectrum calculator information
     1   SuSpect     # RGE +Spectrum calculator            
     2   2.43         # version number                     
#
BLOCK MODSEL  # Model selection
     1     2   # GMSB                                              
#
BLOCK SMINPUTS  # Standard Model inputs
         1     1.27932904E+02   # alpha_em^-1(M_Z)^MSbar
         2     1.16639000E-05   # G_F [GeV^-2]
         3     1.17200000E-01   # alpha_S(M_Z)^MSbar
         4     9.11870000E+01   # M_Z pole mass
         5     4.25000000E+00   # mb(mb)^MSbar
         6     1.72900000E+02   # mt pole mass
         7     1.77700000E+00   # mtau pole mass
#
BLOCK MINPAR  # Input parameters - minimal models
#
BLOCK EXTPAR  # Input parameters - non-minimal models
         0     9.11876000E+01   # EWSB                
         1     4.63000000E+02   # M_1                 
         2     3.00000000E+03   # M_2                 
         3     2.20000000E+03   # M_3                 
        11     0.00000000E+00   # A_t                 
        12     0.00000000E+00   # A_b                 
        13     0.00000000E+00   # A_tau               
        14     0.00000000E+00   # A_u                 
        15     0.00000000E+00   # A_d                 
        16     0.00000000E+00   # A_e                 
        23     4.50000000E+02   # mu(EWSB)            
        25     1.50000000E+00   # tanbeta(in)         
        26     2.00000000E+03   # MA_pole             
        31     5.00000000E+03   # M_eL                
        32     5.00000000E+03   # M_muL               
        33     5.00000000E+03   # M_tauL              
        34     5.00000000E+03   # M_eR                
        35     5.00000000E+03   # M_muR               
        36     5.00000000E+03   # M_tauR              
        41     5.00000000E+03   # M_q1L               
        42     5.00000000E+03   # M_q2L               
        43     5.00000000E+03   # M_q3L               
        44     5.00000000E+03   # M_uR                
        45     5.00000000E+03   # M_cR                
        46     5.00000000E+03   # M_tR                
        47     5.00000000E+03   # M_dR                
        48     5.00000000E+03   # M_sR                
        49     5.00000000E+03   # M_bR                
#
BLOCK MASS  # Mass Spectrum
# PDG code           mass       particle
        24     8.05385977E+01   # W+
        25     1.26000000E+02   # h
        35     2.00422939E+03   # H
        36     2.00000000E+03   # A
        37     2.00201479E+03   # H+
         5     4.87877839E+00   # b-quark pole mass calculated from mb(mb)_Msbar
   1000001     4.92095296E+03   # ~d_L
   2000001     4.92084231E+03   # ~d_R
   1000002     4.92070565E+03   # ~u_L
   2000002     4.92076427E+03   # ~u_R
   1000003     4.92095296E+03   # ~s_L
   2000003     4.92084231E+03   # ~s_R
   1000004     4.92070565E+03   # ~c_L
   2000004     4.92076427E+03   # ~c_R
   1000005     4.92070396E+03   # ~b_1
   2000005     4.92109279E+03   # ~b_2
   1000006     5.05222471E+03   # ~t_1
   2000006     5.35467095E+03   # ~t_2
   1000011     5.00008242E+03   # ~e_L
   2000011     5.00007601E+03   # ~e_R
   1000012     4.99984157E+03   # ~nu_eL
   1000013     5.00008242E+03   # ~mu_L
   2000013     5.00007601E+03   # ~mu_R
   1000014     4.99984157E+03   # ~nu_muL
   1000015     4.99995950E+03   # ~tau_1
   2000015     5.00019955E+03   # ~tau_2
   1000016     4.99984157E+03   # ~nu_tauL
   1000021     2.23872433E+03   # ~g
   1000022     4.42372776E+02   # ~chi_10
   1000023    -4.84208013E+02   # ~chi_20
   1000025     5.29942889E+02   # ~chi_30
   1000035     3.12901626E+03   # ~chi_40
   1000024     4.81852950E+02   # ~chi_1+
   1000037     3.12901570E+03   # ~chi_2+
   1000039     1.00000000E-09   # ~gravitino
#
BLOCK NMIX  # Neutralino Mixing Matrix
  1  1     6.70852659E-01   # N_11
  1  2    -2.13891490E-02   # N_12
  1  3     5.28861746E-01   # N_13
  1  4    -5.19427057E-01   # N_14
  2  1     8.97794203E-03   # N_21
  2  2    -4.31381449E-03   # N_22
  2  3    -7.06541255E-01   # N_23
  2  4    -7.07601754E-01   # N_24
  3  1     7.41536147E-01   # N_31
  3  2     2.00749025E-02   # N_32
  3  3    -4.69884297E-01   # N_33
  3  4     4.78466183E-01   # N_34
  4  1     4.98788499E-04   # N_41
  4  2    -9.99560350E-01   # N_42
  4  3    -1.77046801E-02   # N_43
  4  4     2.37781815E-02   # N_44
#
BLOCK UMIX  # Chargino Mixing Matrix U
  1  1    -2.50292283E-02   # U_11
  1  2     9.99686720E-01   # U_12
  2  1     9.99686720E-01   # U_21
  2  2     2.50292283E-02   # U_22
#
BLOCK VMIX  # Chargino Mixing Matrix V
  1  1    -3.36214671E-02   # V_11
  1  2     9.99434639E-01   # V_12
  2  1     9.99434639E-01   # V_21
  2  2     3.36214671E-02   # V_22
#
BLOCK STOPMIX  # Stop Mixing Matrix
  1  1     9.99793326E-01   # cos(theta_t)
  1  2    -2.03299111E-02   # sin(theta_t)
  2  1     2.03299111E-02   # -sin(theta_t)
  2  2     9.99793326E-01   # cos(theta_t)
#
BLOCK SBOTMIX  # Sbottom Mixing Matrix
  1  1     5.98095695E-01   # cos(theta_b)
  1  2     8.01424694E-01   # sin(theta_b)
  2  1    -8.01424694E-01   # -sin(theta_b)
  2  2     5.98095695E-01   # cos(theta_b)
#
BLOCK STAUMIX  # Stau Mixing Matrix
  1  1     6.97596860E-01   # cos(theta_tau)
  1  2     7.16490489E-01   # sin(theta_tau)
  2  1    -7.16490489E-01   # -sin(theta_tau)
  2  2     6.97596860E-01   # cos(theta_tau)
#
BLOCK ALPHA  # Higgs mixing
          -5.90209823E-01   # Mixing angle in the neutral Higgs boson sector
#
BLOCK HMIX Q=  9.11876000E+01  # DRbar Higgs Parameters
         1     4.50000000E+02   # mu(Q)               
         2     1.49999979E+00   # tanbeta(Q)          
         3     2.51893276E+02   # vev(Q)              
         4     3.75173474E+06   # MA^2(Q)             
#
BLOCK GAUGE Q=  9.11876000E+01  # The gauge couplings
     1     3.52960582E-01   # gprime(Q) DRbar
     2     6.28305823E-01   # g(Q) DRbar
     3     1.07892646E+00   # g3(Q) DRbar
#
BLOCK AU Q=  9.11876000E+01  # The trilinear couplings
  1  1     0.00000000E+00   # A_u(Q) DRbar
  2  2     0.00000000E+00   # A_c(Q) DRbar
  3  3     0.00000000E+00   # A_t(Q) DRbar
#
BLOCK AD Q=  9.11876000E+01  # The trilinear couplings
  1  1     0.00000000E+00   # A_d(Q) DRbar
  2  2     0.00000000E+00   # A_s(Q) DRbar
  3  3     0.00000000E+00   # A_b(Q) DRbar
#
BLOCK AE Q=  9.11876000E+01  # The trilinear couplings
  1  1     0.00000000E+00   # A_e(Q) DRbar
  2  2     0.00000000E+00   # A_mu(Q) DRbar
  3  3     0.00000000E+00   # A_tau(Q) DRbar
#
BLOCK Yu Q=  9.11876000E+01  # The Yukawa couplings
  1  1     0.00000000E+00   # y_u(Q) DRbar
  2  2     0.00000000E+00   # y_c(Q) DRbar
  3  3     1.02679640E+00   # y_t(Q) DRbar
#
BLOCK Yd Q=  9.11876000E+01  # The Yukawa couplings
  1  1     0.00000000E+00   # y_d(Q) DRbar
  2  2     0.00000000E+00   # y_s(Q) DRbar
  3  3     2.72164931E-02   # y_b(Q) DRbar
#
BLOCK Ye Q=  9.11876000E+01  # The Yukawa couplings
  1  1     0.00000000E+00   # y_e(Q) DRbar
  2  2     0.00000000E+00   # y_mu(Q) DRbar
  3  3     1.79911510E-02   # y_tau(Q) DRbar
#
BLOCK MSOFT Q=  9.11876000E+01  # The soft SUSY breaking masses at the scale Q
         1     4.63000000E+02   # M_1                 
         2     3.00000000E+03   # M_2                 
         3     2.20000000E+03   # M_3                 
        14     0.00000000E+00   # A_u                 
        15     0.00000000E+00   # A_d                 
        16     0.00000000E+00   # A_e                 
        21     2.83413708E+06   # M^2_Hd              
        22    -5.56980954E+06   # M^2_Hu              
        31     5.00000000E+03   # M_eL                
        32     5.00000000E+03   # M_muL               
        33     5.00000000E+03   # M_tauL              
        34     5.00000000E+03   # M_eR                
        35     5.00000000E+03   # M_muR               
        36     5.00000000E+03   # M_tauR              
        41     5.00000000E+03   # M_q1L               
        42     5.00000000E+03   # M_q2L               
        43     5.00000000E+03   # M_q3L               
        44     5.00000000E+03   # M_uR                
        45     5.00000000E+03   # M_cR                
        46     5.00000000E+03   # M_tR                
        47     5.00000000E+03   # M_dR                
        48     5.00000000E+03   # M_sR                
        49     5.00000000E+03   # M_bR                
#
#
#
#                             =================
#                             |The decay table|
#                             =================
#
# - The QCD corrections to the decays gluino -> squark  + quark
#                                     squark -> gaugino + quark_prime
#                                     squark -> squark_prime + Higgs
#                                     squark -> gluino  + quark
#   are included.
#
# - The multi-body decays for the inos, stops and sbottoms are included.
#
# - The loop induced decays for the gluino, neutralinos and stops
#   are included.
#
# - The SUSY decays of the top quark are included.
#
# - Possible decays of the NLSP in GMSB models are included.
#
#
#         PDG            Width
DECAY         6     1.37553712E+00   # top decays
#          BR         NDA      ID1       ID2
     1.00000000E+00    2           5        24   # BR(t ->  b    W+)
#
#         PDG            Width
DECAY   1000021     5.42103719E-03   # gluino decays
#          BR         NDA      ID1       ID2
     3.78431182E-03    2     1000022        21   # BR(~g -> ~chi_10 g)
     6.68785815E-03    2     1000023        21   # BR(~g -> ~chi_20 g)
     2.83157820E-03    2     1000025        21   # BR(~g -> ~chi_30 g)
#          BR         NDA      ID1       ID2
0.0E+00    2     1000039    21 # BR(~g -> ~G      g)
#           BR         NDA      ID1       ID2       ID3
     4.19672942E-03    3     1000022         1        -1   # BR(~g -> ~chi_10 d  db)
     1.22900745E-06    3     1000023         1        -1   # BR(~g -> ~chi_20 d  db)
     4.13282853E-03    3     1000025         1        -1   # BR(~g -> ~chi_30 d  db)
     1.30446766E-02    3     1000022         2        -2   # BR(~g -> ~chi_10 u  ub)
     1.35686214E-06    3     1000023         2        -2   # BR(~g -> ~chi_20 u  ub)
     1.51203611E-02    3     1000025         2        -2   # BR(~g -> ~chi_30 u  ub)
     4.19672942E-03    3     1000022         3        -3   # BR(~g -> ~chi_10 s  sb)
     1.22900745E-06    3     1000023         3        -3   # BR(~g -> ~chi_20 s  sb)
     4.13282853E-03    3     1000025         3        -3   # BR(~g -> ~chi_30 s  sb)
     1.30446766E-02    3     1000022         4        -4   # BR(~g -> ~chi_10 c  cb)
     1.35686214E-06    3     1000023         4        -4   # BR(~g -> ~chi_20 c  cb)
     1.51203611E-02    3     1000025         4        -4   # BR(~g -> ~chi_30 c  cb)
     4.30203019E-03    3     1000022         5        -5   # BR(~g -> ~chi_10 b  bb)
     2.08208083E-04    3     1000023         5        -5   # BR(~g -> ~chi_20 b  bb)
     4.23185474E-03    3     1000025         5        -5   # BR(~g -> ~chi_30 b  bb)
     1.14715448E-01    3     1000022         6        -6   # BR(~g -> ~chi_10 t  tb)
     2.02219728E-01    3     1000023         6        -6   # BR(~g -> ~chi_20 t  tb)
     1.10358585E-01    3     1000025         6        -6   # BR(~g -> ~chi_30 t  tb)
     8.30448554E-05    3     1000024         1        -2   # BR(~g -> ~chi_1+ d  ub)
     8.30448554E-05    3    -1000024         2        -1   # BR(~g -> ~chi_1- u  db)
     8.30448554E-05    3     1000024         3        -4   # BR(~g -> ~chi_1+ s  cb)
     8.30448554E-05    3    -1000024         4        -3   # BR(~g -> ~chi_1- c  sb)
     2.32695514E-01    3     1000024         5        -6   # BR(~g -> ~chi_1+ b  tb)
     2.32695514E-01    3    -1000024         6        -5   # BR(~g -> ~chi_1- t  bb)
#
#         PDG            Width
DECAY   1000006     2.71914573E+02   # stop1 decays
#          BR         NDA      ID1       ID2
     6.91000369E-02    2     1000022         6   # BR(~t_1 -> ~chi_10 t )
     1.31129018E-01    2     1000023         6   # BR(~t_1 -> ~chi_20 t )
     6.40010042E-02    2     1000025         6   # BR(~t_1 -> ~chi_30 t )
     2.70217607E-02    2     1000035         6   # BR(~t_1 -> ~chi_40 t )
     1.81457943E-04    2     1000024         5   # BR(~t_1 -> ~chi_1+ b )
     5.38556277E-02    2     1000037         5   # BR(~t_1 -> ~chi_2+ b )
     6.33205786E-01    2     1000021         6   # BR(~t_1 -> ~g      t )
     7.76222342E-03    2     1000005        24   # BR(~t_1 -> ~b_1    W+)
     1.37430859E-02    2     2000005        24   # BR(~t_1 -> ~b_2    W+)
#
#         PDG            Width
DECAY   2000006     3.53757279E+02   # stop2 decays
#          BR         NDA      ID1       ID2
     7.44073372E-02    2     1000022         6   # BR(~t_2 -> ~chi_10 t )
     1.07803832E-01    2     1000023         6   # BR(~t_2 -> ~chi_20 t )
     6.45170070E-02    2     1000025         6   # BR(~t_2 -> ~chi_30 t )
    -2.68419175E-05    2     1000035         6   # BR(~t_2 -> ~chi_40 t )
     2.15563423E-01    2     1000024         5   # BR(~t_2 -> ~chi_1+ b )
    -5.37418701E-05    2     1000037         5   # BR(~t_2 -> ~chi_2+ b )
     5.37406073E-01    2     1000021         6   # BR(~t_2 -> ~g      t )
    -8.86769880E-05    2     1000006        25   # BR(~t_2 -> ~t_1    h )
     6.86480928E-05    2     1000006        23   # BR(~t_2 -> ~t_1    Z )
     1.44306943E-04    2     1000005        24   # BR(~t_2 -> ~b_1    W+)
     2.58634092E-04    2     2000005        24   # BR(~t_2 -> ~b_2    W+)
#
#         PDG            Width
DECAY   1000005     1.76975408E+02   # sbottom1 decays
#          BR         NDA      ID1       ID2
     6.84783980E-03    2     1000022         5   # BR(~b_1 -> ~chi_10 b )
     1.10714229E-04    2     1000023         5   # BR(~b_1 -> ~chi_20 b )
     6.09716669E-03    2     1000025         5   # BR(~b_1 -> ~chi_30 b )
     6.13441498E-03    2     1000035         5   # BR(~b_1 -> ~chi_40 b )
     3.34295606E-02    2    -1000024         6   # BR(~b_1 -> ~chi_1- t )
     1.22976385E-02    2    -1000037         6   # BR(~b_1 -> ~chi_2- t )
     9.35082665E-01    2     1000021         5   # BR(~b_1 -> ~g      b )
#
#         PDG            Width
DECAY   2000005     2.46557281E+02   # sbottom2 decays
#          BR         NDA      ID1       ID2
     1.48241109E-03    2     1000022         5   # BR(~b_2 -> ~chi_10 b )
     1.22962305E-04    2     1000023         5   # BR(~b_2 -> ~chi_20 b )
     2.43314937E-03    2     1000025         5   # BR(~b_2 -> ~chi_30 b )
     2.25604497E-02    2     1000035         5   # BR(~b_2 -> ~chi_40 b )
     2.57386050E-01    2    -1000024         6   # BR(~b_2 -> ~chi_1- t )
     4.52835256E-02    2    -1000037         6   # BR(~b_2 -> ~chi_2- t )
     6.70731452E-01    2     1000021         5   # BR(~b_2 -> ~g      b )
#
#         PDG            Width
DECAY   1000002     1.86047817E+02   # sup_L decays
#          BR         NDA      ID1       ID2
     1.06806406E-03    2     1000022         2   # BR(~u_L -> ~chi_10 u)
     6.79251231E-07    2     1000023         2   # BR(~u_L -> ~chi_20 u)
     2.46623032E-03    2     1000025         2   # BR(~u_L -> ~chi_30 u)
     3.57110985E-02    2     1000035         2   # BR(~u_L -> ~chi_40 u)
     2.21609211E-04    2     1000024         1   # BR(~u_L -> ~chi_1+ d)
     7.14176135E-02    2     1000037         1   # BR(~u_L -> ~chi_2+ d)
     8.89114705E-01    2     1000021         2   # BR(~u_L -> ~g      u)
#
#         PDG            Width
DECAY   2000002     1.75644871E+02   # sup_R decays
#          BR         NDA      ID1       ID2
     2.62927439E-02    2     1000022         2   # BR(~u_R -> ~chi_10 u)
     4.69440593E-06    2     1000023         2   # BR(~u_R -> ~chi_20 u)
     3.19051808E-02    2     1000025         2   # BR(~u_R -> ~chi_30 u)
     5.28561001E-09    2     1000035         2   # BR(~u_R -> ~chi_40 u)
     9.41797376E-01    2     1000021         2   # BR(~u_R -> ~g      u)
#
#         PDG            Width
DECAY   1000001     1.86053917E+02   # sdown_L decays
#          BR         NDA      ID1       ID2
     2.12471431E-03    2     1000022         1   # BR(~d_L -> ~chi_10 d)
     3.52232261E-06    2     1000023         1   # BR(~d_L -> ~chi_20 d)
     1.37759468E-03    2     1000025         1   # BR(~d_L -> ~chi_30 d)
     3.57299039E-02    2     1000035         1   # BR(~d_L -> ~chi_40 d)
     1.22816913E-04    2    -1000024         2   # BR(~d_L -> ~chi_1- u)
     7.14645558E-02    2    -1000037         2   # BR(~d_L -> ~chi_2- u)
     8.89176892E-01    2     1000021         1   # BR(~d_L -> ~g      d)
#
#         PDG            Width
DECAY   2000001     1.67983032E+02   # sdown_R decays
#          BR         NDA      ID1       ID2
     6.87310847E-03    2     1000022         1   # BR(~d_R -> ~chi_10 d)
     1.22715090E-06    2     1000023         1   # BR(~d_R -> ~chi_20 d)
     8.34024083E-03    2     1000025         1   # BR(~d_R -> ~chi_30 d)
     1.38175359E-09    2     1000035         1   # BR(~d_R -> ~chi_40 d)
     9.84785422E-01    2     1000021         1   # BR(~d_R -> ~g      d)
#
#         PDG            Width
DECAY   1000004     1.86047817E+02   # scharm_L decays
#          BR         NDA      ID1       ID2
     1.06806406E-03    2     1000022         4   # BR(~c_L -> ~chi_10 c)
     6.79251231E-07    2     1000023         4   # BR(~c_L -> ~chi_20 c)
     2.46623032E-03    2     1000025         4   # BR(~c_L -> ~chi_30 c)
     3.57110985E-02    2     1000035         4   # BR(~c_L -> ~chi_40 c)
     2.21609211E-04    2     1000024         3   # BR(~c_L -> ~chi_1+ s)
     7.14176135E-02    2     1000037         3   # BR(~c_L -> ~chi_2+ s)
     8.89114705E-01    2     1000021         4   # BR(~c_L -> ~g      c)
#
#         PDG            Width
DECAY   2000004     1.75644871E+02   # scharm_R decays
#          BR         NDA      ID1       ID2
     2.62927439E-02    2     1000022         4   # BR(~c_R -> ~chi_10 c)
     4.69440593E-06    2     1000023         4   # BR(~c_R -> ~chi_20 c)
     3.19051808E-02    2     1000025         4   # BR(~c_R -> ~chi_30 c)
     5.28561001E-09    2     1000035         4   # BR(~c_R -> ~chi_40 c)
     9.41797376E-01    2     1000021         4   # BR(~c_R -> ~g      c)
#
#         PDG            Width
DECAY   1000003     1.86053917E+02   # sstrange_L decays
#          BR         NDA      ID1       ID2
     2.12471431E-03    2     1000022         3   # BR(~s_L -> ~chi_10 s)
     3.52232261E-06    2     1000023         3   # BR(~s_L -> ~chi_20 s)
     1.37759468E-03    2     1000025         3   # BR(~s_L -> ~chi_30 s)
     3.57299039E-02    2     1000035         3   # BR(~s_L -> ~chi_40 s)
     1.22816913E-04    2    -1000024         4   # BR(~s_L -> ~chi_1- c)
     7.14645558E-02    2    -1000037         4   # BR(~s_L -> ~chi_2- c)
     8.89176892E-01    2     1000021         3   # BR(~s_L -> ~g      s)
#
#         PDG            Width
DECAY   2000003     1.67983032E+02   # sstrange_R decays
#          BR         NDA      ID1       ID2
     6.87310847E-03    2     1000022         3   # BR(~s_R -> ~chi_10 s)
     1.22715090E-06    2     1000023         3   # BR(~s_R -> ~chi_20 s)
     8.34024083E-03    2     1000025         3   # BR(~s_R -> ~chi_30 s)
     1.38175359E-09    2     1000035         3   # BR(~s_R -> ~chi_40 s)
     9.84785422E-01    2     1000021         3   # BR(~s_R -> ~g      s)
#
#         PDG            Width
DECAY   1000011     2.79087293E+01   # selectron_L decays
#          BR         NDA      ID1       ID2
     8.75117768E-02    2     1000022        11   # BR(~e_L -> ~chi_10 e-)
     3.67591402E-07    2     1000023        11   # BR(~e_L -> ~chi_20 e-)
     1.31136297E-01    2     1000025        11   # BR(~e_L -> ~chi_30 e-)
     2.60020964E-01    2     1000035        11   # BR(~e_L -> ~chi_40 e-)
     8.65167247E-04    2    -1000024        12   # BR(~e_L -> ~chi_1- nu_e)
     5.20465427E-01    2    -1000037        12   # BR(~e_L -> ~chi_2- nu_e)
#
#         PDG            Width
DECAY   2000011     2.43065659E+01   # selectron_R decays
#          BR         NDA      ID1       ID2
     4.51745890E-01    2     1000022        11   # BR(~e_R -> ~chi_10 e-)
     8.06557023E-05    2     1000023        11   # BR(~e_R -> ~chi_20 e-)
     5.48173361E-01    2     1000025        11   # BR(~e_R -> ~chi_30 e-)
     9.38969339E-08    2     1000035        11   # BR(~e_R -> ~chi_40 e-)
#
#         PDG            Width
DECAY   1000013     2.79087293E+01   # smuon_L decays
#          BR         NDA      ID1       ID2
     8.75117768E-02    2     1000022        13   # BR(~mu_L -> ~chi_10 mu-)
     3.67591402E-07    2     1000023        13   # BR(~mu_L -> ~chi_20 mu-)
     1.31136297E-01    2     1000025        13   # BR(~mu_L -> ~chi_30 mu-)
     2.60020964E-01    2     1000035        13   # BR(~mu_L -> ~chi_40 mu-)
     8.65167247E-04    2    -1000024        14   # BR(~mu_L -> ~chi_1- nu_mu)
     5.20465427E-01    2    -1000037        14   # BR(~mu_L -> ~chi_2- nu_mu)
#
#         PDG            Width
DECAY   2000013     2.43065659E+01   # smuon_R decays
#          BR         NDA      ID1       ID2
     4.51745890E-01    2     1000022        13   # BR(~mu_R -> ~chi_10 mu-)
     8.06557023E-05    2     1000023        13   # BR(~mu_R -> ~chi_20 mu-)
     5.48173361E-01    2     1000025        13   # BR(~mu_R -> ~chi_30 mu-)
     9.38969339E-08    2     1000035        13   # BR(~mu_R -> ~chi_40 mu-)
#
#         PDG            Width
DECAY   1000015     2.61373314E+01   # stau_1 decays
#          BR         NDA      ID1       ID2
     2.67786588E-01    2     1000022        15   # BR(~tau_1 -> ~chi_10  tau-)
     4.44888545E-04    2     1000023        15   # BR(~tau_1 -> ~chi_20  tau-)
     3.24579545E-01    2     1000025        15   # BR(~tau_1 -> ~chi_30  tau-)
     1.34901740E-01    2     1000035        15   # BR(~tau_1 -> ~chi_40  tau-)
     2.12597172E-03    2    -1000024        16   # BR(~tau_1 -> ~chi_1-  nu_tau)
     2.70023623E-01    2    -1000037        16   # BR(~tau_1 -> ~chi_2-  nu_tau)
     1.37644098E-04    2     1000039        15   # BR(~tau_1 -> ~G       tau-)
#
#         PDG            Width
DECAY   2000015     2.61763384E+01   # stau_2 decays
#          BR         NDA      ID1       ID2
     2.46069767E-01    2     1000022        15   # BR(~tau_2 -> ~chi_10  tau-)
     8.36181639E-04    2     1000023        15   # BR(~tau_2 -> ~chi_20  tau-)
     3.25268662E-01    2     1000025        15   # BR(~tau_2 -> ~chi_30  tau-)
     1.42529413E-01    2     1000035        15   # BR(~tau_2 -> ~chi_40  tau-)
     6.10260301E-06    2    -1000024        16   # BR(~tau_2 -> ~chi_1-  nu_tau)
     2.85289874E-01    2    -1000037        16   # BR(~tau_2 -> ~chi_2-  nu_tau)
#
#         PDG            Width
DECAY   1000012     2.79076842E+01   # snu_eL decays
#          BR         NDA      ID1       ID2
     1.09840475E-01    2     1000022        12   # BR(~nu_eL -> ~chi_10 nu_e)
     6.04494363E-05    2     1000023        12   # BR(~nu_eL -> ~chi_20 nu_e)
     1.08127474E-01    2     1000025        12   # BR(~nu_eL -> ~chi_30 nu_e)
     2.60277612E-01    2     1000035        12   # BR(~nu_eL -> ~chi_40 nu_e)
     1.56110829E-03    2     1000024        11   # BR(~nu_eL -> ~chi_1+ e-)
     5.20132881E-01    2     1000037        11   # BR(~nu_eL -> ~chi_2+ e-)
#
#         PDG            Width
DECAY   1000014     2.79076842E+01   # snu_muL decays
#          BR         NDA      ID1       ID2
     1.09840475E-01    2     1000022        14   # BR(~nu_muL -> ~chi_10 nu_mu)
     6.04494363E-05    2     1000023        14   # BR(~nu_muL -> ~chi_20 nu_mu)
     1.08127474E-01    2     1000025        14   # BR(~nu_muL -> ~chi_30 nu_mu)
     2.60277612E-01    2     1000035        14   # BR(~nu_muL -> ~chi_40 nu_mu)
     1.56110829E-03    2     1000024        13   # BR(~nu_muL -> ~chi_1+ mu-)
     5.20132881E-01    2     1000037        13   # BR(~nu_muL -> ~chi_2+ mu-)
#
#         PDG            Width
DECAY   1000016     2.79392729E+01   # snu_tauL decays
#          BR         NDA      ID1       ID2
     1.09716287E-01    2     1000022        16   # BR(~nu_tauL -> ~chi_10 nu_tau)
     6.03810909E-05    2     1000023        16   # BR(~nu_tauL -> ~chi_20 nu_tau)
     1.08005223E-01    2     1000025        16   # BR(~nu_tauL -> ~chi_30 nu_tau)
     2.59983336E-01    2     1000035        16   # BR(~nu_tauL -> ~chi_40 nu_tau)
     2.68950649E-03    2     1000024        15   # BR(~nu_tauL -> ~chi_1+ tau-)
     5.19545265E-01    2     1000037        15   # BR(~nu_tauL -> ~chi_2+ tau-)
#
#         PDG            Width
DECAY   1000024     6.07669657E-05   # chargino1+ decays
#          BR         NDA      ID1       ID2
     2.20752219E-04    2     1000039        24   # BR(~chi_1+ -> ~G       W+)
#           BR         NDA      ID1       ID2       ID3
     3.33631032E-01    3     1000022         2        -1   # BR(~chi_1+ -> ~chi_10 u    db)
     3.33631032E-01    3     1000022         4        -3   # BR(~chi_1+ -> ~chi_10 c    sb)
     1.11210470E-01    3     1000022       -11        12   # BR(~chi_1+ -> ~chi_10 e+   nu_e)
     1.11210470E-01    3     1000022       -13        14   # BR(~chi_1+ -> ~chi_10 mu+  nu_mu)
     1.10096242E-01    3     1000022       -15        16   # BR(~chi_1+ -> ~chi_10 tau+ nu_tau)
#
#         PDG            Width
DECAY   1000037     3.50061953E+01   # chargino2+ decays
#          BR         NDA      ID1       ID2
     2.21830106E-01    2     1000024        23   # BR(~chi_2+ -> ~chi_1+  Z )
     1.12657493E-01    2     1000022        24   # BR(~chi_2+ -> ~chi_10  W+)
     2.16302876E-01    2     1000023        24   # BR(~chi_2+ -> ~chi_20  W+)
     1.03636975E-01    2     1000025        24   # BR(~chi_2+ -> ~chi_30  W+)
     2.22777719E-01    2     1000024        25   # BR(~chi_2+ -> ~chi_1+  h )
     3.05823699E-02    2     1000024        35   # BR(~chi_2+ -> ~chi_1+  H )
     3.08259234E-02    2     1000024        36   # BR(~chi_2+ -> ~chi_1+  A )
     1.79955926E-02    2     1000022        37   # BR(~chi_2+ -> ~chi_10  H+)
     3.05893751E-02    2     1000023        37   # BR(~chi_2+ -> ~chi_20  H+)
     1.27917325E-02    2     1000025        37   # BR(~chi_2+ -> ~chi_30  H+)
     9.83546199E-06    2     1000039        24   # BR(~chi_2+ -> ~G       W+)
     4.69072640E-10    2     1000039        37   # BR(~chi_2+ -> ~G       H+)
#
#         PDG            Width
DECAY   1000022    1.0E-05    # neutralino1 decays
#          BR         NDA      ID1       ID2
     5.00490690E-01    2     1000039        22   # BR(~chi_10 -> ~G        gam)
     4.89328124E-01    2     1000039        23   # BR(~chi_10 -> ~G        Z)
     1.01811868E-02    2     1000039        25   # BR(~chi_10 -> ~G        h)
#
#         PDG            Width
DECAY   1000023     6.56274141E-05   # neutralino2 decays
#          BR         NDA      ID1       ID2
     8.01778102E-04    2     1000022        22   # BR(~chi_20 -> ~chi_10 gam)
#          BR         NDA      ID1       ID2
     1.52487600E-08    2     1000039        22   # BR(~chi_20 -> ~G        gam)
     7.85644210E-06    2     1000039        23   # BR(~chi_20 -> ~G        Z)
     1.69770155E-04    2     1000039        25   # BR(~chi_20 -> ~G        h)
#           BR         NDA      ID1       ID2       ID3
     1.19101971E-01    3     1000022        -2         2   # BR(~chi_20 -> ~chi_10 ub      u)
     1.54182653E-01    3     1000022        -1         1   # BR(~chi_20 -> ~chi_10 db      d)
     1.19101971E-01    3     1000022        -4         4   # BR(~chi_20 -> ~chi_10 cb      c)
     1.54182653E-01    3     1000022        -3         3   # BR(~chi_20 -> ~chi_10 sb      s)
     1.36466165E-01    3     1000022        -5         5   # BR(~chi_20 -> ~chi_10 bb      b)
     3.51959332E-02    3     1000022       -11        11   # BR(~chi_20 -> ~chi_10 e+      e-)
     3.51959332E-02    3     1000022       -13        13   # BR(~chi_20 -> ~chi_10 mu+     mu-)
     3.47594994E-02    3     1000022       -15        15   # BR(~chi_20 -> ~chi_10 tau+    tau-)
     7.02772034E-02    3     1000022       -12        12   # BR(~chi_20 -> ~chi_10 nu_eb   nu_e)
     7.02772034E-02    3     1000022       -14        14   # BR(~chi_20 -> ~chi_10 nu_mub  nu_mu)
     7.02772034E-02    3     1000022       -16        16   # BR(~chi_20 -> ~chi_10 nu_taub nu_tau)
     4.08926288E-07    3     1000024        -2         1   # BR(~chi_20 -> ~chi_1+ ub      d)
     4.08926288E-07    3    -1000024        -1         2   # BR(~chi_20 -> ~chi_1- db      u)
     4.08926288E-07    3     1000024        -4         3   # BR(~chi_20 -> ~chi_1+ cb      s)
     4.08926288E-07    3    -1000024        -3         4   # BR(~chi_20 -> ~chi_1- sb      c)
     1.36308777E-07    3     1000024       -12        11   # BR(~chi_20 -> ~chi_1+ nu_eb   e-)
     1.36308777E-07    3    -1000024        12       -11   # BR(~chi_20 -> ~chi_1- nu_e    e+)
     1.36308777E-07    3     1000024       -14        13   # BR(~chi_20 -> ~chi_1+ nu_mub  mu-)
     1.36308777E-07    3    -1000024        14       -13   # BR(~chi_20 -> ~chi_1- nu_mu   mu+)
     4.81877268E-09    3     1000024       -16        15   # BR(~chi_20 -> ~chi_1+ nu_taub tau-)
     4.81877268E-09    3    -1000024        16       -15   # BR(~chi_20 -> ~chi_1- nu_tau  tau+)
#
#         PDG            Width
DECAY   1000025     3.73839272E-04   # neutralino3 decays
#          BR         NDA      ID1       ID2
     2.16897379E-04    2     1000022        22   # BR(~chi_30 -> ~chi_10 gam)
     5.22900021E-04    2     1000023        22   # BR(~chi_30 -> ~chi_20 gam)
#          BR         NDA      ID1       ID2
     5.54503408E-05    2     1000039        22   # BR(~chi_30 -> ~G        gam)
     3.84050384E-05    2     1000039        23   # BR(~chi_30 -> ~G        Z)
     9.43398121E-07    2     1000039        25   # BR(~chi_30 -> ~G        h)
#           BR         NDA      ID1       ID2       ID3
     3.24223938E-08    3     1000022        -2         2   # BR(~chi_30 -> ~chi_10 ub      u)
     3.01454682E-08    3     1000022        -1         1   # BR(~chi_30 -> ~chi_10 db      d)
     3.24223938E-08    3     1000022        -4         4   # BR(~chi_30 -> ~chi_10 cb      c)
     3.01454682E-08    3     1000022        -3         3   # BR(~chi_30 -> ~chi_10 sb      s)
     1.00342120E-06    3     1000022        -5         5   # BR(~chi_30 -> ~chi_10 bb      b)
     8.54404733E-08    3     1000022       -11        11   # BR(~chi_30 -> ~chi_10 e+      e-)
     8.54404733E-08    3     1000022       -13        13   # BR(~chi_30 -> ~chi_10 mu+     mu-)
     2.31396925E-07    3     1000022       -15        15   # BR(~chi_30 -> ~chi_10 tau+    tau-)
     4.11696816E-09    3     1000022       -12        12   # BR(~chi_30 -> ~chi_10 nu_eb   nu_e)
     4.11696816E-09    3     1000022       -14        14   # BR(~chi_30 -> ~chi_10 nu_mub  nu_mu)
     4.11696816E-09    3     1000022       -16        16   # BR(~chi_30 -> ~chi_10 nu_taub nu_tau)
     2.74997199E-02    3     1000023        -2         2   # BR(~chi_30 -> ~chi_20 ub      u)
     3.55997108E-02    3     1000023        -1         1   # BR(~chi_30 -> ~chi_20 db      d)
     2.74997199E-02    3     1000023        -4         4   # BR(~chi_30 -> ~chi_20 cb      c)
     3.55997108E-02    3     1000023        -3         3   # BR(~chi_30 -> ~chi_20 sb      s)
     3.21154579E-02    3     1000023        -5         5   # BR(~chi_30 -> ~chi_20 bb      b)
     8.12657295E-03    3     1000023       -11        11   # BR(~chi_30 -> ~chi_20 e+      e-)
     8.12657295E-03    3     1000023       -13        13   # BR(~chi_30 -> ~chi_20 mu+     mu-)
     8.03831392E-03    3     1000023       -15        15   # BR(~chi_30 -> ~chi_20 tau+    tau-)
     1.62264152E-02    3     1000023       -12        12   # BR(~chi_30 -> ~chi_20 nu_eb   nu_e)
     1.62264152E-02    3     1000023       -14        14   # BR(~chi_30 -> ~chi_20 nu_mub  nu_mu)
     1.62264152E-02    3     1000023       -16        16   # BR(~chi_30 -> ~chi_20 nu_taub nu_tau)
     1.28075475E-01    3     1000024        -2         1   # BR(~chi_30 -> ~chi_1+ ub      d)
     1.28075475E-01    3    -1000024        -1         2   # BR(~chi_30 -> ~chi_1- db      u)
     1.28075475E-01    3     1000024        -4         3   # BR(~chi_30 -> ~chi_1+ cb      s)
     1.28075475E-01    3    -1000024        -3         4   # BR(~chi_30 -> ~chi_1- sb      c)
     4.26917390E-02    3     1000024       -12        11   # BR(~chi_30 -> ~chi_1+ nu_eb   e-)
     4.26917390E-02    3    -1000024        12       -11   # BR(~chi_30 -> ~chi_1- nu_e    e+)
     4.26917390E-02    3     1000024       -14        13   # BR(~chi_30 -> ~chi_1+ nu_mub  mu-)
     4.26917390E-02    3    -1000024        14       -13   # BR(~chi_30 -> ~chi_1- nu_mu   mu+)
     4.24049905E-02    3     1000024       -16        15   # BR(~chi_30 -> ~chi_1+ nu_taub tau-)
     4.24049905E-02    3    -1000024        16       -15   # BR(~chi_30 -> ~chi_1- nu_tau  tau+)
#
#         PDG            Width
DECAY   1000035     3.50065904E+01   # neutralino4 decays
#          BR         NDA      ID1       ID2
     2.28574140E-03    2     1000022        23   # BR(~chi_40 -> ~chi_10   Z )
     2.17346585E-01    2     1000023        23   # BR(~chi_40 -> ~chi_20   Z )
     2.33162228E-03    2     1000025        23   # BR(~chi_40 -> ~chi_30   Z )
     2.16114556E-01    2     1000024       -24   # BR(~chi_40 -> ~chi_1+   W-)
     2.16114556E-01    2    -1000024        24   # BR(~chi_40 -> ~chi_1-   W+)
     1.13876232E-01    2     1000022        25   # BR(~chi_40 -> ~chi_10   h )
     1.89599248E-03    2     1000022        35   # BR(~chi_40 -> ~chi_10   H )
     1.60731865E-02    2     1000022        36   # BR(~chi_40 -> ~chi_10   A )
     4.60492562E-03    2     1000023        25   # BR(~chi_40 -> ~chi_20   h )
     2.72041306E-02    2     1000023        35   # BR(~chi_40 -> ~chi_20   H )
     3.30321746E-03    2     1000023        36   # BR(~chi_40 -> ~chi_20   A )
     1.04532372E-01    2     1000025        25   # BR(~chi_40 -> ~chi_30   h )
     1.35082679E-03    2     1000025        35   # BR(~chi_40 -> ~chi_30   H )
     1.14245422E-02    2     1000025        36   # BR(~chi_40 -> ~chi_30   A )
     3.07658390E-02    2     1000024       -37   # BR(~chi_40 -> ~chi_1+   H-)
     3.07658390E-02    2    -1000024        37   # BR(~chi_40 -> ~chi_1-   H+)
     2.35999109E-06    2     1000039        22   # BR(~chi_40 -> ~G        gam)
     7.47463328E-06    2     1000039        23   # BR(~chi_40 -> ~G        Z)
     4.80491569E-10    2     1000039        25   # BR(~chi_40 -> ~G        h)
     4.65768431E-10    2     1000039        35   # BR(~chi_40 -> ~G        H)
     1.43402981E-12    2     1000039        36   # BR(~chi_40 -> ~G        A)
#
#         PDG            Width
DECAY        25     4.21777329E-03   # h decays
#          BR         NDA      ID1       ID2
     6.01738347E-01    2           5        -5   # BR(h -> b       bb     )
     6.22488606E-02    2         -15        15   # BR(h -> tau+    tau-   )
     2.20333828E-04    2         -13        13   # BR(h -> mu+     mu-    )
     4.66183582E-04    2           3        -3   # BR(h -> s       sb     )
     2.01114220E-02    2           4        -4   # BR(h -> c       cb     )
     6.64186430E-02    2          21        21   # BR(h -> g       g      )
     2.31234940E-03    2          22        22   # BR(h -> gam     gam    )
     1.62672046E-03    2          22        23   # BR(h -> Z       gam    )
     2.16772292E-01    2          24       -24   # BR(h -> W+      W-     )
     2.80848480E-02    2          23        23   # BR(h -> Z       Z      )
#
#         PDG            Width
DECAY        35     3.99039956E+01   # H decays
#          BR         NDA      ID1       ID2
     1.39619792E-03    2           5        -5   # BR(H -> b       bb     )
     2.33519977E-04    2         -15        15   # BR(H -> tau+    tau-   )
     8.25580058E-07    2         -13        13   # BR(H -> mu+     mu-    )
     1.05702783E-06    2           3        -3   # BR(H -> s       sb     )
     9.53970349E-06    2           4        -4   # BR(H -> c       cb     )
     9.43915266E-01    2           6        -6   # BR(H -> t       tb     )
     7.55917529E-04    2          21        21   # BR(H -> g       g      )
     2.63724832E-06    2          22        22   # BR(H -> gam     gam    )
     1.09850561E-06    2          23        22   # BR(H -> Z       gam    )
     3.19427286E-04    2          24       -24   # BR(H -> W+      W-     )
     1.59278018E-04    2          23        23   # BR(H -> Z       Z      )
     8.57358815E-04    2          25        25   # BR(H -> h       h      )
     9.14708989E-24    2          36        36   # BR(H -> A       A      )
     3.65907040E-11    2          23        36   # BR(H -> Z       A      )
     3.51006203E-12    2          24       -37   # BR(H -> W+      H-     )
     3.51006203E-12    2         -24        37   # BR(H -> W-      H+     )
     5.65258396E-05    2     1000024  -1000024   # BR(H -> ~chi_1+ ~chi_1-)
     9.95154532E-04    2     1000022   1000022   # BR(H -> ~chi_10 ~chi_10)
     2.27664235E-05    2     1000023   1000023   # BR(H -> ~chi_20 ~chi_20)
     5.62232716E-04    2     1000025   1000025   # BR(H -> ~chi_30 ~chi_30)
     2.57956121E-02    2     1000022   1000023   # BR(H -> ~chi_10 ~chi_20)
     1.23607023E-05    2     1000022   1000025   # BR(H -> ~chi_10 ~chi_30)
     2.49032243E-02    2     1000023   1000025   # BR(H -> ~chi_20 ~chi_30)
#
#         PDG            Width
DECAY        36     4.03526812E+01   # A decays
#          BR         NDA      ID1       ID2
     1.39891674E-03    2           5        -5   # BR(A -> b       bb     )
     2.31117638E-04    2         -15        15   # BR(A -> tau+    tau-   )
     8.17084342E-07    2         -13        13   # BR(A -> mu+     mu-    )
     1.07720774E-06    2           3        -3   # BR(A -> s       sb     )
     9.43977483E-06    2           4        -4   # BR(A -> c       cb     )
     9.44754050E-01    2           6        -6   # BR(A -> t       tb     )
     8.94227657E-04    2          21        21   # BR(A -> g       g      )
     2.66894032E-06    2          22        22   # BR(A -> gam     gam    )
     1.28092781E-06    2          23        22   # BR(A -> Z       gam    )
     3.11204735E-04    2          23        25   # BR(A -> Z       h      )
     6.47389431E-04    2     1000024  -1000024   # BR(A -> ~chi_1+ ~chi_1-)
     2.86090948E-02    2     1000022   1000022   # BR(A -> ~chi_10 ~chi_10)
     1.16213256E-06    2     1000023   1000023   # BR(A -> ~chi_20 ~chi_20)
     2.15252514E-02    2     1000025   1000025   # BR(A -> ~chi_30 ~chi_30)
     6.62160597E-04    2     1000022   1000023   # BR(A -> ~chi_10 ~chi_20)
     1.08055040E-04    2     1000022   1000025   # BR(A -> ~chi_10 ~chi_30)
     8.42085826E-04    2     1000023   1000025   # BR(A -> ~chi_20 ~chi_30)
#
#         PDG            Width
DECAY        37     3.95430998E+01   # H+ decays
#          BR         NDA      ID1       ID2
     2.24427247E-06    2           4        -5   # BR(H+ -> c       bb     )
     2.36086995E-04    2         -15        16   # BR(H+ -> tau+    nu_tau )
     8.34652810E-07    2         -13        14   # BR(H+ -> mu+     nu_mu  )
     1.42687311E-08    2           2        -5   # BR(H+ -> u       bb     )
     5.16884012E-08    2           2        -3   # BR(H+ -> u       sb     )
     1.02991089E-05    2           4        -3   # BR(H+ -> c       sb     )
     9.46646927E-01    2           6        -5   # BR(H+ -> t       bb     )
     3.18991012E-04    2          24        25   # BR(H+ -> W+      h      )
     1.10391872E-12    2          24        36   # BR(H+ -> W+      A      )
     2.39314976E-02    2     1000024   1000022   # BR(H+ -> ~chi_1+ ~chi_10)
     1.46296162E-04    2     1000024   1000023   # BR(H+ -> ~chi_1+ ~chi_20)
     2.87067576E-02    2     1000024   1000025   # BR(H+ -> ~chi_1+ ~chi_30)
