#
#                              ======================
#                              | THE SUSYHIT OUTPUT |
#                              ======================
#
#
#              ------------------------------------------------------
#              |     This is the output of the SUSY-HIT package     |
#              |  created by A.Djouadi, M.Muehlleitner and M.Spira. |
#              |  In case of problems with SUSY-HIT email to        |
#              |           margarete.muehlleitner@kit.edu           |
#              |           michael.spira@psi.ch                     |
#              |           abdelhak.djouadi@cern.ch                 |
#              ------------------------------------------------------
#
#              ------------------------------------------------------
#              |  SUSY Les Houches Accord - MSSM Spectrum + Decays  |
#              |              based on the decay programs           |
#              |                                                    |
#              |                     SDECAY 1.5                     |
#              |                                                    |
#              |  Authors: M.Muhlleitner, A.Djouadi and Y.Mambrini  |
#              |  Ref.:    Comput.Phys.Commun.168(2005)46           |
#              |           [hep-ph/0311167]                         |
#              |                                                    |
#              |                     HDECAY 3.4                     |
#              |                                                    |
#              |  By: A.Djouadi,J.Kalinowski,M.Muhlleitner,M.Spira  |
#              |  Ref.:    Comput.Phys.Commun.108(1998)56           |
#              |           [hep-ph/9704448]                         |
#              |                                                    |
#              |                                                    |
#              |  If not stated otherwise all DRbar couplings and   |
#              |  soft SUSY breaking masses are given at the scale  |
#              |  Q=  0.91187600E+02
#              |                                                    |
#              ------------------------------------------------------
#
#
BLOCK DCINFO  # Decay Program information
     1   SDECAY/HDECAY # decay calculator
     2   1.5  /3.4    # version number
#
BLOCK SPINFO  # Spectrum calculator information
     1   SuSpect     # RGE +Spectrum calculator            
     2   2.43         # version number                     
#
BLOCK MODSEL  # Model selection
     1     2   # GMSB                                              
#
BLOCK SMINPUTS  # Standard Model inputs
         1     1.27932904E+02   # alpha_em^-1(M_Z)^MSbar
         2     1.16639000E-05   # G_F [GeV^-2]
         3     1.17200000E-01   # alpha_S(M_Z)^MSbar
         4     9.11870000E+01   # M_Z pole mass
         5     4.25000000E+00   # mb(mb)^MSbar
         6     1.72900000E+02   # mt pole mass
         7     1.77700000E+00   # mtau pole mass
#
BLOCK MINPAR  # Input parameters - minimal models
#
BLOCK EXTPAR  # Input parameters - non-minimal models
         0     9.11876000E+01   # EWSB                
         1     8.54000000E+02   # M_1                 
         2     3.00000000E+03   # M_2                 
         3     1.40000000E+03   # M_3                 
        11     0.00000000E+00   # A_t                 
        12     0.00000000E+00   # A_b                 
        13     0.00000000E+00   # A_tau               
        14     0.00000000E+00   # A_u                 
        15     0.00000000E+00   # A_d                 
        16     0.00000000E+00   # A_e                 
        23     8.50000000E+02   # mu(EWSB)            
        25     1.50000000E+00   # tanbeta(in)         
        26     2.00000000E+03   # MA_pole             
        31     5.00000000E+03   # M_eL                
        32     5.00000000E+03   # M_muL               
        33     5.00000000E+03   # M_tauL              
        34     5.00000000E+03   # M_eR                
        35     5.00000000E+03   # M_muR               
        36     5.00000000E+03   # M_tauR              
        41     5.00000000E+03   # M_q1L               
        42     5.00000000E+03   # M_q2L               
        43     5.00000000E+03   # M_q3L               
        44     5.00000000E+03   # M_uR                
        45     5.00000000E+03   # M_cR                
        46     5.00000000E+03   # M_tR                
        47     5.00000000E+03   # M_dR                
        48     5.00000000E+03   # M_sR                
        49     5.00000000E+03   # M_bR                
#
BLOCK MASS  # Mass Spectrum
# PDG code           mass       particle
        24     8.05400813E+01   # W+
        25     1.26000000E+02   # h
        35     2.00403936E+03   # H
        36     2.00000000E+03   # A
        37     2.00147946E+03   # H+
         5     4.87877839E+00   # b-quark pole mass calculated from mb(mb)_Msbar
   1000001     4.99643632E+03   # ~d_L
   2000001     4.99632686E+03   # ~d_R
   1000002     4.99619161E+03   # ~u_L
   2000002     4.99624951E+03   # ~u_R
   1000003     4.99643632E+03   # ~s_L
   2000003     4.99632686E+03   # ~s_R
   1000004     4.99619161E+03   # ~c_L
   2000004     4.99624951E+03   # ~c_R
   1000005     4.99602937E+03   # ~b_1
   2000005     4.99673526E+03   # ~b_2
   1000006     5.12192045E+03   # ~t_1
   2000006     5.41880352E+03   # ~t_2
   1000011     5.00008227E+03   # ~e_L
   2000011     5.00007604E+03   # ~e_R
   1000012     4.99984168E+03   # ~nu_eL
   1000013     5.00008227E+03   # ~mu_L
   2000013     5.00007604E+03   # ~mu_R
   1000014     4.99984168E+03   # ~nu_muL
   1000015     4.99985276E+03   # ~tau_1
   2000015     5.00030618E+03   # ~tau_2
   1000016     4.99984168E+03   # ~nu_tauL
   1000021     1.52200320E+03   # ~g
   1000022     8.62225542E+02   # ~chi_10
   1000023    -9.08963348E+02   # ~chi_20
   1000025     9.49373009E+02   # ~chi_30
   1000035     3.12892850E+03   # ~chi_40
   1000024     9.06212051E+02   # ~chi_1+
   1000037     3.12892752E+03   # ~chi_2+
   1000039     1.00000000E-09   # ~gravitino
#
BLOCK NMIX  # Neutralino Mixing Matrix
  1  1     7.09959162E-01   # N_11
  1  2    -2.40847482E-02   # N_12
  1  3     5.00297645E-01   # N_13
  1  4    -4.95055733E-01   # N_14
  2  1     4.81292795E-03   # N_21
  2  2    -3.84922110E-03   # N_22
  2  3    -7.06895575E-01   # N_23
  2  4    -7.07291075E-01   # N_24
  3  1     7.04226053E-01   # N_31
  3  2     2.53004048E-02   # N_32
  3  3    -4.99517554E-01   # N_33
  3  4     5.03892617E-01   # N_34
  4  1     6.99922886E-04   # N_41
  4  2    -9.99382308E-01   # N_42
  4  3    -2.19801187E-02   # N_43
  4  4     2.74114314E-02   # N_44
#
BLOCK UMIX  # Chargino Mixing Matrix U
  1  1    -3.10707426E-02   # U_11
  1  2     9.99517188E-01   # U_12
  2  1     9.99517188E-01   # U_21
  2  2     3.10707426E-02   # U_22
#
BLOCK VMIX  # Chargino Mixing Matrix V
  1  1    -3.87539178E-02   # V_11
  1  2     9.99248785E-01   # V_12
  2  1     9.99248785E-01   # V_21
  2  2     3.87539178E-02   # V_22
#
BLOCK STOPMIX  # Stop Mixing Matrix
  1  1     9.99995038E-01   # cos(theta_t)
  1  2    -3.15023418E-03   # sin(theta_t)
  2  1     3.15023418E-03   # -sin(theta_t)
  2  2     9.99995038E-01   # cos(theta_t)
#
BLOCK SBOTMIX  # Sbottom Mixing Matrix
  1  1     6.49971672E-01   # cos(theta_b)
  1  2     7.59958437E-01   # sin(theta_b)
  2  1    -7.59958437E-01   # -sin(theta_b)
  2  2     6.49971672E-01   # cos(theta_b)
#
BLOCK STAUMIX  # Stau Mixing Matrix
  1  1     7.02237969E-01   # cos(theta_tau)
  1  2     7.11942297E-01   # sin(theta_tau)
  2  1    -7.11942297E-01   # -sin(theta_tau)
  2  2     7.02237969E-01   # cos(theta_tau)
#
BLOCK ALPHA  # Higgs mixing
          -5.90204711E-01   # Mixing angle in the neutral Higgs boson sector
#
BLOCK HMIX Q=  9.11876000E+01  # DRbar Higgs Parameters
         1     8.50000000E+02   # mu(Q)               
         2     1.49999979E+00   # tanbeta(Q)          
         3     2.52035946E+02   # vev(Q)              
         4     3.60467801E+06   # MA^2(Q)             
#
BLOCK GAUGE Q=  9.11876000E+01  # The gauge couplings
     1     3.52850353E-01   # gprime(Q) DRbar
     2     6.27603349E-01   # g(Q) DRbar
     3     1.08619163E+00   # g3(Q) DRbar
#
BLOCK AU Q=  9.11876000E+01  # The trilinear couplings
  1  1     0.00000000E+00   # A_u(Q) DRbar
  2  2     0.00000000E+00   # A_c(Q) DRbar
  3  3     0.00000000E+00   # A_t(Q) DRbar
#
BLOCK AD Q=  9.11876000E+01  # The trilinear couplings
  1  1     0.00000000E+00   # A_d(Q) DRbar
  2  2     0.00000000E+00   # A_s(Q) DRbar
  3  3     0.00000000E+00   # A_b(Q) DRbar
#
BLOCK AE Q=  9.11876000E+01  # The trilinear couplings
  1  1     0.00000000E+00   # A_e(Q) DRbar
  2  2     0.00000000E+00   # A_mu(Q) DRbar
  3  3     0.00000000E+00   # A_tau(Q) DRbar
#
BLOCK Yu Q=  9.11876000E+01  # The Yukawa couplings
  1  1     0.00000000E+00   # y_u(Q) DRbar
  2  2     0.00000000E+00   # y_c(Q) DRbar
  3  3     1.02569743E+00   # y_t(Q) DRbar
#
BLOCK Yd Q=  9.11876000E+01  # The Yukawa couplings
  1  1     0.00000000E+00   # y_d(Q) DRbar
  2  2     0.00000000E+00   # y_s(Q) DRbar
  3  3     2.71962488E-02   # y_b(Q) DRbar
#
BLOCK Ye Q=  9.11876000E+01  # The Yukawa couplings
  1  1     0.00000000E+00   # y_e(Q) DRbar
  2  2     0.00000000E+00   # y_mu(Q) DRbar
  3  3     1.79853983E-02   # y_tau(Q) DRbar
#
BLOCK MSOFT Q=  9.11876000E+01  # The soft SUSY breaking masses at the scale Q
         1     8.54000000E+02   # M_1                 
         2     3.00000000E+03   # M_2                 
         3     1.40000000E+03   # M_3                 
        14     0.00000000E+00   # A_u                 
        15     0.00000000E+00   # A_d                 
        16     0.00000000E+00   # A_e                 
        21     2.24374417E+06   # M^2_Hd              
        22    -6.14613209E+06   # M^2_Hu              
        31     5.00000000E+03   # M_eL                
        32     5.00000000E+03   # M_muL               
        33     5.00000000E+03   # M_tauL              
        34     5.00000000E+03   # M_eR                
        35     5.00000000E+03   # M_muR               
        36     5.00000000E+03   # M_tauR              
        41     5.00000000E+03   # M_q1L               
        42     5.00000000E+03   # M_q2L               
        43     5.00000000E+03   # M_q3L               
        44     5.00000000E+03   # M_uR                
        45     5.00000000E+03   # M_cR                
        46     5.00000000E+03   # M_tR                
        47     5.00000000E+03   # M_dR                
        48     5.00000000E+03   # M_sR                
        49     5.00000000E+03   # M_bR                
#
#
#
#                             =================
#                             |The decay table|
#                             =================
#
# - The QCD corrections to the decays gluino -> squark  + quark
#                                     squark -> gaugino + quark_prime
#                                     squark -> squark_prime + Higgs
#                                     squark -> gluino  + quark
#   are included.
#
# - The multi-body decays for the inos, stops and sbottoms are included.
#
# - The loop induced decays for the gluino, neutralinos and stops
#   are included.
#
# - The SUSY decays of the top quark are included.
#
# - Possible decays of the NLSP in GMSB models are included.
#
#
#         PDG            Width
DECAY         6     1.37239974E+00   # top decays
#          BR         NDA      ID1       ID2
     1.00000000E+00    2           5        24   # BR(t ->  b    W+)
#
#         PDG            Width
DECAY   1000021     5.78598146E-05   # gluino decays
#          BR         NDA      ID1       ID2
     3.19491564E-02    2     1000022        21   # BR(~g -> ~chi_10 g)
     5.52891394E-02    2     1000023        21   # BR(~g -> ~chi_20 g)
     2.36282143E-02    2     1000025        21   # BR(~g -> ~chi_30 g)
#          BR         NDA      ID1       ID2
0.0E+00    2     1000039    21 # BR(~g -> ~G      g)
#           BR         NDA      ID1       ID2       ID3
     7.94838435E-03    3     1000022         1        -1   # BR(~g -> ~chi_10 d  db)
     5.76783965E-07    3     1000023         1        -1   # BR(~g -> ~chi_20 d  db)
     3.79393438E-03    3     1000025         1        -1   # BR(~g -> ~chi_30 d  db)
     2.45639086E-02    3     1000022         2        -2   # BR(~g -> ~chi_10 u  ub)
     4.84749041E-07    3     1000023         2        -2   # BR(~g -> ~chi_20 u  ub)
     1.42040779E-02    3     1000025         2        -2   # BR(~g -> ~chi_30 u  ub)
     7.94838435E-03    3     1000022         3        -3   # BR(~g -> ~chi_10 s  sb)
     5.76783965E-07    3     1000023         3        -3   # BR(~g -> ~chi_20 s  sb)
     3.79393438E-03    3     1000025         3        -3   # BR(~g -> ~chi_30 s  sb)
     2.45639086E-02    3     1000022         4        -4   # BR(~g -> ~chi_10 c  cb)
     4.84749041E-07    3     1000023         4        -4   # BR(~g -> ~chi_20 c  cb)
     1.42040779E-02    3     1000025         4        -4   # BR(~g -> ~chi_30 c  cb)
     8.04112494E-03    3     1000022         5        -5   # BR(~g -> ~chi_10 b  bb)
     2.38132199E-04    3     1000023         5        -5   # BR(~g -> ~chi_20 b  bb)
     3.91602013E-03    3     1000025         5        -5   # BR(~g -> ~chi_30 b  bb)
     8.09696730E-02    3     1000022         6        -6   # BR(~g -> ~chi_10 t  tb)
     8.59287312E-02    3     1000023         6        -6   # BR(~g -> ~chi_20 t  tb)
     5.70847328E-02    3     1000025         6        -6   # BR(~g -> ~chi_30 t  tb)
     1.54482882E-04    3     1000024         1        -2   # BR(~g -> ~chi_1+ d  ub)
     1.54482882E-04    3    -1000024         2        -1   # BR(~g -> ~chi_1- u  db)
     1.54482882E-04    3     1000024         3        -4   # BR(~g -> ~chi_1+ s  cb)
     1.54482882E-04    3    -1000024         4        -3   # BR(~g -> ~chi_1- c  sb)
     1.94400876E-01    3     1000024         5        -6   # BR(~g -> ~chi_1+ b  tb)
     1.94400876E-01    3    -1000024         6        -5   # BR(~g -> ~chi_1- t  bb)
#
#         PDG            Width
DECAY   1000006     3.17107423E+02   # stop1 decays
#          BR         NDA      ID1       ID2
     5.33077430E-02    2     1000022         6   # BR(~t_1 -> ~chi_10 t )
     1.08798183E-01    2     1000023         6   # BR(~t_1 -> ~chi_20 t )
     5.72896469E-02    2     1000025         6   # BR(~t_1 -> ~chi_30 t )
     2.42346820E-02    2     1000035         6   # BR(~t_1 -> ~chi_40 t )
     4.77494395E-05    2     1000024         5   # BR(~t_1 -> ~chi_1+ b )
     4.82213780E-02    2     1000037         5   # BR(~t_1 -> ~chi_2+ b )
     6.93709480E-01    2     1000021         6   # BR(~t_1 -> ~g      t )
     6.17965697E-03    2     1000005        24   # BR(~t_1 -> ~b_1    W+)
     8.21148029E-03    2     2000005        24   # BR(~t_1 -> ~b_2    W+)
#
#         PDG            Width
DECAY   2000006     3.93073826E+02   # stop2 decays
#          BR         NDA      ID1       ID2
     6.08857812E-02    2     1000022         6   # BR(~t_2 -> ~chi_10 t )
     9.39231148E-02    2     1000023         6   # BR(~t_2 -> ~chi_20 t )
     6.05123576E-02    2     1000025         6   # BR(~t_2 -> ~chi_30 t )
     3.18598315E-06    2     1000035         6   # BR(~t_2 -> ~chi_40 t )
     1.88109975E-01    2     1000024         5   # BR(~t_2 -> ~chi_1+ b )
     6.76957063E-06    2     1000037         5   # BR(~t_2 -> ~chi_2+ b )
     5.96607693E-01    2     1000021         6   # BR(~t_2 -> ~g      t )
    -5.60992433E-05    2     1000006        25   # BR(~t_2 -> ~t_1    h )
     1.23774319E-06    2     1000006        23   # BR(~t_2 -> ~t_1    Z )
     2.52685856E-06    2     1000005        24   # BR(~t_2 -> ~b_1    W+)
     3.45682301E-06    2     2000005        24   # BR(~t_2 -> ~b_2    W+)
#
#         PDG            Width
DECAY   1000005     2.47748573E+02   # sbottom1 decays
#          BR         NDA      ID1       ID2
     4.67859586E-03    2     1000022         5   # BR(~b_1 -> ~chi_10 b )
     7.98668188E-05    2     1000023         5   # BR(~b_1 -> ~chi_20 b )
     2.78112665E-03    2     1000025         5   # BR(~b_1 -> ~chi_30 b )
     1.04904571E-02    2     1000035         5   # BR(~b_1 -> ~chi_40 b )
     9.54604521E-02    2    -1000024         6   # BR(~b_1 -> ~chi_1- t )
     2.10857109E-02    2    -1000037         6   # BR(~b_1 -> ~chi_2- t )
     8.65423791E-01    2     1000021         5   # BR(~b_1 -> ~g      b )
#
#         PDG            Width
DECAY   2000005     2.72428449E+02   # sbottom2 decays
#          BR         NDA      ID1       ID2
     2.07413254E-03    2     1000022         5   # BR(~b_2 -> ~chi_10 b )
     1.03522745E-04    2     1000023         5   # BR(~b_2 -> ~chi_20 b )
     2.78592707E-03    2     1000025         5   # BR(~b_2 -> ~chi_30 b )
     1.61737273E-02    2     1000035         5   # BR(~b_2 -> ~chi_40 b )
     1.59608647E-01    2    -1000024         6   # BR(~b_2 -> ~chi_1- t )
     3.25171872E-02    2    -1000037         6   # BR(~b_2 -> ~chi_2- t )
     7.86736856E-01    2     1000021         5   # BR(~b_2 -> ~g      b )
#
#         PDG            Width
DECAY   1000002     2.36057935E+02   # sup_L decays
#          BR         NDA      ID1       ID2
     8.95493949E-04    2     1000022         2   # BR(~u_L -> ~chi_10 u)
     6.50652560E-07    2     1000023         2   # BR(~u_L -> ~chi_20 u)
     1.84138758E-03    2     1000025         2   # BR(~u_L -> ~chi_30 u)
     2.96540965E-02    2     1000035         2   # BR(~u_L -> ~chi_40 u)
     2.25089941E-04    2     1000024         1   # BR(~u_L -> ~chi_1+ d)
     5.93079612E-02    2     1000037         1   # BR(~u_L -> ~chi_2+ d)
     9.08075320E-01    2     1000021         2   # BR(~u_L -> ~g      u)
#
#         PDG            Width
DECAY   2000002     2.24302031E+02   # sup_R decays
#          BR         NDA      ID1       ID2
     2.24815522E-02    2     1000022         2   # BR(~u_R -> ~chi_10 u)
     1.02615654E-06    2     1000023         2   # BR(~u_R -> ~chi_20 u)
     2.18333087E-02    2     1000025         2   # BR(~u_R -> ~chi_30 u)
     8.60453042E-09    2     1000035         2   # BR(~u_R -> ~chi_40 u)
     9.55684104E-01    2     1000021         2   # BR(~u_R -> ~g      u)
#
#         PDG            Width
DECAY   1000001     2.36062393E+02   # sdown_L decays
#          BR         NDA      ID1       ID2
     1.86227990E-03    2     1000022         1   # BR(~d_L -> ~chi_10 d)
     1.69097526E-06    2     1000023         1   # BR(~d_L -> ~chi_20 d)
     8.47160126E-04    2     1000025         1   # BR(~d_L -> ~chi_30 d)
     2.96742813E-02    2     1000035         1   # BR(~d_L -> ~chi_40 d)
     1.44691891E-04    2    -1000024         2   # BR(~d_L -> ~chi_1- u)
     5.93490507E-02    2    -1000037         2   # BR(~d_L -> ~chi_2- u)
     9.08120845E-01    2     1000021         1   # BR(~d_L -> ~g      d)
#
#         PDG            Width
DECAY   2000001     2.16851643E+02   # sdown_R decays
#          BR         NDA      ID1       ID2
     5.81358967E-03    2     1000022         1   # BR(~d_R -> ~chi_10 d)
     2.65357760E-07    2     1000023         1   # BR(~d_R -> ~chi_20 d)
     5.64596027E-03    2     1000025         1   # BR(~d_R -> ~chi_30 d)
     2.22516184E-09    2     1000035         1   # BR(~d_R -> ~chi_40 d)
     9.88540182E-01    2     1000021         1   # BR(~d_R -> ~g      d)
#
#         PDG            Width
DECAY   1000004     2.36057935E+02   # scharm_L decays
#          BR         NDA      ID1       ID2
     8.95493949E-04    2     1000022         4   # BR(~c_L -> ~chi_10 c)
     6.50652560E-07    2     1000023         4   # BR(~c_L -> ~chi_20 c)
     1.84138758E-03    2     1000025         4   # BR(~c_L -> ~chi_30 c)
     2.96540965E-02    2     1000035         4   # BR(~c_L -> ~chi_40 c)
     2.25089941E-04    2     1000024         3   # BR(~c_L -> ~chi_1+ s)
     5.93079612E-02    2     1000037         3   # BR(~c_L -> ~chi_2+ s)
     9.08075320E-01    2     1000021         4   # BR(~c_L -> ~g      c)
#
#         PDG            Width
DECAY   2000004     2.24302031E+02   # scharm_R decays
#          BR         NDA      ID1       ID2
     2.24815522E-02    2     1000022         4   # BR(~c_R -> ~chi_10 c)
     1.02615654E-06    2     1000023         4   # BR(~c_R -> ~chi_20 c)
     2.18333087E-02    2     1000025         4   # BR(~c_R -> ~chi_30 c)
     8.60453042E-09    2     1000035         4   # BR(~c_R -> ~chi_40 c)
     9.55684104E-01    2     1000021         4   # BR(~c_R -> ~g      c)
#
#         PDG            Width
DECAY   1000003     2.36062393E+02   # sstrange_L decays
#          BR         NDA      ID1       ID2
     1.86227990E-03    2     1000022         3   # BR(~s_L -> ~chi_10 s)
     1.69097526E-06    2     1000023         3   # BR(~s_L -> ~chi_20 s)
     8.47160126E-04    2     1000025         3   # BR(~s_L -> ~chi_30 s)
     2.96742813E-02    2     1000035         3   # BR(~s_L -> ~chi_40 s)
     1.44691891E-04    2    -1000024         4   # BR(~s_L -> ~chi_1- c)
     5.93490507E-02    2    -1000037         4   # BR(~s_L -> ~chi_2- c)
     9.08120845E-01    2     1000021         3   # BR(~s_L -> ~g      s)
#
#         PDG            Width
DECAY   2000003     2.16851643E+02   # sstrange_R decays
#          BR         NDA      ID1       ID2
     5.81358967E-03    2     1000022         3   # BR(~s_R -> ~chi_10 s)
     2.65357760E-07    2     1000023         3   # BR(~s_R -> ~chi_20 s)
     5.64596027E-03    2     1000025         3   # BR(~s_R -> ~chi_30 s)
     2.22516184E-09    2     1000035         3   # BR(~s_R -> ~chi_40 s)
     9.88540182E-01    2     1000021         3   # BR(~s_R -> ~g      s)
#
#         PDG            Width
DECAY   1000011     2.75859308E+01   # selectron_L decays
#          BR         NDA      ID1       ID2
     9.40499912E-02    2     1000022        11   # BR(~e_L -> ~chi_10 e-)
     8.67946711E-07    2     1000023        11   # BR(~e_L -> ~chi_20 e-)
     1.17086176E-01    2     1000025        11   # BR(~e_L -> ~chi_30 e-)
     2.62341594E-01    2     1000035        11   # BR(~e_L -> ~chi_40 e-)
     1.28257607E-03    2    -1000024        12   # BR(~e_L -> ~chi_1- nu_e)
     5.25238794E-01    2    -1000037        12   # BR(~e_L -> ~chi_2- nu_e)
#
#         PDG            Width
DECAY   2000011     2.31682723E+01   # selectron_R decays
#          BR         NDA      ID1       ID2
     5.07306488E-01    2     1000022        11   # BR(~e_R -> ~chi_10 e-)
     2.31554461E-05    2     1000023        11   # BR(~e_R -> ~chi_20 e-)
     4.92670163E-01    2     1000025        11   # BR(~e_R -> ~chi_30 e-)
     1.93869265E-07    2     1000035        11   # BR(~e_R -> ~chi_40 e-)
#
#         PDG            Width
DECAY   1000013     2.75859308E+01   # smuon_L decays
#          BR         NDA      ID1       ID2
     9.40499912E-02    2     1000022        13   # BR(~mu_L -> ~chi_10 mu-)
     8.67946711E-07    2     1000023        13   # BR(~mu_L -> ~chi_20 mu-)
     1.17086176E-01    2     1000025        13   # BR(~mu_L -> ~chi_30 mu-)
     2.62341594E-01    2     1000035        13   # BR(~mu_L -> ~chi_40 mu-)
     1.28257607E-03    2    -1000024        14   # BR(~mu_L -> ~chi_1- nu_mu)
     5.25238794E-01    2    -1000037        14   # BR(~mu_L -> ~chi_2- nu_mu)
#
#         PDG            Width
DECAY   2000013     2.31682723E+01   # smuon_R decays
#          BR         NDA      ID1       ID2
     5.07306488E-01    2     1000022        13   # BR(~mu_R -> ~chi_10 mu-)
     2.31554461E-05    2     1000023        13   # BR(~mu_R -> ~chi_20 mu-)
     4.92670163E-01    2     1000025        13   # BR(~mu_R -> ~chi_30 mu-)
     1.93869265E-07    2     1000035        13   # BR(~mu_R -> ~chi_40 mu-)
#
#         PDG            Width
DECAY   1000015     2.54262409E+01   # stau_1 decays
#          BR         NDA      ID1       ID2
     2.91152650E-01    2     1000022        15   # BR(~tau_1 -> ~chi_10  tau-)
     4.67189514E-04    2     1000023        15   # BR(~tau_1 -> ~chi_20  tau-)
     2.85125400E-01    2     1000025        15   # BR(~tau_1 -> ~chi_30  tau-)
     1.40082595E-01    2     1000035        15   # BR(~tau_1 -> ~chi_40  tau-)
     2.56817631E-03    2    -1000024        16   # BR(~tau_1 -> ~chi_1-  nu_tau)
     2.80462511E-01    2    -1000037        16   # BR(~tau_1 -> ~chi_2-  nu_tau)
     1.41478460E-04    2     1000039        15   # BR(~tau_1 -> ~G       tau-)
#
#         PDG            Width
DECAY   2000015     2.54218060E+01   # stau_2 decays
#          BR         NDA      ID1       ID2
     2.73783032E-01    2     1000022        15   # BR(~tau_2 -> ~chi_10  tau-)
     7.37497275E-04    2     1000023        15   # BR(~tau_2 -> ~chi_20  tau-)
     2.91464375E-01    2     1000025        15   # BR(~tau_2 -> ~chi_30  tau-)
     1.44568308E-01    2     1000035        15   # BR(~tau_2 -> ~chi_40  tau-)
     5.80196484E-06    2    -1000024        16   # BR(~tau_2 -> ~chi_1-  nu_tau)
     2.89440986E-01    2    -1000037        16   # BR(~tau_2 -> ~chi_2-  nu_tau)
#
#         PDG            Width
DECAY   1000012     2.75857325E+01   # snu_eL decays
#          BR         NDA      ID1       ID2
     1.19753104E-01    2     1000022        12   # BR(~nu_eL -> ~chi_10 nu_e)
     2.85307818E-05    2     1000023        12   # BR(~nu_eL -> ~chi_20 nu_e)
     9.06411128E-02    2     1000025        12   # BR(~nu_eL -> ~chi_30 nu_e)
     2.62711806E-01    2     1000035        12   # BR(~nu_eL -> ~chi_40 nu_e)
     1.99521858E-03    2     1000024        11   # BR(~nu_eL -> ~chi_1+ e-)
     5.24870227E-01    2     1000037        11   # BR(~nu_eL -> ~chi_2+ e-)
#
#         PDG            Width
DECAY   1000014     2.75857325E+01   # snu_muL decays
#          BR         NDA      ID1       ID2
     1.19753104E-01    2     1000022        14   # BR(~nu_muL -> ~chi_10 nu_mu)
     2.85307818E-05    2     1000023        14   # BR(~nu_muL -> ~chi_20 nu_mu)
     9.06411128E-02    2     1000025        14   # BR(~nu_muL -> ~chi_30 nu_mu)
     2.62711806E-01    2     1000035        14   # BR(~nu_muL -> ~chi_40 nu_mu)
     1.99521858E-03    2     1000024        13   # BR(~nu_muL -> ~chi_1+ mu-)
     5.24870227E-01    2     1000037        13   # BR(~nu_muL -> ~chi_2+ mu-)
#
#         PDG            Width
DECAY   1000016     2.76158094E+01   # snu_tauL decays
#          BR         NDA      ID1       ID2
     1.19622679E-01    2     1000022        16   # BR(~nu_tauL -> ~chi_10 nu_tau)
     2.84997084E-05    2     1000023        16   # BR(~nu_tauL -> ~chi_20 nu_tau)
     9.05423939E-02    2     1000025        16   # BR(~nu_tauL -> ~chi_30 nu_tau)
     2.62425682E-01    2     1000035        16   # BR(~nu_tauL -> ~chi_40 nu_tau)
     3.08142226E-03    2     1000024        15   # BR(~nu_tauL -> ~chi_1+ tau-)
     5.24299323E-01    2     1000037        15   # BR(~nu_tauL -> ~chi_2+ tau-)
#
#         PDG            Width
DECAY   1000024     1.03197618E-04   # chargino1+ decays
#          BR         NDA      ID1       ID2
     3.31012272E-03    2     1000039        24   # BR(~chi_1+ -> ~G       W+)
#           BR         NDA      ID1       ID2       ID3
     3.32527315E-01    3     1000022         2        -1   # BR(~chi_1+ -> ~chi_10 u    db)
     3.32527315E-01    3     1000022         4        -3   # BR(~chi_1+ -> ~chi_10 c    sb)
     1.10842571E-01    3     1000022       -11        12   # BR(~chi_1+ -> ~chi_10 e+   nu_e)
     1.10842571E-01    3     1000022       -13        14   # BR(~chi_1+ -> ~chi_10 mu+  nu_mu)
     1.09950106E-01    3     1000022       -15        16   # BR(~chi_1+ -> ~chi_10 tau+ nu_tau)
#
#         PDG            Width
DECAY   1000037     3.66892021E+01   # chargino2+ decays
#          BR         NDA      ID1       ID2
     2.44813357E-01    2     1000024        23   # BR(~chi_2+ -> ~chi_1+  Z )
     1.11828571E-01    2     1000022        24   # BR(~chi_2+ -> ~chi_10  W+)
     2.38466170E-01    2     1000023        24   # BR(~chi_2+ -> ~chi_20  W+)
     1.26835072E-01    2     1000025        24   # BR(~chi_2+ -> ~chi_30  W+)
     2.45922261E-01    2     1000024        25   # BR(~chi_2+ -> ~chi_1+  h )
     7.91541460E-03    2     1000024        35   # BR(~chi_2+ -> ~chi_1+  H )
     8.12942204E-03    2     1000024        36   # BR(~chi_2+ -> ~chi_1+  A )
     4.83911813E-03    2     1000022        37   # BR(~chi_2+ -> ~chi_10  H+)
     7.96763640E-03    2     1000023        37   # BR(~chi_2+ -> ~chi_20  H+)
     3.27359565E-03    2     1000025        37   # BR(~chi_2+ -> ~chi_30  H+)
     9.38135924E-06    2     1000039        24   # BR(~chi_2+ -> ~G       W+)
     6.48151209E-10    2     1000039        37   # BR(~chi_2+ -> ~G       H+)
#
#         PDG            Width
DECAY   1000022    1.0E-05    # neutralino1 decays
#          BR         NDA      ID1       ID2
     5.02110843E-01    2     1000039        22   # BR(~chi_10 -> ~G        gam)
     4.86856048E-01    2     1000039        23   # BR(~chi_10 -> ~G        Z)
     1.10331088E-02    2     1000039        25   # BR(~chi_10 -> ~G        h)
#
#         PDG            Width
DECAY   1000023     1.12886965E-04   # neutralino2 decays
#          BR         NDA      ID1       ID2
     3.11654043E-04    2     1000022        22   # BR(~chi_20 -> ~chi_10 gam)
#          BR         NDA      ID1       ID2
     3.37361135E-08    2     1000039        22   # BR(~chi_20 -> ~G        gam)
     1.17389999E-04    2     1000039        23   # BR(~chi_20 -> ~G        Z)
     2.81784839E-03    2     1000039        25   # BR(~chi_20 -> ~G        h)
#           BR         NDA      ID1       ID2       ID3
     1.18416446E-01    3     1000022        -2         2   # BR(~chi_20 -> ~chi_10 ub      u)
     1.53316044E-01    3     1000022        -1         1   # BR(~chi_20 -> ~chi_10 db      d)
     1.18416446E-01    3     1000022        -4         4   # BR(~chi_20 -> ~chi_10 cb      c)
     1.53316044E-01    3     1000022        -3         3   # BR(~chi_20 -> ~chi_10 sb      s)
     1.38906522E-01    3     1000022        -5         5   # BR(~chi_20 -> ~chi_10 bb      b)
     3.50076721E-02    3     1000022       -11        11   # BR(~chi_20 -> ~chi_10 e+      e-)
     3.50076721E-02    3     1000022       -13        13   # BR(~chi_20 -> ~chi_10 mu+     mu-)
     3.46404936E-02    3     1000022       -15        15   # BR(~chi_20 -> ~chi_10 tau+    tau-)
     6.99076476E-02    3     1000022       -12        12   # BR(~chi_20 -> ~chi_10 nu_eb   nu_e)
     6.99076476E-02    3     1000022       -14        14   # BR(~chi_20 -> ~chi_10 nu_mub  nu_mu)
     6.99076476E-02    3     1000022       -16        16   # BR(~chi_20 -> ~chi_10 nu_taub nu_tau)
     5.16329390E-07    3     1000024        -2         1   # BR(~chi_20 -> ~chi_1+ ub      d)
     5.16329390E-07    3    -1000024        -1         2   # BR(~chi_20 -> ~chi_1- db      u)
     5.16329390E-07    3     1000024        -4         3   # BR(~chi_20 -> ~chi_1+ cb      s)
     5.16329390E-07    3    -1000024        -3         4   # BR(~chi_20 -> ~chi_1- sb      c)
     1.72109808E-07    3     1000024       -12        11   # BR(~chi_20 -> ~chi_1+ nu_eb   e-)
     1.72109808E-07    3    -1000024        12       -11   # BR(~chi_20 -> ~chi_1- nu_e    e+)
     1.72109808E-07    3     1000024       -14        13   # BR(~chi_20 -> ~chi_1+ nu_mub  mu-)
     1.72109808E-07    3    -1000024        14       -13   # BR(~chi_20 -> ~chi_1- nu_mu   mu+)
     1.88930734E-08    3     1000024       -16        15   # BR(~chi_20 -> ~chi_1+ nu_taub tau-)
     1.88930734E-08    3    -1000024        16       -15   # BR(~chi_20 -> ~chi_1- nu_tau  tau+)
#
#         PDG            Width
DECAY   1000025     2.43603810E-04   # neutralino3 decays
#          BR         NDA      ID1       ID2
     3.44877182E-04    2     1000022        22   # BR(~chi_30 -> ~chi_10 gam)
     3.76268345E-04    2     1000023        22   # BR(~chi_30 -> ~chi_20 gam)
#          BR         NDA      ID1       ID2
     1.42953495E-03    2     1000039        22   # BR(~chi_30 -> ~G        gam)
     1.21813140E-03    2     1000039        23   # BR(~chi_30 -> ~G        Z)
     3.35789223E-05    2     1000039        25   # BR(~chi_30 -> ~G        h)
#           BR         NDA      ID1       ID2       ID3
     1.01400910E-05    3     1000022        -2         2   # BR(~chi_30 -> ~chi_10 ub      u)
     1.21511466E-05    3     1000022        -1         1   # BR(~chi_30 -> ~chi_10 db      d)
     1.01400910E-05    3     1000022        -4         4   # BR(~chi_30 -> ~chi_10 cb      c)
     1.21511466E-05    3     1000022        -3         3   # BR(~chi_30 -> ~chi_10 sb      s)
     1.58048850E-05    3     1000022        -5         5   # BR(~chi_30 -> ~chi_10 bb      b)
     2.16628588E-06    3     1000022       -11        11   # BR(~chi_30 -> ~chi_10 e+      e-)
     2.16628588E-06    3     1000022       -13        13   # BR(~chi_30 -> ~chi_10 mu+     mu-)
     2.74507926E-06    3     1000022       -15        15   # BR(~chi_30 -> ~chi_10 tau+    tau-)
     5.91344605E-06    3     1000022       -12        12   # BR(~chi_30 -> ~chi_10 nu_eb   nu_e)
     5.91344605E-06    3     1000022       -14        14   # BR(~chi_30 -> ~chi_10 nu_mub  nu_mu)
     5.91344605E-06    3     1000022       -16        16   # BR(~chi_30 -> ~chi_10 nu_taub nu_tau)
     2.60783204E-02    3     1000023        -2         2   # BR(~chi_30 -> ~chi_20 ub      u)
     3.37641683E-02    3     1000023        -1         1   # BR(~chi_30 -> ~chi_20 db      d)
     2.60783204E-02    3     1000023        -4         4   # BR(~chi_30 -> ~chi_20 cb      c)
     3.37641683E-02    3     1000023        -3         3   # BR(~chi_30 -> ~chi_20 sb      s)
     2.96416687E-02    3     1000023        -5         5   # BR(~chi_30 -> ~chi_20 bb      b)
     7.70962711E-03    3     1000023       -11        11   # BR(~chi_30 -> ~chi_20 e+      e-)
     7.70962711E-03    3     1000023       -13        13   # BR(~chi_30 -> ~chi_20 mu+     mu-)
     7.60925333E-03    3     1000023       -15        15   # BR(~chi_30 -> ~chi_20 tau+    tau-)
     1.53954042E-02    3     1000023       -12        12   # BR(~chi_30 -> ~chi_20 nu_eb   nu_e)
     1.53954042E-02    3     1000023       -14        14   # BR(~chi_30 -> ~chi_20 nu_mub  nu_mu)
     1.53954042E-02    3     1000023       -16        16   # BR(~chi_30 -> ~chi_20 nu_taub nu_tau)
     1.29782555E-01    3     1000024        -2         1   # BR(~chi_30 -> ~chi_1+ ub      d)
     1.29782555E-01    3    -1000024        -1         2   # BR(~chi_30 -> ~chi_1- db      u)
     1.29782555E-01    3     1000024        -4         3   # BR(~chi_30 -> ~chi_1+ cb      s)
     1.29782555E-01    3    -1000024        -3         4   # BR(~chi_30 -> ~chi_1- sb      c)
     4.32607835E-02    3     1000024       -12        11   # BR(~chi_30 -> ~chi_1+ nu_eb   e-)
     4.32607835E-02    3    -1000024        12       -11   # BR(~chi_30 -> ~chi_1- nu_e    e+)
     4.32607835E-02    3     1000024       -14        13   # BR(~chi_30 -> ~chi_1+ nu_mub  mu-)
     4.32607835E-02    3    -1000024        14       -13   # BR(~chi_30 -> ~chi_1- nu_mu   mu+)
     4.28988415E-02    3     1000024       -16        15   # BR(~chi_30 -> ~chi_1+ nu_taub tau-)
     4.28988415E-02    3    -1000024        16       -15   # BR(~chi_30 -> ~chi_1- nu_tau  tau+)
#
#         PDG            Width
DECAY   1000035     3.66895960E+01   # neutralino4 decays
#          BR         NDA      ID1       ID2
     1.35517140E-03    2     1000022        23   # BR(~chi_40 -> ~chi_10   Z )
     2.41961554E-01    2     1000023        23   # BR(~chi_40 -> ~chi_20   Z )
     1.55797854E-03    2     1000025        23   # BR(~chi_40 -> ~chi_30   Z )
     2.38391120E-01    2     1000024       -24   # BR(~chi_40 -> ~chi_1+   W-)
     2.38391120E-01    2    -1000024        24   # BR(~chi_40 -> ~chi_1-   W+)
     1.14020138E-01    2     1000022        25   # BR(~chi_40 -> ~chi_10   h )
     1.46333967E-03    2     1000022        35   # BR(~chi_40 -> ~chi_10   H )
     3.34498475E-03    2     1000022        36   # BR(~chi_40 -> ~chi_10   A )
     2.88126821E-03    2     1000023        25   # BR(~chi_40 -> ~chi_20   h )
     5.11920900E-03    2     1000023        35   # BR(~chi_40 -> ~chi_20   H )
     2.78490850E-03    2     1000023        36   # BR(~chi_40 -> ~chi_20   A )
     1.29307280E-01    2     1000025        25   # BR(~chi_40 -> ~chi_30   h )
     1.23189991E-03    2     1000025        35   # BR(~chi_40 -> ~chi_30   H )
     2.01541422E-03    2     1000025        36   # BR(~chi_40 -> ~chi_30   A )
     8.08261614E-03    2     1000024       -37   # BR(~chi_40 -> ~chi_1+   H-)
     8.08261614E-03    2    -1000024        37   # BR(~chi_40 -> ~chi_1-   H+)
     2.25176617E-06    2     1000039        22   # BR(~chi_40 -> ~G        gam)
     7.12871654E-06    2     1000039        23   # BR(~chi_40 -> ~G        Z)
     5.19488156E-10    2     1000039        25   # BR(~chi_40 -> ~G        h)
     6.39536692E-10    2     1000039        35   # BR(~chi_40 -> ~G        H)
     5.47349316E-12    2     1000039        36   # BR(~chi_40 -> ~G        A)
#
#         PDG            Width
DECAY        25     4.21815734E-03   # h decays
#          BR         NDA      ID1       ID2
     6.01826881E-01    2           5        -5   # BR(h -> b       bb     )
     6.22422431E-02    2         -15        15   # BR(h -> tau+    tau-   )
     2.20310405E-04    2         -13        13   # BR(h -> mu+     mu-    )
     4.66134157E-04    2           3        -3   # BR(h -> s       sb     )
     2.01097287E-02    2           4        -4   # BR(h -> c       cb     )
     6.64110122E-02    2          21        21   # BR(h -> g       g      )
     2.30867151E-03    2          22        22   # BR(h -> gam     gam    )
     1.62665680E-03    2          22        23   # BR(h -> Z       gam    )
     2.16706071E-01    2          24       -24   # BR(h -> W+      W-     )
     2.80822916E-02    2          23        23   # BR(h -> Z       Z      )
#
#         PDG            Width
DECAY        35     3.88092208E+01   # H decays
#          BR         NDA      ID1       ID2
     1.43459524E-03    2           5        -5   # BR(H -> b       bb     )
     2.40086254E-04    2         -15        15   # BR(H -> tau+    tau-   )
     8.48794291E-07    2         -13        13   # BR(H -> mu+     mu-    )
     1.08676453E-06    2           3        -3   # BR(H -> s       sb     )
     9.80785939E-06    2           4        -4   # BR(H -> c       cb     )
     9.70443109E-01    2           6        -6   # BR(H -> t       tb     )
     7.77245809E-04    2          21        21   # BR(H -> g       g      )
     2.63848618E-06    2          22        22   # BR(H -> gam     gam    )
     1.12988492E-06    2          23        22   # BR(H -> Z       gam    )
     3.26824729E-04    2          24       -24   # BR(H -> W+      W-     )
     1.62966625E-04    2          23        23   # BR(H -> Z       Z      )
     8.81071910E-04    2          25        25   # BR(H -> h       h      )
     7.45198060E-24    2          36        36   # BR(H -> A       A      )
     2.98988915E-11    2          23        36   # BR(H -> Z       A      )
     7.44707166E-12    2          24       -37   # BR(H -> W+      H-     )
     7.44707166E-12    2         -24        37   # BR(H -> W-      H+     )
     7.58810345E-06    2     1000024  -1000024   # BR(H -> ~chi_1+ ~chi_1-)
     1.83643392E-04    2     1000022   1000022   # BR(H -> ~chi_10 ~chi_10)
     1.29349567E-06    2     1000023   1000023   # BR(H -> ~chi_20 ~chi_20)
     3.16705976E-05    2     1000025   1000025   # BR(H -> ~chi_30 ~chi_30)
     1.58295198E-02    2     1000022   1000023   # BR(H -> ~chi_10 ~chi_20)
     4.49353794E-07    2     1000022   1000025   # BR(H -> ~chi_10 ~chi_30)
     9.66442414E-03    2     1000023   1000025   # BR(H -> ~chi_20 ~chi_30)
#
#         PDG            Width
DECAY        36     3.92442596E+01   # A decays
#          BR         NDA      ID1       ID2
     1.43755451E-03    2           5        -5   # BR(A -> b       bb     )
     2.37645365E-04    2         -15        15   # BR(A -> tau+    tau-   )
     8.40162213E-07    2         -13        13   # BR(A -> mu+     mu-    )
     1.10763258E-06    2           3        -3   # BR(A -> s       sb     )
     9.70639346E-06    2           4        -4   # BR(A -> c       cb     )
     9.71437847E-01    2           6        -6   # BR(A -> t       tb     )
     9.19484377E-04    2          21        21   # BR(A -> g       g      )
     2.99649139E-06    2          22        22   # BR(A -> gam     gam    )
     1.31759354E-06    2          23        22   # BR(A -> Z       gam    )
     3.18513893E-04    2          23        25   # BR(A -> Z       h      )
     4.48691080E-04    2     1000024  -1000024   # BR(A -> ~chi_1+ ~chi_1-)
     1.68709147E-02    2     1000022   1000022   # BR(A -> ~chi_10 ~chi_10)
     2.84571247E-07    2     1000023   1000023   # BR(A -> ~chi_20 ~chi_20)
     8.00393299E-03    2     1000025   1000025   # BR(A -> ~chi_30 ~chi_30)
     1.19357692E-04    2     1000022   1000023   # BR(A -> ~chi_10 ~chi_20)
     1.31865942E-04    2     1000022   1000025   # BR(A -> ~chi_10 ~chi_30)
     5.79398680E-05    2     1000023   1000025   # BR(A -> ~chi_20 ~chi_30)
#
#         PDG            Width
DECAY        37     3.84329811E+01   # H+ decays
#          BR         NDA      ID1       ID2
     2.30658335E-06    2           4        -5   # BR(H+ -> c       bb     )
     2.42841305E-04    2         -15        16   # BR(H+ -> tau+    nu_tau )
     8.58531737E-07    2         -13        14   # BR(H+ -> mu+     nu_mu  )
     1.46648103E-08    2           2        -5   # BR(H+ -> u       bb     )
     5.31691008E-08    2           2        -3   # BR(H+ -> u       sb     )
     1.05941450E-05    2           4        -3   # BR(H+ -> c       sb     )
     9.73759411E-01    2           6        -5   # BR(H+ -> t       bb     )
     3.26421362E-04    2          24        25   # BR(H+ -> W+      h      )
     2.42534152E-13    2          24        36   # BR(H+ -> W+      A      )
     1.42711265E-02    2     1000024   1000022   # BR(H+ -> ~chi_1+ ~chi_10)
     1.06605595E-04    2     1000024   1000023   # BR(H+ -> ~chi_1+ ~chi_20)
     1.12797674E-02    2     1000024   1000025   # BR(H+ -> ~chi_1+ ~chi_30)
