#
#                              ======================
#                              | THE SUSYHIT OUTPUT |
#                              ======================
#
#
#              ------------------------------------------------------
#              |     This is the output of the SUSY-HIT package     |
#              |  created by A.Djouadi, M.Muehlleitner and M.Spira. |
#              |  In case of problems with SUSY-HIT email to        |
#              |           margarete.muehlleitner@cern.ch           |
#              |           michael.spira@psi.ch                     |
#              |           abdelhak.djouadi@cern.ch                 |
#              ------------------------------------------------------
#
#              ------------------------------------------------------
#              |  SUSY Les Houches Accord - MSSM Spectrum + Decays  |
#              |              based on the decay programs           |
#              |                                                    |
#              |                     SDECAY 1.3b                    |
#              |                                                    |
#              |  Authors: M.Muhlleitner, A.Djouadi and Y.Mambrini  |
#              |  Ref.:    Comput.Phys.Commun.168(2005)46           |
#              |           [hep-ph/0311167]                         |
#              |                                                    |
#              |                     HDECAY 3.4                     |
#              |                                                    |
#              |  By: A.Djouadi,J.Kalinowski,M.Muhlleitner,M.Spira  |
#              |  Ref.:    Comput.Phys.Commun.108(1998)56           |
#              |           [hep-ph/9704448]                         |
#              |                                                    |
#              |                                                    |
#              |  If not stated otherwise all DRbar couplings and   |
#              |  soft SUSY breaking masses are given at the scale  |
#              |  Q=  0.50007329E+04
#              |                                                    |
#              ------------------------------------------------------
#
#
BLOCK DCINFO  # Decay Program information
     1   SDECAY/HDECAY # decay calculator
     2   1.3b  /3.4    # version number
#
BLOCK SPINFO  # Spectrum calculator information
     1    SOFTSUSY    # spectrum calculator                
     2    3.4.0       # version number                     
#
BLOCK MODSEL  # Model selection
     1     0   #  nonUniversal                                     
#
BLOCK SMINPUTS  # Standard Model inputs
         1     1.25778332E+02   # alpha_em^-1(M_Z)^MSbar
         2     1.16570000E-05   # G_F [GeV^-2]
         3     1.17200002E-01   # alpha_S(M_Z)^MSbar
         4     9.11876000E+01   # M_Z pole mass
         5     4.25000000E+00   # mb(mb)^MSbar
         6     1.72500000E+02   # mt pole mass
         7     1.77682000E+00   # mtau pole mass
#
BLOCK MINPAR  # Input parameters - minimal models
         3     1.00000000E+01   # tanb                
#
BLOCK EXTPAR  # Input parameters - non-minimal models
         0    -1.00000000E+00   # Set                 
         1     6.00000000E+01   # M_1(MX)             
         2     3.00000000E+03   # M_2(MX)             
         3     1.85478500E+03   # M_3(MX)             
        11     5.00000000E+03   # At(MX)              
        12     5.00000000E+03   # Ab(MX)              
        13     0.00000000E+00   # Atau(MX)            
        23    -1.15365200E+03   # mu(MX)              
        26     3.00000000E+03   # mA(pole)            
        31     5.00000000E+03   # meL(MX)             
        32     5.00000000E+03   # mmuL(MX)            
        33     5.00000000E+03   # mtauL(MX)           
        34     5.00000000E+03   # meR(MX)             
        35     5.00000000E+03   # mmuR(MX)            
        36     5.00000000E+03   # mtauR(MX)           
        41     5.00000000E+03   # mqL1(MX)            
        42     5.00000000E+03   # mqL2(MX)            
        43     5.00000000E+03   # mqL3(MX)            
        44     5.00000000E+03   # muR(MX)             
        45     5.00000000E+03   # mcR(MX)             
        46     5.00000000E+03   # mtR(MX)             
        47     5.00000000E+03   # mdR(MX)             
        48     5.00000000E+03   # msR(MX)             
        49     5.00000000E+03   # mbR(MX)             
#
BLOCK MASS  # Mass Spectrum
# PDG code           mass       particle
        24     8.00959181E+01   # W+
        25     1.24800019E+02   # h
        35     3.00008016E+03   # H
        36     2.99999986E+03   # A
        37     3.00086395E+03   # H+
         5     4.87878001E+00   # b-quark pole mass calculated from mb(mb)_Msbar
   1000001     5.07474795E+03   # ~d_L
   2000001     5.05696796E+03   # ~d_R
   1000002     5.07427521E+03   # ~u_L
   2000002     5.05668737E+03   # ~u_R
   1000003     5.07474795E+03   # ~s_L
   2000003     5.05696796E+03   # ~s_R
   1000004     5.07427521E+03   # ~c_L
   2000004     5.05668737E+03   # ~c_R
   1000005     5.02050512E+03   # ~b_1
   2000005     5.05559887E+03   # ~b_2
   1000006     4.91189918E+03   # ~t_1
   2000006     5.06556813E+03   # ~t_2
   1000011     5.01906033E+03   # ~e_L
   2000011     5.00591813E+03   # ~e_R
   1000012     5.01811209E+03   # ~nu_eL
   1000013     5.01906033E+03   # ~mu_L
   2000013     5.00591813E+03   # ~mu_R
   1000014     5.01811209E+03   # ~nu_muL
   1000015     5.00452474E+03   # ~tau_1
   2000015     5.01884839E+03   # ~tau_2
   1000016     5.01756857E+03   # ~nu_tauL
   1000021     2.20000019E+03   # ~g
   1000022     6.03023423E+01   # ~chi_10
   1000023     1.19954203E+03   # ~chi_20
   1000025    -1.20184401E+03   # ~chi_30
   1000035     3.07428768E+03   # ~chi_40
   1000024     1.20000056E+03   # ~chi_1+
   1000037     3.07445510E+03   # ~chi_2+
#
BLOCK NMIX  # Neutralino Mixing Matrix
  1  1     9.99308837E-01   # N_11
  1  2     1.64221357E-04   # N_12
  1  3    -3.71182647E-02   # N_13
  1  4     2.01406663E-03   # N_14
  2  1     2.48267243E-02   # N_21
  2  2     2.59741862E-02   # N_22
  2  3     7.06840370E-01   # N_23
  2  4     7.06459954E-01   # N_24
  3  1    -2.76642297E-02   # N_31
  3  2     1.42068480E-02   # N_32
  3  3    -7.06349536E-01   # N_33
  3  4     7.07179743E-01   # N_34
  4  1    -4.16122717E-04   # N_41
  4  2     9.99561644E-01   # N_42
  4  3    -8.32215536E-03   # N_43
  4  4    -2.84093016E-02   # N_44
#
BLOCK UMIX  # Chargino Mixing Matrix U
  1  1     1.17841595E-02   # U_11
  1  2     9.99930564E-01   # U_12
  2  1    -9.99930564E-01   # U_21
  2  2     1.17841595E-02   # U_22
#
BLOCK VMIX  # Chargino Mixing Matrix V
  1  1     4.02055566E-02   # V_11
  1  2    -9.99191430E-01   # V_12
  2  1    -9.99191430E-01   # V_21
  2  2    -4.02055566E-02   # V_22
#
BLOCK STOPMIX  # Stop Mixing Matrix
  1  1    -5.07597323E-01   # cos(theta_t)
  1  2     8.61594428E-01   # sin(theta_t)
  2  1    -8.61594428E-01   # -sin(theta_t)
  2  2    -5.07597323E-01   # cos(theta_t)
#
BLOCK SBOTMIX  # Sbottom Mixing Matrix
  1  1     9.96192455E-01   # cos(theta_b)
  1  2    -8.71813776E-02   # sin(theta_b)
  2  1     8.71813776E-02   # -sin(theta_b)
  2  2     9.96192455E-01   # cos(theta_b)
#
BLOCK STAUMIX  # Stau Mixing Matrix
  1  1    -1.36027633E-01   # cos(theta_tau)
  1  2     9.90705043E-01   # sin(theta_tau)
  2  1    -9.90705043E-01   # -sin(theta_tau)
  2  2    -1.36027633E-01   # cos(theta_tau)
#
BLOCK ALPHA  # Higgs mixing
          -1.05474279E-01   # Mixing angle in the neutral Higgs boson sector
#
BLOCK HMIX Q=  5.00073291E+03  # DRbar Higgs Parameters
         1    -1.17484053E+03   # mu(Q)MSSM           
         2     9.46967951E+00   # tan                 
         3     2.41893268E+02   # higgs               
         4     8.46494787E+06   # mA^2(Q)MSSM         
#
BLOCK GAUGE Q=  5.00073291E+03  # The gauge couplings
     1     3.70751230E-01   # gprime(Q) DRbar
     2     6.32335497E-01   # g(Q) DRbar
     3     9.97100601E-01   # g3(Q) DRbar
#
BLOCK AU Q=  5.00073291E+03  # The trilinear couplings
  1  1     5.00000001E+03   # A_u(Q) DRbar
  2  2     5.00000001E+03   # A_c(Q) DRbar
  3  3     5.00000002E+03   # A_t(Q) DRbar
#
BLOCK AD Q=  5.00073291E+03  # The trilinear couplings
  1  1     5.00000001E+03   # A_d(Q) DRbar
  2  2     5.00000001E+03   # A_s(Q) DRbar
  3  3     5.00000001E+03   # A_b(Q) DRbar
#
BLOCK AE Q=  5.00073291E+03  # The trilinear couplings
  1  1     0.00000000E+00   # A_e(Q) DRbar
  2  2     2.05866481E-07   # A_mu(Q) DRbar
  3  3     2.05625099E-07   # A_tau(Q) DRbar
#
BLOCK Yu Q=  5.00073291E+03  # The Yukawa couplings
  1  1     0.00000000E+00   # y_u(Q) DRbar
  2  2     0.00000000E+00   # y_c(Q) DRbar
  3  3     8.20327182E-01   # y_t(Q) DRbar
#
BLOCK Yd Q=  5.00073291E+03  # The Yukawa couplings
  1  1     0.00000000E+00   # y_d(Q) DRbar
  2  2     0.00000000E+00   # y_s(Q) DRbar
  3  3     1.31057924E-01   # y_b(Q) DRbar
#
BLOCK Ye Q=  5.00073291E+03  # The Yukawa couplings
  1  1     0.00000000E+00   # y_e(Q) DRbar
  2  2     0.00000000E+00   # y_mu(Q) DRbar
  3  3     9.67559830E-02   # y_tau(Q) DRbar
#
BLOCK MSOFT Q=  5.00073291E+03  # The soft SUSY breaking masses at the scale Q
         1     6.00000000E+01   # M_1(Q)              
         2     3.00000000E+03   # M_2(Q)              
         3     1.85478500E+03   # M_3(Q)              
        21     7.30493902E+06   # mH1^2(Q)            
        22    -8.21153461E+05   # mH2^2(Q)            
        31     5.00000000E+03   # meL(Q)              
        32     5.00000000E+03   # mmuL(Q)             
        33     5.00000000E+03   # mtauL(Q)            
        34     5.00000000E+03   # meR(Q)              
        35     5.00000000E+03   # mmuR(Q)             
        36     5.00000000E+03   # mtauR(Q)            
        41     5.00000000E+03   # mqL1(Q)             
        42     5.00000000E+03   # mqL2(Q)             
        43     4.99999999E+03   # mqL3(Q)             
        44     5.00000000E+03   # muR(Q)              
        45     5.00000000E+03   # mcR(Q)              
        46     4.99999999E+03   # mtR(Q)              
        47     5.00000000E+03   # mdR(Q)              
        48     5.00000000E+03   # msR(Q)              
        49     5.00000000E+03   # mbR(Q)              
#
#
#
#                             =================
#                             |The decay table|
#                             =================
#
# - The QCD corrections to the decays gluino -> squark  + quark
#                                     squark -> gaugino + quark_prime
#                                     squark -> squark_prime + Higgs
#                                     squark -> gluino  + quark
#   are included.
#
# - The multi-body decays for the inos, stops and sbottoms are included.
#
# - The loop induced decays for the gluino, neutralinos and stops
#   are included.
#
# - The SUSY decays of the top quark are included.
#
#
#         PDG            Width
DECAY         6     1.40116359E+00   # top decays
#          BR         NDA      ID1       ID2
     1.00000000E+00    2           5        24   # BR(t ->  b    W+)
#
#         PDG            Width
DECAY   1000021     9.36495442E-04   # gluino decays
#          BR         NDA      ID1       ID2
     4.17557434E-06    2     1000022        21   # BR(~g -> ~chi_10 g)
     8.40919154E-03    2     1000023        21   # BR(~g -> ~chi_20 g)
     8.31671823E-03    2     1000025        21   # BR(~g -> ~chi_30 g)
#           BR         NDA      ID1       ID2       ID3
     4.10305407E-02    3     1000022         1        -1   # BR(~g -> ~chi_10 d  db)
     1.93951024E-05    3     1000023         1        -1   # BR(~g -> ~chi_20 d  db)
     6.67659457E-06    3     1000025         1        -1   # BR(~g -> ~chi_30 d  db)
     1.39897798E-01    3     1000022         2        -2   # BR(~g -> ~chi_10 u  ub)
     4.77335420E-05    3     1000023         2        -2   # BR(~g -> ~chi_20 u  ub)
     7.33121067E-06    3     1000025         2        -2   # BR(~g -> ~chi_30 u  ub)
     4.10305407E-02    3     1000022         3        -3   # BR(~g -> ~chi_10 s  sb)
     1.93951024E-05    3     1000023         3        -3   # BR(~g -> ~chi_20 s  sb)
     6.67659457E-06    3     1000025         3        -3   # BR(~g -> ~chi_30 s  sb)
     1.39897798E-01    3     1000022         4        -4   # BR(~g -> ~chi_10 c  cb)
     4.77335420E-05    3     1000023         4        -4   # BR(~g -> ~chi_20 c  cb)
     7.33121067E-06    3     1000025         4        -4   # BR(~g -> ~chi_30 c  cb)
     4.15800585E-02    3     1000022         5        -5   # BR(~g -> ~chi_10 b  bb)
     3.29520399E-03    3     1000023         5        -5   # BR(~g -> ~chi_20 b  bb)
     3.23816346E-03    3     1000025         5        -5   # BR(~g -> ~chi_30 b  bb)
     1.38996289E-01    3     1000022         6        -6   # BR(~g -> ~chi_10 t  tb)
     1.08879875E-01    3     1000023         6        -6   # BR(~g -> ~chi_20 t  tb)
     8.98175589E-02    3     1000025         6        -6   # BR(~g -> ~chi_30 t  tb)
     5.37077001E-05    3     1000024         1        -2   # BR(~g -> ~chi_1+ d  ub)
     5.37077001E-05    3    -1000024         2        -1   # BR(~g -> ~chi_1- u  db)
     5.37077001E-05    3     1000024         3        -4   # BR(~g -> ~chi_1+ s  cb)
     5.37077001E-05    3    -1000024         4        -3   # BR(~g -> ~chi_1- c  sb)
     1.17614492E-01    3     1000024         5        -6   # BR(~g -> ~chi_1+ b  tb)
     1.17614492E-01    3    -1000024         6        -5   # BR(~g -> ~chi_1- t  bb)
#
#         PDG            Width
DECAY   1000006     3.19052079E+02   # stop1 decays
#          BR         NDA      ID1       ID2
     2.77464854E-02    2     1000022         6   # BR(~t_1 -> ~chi_10 t )
     9.16698141E-02    2     1000023         6   # BR(~t_1 -> ~chi_20 t )
     8.81596930E-02    2     1000025         6   # BR(~t_1 -> ~chi_30 t )
     6.55427143E-03    2     1000035         6   # BR(~t_1 -> ~chi_40 t )
     1.33487974E-01    2     1000024         5   # BR(~t_1 -> ~chi_1+ b )
     1.30514614E-02    2     1000037         5   # BR(~t_1 -> ~chi_2+ b )
     6.39330301E-01    2     1000021         6   # BR(~t_1 -> ~g      t )
#
#         PDG            Width
DECAY   2000006     3.28560024E+02   # stop2 decays
#          BR         NDA      ID1       ID2
     1.05890945E-02    2     1000022         6   # BR(~t_2 -> ~chi_10 t )
     9.16197516E-02    2     1000023         6   # BR(~t_2 -> ~chi_20 t )
     9.53410705E-02    2     1000025         6   # BR(~t_2 -> ~chi_30 t )
     1.68992902E-02    2     1000035         6   # BR(~t_2 -> ~chi_40 t )
     5.45160158E-02    2     1000024         5   # BR(~t_2 -> ~chi_1+ b )
     3.36023432E-02    2     1000037         5   # BR(~t_2 -> ~chi_2+ b )
     6.93607376E-01    2     1000021         6   # BR(~t_2 -> ~g      t )
     8.64267080E-04    2     1000006        25   # BR(~t_2 -> ~t_1    h )
     2.96079071E-03    2     1000006        23   # BR(~t_2 -> ~t_1    Z )
#
#         PDG            Width
DECAY   1000005     3.03897886E+02   # sbottom1 decays
#          BR         NDA      ID1       ID2
     2.54876828E-03    2     1000022         5   # BR(~b_1 -> ~chi_10 b )
     2.56548034E-03    2     1000023         5   # BR(~b_1 -> ~chi_20 b )
     2.47288721E-03    2     1000025         5   # BR(~b_1 -> ~chi_30 b )
     2.47908002E-02    2     1000035         5   # BR(~b_1 -> ~chi_40 b )
     1.95392811E-01    2    -1000024         6   # BR(~b_1 -> ~chi_1- t )
     4.98391670E-02    2    -1000037         6   # BR(~b_1 -> ~chi_2- t )
     7.20577783E-01    2     1000021         5   # BR(~b_1 -> ~g      b )
     1.81230230E-03    2     1000006       -24   # BR(~b_1 -> ~t_1    W-)
#
#         PDG            Width
DECAY   2000005     2.28396067E+02   # sbottom2 decays
#          BR         NDA      ID1       ID2
     1.28368164E-02    2     1000022         5   # BR(~b_2 -> ~chi_10 b )
     3.35537403E-03    2     1000023         5   # BR(~b_2 -> ~chi_20 b )
     3.46412015E-03    2     1000025         5   # BR(~b_2 -> ~chi_30 b )
     2.57939810E-04    2     1000035         5   # BR(~b_2 -> ~chi_40 b )
     8.63842710E-03    2    -1000024         6   # BR(~b_2 -> ~chi_1- t )
     5.18442992E-04    2    -1000037         6   # BR(~b_2 -> ~chi_2- t )
     9.70850264E-01    2     1000021         5   # BR(~b_2 -> ~g      b )
     7.86155880E-05    2     1000006       -24   # BR(~b_2 -> ~t_1    W-)
#
#         PDG            Width
DECAY   1000002     2.47615463E+02   # sup_L decays
#          BR         NDA      ID1       ID2
     3.01157546E-03    2     1000022         2   # BR(~u_L -> ~chi_10 u)
     6.69227905E-05    2     1000023         2   # BR(~u_L -> ~chi_20 u)
     5.45147576E-06    2     1000025         2   # BR(~u_L -> ~chi_30 u)
     3.17593008E-02    2     1000035         2   # BR(~u_L -> ~chi_40 u)
     2.27663615E-04    2     1000024         1   # BR(~u_L -> ~chi_1+ d)
     6.34739300E-02    2     1000037         1   # BR(~u_L -> ~chi_2+ d)
     9.01455156E-01    2     1000021         2   # BR(~u_L -> ~g      u)
#
#         PDG            Width
DECAY   2000002     2.33607628E+02   # sup_R decays
#          BR         NDA      ID1       ID2
     5.08094119E-02    2     1000022         2   # BR(~u_R -> ~chi_10 u)
     2.79980898E-05    2     1000023         2   # BR(~u_R -> ~chi_20 u)
     3.47479340E-05    2     1000025         2   # BR(~u_R -> ~chi_30 u)
     3.52534634E-09    2     1000035         2   # BR(~u_R -> ~chi_40 u)
     9.49127839E-01    2     1000021         2   # BR(~u_R -> ~g      u)
#
#         PDG            Width
DECAY   1000001     2.47631206E+02   # sdown_L decays
#          BR         NDA      ID1       ID2
     3.00155632E-03    2     1000022         1   # BR(~d_L -> ~chi_10 d)
     3.14213865E-05    2     1000023         1   # BR(~d_L -> ~chi_20 d)
     2.70812955E-05    2     1000025         1   # BR(~d_L -> ~chi_30 d)
     3.17773987E-02    2     1000035         1   # BR(~d_L -> ~chi_40 d)
     1.95587671E-05    2    -1000024         2   # BR(~d_L -> ~chi_1- u)
     6.35834016E-02    2    -1000037         2   # BR(~d_L -> ~chi_2- u)
     9.01559582E-01    2     1000021         1   # BR(~d_L -> ~g      d)
#
#         PDG            Width
DECAY   2000001     2.24718495E+02   # sdown_R decays
#          BR         NDA      ID1       ID2
     1.32055604E-02    2     1000022         1   # BR(~d_R -> ~chi_10 d)
     7.27690437E-06    2     1000023         1   # BR(~d_R -> ~chi_20 d)
     9.03123777E-06    2     1000025         1   # BR(~d_R -> ~chi_30 d)
     9.16368675E-10    2     1000035         1   # BR(~d_R -> ~chi_40 d)
     9.86778131E-01    2     1000021         1   # BR(~d_R -> ~g      d)
#
#         PDG            Width
DECAY   1000004     2.47615463E+02   # scharm_L decays
#          BR         NDA      ID1       ID2
     3.01157546E-03    2     1000022         4   # BR(~c_L -> ~chi_10 c)
     6.69227905E-05    2     1000023         4   # BR(~c_L -> ~chi_20 c)
     5.45147576E-06    2     1000025         4   # BR(~c_L -> ~chi_30 c)
     3.17593008E-02    2     1000035         4   # BR(~c_L -> ~chi_40 c)
     2.27663615E-04    2     1000024         3   # BR(~c_L -> ~chi_1+ s)
     6.34739300E-02    2     1000037         3   # BR(~c_L -> ~chi_2+ s)
     9.01455156E-01    2     1000021         4   # BR(~c_L -> ~g      c)
#
#         PDG            Width
DECAY   2000004     2.33607628E+02   # scharm_R decays
#          BR         NDA      ID1       ID2
     5.08094119E-02    2     1000022         4   # BR(~c_R -> ~chi_10 c)
     2.79980898E-05    2     1000023         4   # BR(~c_R -> ~chi_20 c)
     3.47479340E-05    2     1000025         4   # BR(~c_R -> ~chi_30 c)
     3.52534634E-09    2     1000035         4   # BR(~c_R -> ~chi_40 c)
     9.49127839E-01    2     1000021         4   # BR(~c_R -> ~g      c)
#
#         PDG            Width
DECAY   1000003     2.47631206E+02   # sstrange_L decays
#          BR         NDA      ID1       ID2
     3.00155632E-03    2     1000022         3   # BR(~s_L -> ~chi_10 s)
     3.14213865E-05    2     1000023         3   # BR(~s_L -> ~chi_20 s)
     2.70812955E-05    2     1000025         3   # BR(~s_L -> ~chi_30 s)
     3.17773987E-02    2     1000035         3   # BR(~s_L -> ~chi_40 s)
     1.95587671E-05    2    -1000024         4   # BR(~s_L -> ~chi_1- c)
     6.35834016E-02    2    -1000037         4   # BR(~s_L -> ~chi_2- c)
     9.01559582E-01    2     1000021         3   # BR(~s_L -> ~g      s)
#
#         PDG            Width
DECAY   2000003     2.24718495E+02   # sstrange_R decays
#          BR         NDA      ID1       ID2
     1.32055604E-02    2     1000022         3   # BR(~s_R -> ~chi_10 s)
     7.27690437E-06    2     1000023         3   # BR(~s_R -> ~chi_20 s)
     9.03123777E-06    2     1000025         3   # BR(~s_R -> ~chi_30 s)
     9.16368675E-10    2     1000035         3   # BR(~s_R -> ~chi_40 s)
     9.86778131E-01    2     1000021         3   # BR(~s_R -> ~g      s)
#
#         PDG            Width
DECAY   1000011     3.02542245E+01   # selectron_L decays
#          BR         NDA      ID1       ID2
     2.26578773E-01    2     1000022        11   # BR(~e_L -> ~chi_10 e-)
     9.63631258E-04    2     1000023        11   # BR(~e_L -> ~chi_20 e-)
     2.37651394E-06    2     1000025        11   # BR(~e_L -> ~chi_30 e-)
     2.57242804E-01    2     1000035        11   # BR(~e_L -> ~chi_40 e-)
     1.62904000E-04    2    -1000024        12   # BR(~e_L -> ~chi_1- nu_e)
     5.15049511E-01    2    -1000037        12   # BR(~e_L -> ~chi_2- nu_e)
#
#         PDG            Width
DECAY   2000011     2.73662989E+01   # selectron_R decays
#          BR         NDA      ID1       ID2
     9.98772146E-01    2     1000022        11   # BR(~e_R -> ~chi_10 e-)
     5.47858329E-04    2     1000023        11   # BR(~e_R -> ~chi_20 e-)
     6.79928565E-04    2     1000025        11   # BR(~e_R -> ~chi_30 e-)
     6.72037998E-08    2     1000035        11   # BR(~e_R -> ~chi_40 e-)
#
#         PDG            Width
DECAY   1000013     3.02542245E+01   # smuon_L decays
#          BR         NDA      ID1       ID2
     2.26578773E-01    2     1000022        13   # BR(~mu_L -> ~chi_10 mu-)
     9.63631258E-04    2     1000023        13   # BR(~mu_L -> ~chi_20 mu-)
     2.37651394E-06    2     1000025        13   # BR(~mu_L -> ~chi_30 mu-)
     2.57242804E-01    2     1000035        13   # BR(~mu_L -> ~chi_40 mu-)
     1.62904000E-04    2    -1000024        14   # BR(~mu_L -> ~chi_1- nu_mu)
     5.15049511E-01    2    -1000037        14   # BR(~mu_L -> ~chi_2- nu_mu)
#
#         PDG            Width
DECAY   2000013     2.73662989E+01   # smuon_R decays
#          BR         NDA      ID1       ID2
     9.98772146E-01    2     1000022        13   # BR(~mu_R -> ~chi_10 mu-)
     5.47858329E-04    2     1000023        13   # BR(~mu_R -> ~chi_20 mu-)
     6.79928565E-04    2     1000025        13   # BR(~mu_R -> ~chi_30 mu-)
     6.72037998E-08    2     1000035        13   # BR(~mu_R -> ~chi_40 mu-)
#
#         PDG            Width
DECAY   1000015     2.90654871E+01   # stau_1 decays
#          BR         NDA      ID1       ID2
     9.27988236E-01    2     1000022        15   # BR(~tau_1 -> ~chi_10  tau-)
     1.50444916E-02    2     1000023        15   # BR(~tau_1 -> ~chi_20  tau-)
     1.40736428E-02    2     1000025        15   # BR(~tau_1 -> ~chi_30  tau-)
     4.77786078E-03    2     1000035        15   # BR(~tau_1 -> ~chi_40  tau-)
     2.85497984E-02    2    -1000024        16   # BR(~tau_1 -> ~chi_1-  nu_tau)
     9.56597062E-03    2    -1000037        16   # BR(~tau_1 -> ~chi_2-  nu_tau)
#
#         PDG            Width
DECAY   2000015     3.10275264E+01   # stau_2 decays
#          BR         NDA      ID1       ID2
     2.32403563E-01    2     1000022        15   # BR(~tau_2 -> ~chi_10  tau-)
     1.40437113E-02    2     1000023        15   # BR(~tau_2 -> ~chi_20  tau-)
     1.40869885E-02    2     1000025        15   # BR(~tau_2 -> ~chi_30  tau-)
     2.46276779E-01    2     1000035        15   # BR(~tau_2 -> ~chi_40  tau-)
     9.55112623E-05    2    -1000024        16   # BR(~tau_2 -> ~chi_1-  nu_tau)
     4.93093447E-01    2    -1000037        16   # BR(~tau_2 -> ~chi_2-  nu_tau)
#
#         PDG            Width
DECAY   1000012     3.02567505E+01   # snu_eL decays
#          BR         NDA      ID1       ID2
     2.26263217E-01    2     1000022        12   # BR(~nu_eL -> ~chi_10 nu_e)
     7.64485325E-05    2     1000023        12   # BR(~nu_eL -> ~chi_20 nu_e)
     5.42651726E-04    2     1000025        12   # BR(~nu_eL -> ~chi_30 nu_e)
     2.57307111E-01    2     1000035        12   # BR(~nu_eL -> ~chi_40 nu_e)
     1.89569499E-03    2     1000024        11   # BR(~nu_eL -> ~chi_1+ e-)
     5.13914876E-01    2     1000037        11   # BR(~nu_eL -> ~chi_2+ e-)
#
#         PDG            Width
DECAY   1000014     3.02567505E+01   # snu_muL decays
#          BR         NDA      ID1       ID2
     2.26263217E-01    2     1000022        14   # BR(~nu_muL -> ~chi_10 nu_mu)
     7.64485325E-05    2     1000023        14   # BR(~nu_muL -> ~chi_20 nu_mu)
     5.42651726E-04    2     1000025        14   # BR(~nu_muL -> ~chi_30 nu_mu)
     2.57307111E-01    2     1000035        14   # BR(~nu_muL -> ~chi_40 nu_mu)
     1.89569499E-03    2     1000024        13   # BR(~nu_muL -> ~chi_1+ mu-)
     5.13914876E-01    2     1000037        13   # BR(~nu_muL -> ~chi_2+ mu-)
#
#         PDG            Width
DECAY   1000016     3.10780154E+01   # snu_tauL decays
#          BR         NDA      ID1       ID2
     2.20260131E-01    2     1000022        16   # BR(~nu_tauL -> ~chi_10 nu_tau)
     7.44182944E-05    2     1000023        16   # BR(~nu_tauL -> ~chi_20 nu_tau)
     5.28240506E-04    2     1000025        16   # BR(~nu_tauL -> ~chi_30 nu_tau)
     2.50415194E-01    2     1000035        16   # BR(~nu_tauL -> ~chi_40 nu_tau)
     2.85722117E-02    2     1000024        15   # BR(~nu_tauL -> ~chi_1+ tau-)
     5.00149804E-01    2     1000037        15   # BR(~nu_tauL -> ~chi_2+ tau-)
#
#         PDG            Width
DECAY   1000024     7.34462859E-01   # chargino1+ decays
#          BR         NDA      ID1       ID2
     1.00000000E+00    2     1000022        24   # BR(~chi_1+ -> ~chi_10  W+)
#
#         PDG            Width
DECAY   1000037     1.96718482E+01   # chargino2+ decays
#          BR         NDA      ID1       ID2
     2.53014449E-01    2     1000024        23   # BR(~chi_2+ -> ~chi_1+  Z )
     2.15539135E-04    2     1000022        24   # BR(~chi_2+ -> ~chi_10  W+)
     2.43994295E-01    2     1000023        24   # BR(~chi_2+ -> ~chi_20  W+)
     2.43957307E-01    2     1000025        24   # BR(~chi_2+ -> ~chi_30  W+)
     2.58817665E-01    2     1000024        25   # BR(~chi_2+ -> ~chi_1+  h )
     7.45616229E-07    2     1000022        37   # BR(~chi_2+ -> ~chi_10  H+)
#
#         PDG            Width
DECAY   1000022     0.00000000E+00   # neutralino1 decays
#
#         PDG            Width
DECAY   1000023     7.69710126E-01   # neutralino2 decays
#          BR         NDA      ID1       ID2
     5.48079694E-01    2     1000022        23   # BR(~chi_20 -> ~chi_10   Z )
     4.51920306E-01    2     1000022        25   # BR(~chi_20 -> ~chi_10   h )
#
#         PDG            Width
DECAY   1000025     7.75530194E-01   # neutralino3 decays
#          BR         NDA      ID1       ID2
     4.38110069E-01    2     1000022        23   # BR(~chi_30 -> ~chi_10   Z )
     5.61889931E-01    2     1000022        25   # BR(~chi_30 -> ~chi_10   h )
#
#         PDG            Width
DECAY   1000035     1.96834796E+01   # neutralino4 decays
#          BR         NDA      ID1       ID2
     6.35251212E-05    2     1000022        23   # BR(~chi_40 -> ~chi_10   Z )
     5.83471184E-02    2     1000023        23   # BR(~chi_40 -> ~chi_20   Z )
     1.93962319E-01    2     1000025        23   # BR(~chi_40 -> ~chi_30   Z )
     2.44608510E-01    2     1000024       -24   # BR(~chi_40 -> ~chi_1+   W-)
     2.44608510E-01    2    -1000024        24   # BR(~chi_40 -> ~chi_1-   W+)
     1.54939462E-04    2     1000022        25   # BR(~chi_40 -> ~chi_10   h )
     6.82588804E-07    2     1000022        35   # BR(~chi_40 -> ~chi_10   H )
     8.91833168E-08    2     1000022        36   # BR(~chi_40 -> ~chi_10   A )
     1.99795574E-01    2     1000023        25   # BR(~chi_40 -> ~chi_20   h )
     5.84587323E-02    2     1000025        25   # BR(~chi_40 -> ~chi_30   h )
#
#         PDG            Width
DECAY        25     4.05376813E-03   # h decays
#          BR         NDA      ID1       ID2
     6.07072096E-01    2           5        -5   # BR(h -> b       bb     )
     6.39948378E-02    2         -15        15   # BR(h -> tau+    tau-   )
     2.26564876E-04    2         -13        13   # BR(h -> mu+     mu-    )
     4.80284359E-04    2           3        -3   # BR(h -> s       sb     )
     2.08121840E-02    2           4        -4   # BR(h -> c       cb     )
     6.73529795E-02    2          21        21   # BR(h -> g       g      )
     2.31642568E-03    2          22        22   # BR(h -> gam     gam    )
     1.49585591E-03    2          22        23   # BR(h -> Z       gam    )
     2.11040873E-01    2          24       -24   # BR(h -> W+      W-     )
     2.51624319E-02    2          23        23   # BR(h -> Z       Z      )
     4.54670955E-05    2     1000022   1000022   # BR(h -> ~chi_10 ~chi_10)
#
#         PDG            Width
DECAY        35     7.79448962E+00   # H decays
#          BR         NDA      ID1       ID2
     4.16332643E-01    2           5        -5   # BR(H -> b       bb     )
     7.14725669E-02    2         -15        15   # BR(H -> tau+    tau-   )
     2.52732674E-04    2         -13        13   # BR(H -> mu+     mu-    )
     3.09811543E-04    2           3        -3   # BR(H -> s       sb     )
     1.73305891E-06    2           4        -4   # BR(H -> c       cb     )
     1.73146309E-01    2           6        -6   # BR(H -> t       tb     )
     5.75145477E-05    2          21        21   # BR(H -> g       g      )
     3.33361416E-07    2          22        22   # BR(H -> gam     gam    )
     1.02250854E-07    2          23        22   # BR(H -> Z       gam    )
     7.88536962E-05    2          24       -24   # BR(H -> W+      W-     )
     3.93769467E-05    2          23        23   # BR(H -> Z       Z      )
     2.94374358E-04    2          25        25   # BR(H -> h       h      )
    -2.76528713E-23    2          36        36   # BR(H -> A       A      )
     6.35317395E-19    2          23        36   # BR(H -> Z       A      )
     1.18895834E-03    2     1000024  -1000024   # BR(H -> ~chi_1+ ~chi_1-)
     1.28636592E-03    2     1000022   1000022   # BR(H -> ~chi_10 ~chi_10)
     6.58151380E-05    2     1000023   1000023   # BR(H -> ~chi_20 ~chi_20)
     2.34353421E-04    2     1000025   1000025   # BR(H -> ~chi_30 ~chi_30)
     2.00430120E-01    2     1000022   1000023   # BR(H -> ~chi_10 ~chi_20)
     1.34591992E-01    2     1000022   1000025   # BR(H -> ~chi_10 ~chi_30)
     2.16044317E-04    2     1000023   1000025   # BR(H -> ~chi_20 ~chi_30)
#
#         PDG            Width
DECAY        36     7.81477575E+00   # A decays
#          BR         NDA      ID1       ID2
     4.15391992E-01    2           5        -5   # BR(A -> b       bb     )
     7.12892055E-02    2         -15        15   # BR(A -> tau+    tau-   )
     2.52083941E-04    2         -13        13   # BR(A -> mu+     mu-    )
     3.09242109E-04    2           3        -3   # BR(A -> s       sb     )
     1.73568950E-06    2           4        -4   # BR(A -> c       cb     )
     1.73313450E-01    2           6        -6   # BR(A -> t       tb     )
     1.71507268E-04    2          21        21   # BR(A -> g       g      )
     5.27274381E-07    2          22        22   # BR(A -> gam     gam    )
     2.07747207E-07    2          23        22   # BR(A -> Z       gam    )
     7.83517008E-05    2          23        25   # BR(A -> Z       h      )
     2.90988443E-03    2     1000024  -1000024   # BR(A -> ~chi_1+ ~chi_1-)
     1.31497477E-03    2     1000022   1000022   # BR(A -> ~chi_10 ~chi_10)
     1.19128015E-04    2     1000023   1000023   # BR(A -> ~chi_20 ~chi_20)
     9.98577653E-04    2     1000025   1000025   # BR(A -> ~chi_30 ~chi_30)
     1.35975057E-01    2     1000022   1000023   # BR(A -> ~chi_10 ~chi_20)
     1.97847642E-01    2     1000022   1000025   # BR(A -> ~chi_10 ~chi_30)
     2.64323625E-05    2     1000023   1000025   # BR(A -> ~chi_20 ~chi_30)
#
#         PDG            Width
DECAY        37     7.78798037E+00   # H+ decays
#          BR         NDA      ID1       ID2
     6.69911651E-04    2           4        -5   # BR(H+ -> c       bb     )
     7.15550877E-02    2         -15        16   # BR(H+ -> tau+    nu_tau )
     2.53024120E-04    2         -13        14   # BR(H+ -> mu+     nu_mu  )
     4.28741252E-06    2           2        -5   # BR(H+ -> u       bb     )
     1.48469342E-05    2           2        -3   # BR(H+ -> u       sb     )
     3.07035629E-04    2           4        -3   # BR(H+ -> c       sb     )
     5.88965166E-01    2           6        -5   # BR(H+ -> t       bb     )
     7.87397162E-05    2          24        25   # BR(H+ -> W+      h      )
     8.12931448E-14    2          24        36   # BR(H+ -> W+      A      )
     3.37586788E-01    2     1000024   1000022   # BR(H+ -> ~chi_1+ ~chi_10)
     5.04025267E-04    2     1000024   1000023   # BR(H+ -> ~chi_1+ ~chi_20)
     6.10879300E-05    2     1000024   1000025   # BR(H+ -> ~chi_1+ ~chi_30)
