#
#                              ======================
#                              | THE SUSYHIT OUTPUT |
#                              ======================
#
#
#              ------------------------------------------------------
#              |     This is the output of the SUSY-HIT package     |
#              |  created by A.Djouadi, M.Muehlleitner and M.Spira. |
#              |  In case of problems with SUSY-HIT email to        |
#              |           margarete.muehlleitner@cern.ch           |
#              |           michael.spira@psi.ch                     |
#              |           abdelhak.djouadi@cern.ch                 |
#              ------------------------------------------------------
#
#              ------------------------------------------------------
#              |  SUSY Les Houches Accord - MSSM Spectrum + Decays  |
#              |              based on the decay programs           |
#              |                                                    |
#              |                     SDECAY 1.3b                    |
#              |                                                    |
#              |  Authors: M.Muhlleitner, A.Djouadi and Y.Mambrini  |
#              |  Ref.:    Comput.Phys.Commun.168(2005)46           |
#              |           [hep-ph/0311167]                         |
#              |                                                    |
#              |                     HDECAY 3.4                     |
#              |                                                    |
#              |  By: A.Djouadi,J.Kalinowski,M.Muhlleitner,M.Spira  |
#              |  Ref.:    Comput.Phys.Commun.108(1998)56           |
#              |           [hep-ph/9704448]                         |
#              |                                                    |
#              |                                                    |
#              |  If not stated otherwise all DRbar couplings and   |
#              |  soft SUSY breaking masses are given at the scale  |
#              |  Q=  0.50007310E+04
#              |                                                    |
#              ------------------------------------------------------
#
#
BLOCK DCINFO  # Decay Program information
     1   SDECAY/HDECAY # decay calculator
     2   1.3b  /3.4    # version number
#
BLOCK SPINFO  # Spectrum calculator information
     1    SOFTSUSY    # spectrum calculator                
     2    3.4.0       # version number                     
#
BLOCK MODSEL  # Model selection
     1     0   #  nonUniversal                                     
#
BLOCK SMINPUTS  # Standard Model inputs
         1     1.25778332E+02   # alpha_em^-1(M_Z)^MSbar
         2     1.16570000E-05   # G_F [GeV^-2]
         3     1.17200002E-01   # alpha_S(M_Z)^MSbar
         4     9.11876000E+01   # M_Z pole mass
         5     4.25000000E+00   # mb(mb)^MSbar
         6     1.72500000E+02   # mt pole mass
         7     1.77682000E+00   # mtau pole mass
#
BLOCK MINPAR  # Input parameters - minimal models
         3     1.00000000E+01   # tanb                
#
BLOCK EXTPAR  # Input parameters - non-minimal models
         0    -1.00000000E+00   # Set                 
         1     6.00000000E+01   # M_1(MX)             
         2     3.00000000E+03   # M_2(MX)             
         3     9.46040000E+02   # M_3(MX)             
        11     5.00000000E+03   # At(MX)              
        12     5.00000000E+03   # Ab(MX)              
        13     0.00000000E+00   # Atau(MX)            
        23    -9.59318000E+02   # mu(MX)              
        26     3.00000000E+03   # mA(pole)            
        31     5.00000000E+03   # meL(MX)             
        32     5.00000000E+03   # mmuL(MX)            
        33     5.00000000E+03   # mtauL(MX)           
        34     5.00000000E+03   # meR(MX)             
        35     5.00000000E+03   # mmuR(MX)            
        36     5.00000000E+03   # mtauR(MX)           
        41     5.00000000E+03   # mqL1(MX)            
        42     5.00000000E+03   # mqL2(MX)            
        43     5.00000000E+03   # mqL3(MX)            
        44     5.00000000E+03   # muR(MX)             
        45     5.00000000E+03   # mcR(MX)             
        46     5.00000000E+03   # mtR(MX)             
        47     5.00000000E+03   # mdR(MX)             
        48     5.00000000E+03   # msR(MX)             
        49     5.00000000E+03   # mbR(MX)             
#
BLOCK MASS  # Mass Spectrum
# PDG code           mass       particle
        24     8.00932100E+01   # W+
        25     1.24459216E+02   # h
        35     3.00008121E+03   # H
        36     2.99999851E+03   # A
        37     3.00111520E+03   # H+
         5     4.87878001E+00   # b-quark pole mass calculated from mb(mb)_Msbar
   1000001     5.06469285E+03   # ~d_L
   2000001     5.04686265E+03   # ~d_R
   1000002     5.06421628E+03   # ~u_L
   2000002     5.04657624E+03   # ~u_R
   1000003     5.06469285E+03   # ~s_L
   2000003     5.04686265E+03   # ~s_R
   1000004     5.06421628E+03   # ~c_L
   2000004     5.04657624E+03   # ~c_R
   1000005     5.01087457E+03   # ~b_1
   2000005     5.04542886E+03   # ~b_2
   1000006     4.90133662E+03   # ~t_1
   2000006     5.05668208E+03   # ~t_2
   1000011     5.01907314E+03   # ~e_L
   2000011     5.00592440E+03   # ~e_R
   1000012     5.01812404E+03   # ~nu_eL
   1000013     5.01907314E+03   # ~mu_L
   2000013     5.00592440E+03   # ~mu_R
   1000014     5.01812404E+03   # ~nu_muL
   1000015     5.00461210E+03   # ~tau_1
   2000015     5.01876783E+03   # ~tau_2
   1000016     5.01757782E+03   # ~nu_tauL
   1000021     1.20000051E+03   # ~g
   1000022     6.02984037E+01   # ~chi_10
   1000023     9.99651564E+02   # ~chi_20
   1000025    -1.00190717E+03   # ~chi_30
   1000035     3.07425857E+03   # ~chi_40
   1000024     1.00000030E+03   # ~chi_1+
   1000037     3.07442609E+03   # ~chi_2+
#
BLOCK NMIX  # Neutralino Mixing Matrix
  1  1     9.99006787E-01   # N_11
  1  2     1.84556297E-04   # N_12
  1  3    -4.45148156E-02   # N_13
  1  4     1.95860373E-03   # N_14
  2  1     3.01005187E-02   # N_21
  2  2     2.34974735E-02   # N_22
  2  3     7.06701234E-01   # N_23
  2  4     7.06480852E-01   # N_24
  3  1    -3.28517317E-02   # N_31
  3  2     1.49139479E-02   # N_32
  3  3    -7.06084245E-01   # N_33
  3  4     7.07208157E-01   # N_34
  4  1    -4.01865790E-04   # N_41
  4  2     9.99612629E-01   # N_42
  4  3    -6.06932547E-03   # N_43
  4  4    -2.71586627E-02   # N_44
#
BLOCK UMIX  # Chargino Mixing Matrix U
  1  1     8.59700984E-03   # U_11
  1  2     9.99963045E-01   # U_12
  2  1    -9.99963045E-01   # U_21
  2  2     8.59700984E-03   # U_22
#
BLOCK VMIX  # Chargino Mixing Matrix V
  1  1     3.84379554E-02   # V_11
  1  2    -9.99260989E-01   # V_12
  2  1    -9.99260989E-01   # V_21
  2  2    -3.84379554E-02   # V_22
#
BLOCK STOPMIX  # Stop Mixing Matrix
  1  1    -5.09653966E-01   # cos(theta_t)
  1  2     8.60379471E-01   # sin(theta_t)
  2  1    -8.60379471E-01   # -sin(theta_t)
  2  2    -5.09653966E-01   # cos(theta_t)
#
BLOCK SBOTMIX  # Sbottom Mixing Matrix
  1  1     9.97031280E-01   # cos(theta_b)
  1  2    -7.69975759E-02   # sin(theta_b)
  2  1     7.69975759E-02   # -sin(theta_b)
  2  2     9.97031280E-01   # cos(theta_b)
#
BLOCK STAUMIX  # Stau Mixing Matrix
  1  1    -1.13923187E-01   # cos(theta_tau)
  1  2     9.93489561E-01   # sin(theta_tau)
  2  1    -9.93489561E-01   # -sin(theta_tau)
  2  2    -1.13923187E-01   # cos(theta_tau)
#
BLOCK ALPHA  # Higgs mixing
          -1.05439115E-01   # Mixing angle in the neutral Higgs boson sector
#
BLOCK HMIX Q=  5.00073098E+03  # DRbar Higgs Parameters
         1    -9.76531096E+02   # mu(Q)MSSM           
         2     9.47291157E+00   # tan                 
         3     2.41901693E+02   # higgs               
         4     8.51157900E+06   # mA^2(Q)MSSM         
#
BLOCK GAUGE Q=  5.00073098E+03  # The gauge couplings
     1     3.70812554E-01   # gprime(Q) DRbar
     2     6.32591664E-01   # g(Q) DRbar
     3     1.00596888E+00   # g3(Q) DRbar
#
BLOCK AU Q=  5.00073098E+03  # The trilinear couplings
  1  1     5.00000001E+03   # A_u(Q) DRbar
  2  2     5.00000001E+03   # A_c(Q) DRbar
  3  3     5.00000001E+03   # A_t(Q) DRbar
#
BLOCK AD Q=  5.00073098E+03  # The trilinear couplings
  1  1     5.00000000E+03   # A_d(Q) DRbar
  2  2     5.00000000E+03   # A_s(Q) DRbar
  3  3     5.00000001E+03   # A_b(Q) DRbar
#
BLOCK AE Q=  5.00073098E+03  # The trilinear couplings
  1  1     0.00000000E+00   # A_e(Q) DRbar
  2  2     4.93699376E-08   # A_mu(Q) DRbar
  3  3     4.85206199E-08   # A_tau(Q) DRbar
#
BLOCK Yu Q=  5.00073098E+03  # The Yukawa couplings
  1  1     0.00000000E+00   # y_u(Q) DRbar
  2  2     0.00000000E+00   # y_c(Q) DRbar
  3  3     8.15834693E-01   # y_t(Q) DRbar
#
BLOCK Yd Q=  5.00073098E+03  # The Yukawa couplings
  1  1     0.00000000E+00   # y_d(Q) DRbar
  2  2     0.00000000E+00   # y_s(Q) DRbar
  3  3     1.29698376E-01   # y_b(Q) DRbar
#
BLOCK Ye Q=  5.00073098E+03  # The Yukawa couplings
  1  1     0.00000000E+00   # y_e(Q) DRbar
  2  2     0.00000000E+00   # y_mu(Q) DRbar
  3  3     9.68670484E-02   # y_tau(Q) DRbar
#
BLOCK MSOFT Q=  5.00073098E+03  # The soft SUSY breaking masses at the scale Q
         1     6.00000000E+01   # M_1(Q)              
         2     3.00000000E+03   # M_2(Q)              
         3     9.46040000E+02   # M_3(Q)              
        21     7.74252369E+06   # mH1^2(Q)            
        22    -3.93002896E+05   # mH2^2(Q)            
        31     5.00000000E+03   # meL(Q)              
        32     5.00000000E+03   # mmuL(Q)             
        33     5.00000000E+03   # mtauL(Q)            
        34     5.00000000E+03   # meR(Q)              
        35     5.00000000E+03   # mmuR(Q)             
        36     5.00000000E+03   # mtauR(Q)            
        41     5.00000000E+03   # mqL1(Q)             
        42     5.00000000E+03   # mqL2(Q)             
        43     5.00000000E+03   # mqL3(Q)             
        44     5.00000000E+03   # muR(Q)              
        45     5.00000000E+03   # mcR(Q)              
        46     5.00000000E+03   # mtR(Q)              
        47     5.00000000E+03   # mdR(Q)              
        48     5.00000000E+03   # msR(Q)              
        49     5.00000000E+03   # mbR(Q)              
#
#
#
#                             =================
#                             |The decay table|
#                             =================
#
# - The QCD corrections to the decays gluino -> squark  + quark
#                                     squark -> gaugino + quark_prime
#                                     squark -> squark_prime + Higgs
#                                     squark -> gluino  + quark
#   are included.
#
# - The multi-body decays for the inos, stops and sbottoms are included.
#
# - The loop induced decays for the gluino, neutralinos and stops
#   are included.
#
# - The SUSY decays of the top quark are included.
#
#
#         PDG            Width
DECAY         6     1.40241746E+00   # top decays
#          BR         NDA      ID1       ID2
     1.00000000E+00    2           5        24   # BR(t ->  b    W+)
#
#         PDG            Width
DECAY   1000021     2.18361524E-05   # gluino decays
#          BR         NDA      ID1       ID2
     1.52494454E-05    2     1000022        21   # BR(~g -> ~chi_10 g)
     4.33560173E-03    2     1000023        21   # BR(~g -> ~chi_20 g)
     4.15847678E-03    2     1000025        21   # BR(~g -> ~chi_30 g)
#           BR         NDA      ID1       ID2       ID3
     7.96518559E-02    3     1000022         1        -1   # BR(~g -> ~chi_10 d  db)
     3.48503582E-07    3     1000023         1        -1   # BR(~g -> ~chi_20 d  db)
     1.53597243E-07    3     1000025         1        -1   # BR(~g -> ~chi_30 d  db)
     2.71562334E-01    3     1000022         2        -2   # BR(~g -> ~chi_10 u  ub)
     1.10199089E-06    3     1000023         2        -2   # BR(~g -> ~chi_20 u  ub)
     1.82985810E-07    3     1000025         2        -2   # BR(~g -> ~chi_30 u  ub)
     7.96518559E-02    3     1000022         3        -3   # BR(~g -> ~chi_10 s  sb)
     3.48503582E-07    3     1000023         3        -3   # BR(~g -> ~chi_20 s  sb)
     1.53597243E-07    3     1000025         3        -3   # BR(~g -> ~chi_30 s  sb)
     2.71562334E-01    3     1000022         4        -4   # BR(~g -> ~chi_10 c  cb)
     1.10199089E-06    3     1000023         4        -4   # BR(~g -> ~chi_20 c  cb)
     1.82985810E-07    3     1000025         4        -4   # BR(~g -> ~chi_30 c  cb)
     8.07894261E-02    3     1000022         5        -5   # BR(~g -> ~chi_10 b  bb)
     6.73954061E-05    3     1000023         5        -5   # BR(~g -> ~chi_20 b  bb)
     6.27782490E-05    3     1000025         5        -5   # BR(~g -> ~chi_30 b  bb)
     2.08110061E-01    3     1000022         6        -6   # BR(~g -> ~chi_10 t  tb)
     9.63551460E-07    3     1000024         1        -2   # BR(~g -> ~chi_1+ d  ub)
     9.63551460E-07    3    -1000024         2        -1   # BR(~g -> ~chi_1- u  db)
     9.63551460E-07    3     1000024         3        -4   # BR(~g -> ~chi_1+ s  cb)
     9.63551460E-07    3    -1000024         4        -3   # BR(~g -> ~chi_1- c  sb)
     1.26017315E-05    3     1000024         5        -6   # BR(~g -> ~chi_1+ b  tb)
     1.26017315E-05    3    -1000024         6        -5   # BR(~g -> ~chi_1- t  bb)
#
#         PDG            Width
DECAY   1000006     4.03380111E+02   # stop1 decays
#          BR         NDA      ID1       ID2
     2.18151212E-02    2     1000022         6   # BR(~t_1 -> ~chi_10 t )
     7.50186065E-02    2     1000023         6   # BR(~t_1 -> ~chi_20 t )
     7.20416665E-02    2     1000025         6   # BR(~t_1 -> ~chi_30 t )
     5.23115404E-03    2     1000035         6   # BR(~t_1 -> ~chi_40 t )
     1.08232012E-01    2     1000024         5   # BR(~t_1 -> ~chi_1+ b )
     1.04220243E-02    2     1000037         5   # BR(~t_1 -> ~chi_2+ b )
     7.07239415E-01    2     1000021         6   # BR(~t_1 -> ~g      t )
#
#         PDG            Width
DECAY   2000006     4.05769318E+02   # stop2 decays
#          BR         NDA      ID1       ID2
     8.77638021E-03    2     1000022         6   # BR(~t_2 -> ~chi_10 t )
     7.62707489E-02    2     1000023         6   # BR(~t_2 -> ~chi_20 t )
     7.95124849E-02    2     1000025         6   # BR(~t_2 -> ~chi_30 t )
     1.34982061E-02    2     1000035         6   # BR(~t_2 -> ~chi_40 t )
     4.62464364E-02    2     1000024         5   # BR(~t_2 -> ~chi_1+ b )
     2.68559039E-02    2     1000037         5   # BR(~t_2 -> ~chi_2+ b )
     7.45648055E-01    2     1000021         6   # BR(~t_2 -> ~g      t )
     7.14751035E-04    2     1000006        25   # BR(~t_2 -> ~t_1    h )
     2.47703361E-03    2     1000006        23   # BR(~t_2 -> ~t_1    Z )
#
#         PDG            Width
DECAY   1000005     3.83361600E+02   # sbottom1 decays
#          BR         NDA      ID1       ID2
     2.02223239E-03    2     1000022         5   # BR(~b_1 -> ~chi_10 b )
     2.05858117E-03    2     1000023         5   # BR(~b_1 -> ~chi_20 b )
     2.00199955E-03    2     1000025         5   # BR(~b_1 -> ~chi_30 b )
     1.95594588E-02    2     1000035         5   # BR(~b_1 -> ~chi_40 b )
     1.59899839E-01    2    -1000024         6   # BR(~b_1 -> ~chi_1- t )
     3.92990309E-02    2    -1000037         6   # BR(~b_1 -> ~chi_2- t )
     7.73671880E-01    2     1000021         5   # BR(~b_1 -> ~g      b )
     1.48697902E-03    2     1000006       -24   # BR(~b_1 -> ~t_1    W-)
#
#         PDG            Width
DECAY   2000005     3.05492410E+02   # sbottom2 decays
#          BR         NDA      ID1       ID2
     9.62529487E-03    2     1000022         5   # BR(~b_2 -> ~chi_10 b )
     2.57218289E-03    2     1000023         5   # BR(~b_2 -> ~chi_20 b )
     2.64301094E-03    2     1000025         5   # BR(~b_2 -> ~chi_30 b )
     1.51715583E-04    2     1000035         5   # BR(~b_2 -> ~chi_40 b )
     6.31168413E-03    2    -1000024         6   # BR(~b_2 -> ~chi_1- t )
     3.04780739E-04    2    -1000037         6   # BR(~b_2 -> ~chi_2- t )
     9.78345954E-01    2     1000021         5   # BR(~b_2 -> ~g      b )
     4.53769549E-05    2     1000006       -24   # BR(~b_2 -> ~t_1    W-)
#
#         PDG            Width
DECAY   1000002     3.24408181E+02   # sup_L decays
#          BR         NDA      ID1       ID2
     2.30366871E-03    2     1000022         2   # BR(~u_L -> ~chi_10 u)
     4.81369282E-05    2     1000023         2   # BR(~u_L -> ~chi_20 u)
     4.02316726E-06    2     1000025         2   # BR(~u_L -> ~chi_30 u)
     2.40879748E-02    2     1000035         2   # BR(~u_L -> ~chi_40 u)
     1.64790756E-04    2     1000024         1   # BR(~u_L -> ~chi_1+ d)
     4.81435341E-02    2     1000037         1   # BR(~u_L -> ~chi_2+ d)
     9.25247872E-01    2     1000021         2   # BR(~u_L -> ~g      u)
#
#         PDG            Width
DECAY   2000002     3.10778062E+02   # sup_R decays
#          BR         NDA      ID1       ID2
     3.82682716E-02    2     1000022         2   # BR(~u_R -> ~chi_10 u)
     3.20900314E-05    2     1000023         2   # BR(~u_R -> ~chi_20 u)
     3.82101035E-05    2     1000025         2   # BR(~u_R -> ~chi_30 u)
     2.45412838E-09    2     1000035         2   # BR(~u_R -> ~chi_40 u)
     9.61661426E-01    2     1000021         2   # BR(~u_R -> ~g      u)
#
#         PDG            Width
DECAY   1000001     3.24418277E+02   # sdown_L decays
#          BR         NDA      ID1       ID2
     2.29511835E-03    2     1000022         1   # BR(~d_L -> ~chi_10 d)
     1.73084118E-05    2     1000023         1   # BR(~d_L -> ~chi_20 d)
     2.53736981E-05    2     1000025         1   # BR(~d_L -> ~chi_30 d)
     2.41023229E-02    2     1000035         1   # BR(~d_L -> ~chi_40 d)
     8.24406133E-06    2    -1000024         2   # BR(~d_L -> ~chi_1- u)
     4.82247709E-02    2    -1000037         2   # BR(~d_L -> ~chi_2- u)
     9.25326862E-01    2     1000021         1   # BR(~d_L -> ~g      d)
#
#         PDG            Width
DECAY   2000001     3.01863169E+02   # sdown_R decays
#          BR         NDA      ID1       ID2
     9.85017246E-03    2     1000022         1   # BR(~d_R -> ~chi_10 d)
     8.25998216E-06    2     1000023         1   # BR(~d_R -> ~chi_20 d)
     9.83529067E-06    2     1000025         1   # BR(~d_R -> ~chi_30 d)
     6.31771415E-10    2     1000035         1   # BR(~d_R -> ~chi_40 d)
     9.90131732E-01    2     1000021         1   # BR(~d_R -> ~g      d)
#
#         PDG            Width
DECAY   1000004     3.24408181E+02   # scharm_L decays
#          BR         NDA      ID1       ID2
     2.30366871E-03    2     1000022         4   # BR(~c_L -> ~chi_10 c)
     4.81369282E-05    2     1000023         4   # BR(~c_L -> ~chi_20 c)
     4.02316726E-06    2     1000025         4   # BR(~c_L -> ~chi_30 c)
     2.40879748E-02    2     1000035         4   # BR(~c_L -> ~chi_40 c)
     1.64790756E-04    2     1000024         3   # BR(~c_L -> ~chi_1+ s)
     4.81435341E-02    2     1000037         3   # BR(~c_L -> ~chi_2+ s)
     9.25247872E-01    2     1000021         4   # BR(~c_L -> ~g      c)
#
#         PDG            Width
DECAY   2000004     3.10778062E+02   # scharm_R decays
#          BR         NDA      ID1       ID2
     3.82682716E-02    2     1000022         4   # BR(~c_R -> ~chi_10 c)
     3.20900314E-05    2     1000023         4   # BR(~c_R -> ~chi_20 c)
     3.82101035E-05    2     1000025         4   # BR(~c_R -> ~chi_30 c)
     2.45412838E-09    2     1000035         4   # BR(~c_R -> ~chi_40 c)
     9.61661426E-01    2     1000021         4   # BR(~c_R -> ~g      c)
#
#         PDG            Width
DECAY   1000003     3.24418277E+02   # sstrange_L decays
#          BR         NDA      ID1       ID2
     2.29511835E-03    2     1000022         3   # BR(~s_L -> ~chi_10 s)
     1.73084118E-05    2     1000023         3   # BR(~s_L -> ~chi_20 s)
     2.53736981E-05    2     1000025         3   # BR(~s_L -> ~chi_30 s)
     2.41023229E-02    2     1000035         3   # BR(~s_L -> ~chi_40 s)
     8.24406133E-06    2    -1000024         4   # BR(~s_L -> ~chi_1- c)
     4.82247709E-02    2    -1000037         4   # BR(~s_L -> ~chi_2- c)
     9.25326862E-01    2     1000021         3   # BR(~s_L -> ~g      s)
#
#         PDG            Width
DECAY   2000003     3.01863169E+02   # sstrange_R decays
#          BR         NDA      ID1       ID2
     9.85017246E-03    2     1000022         3   # BR(~s_R -> ~chi_10 s)
     8.25998216E-06    2     1000023         3   # BR(~s_R -> ~chi_20 s)
     9.83529067E-06    2     1000025         3   # BR(~s_R -> ~chi_30 s)
     6.31771415E-10    2     1000035         3   # BR(~s_R -> ~chi_40 s)
     9.90131732E-01    2     1000021         3   # BR(~s_R -> ~g      s)
#
#         PDG            Width
DECAY   1000011     3.02745549E+01   # selectron_L decays
#          BR         NDA      ID1       ID2
     2.26380996E-01    2     1000022        11   # BR(~e_L -> ~chi_10 e-)
     1.03015191E-03    2     1000023        11   # BR(~e_L -> ~chi_20 e-)
     1.14754073E-05    2     1000025        11   # BR(~e_L -> ~chi_30 e-)
     2.57317055E-01    2     1000035        11   # BR(~e_L -> ~chi_40 e-)
     8.99569288E-05    2    -1000024        12   # BR(~e_L -> ~chi_1- nu_e)
     5.15170364E-01    2    -1000037        12   # BR(~e_L -> ~chi_2- nu_e)
#
#         PDG            Width
DECAY   2000011     2.73753624E+01   # selectron_R decays
#          BR         NDA      ID1       ID2
     9.98169397E-01    2     1000022        11   # BR(~e_R -> ~chi_10 e-)
     8.35592618E-04    2     1000023        11   # BR(~e_R -> ~chi_20 e-)
     9.94947508E-04    2     1000025        11   # BR(~e_R -> ~chi_30 e-)
     6.26793842E-08    2     1000035        11   # BR(~e_R -> ~chi_40 e-)
#
#         PDG            Width
DECAY   1000013     3.02745549E+01   # smuon_L decays
#          BR         NDA      ID1       ID2
     2.26380996E-01    2     1000022        13   # BR(~mu_L -> ~chi_10 mu-)
     1.03015191E-03    2     1000023        13   # BR(~mu_L -> ~chi_20 mu-)
     1.14754073E-05    2     1000025        13   # BR(~mu_L -> ~chi_30 mu-)
     2.57317055E-01    2     1000035        13   # BR(~mu_L -> ~chi_40 mu-)
     8.99569288E-05    2    -1000024        14   # BR(~mu_L -> ~chi_1- nu_mu)
     5.15170364E-01    2    -1000037        14   # BR(~mu_L -> ~chi_2- nu_mu)
#
#         PDG            Width
DECAY   2000013     2.73753624E+01   # smuon_R decays
#          BR         NDA      ID1       ID2
     9.98169397E-01    2     1000022        13   # BR(~mu_R -> ~chi_10 mu-)
     8.35592618E-04    2     1000023        13   # BR(~mu_R -> ~chi_20 mu-)
     9.94947508E-04    2     1000025        13   # BR(~mu_R -> ~chi_30 mu-)
     6.26793842E-08    2     1000035        13   # BR(~mu_R -> ~chi_40 mu-)
#
#         PDG            Width
DECAY   1000015     2.91251722E+01   # stau_1 decays
#          BR         NDA      ID1       ID2
     9.29762359E-01    2     1000022        15   # BR(~tau_1 -> ~chi_10  tau-)
     1.56830669E-02    2     1000023        15   # BR(~tau_1 -> ~chi_20  tau-)
     1.49136868E-02    2     1000025        15   # BR(~tau_1 -> ~chi_30  tau-)
     3.35900569E-03    2     1000035        15   # BR(~tau_1 -> ~chi_40  tau-)
     2.95571119E-02    2    -1000024        16   # BR(~tau_1 -> ~chi_1-  nu_tau)
     6.72477009E-03    2    -1000037        16   # BR(~tau_1 -> ~chi_2-  nu_tau)
#
#         PDG            Width
DECAY   2000015     3.10963876E+01   # stau_2 decays
#          BR         NDA      ID1       ID2
     2.28198204E-01    2     1000022        15   # BR(~tau_2 -> ~chi_10  tau-)
     1.47563749E-02    2     1000023        15   # BR(~tau_2 -> ~chi_20  tau-)
     1.45703353E-02    2     1000025        15   # BR(~tau_2 -> ~chi_30  tau-)
     2.47288448E-01    2     1000035        15   # BR(~tau_2 -> ~chi_40  tau-)
     9.39195258E-05    2    -1000024        16   # BR(~tau_2 -> ~chi_1-  nu_tau)
     4.95092718E-01    2    -1000037        16   # BR(~tau_2 -> ~chi_2-  nu_tau)
#
#         PDG            Width
DECAY   1000012     3.02773488E+01   # snu_eL decays
#          BR         NDA      ID1       ID2
     2.26032154E-01    2     1000022        12   # BR(~nu_eL -> ~chi_10 nu_e)
     2.08438889E-05    2     1000023        12   # BR(~nu_eL -> ~chi_20 nu_e)
     7.10152442E-04    2     1000025        12   # BR(~nu_eL -> ~chi_30 nu_e)
     2.57370293E-01    2     1000035        12   # BR(~nu_eL -> ~chi_40 nu_e)
     1.79773029E-03    2     1000024        11   # BR(~nu_eL -> ~chi_1+ e-)
     5.14068826E-01    2     1000037        11   # BR(~nu_eL -> ~chi_2+ e-)
#
#         PDG            Width
DECAY   1000014     3.02773488E+01   # snu_muL decays
#          BR         NDA      ID1       ID2
     2.26032154E-01    2     1000022        14   # BR(~nu_muL -> ~chi_10 nu_mu)
     2.08438889E-05    2     1000023        14   # BR(~nu_muL -> ~chi_20 nu_mu)
     7.10152442E-04    2     1000025        14   # BR(~nu_muL -> ~chi_30 nu_mu)
     2.57370293E-01    2     1000035        14   # BR(~nu_muL -> ~chi_40 nu_mu)
     1.79773029E-03    2     1000024        13   # BR(~nu_muL -> ~chi_1+ mu-)
     5.14068826E-01    2     1000037        13   # BR(~nu_muL -> ~chi_2+ mu-)
#
#         PDG            Width
DECAY   1000016     3.11316468E+01   # snu_tauL decays
#          BR         NDA      ID1       ID2
     2.19805559E-01    2     1000022        16   # BR(~nu_tauL -> ~chi_10 nu_tau)
     2.02693308E-05    2     1000023        16   # BR(~nu_tauL -> ~chi_20 nu_tau)
     6.90577156E-04    2     1000025        16   # BR(~nu_tauL -> ~chi_30 nu_tau)
     2.50214952E-01    2     1000035        16   # BR(~nu_tauL -> ~chi_40 nu_tau)
     2.94922136E-02    2     1000024        15   # BR(~nu_tauL -> ~chi_1+ tau-)
     4.99776429E-01    2     1000037        15   # BR(~nu_tauL -> ~chi_2+ tau-)
#
#         PDG            Width
DECAY   1000024     6.09250427E-01   # chargino1+ decays
#          BR         NDA      ID1       ID2
     1.00000000E+00    2     1000022        24   # BR(~chi_1+ -> ~chi_10  W+)
#
#         PDG            Width
DECAY   1000037     2.04228618E+01   # chargino2+ decays
#          BR         NDA      ID1       ID2
     2.53209424E-01    2     1000024        23   # BR(~chi_2+ -> ~chi_1+  Z )
     1.97873290E-04    2     1000022        24   # BR(~chi_2+ -> ~chi_10  W+)
     2.44181261E-01    2     1000023        24   # BR(~chi_2+ -> ~chi_20  W+)
     2.44132326E-01    2     1000025        24   # BR(~chi_2+ -> ~chi_30  W+)
     2.58277944E-01    2     1000024        25   # BR(~chi_2+ -> ~chi_1+  h )
     1.17177892E-06    2     1000022        37   # BR(~chi_2+ -> ~chi_10  H+)
#
#         PDG            Width
DECAY   1000022     0.00000000E+00   # neutralino1 decays
#
#         PDG            Width
DECAY   1000023     6.36243874E-01   # neutralino2 decays
#          BR         NDA      ID1       ID2
     5.40224358E-01    2     1000022        23   # BR(~chi_20 -> ~chi_10   Z )
     4.59775642E-01    2     1000022        25   # BR(~chi_20 -> ~chi_10   h )
#
#         PDG            Width
DECAY   1000025     6.39282330E-01   # neutralino3 decays
#          BR         NDA      ID1       ID2
     4.50365524E-01    2     1000022        23   # BR(~chi_30 -> ~chi_10   Z )
     5.49634476E-01    2     1000022        25   # BR(~chi_30 -> ~chi_10   h )
#
#         PDG            Width
DECAY   1000035     2.04378663E+01   # neutralino4 decays
#          BR         NDA      ID1       ID2
     4.77573232E-05    2     1000022        23   # BR(~chi_40 -> ~chi_10   Z )
     7.27243769E-02    2     1000023        23   # BR(~chi_40 -> ~chi_20   Z )
     1.79771321E-01    2     1000025        23   # BR(~chi_40 -> ~chi_30   Z )
     2.44811658E-01    2     1000024       -24   # BR(~chi_40 -> ~chi_1+   W-)
     2.44811658E-01    2    -1000024        24   # BR(~chi_40 -> ~chi_1-   W+)
     1.51032719E-04    2     1000022        25   # BR(~chi_40 -> ~chi_10   h )
     1.09499622E-06    2     1000022        35   # BR(~chi_40 -> ~chi_10   H )
     1.34474929E-07    2     1000022        36   # BR(~chi_40 -> ~chi_10   A )
     1.84783903E-01    2     1000023        25   # BR(~chi_40 -> ~chi_20   h )
     7.28970637E-02    2     1000025        25   # BR(~chi_40 -> ~chi_30   h )
#
#         PDG            Width
DECAY        25     4.03123315E-03   # h decays
#          BR         NDA      ID1       ID2
     6.14443027E-01    2           5        -5   # BR(h -> b       bb     )
     6.41770905E-02    2         -15        15   # BR(h -> tau+    tau-   )
     2.27211629E-04    2         -13        13   # BR(h -> mu+     mu-    )
     4.81912043E-04    2           3        -3   # BR(h -> s       sb     )
     2.08825244E-02    2           4        -4   # BR(h -> c       cb     )
     6.71869741E-02    2          21        21   # BR(h -> g       g      )
     2.30277706E-03    2          22        22   # BR(h -> gam     gam    )
     1.45839030E-03    2          22        23   # BR(h -> Z       gam    )
     2.04549888E-01    2          24       -24   # BR(h -> W+      W-     )
     2.42391996E-02    2          23        23   # BR(h -> Z       Z      )
     5.10049033E-05    2     1000022   1000022   # BR(h -> ~chi_10 ~chi_10)
#
#         PDG            Width
DECAY        35     8.10116716E+00   # H decays
#          BR         NDA      ID1       ID2
     3.98360638E-01    2           5        -5   # BR(H -> b       bb     )
     6.88138714E-02    2         -15        15   # BR(H -> tau+    tau-   )
     2.43331315E-04    2         -13        13   # BR(H -> mu+     mu-    )
     2.98286962E-04    2           3        -3   # BR(H -> s       sb     )
     1.66633274E-06    2           4        -4   # BR(H -> c       cb     )
     1.66479837E-01    2           6        -6   # BR(H -> t       tb     )
     5.52981294E-05    2          21        21   # BR(H -> g       g      )
     2.68727389E-07    2          22        22   # BR(H -> gam     gam    )
     9.82172052E-08    2          23        22   # BR(H -> Z       gam    )
     7.61382121E-05    2          24       -24   # BR(H -> W+      W-     )
     3.80209121E-05    2          23        23   # BR(H -> Z       Z      )
     2.84496894E-04    2          25        25   # BR(H -> h       h      )
     1.12896407E-23    2          36        36   # BR(H -> A       A      )
     7.93750374E-19    2          23        36   # BR(H -> Z       A      )
     1.97581007E-03    2     1000024  -1000024   # BR(H -> ~chi_1+ ~chi_1-)
     1.78318310E-03    2     1000022   1000022   # BR(H -> ~chi_10 ~chi_10)
     3.94879973E-05    2     1000023   1000023   # BR(H -> ~chi_20 ~chi_20)
     5.44421232E-04    2     1000025   1000025   # BR(H -> ~chi_30 ~chi_30)
     2.16505233E-01    2     1000022   1000023   # BR(H -> ~chi_10 ~chi_20)
     1.43987094E-01    2     1000022   1000025   # BR(H -> ~chi_10 ~chi_30)
     5.12817837E-04    2     1000023   1000025   # BR(H -> ~chi_20 ~chi_30)
#
#         PDG            Width
DECAY        36     8.11750900E+00   # A decays
#          BR         NDA      ID1       ID2
     3.97693529E-01    2           5        -5   # BR(A -> b       bb     )
     6.86773809E-02    2         -15        15   # BR(A -> tau+    tau-   )
     2.42848335E-04    2         -13        13   # BR(A -> mu+     mu-    )
     2.97912327E-04    2           3        -3   # BR(A -> s       sb     )
     1.66981825E-06    2           4        -4   # BR(A -> c       cb     )
     1.66736022E-01    2           6        -6   # BR(A -> t       tb     )
     1.65045303E-04    2          21        21   # BR(A -> g       g      )
     5.74570313E-07    2          22        22   # BR(A -> gam     gam    )
     1.99774770E-07    2          23        22   # BR(A -> Z       gam    )
     7.56996514E-05    2          23        25   # BR(A -> Z       h      )
     3.22910092E-03    2     1000024  -1000024   # BR(A -> ~chi_1+ ~chi_1-)
     1.81599390E-03    2     1000022   1000022   # BR(A -> ~chi_10 ~chi_10)
     4.63855448E-05    2     1000023   1000023   # BR(A -> ~chi_20 ~chi_20)
     1.50061595E-03    2     1000025   1000025   # BR(A -> ~chi_30 ~chi_30)
     1.45757827E-01    2     1000022   1000023   # BR(A -> ~chi_10 ~chi_20)
     2.13612819E-01    2     1000022   1000025   # BR(A -> ~chi_10 ~chi_30)
     1.46377006E-04    2     1000023   1000025   # BR(A -> ~chi_20 ~chi_30)
#
#         PDG            Width
DECAY        37     8.06151107E+00   # H+ decays
#          BR         NDA      ID1       ID2
     6.38158054E-04    2           4        -5   # BR(H+ -> c       bb     )
     6.91801782E-02    2         -15        16   # BR(H+ -> tau+    nu_tau )
     2.44626263E-04    2         -13        14   # BR(H+ -> mu+     nu_mu  )
     4.08419032E-06    2           2        -5   # BR(H+ -> u       bb     )
     1.43540096E-05    2           2        -3   # BR(H+ -> u       sb     )
     2.96839710E-04    2           4        -3   # BR(H+ -> c       sb     )
     5.63249727E-01    2           6        -5   # BR(H+ -> t       bb     )
     7.63596976E-05    2          24        25   # BR(H+ -> W+      h      )
     2.83072187E-13    2          24        36   # BR(H+ -> W+      A      )
     3.65385474E-01    2     1000024   1000022   # BR(H+ -> ~chi_1+ ~chi_10)
     8.77335630E-04    2     1000024   1000023   # BR(H+ -> ~chi_1+ ~chi_20)
     3.28625211E-05    2     1000024   1000025   # BR(H+ -> ~chi_1+ ~chi_30)
