#
#                              ======================
#                              | THE SUSYHIT OUTPUT |
#                              ======================
#
#
#              ------------------------------------------------------
#              |     This is the output of the SUSY-HIT package     |
#              |  created by A.Djouadi, M.Muehlleitner and M.Spira. |
#              |  In case of problems with SUSY-HIT email to        |
#              |           margarete.muehlleitner@cern.ch           |
#              |           michael.spira@psi.ch                     |
#              |           abdelhak.djouadi@cern.ch                 |
#              ------------------------------------------------------
#
#              ------------------------------------------------------
#              |  SUSY Les Houches Accord - MSSM Spectrum + Decays  |
#              |              based on the decay programs           |
#              |                                                    |
#              |                     SDECAY 1.3b                    |
#              |                                                    |
#              |  Authors: M.Muhlleitner, A.Djouadi and Y.Mambrini  |
#              |  Ref.:    Comput.Phys.Commun.168(2005)46           |
#              |           [hep-ph/0311167]                         |
#              |                                                    |
#              |                     HDECAY 3.4                     |
#              |                                                    |
#              |  By: A.Djouadi,J.Kalinowski,M.Muhlleitner,M.Spira  |
#              |  Ref.:    Comput.Phys.Commun.108(1998)56           |
#              |           [hep-ph/9704448]                         |
#              |                                                    |
#              |                                                    |
#              |  If not stated otherwise all DRbar couplings and   |
#              |  soft SUSY breaking masses are given at the scale  |
#              |  Q=  0.50007479E+04
#              |                                                    |
#              ------------------------------------------------------
#
#
BLOCK DCINFO  # Decay Program information
     1   SDECAY/HDECAY # decay calculator
     2   1.3b  /3.4    # version number
#
BLOCK SPINFO  # Spectrum calculator information
     1    SOFTSUSY    # spectrum calculator                
     2    3.4.0       # version number                     
#
BLOCK MODSEL  # Model selection
     1     0   #  nonUniversal                                     
#
BLOCK SMINPUTS  # Standard Model inputs
         1     1.25778332E+02   # alpha_em^-1(M_Z)^MSbar
         2     1.16570000E-05   # G_F [GeV^-2]
         3     1.17200002E-01   # alpha_S(M_Z)^MSbar
         4     9.11876000E+01   # M_Z pole mass
         5     4.25000000E+00   # mb(mb)^MSbar
         6     1.72500000E+02   # mt pole mass
         7     1.77682000E+00   # mtau pole mass
#
BLOCK MINPAR  # Input parameters - minimal models
         3     1.00000000E+01   # tanb                
#
BLOCK EXTPAR  # Input parameters - non-minimal models
         0    -1.00000000E+00   # Set                 
         1     6.00000000E+01   # M_1(MX)             
         2     3.00000000E+03   # M_2(MX)             
         3     2.62338800E+03   # M_3(MX)             
        11     5.00000000E+03   # At(MX)              
        12     5.00000000E+03   # Ab(MX)              
        13     0.00000000E+00   # Atau(MX)            
        23    -8.61787000E+02   # mu(MX)              
        26     3.00000000E+03   # mA(pole)            
        31     5.00000000E+03   # meL(MX)             
        32     5.00000000E+03   # mmuL(MX)            
        33     5.00000000E+03   # mtauL(MX)           
        34     5.00000000E+03   # meR(MX)             
        35     5.00000000E+03   # mmuR(MX)            
        36     5.00000000E+03   # mtauR(MX)           
        41     5.00000000E+03   # mqL1(MX)            
        42     5.00000000E+03   # mqL2(MX)            
        43     5.00000000E+03   # mqL3(MX)            
        44     5.00000000E+03   # muR(MX)             
        45     5.00000000E+03   # mcR(MX)             
        46     5.00000000E+03   # mtR(MX)             
        47     5.00000000E+03   # mdR(MX)             
        48     5.00000000E+03   # msR(MX)             
        49     5.00000000E+03   # mbR(MX)             
#
BLOCK MASS  # Mass Spectrum
# PDG code           mass       particle
        24     8.00951482E+01   # W+
        25     1.24808768E+02   # h
        35     3.00007961E+03   # H
        36     2.99998969E+03   # A
        37     3.00141265E+03   # H+
         5     4.87878001E+00   # b-quark pole mass calculated from mb(mb)_Msbar
   1000001     5.09119876E+03   # ~d_L
   2000001     5.07346399E+03   # ~d_R
   1000002     5.09073078E+03   # ~u_L
   2000002     5.07317799E+03   # ~u_R
   1000003     5.09119876E+03   # ~s_L
   2000003     5.07346399E+03   # ~s_R
   1000004     5.09073078E+03   # ~c_L
   2000004     5.07317799E+03   # ~c_R
   1000005     5.03694932E+03   # ~b_1
   2000005     5.07187590E+03   # ~b_2
   1000006     4.92979821E+03   # ~t_1
   2000006     5.07994716E+03   # ~t_2
   1000011     5.01907228E+03   # ~e_L
   2000011     5.00592722E+03   # ~e_R
   1000012     5.01812363E+03   # ~nu_eL
   1000013     5.01907228E+03   # ~mu_L
   2000013     5.00592722E+03   # ~mu_R
   1000014     5.01812363E+03   # ~nu_muL
   1000015     5.00465102E+03   # ~tau_1
   2000015     5.01872579E+03   # ~tau_2
   1000016     5.01757643E+03   # ~nu_tauL
   1000021     3.00000012E+03   # ~g
   1000022     6.02946174E+01   # ~chi_10
   1000023     8.99734344E+02   # ~chi_20
   1000025    -9.01972670E+02   # ~chi_30
   1000035     3.07421893E+03   # ~chi_40
   1000024     9.00000160E+02   # ~chi_1+
   1000037     3.07438638E+03   # ~chi_2+
#
BLOCK NMIX  # Neutralino Mixing Matrix
  1  1     9.98775571E-01   # N_11
  1  2     1.96012934E-04   # N_12
  1  3    -4.94361411E-02   # N_13
  1  4     1.84073388E-03   # N_14
  2  1     3.36667344E-02   # N_21
  2  2     2.24239901E-02   # N_22
  2  3     7.06575185E-01   # N_23
  2  4     7.06480873E-01   # N_24
  3  1    -3.62457227E-02   # N_31
  3  2     1.52897534E-02   # N_32
  3  3    -7.05891025E-01   # N_33
  3  4     7.07227214E-01   # N_34
  4  1    -3.96673416E-04   # N_41
  4  2     9.99631607E-01   # N_42
  4  3    -5.04350308E-03   # N_43
  4  4    -2.66656340E-02   # N_44
#
BLOCK UMIX  # Chargino Mixing Matrix U
  1  1     7.14496901E-03   # U_11
  1  2     9.99974474E-01   # U_12
  2  1    -9.99974474E-01   # U_21
  2  2     7.14496901E-03   # U_22
#
BLOCK VMIX  # Chargino Mixing Matrix V
  1  1     3.77402408E-02   # V_11
  1  2    -9.99287583E-01   # V_12
  2  1    -9.99287583E-01   # V_21
  2  2    -3.77402408E-02   # V_22
#
BLOCK STOPMIX  # Stop Mixing Matrix
  1  1    -5.02147629E-01   # cos(theta_t)
  1  2     8.64781914E-01   # sin(theta_t)
  2  1    -8.64781914E-01   # -sin(theta_t)
  2  2    -5.02147629E-01   # cos(theta_t)
#
BLOCK SBOTMIX  # Sbottom Mixing Matrix
  1  1     9.97527180E-01   # cos(theta_b)
  1  2    -7.02817555E-02   # sin(theta_b)
  2  1     7.02817555E-02   # -sin(theta_b)
  2  2     9.97527180E-01   # cos(theta_b)
#
BLOCK STAUMIX  # Stau Mixing Matrix
  1  1    -1.02703448E-01   # cos(theta_tau)
  1  2     9.94712020E-01   # sin(theta_tau)
  2  1    -9.94712020E-01   # -sin(theta_tau)
  2  2    -1.02703448E-01   # cos(theta_tau)
#
BLOCK ALPHA  # Higgs mixing
          -1.05484515E-01   # Mixing angle in the neutral Higgs boson sector
#
BLOCK HMIX Q=  5.00074793E+03  # DRbar Higgs Parameters
         1    -8.77650189E+02   # mu(Q)MSSM           
         2     9.46900431E+00   # tan                 
         3     2.41842629E+02   # higgs               
         4     8.54754331E+06   # mA^2(Q)MSSM         
#
BLOCK GAUGE Q=  5.00074793E+03  # The gauge couplings
     1     3.70801127E-01   # gprime(Q) DRbar
     2     6.32603796E-01   # g(Q) DRbar
     3     9.92479599E-01   # g3(Q) DRbar
#
BLOCK AU Q=  5.00074793E+03  # The trilinear couplings
  1  1     5.00000002E+03   # A_u(Q) DRbar
  2  2     5.00000002E+03   # A_c(Q) DRbar
  3  3     5.00000003E+03   # A_t(Q) DRbar
#
BLOCK AD Q=  5.00074793E+03  # The trilinear couplings
  1  1     5.00000001E+03   # A_d(Q) DRbar
  2  2     5.00000001E+03   # A_s(Q) DRbar
  3  3     5.00000001E+03   # A_b(Q) DRbar
#
BLOCK AE Q=  5.00074793E+03  # The trilinear couplings
  1  1     0.00000000E+00   # A_e(Q) DRbar
  2  2     3.22997964E-07   # A_mu(Q) DRbar
  3  3     3.23220454E-07   # A_tau(Q) DRbar
#
BLOCK Yu Q=  5.00074793E+03  # The Yukawa couplings
  1  1     0.00000000E+00   # y_u(Q) DRbar
  2  2     0.00000000E+00   # y_c(Q) DRbar
  3  3     8.21637127E-01   # y_t(Q) DRbar
#
BLOCK Yd Q=  5.00074793E+03  # The Yukawa couplings
  1  1     0.00000000E+00   # y_d(Q) DRbar
  2  2     0.00000000E+00   # y_s(Q) DRbar
  3  3     1.31054902E-01   # y_b(Q) DRbar
#
BLOCK Ye Q=  5.00074793E+03  # The Yukawa couplings
  1  1     0.00000000E+00   # y_e(Q) DRbar
  2  2     0.00000000E+00   # y_mu(Q) DRbar
  3  3     9.68961066E-02   # y_tau(Q) DRbar
#
BLOCK MSOFT Q=  5.00074793E+03  # The soft SUSY breaking masses at the scale Q
         1     6.00000000E+01   # M_1(Q)              
         2     3.00000000E+03   # M_2(Q)              
         3     2.62338800E+03   # M_3(Q)              
        21     7.93299168E+06   # mH1^2(Q)            
        22    -1.99601526E+05   # mH2^2(Q)            
        31     5.00000000E+03   # meL(Q)              
        32     5.00000000E+03   # mmuL(Q)             
        33     5.00000000E+03   # mtauL(Q)            
        34     5.00000000E+03   # meR(Q)              
        35     5.00000000E+03   # mmuR(Q)             
        36     5.00000000E+03   # mtauR(Q)            
        41     4.99999999E+03   # mqL1(Q)             
        42     4.99999999E+03   # mqL2(Q)             
        43     4.99999999E+03   # mqL3(Q)             
        44     4.99999999E+03   # muR(Q)              
        45     4.99999999E+03   # mcR(Q)              
        46     4.99999999E+03   # mtR(Q)              
        47     4.99999999E+03   # mdR(Q)              
        48     4.99999999E+03   # msR(Q)              
        49     4.99999999E+03   # mbR(Q)              
#
#
#
#                             =================
#                             |The decay table|
#                             =================
#
# - The QCD corrections to the decays gluino -> squark  + quark
#                                     squark -> gaugino + quark_prime
#                                     squark -> squark_prime + Higgs
#                                     squark -> gluino  + quark
#   are included.
#
# - The multi-body decays for the inos, stops and sbottoms are included.
#
# - The loop induced decays for the gluino, neutralinos and stops
#   are included.
#
# - The SUSY decays of the top quark are included.
#
#
#         PDG            Width
DECAY         6     1.40238652E+00   # top decays
#          BR         NDA      ID1       ID2
     1.00000000E+00    2           5        24   # BR(t ->  b    W+)
#
#         PDG            Width
DECAY   1000021     1.50048424E-02   # gluino decays
#          BR         NDA      ID1       ID2
     1.09625719E-06    2     1000022        21   # BR(~g -> ~chi_10 g)
     3.28820106E-03    2     1000023        21   # BR(~g -> ~chi_20 g)
     3.22952289E-03    2     1000025        21   # BR(~g -> ~chi_30 g)
#           BR         NDA      ID1       ID2       ID3
     1.36690088E-02    3     1000022         1        -1   # BR(~g -> ~chi_10 d  db)
     2.17929779E-05    3     1000023         1        -1   # BR(~g -> ~chi_20 d  db)
     1.75170734E-05    3     1000025         1        -1   # BR(~g -> ~chi_30 d  db)
     4.66193467E-02    3     1000022         2        -2   # BR(~g -> ~chi_10 u  ub)
     7.88697586E-05    3     1000023         2        -2   # BR(~g -> ~chi_20 u  ub)
     2.19805113E-05    3     1000025         2        -2   # BR(~g -> ~chi_30 u  ub)
     1.36690088E-02    3     1000022         3        -3   # BR(~g -> ~chi_10 s  sb)
     2.17929779E-05    3     1000023         3        -3   # BR(~g -> ~chi_20 s  sb)
     1.75170734E-05    3     1000025         3        -3   # BR(~g -> ~chi_30 s  sb)
     4.66193467E-02    3     1000022         4        -4   # BR(~g -> ~chi_10 c  cb)
     7.88697586E-05    3     1000023         4        -4   # BR(~g -> ~chi_20 c  cb)
     2.19805113E-05    3     1000025         4        -4   # BR(~g -> ~chi_30 c  cb)
     1.38868053E-02    3     1000022         5        -5   # BR(~g -> ~chi_10 b  bb)
     5.06580810E-03    3     1000023         5        -5   # BR(~g -> ~chi_20 b  bb)
     5.02909358E-03    3     1000025         5        -5   # BR(~g -> ~chi_30 b  bb)
     4.89351768E-02    3     1000022         6        -6   # BR(~g -> ~chi_10 t  tb)
     1.99103019E-01    3     1000023         6        -6   # BR(~g -> ~chi_20 t  tb)
     1.90125612E-01    3     1000025         6        -6   # BR(~g -> ~chi_30 t  tb)
     6.30805295E-05    3     1000024         1        -2   # BR(~g -> ~chi_1+ d  ub)
     6.30805295E-05    3    -1000024         2        -1   # BR(~g -> ~chi_1- u  db)
     6.30805295E-05    3     1000024         3        -4   # BR(~g -> ~chi_1+ s  cb)
     6.30805295E-05    3    -1000024         4        -3   # BR(~g -> ~chi_1- c  sb)
     2.05113155E-01    3     1000024         5        -6   # BR(~g -> ~chi_1+ b  tb)
     2.05113155E-01    3    -1000024         6        -5   # BR(~g -> ~chi_1- t  bb)
#
#         PDG            Width
DECAY   1000006     2.46278705E+02   # stop1 decays
#          BR         NDA      ID1       ID2
     3.62462557E-02    2     1000022         6   # BR(~t_1 -> ~chi_10 t )
     1.25293846E-01    2     1000023         6   # BR(~t_1 -> ~chi_20 t )
     1.20342410E-01    2     1000025         6   # BR(~t_1 -> ~chi_30 t )
     8.18528524E-03    2     1000035         6   # BR(~t_1 -> ~chi_40 t )
     1.85027410E-01    2     1000024         5   # BR(~t_1 -> ~chi_1+ b )
     1.63102579E-02    2     1000037         5   # BR(~t_1 -> ~chi_2+ b )
     5.08594535E-01    2     1000021         6   # BR(~t_1 -> ~g      t )
#
#         PDG            Width
DECAY   2000006     2.55450902E+02   # stop2 decays
#          BR         NDA      ID1       ID2
     1.31531503E-02    2     1000022         6   # BR(~t_2 -> ~chi_10 t )
     1.23535085E-01    2     1000023         6   # BR(~t_2 -> ~chi_20 t )
     1.28820102E-01    2     1000025         6   # BR(~t_2 -> ~chi_30 t )
     2.23300744E-02    2     1000035         6   # BR(~t_2 -> ~chi_40 t )
     7.07541152E-02    2     1000024         5   # BR(~t_2 -> ~chi_1+ b )
     4.44383355E-02    2     1000037         5   # BR(~t_2 -> ~chi_2+ b )
     5.92376887E-01    2     1000021         6   # BR(~t_2 -> ~g      t )
     1.04612891E-03    2     1000006        25   # BR(~t_2 -> ~t_1    h )
     3.54612195E-03    2     1000006        23   # BR(~t_2 -> ~t_1    Z )
#
#         PDG            Width
DECAY   1000005     2.29976574E+02   # sbottom1 decays
#          BR         NDA      ID1       ID2
     3.34150246E-03    2     1000022         5   # BR(~b_1 -> ~chi_10 b )
     3.50738763E-03    2     1000023         5   # BR(~b_1 -> ~chi_20 b )
     3.43265023E-03    2     1000025         5   # BR(~b_1 -> ~chi_30 b )
     3.32002578E-02    2     1000035         5   # BR(~b_1 -> ~chi_40 b )
     2.72217431E-01    2    -1000024         6   # BR(~b_1 -> ~chi_1- t )
     6.66933018E-02    2    -1000037         6   # BR(~b_1 -> ~chi_2- t )
     6.15314499E-01    2     1000021         5   # BR(~b_1 -> ~g      b )
     2.29296925E-03    2     1000006       -24   # BR(~b_1 -> ~t_1    W-)
#
#         PDG            Width
DECAY   2000005     1.51064052E+02   # sbottom2 decays
#          BR         NDA      ID1       ID2
     1.93881495E-02    2     1000022         5   # BR(~b_2 -> ~chi_10 b )
     5.35580224E-03    2     1000023         5   # BR(~b_2 -> ~chi_20 b )
     5.47958034E-03    2     1000025         5   # BR(~b_2 -> ~chi_30 b )
     2.40195741E-04    2     1000035         5   # BR(~b_2 -> ~chi_40 b )
     1.25464680E-02    2    -1000024         6   # BR(~b_2 -> ~chi_1- t )
     4.82487334E-04    2    -1000037         6   # BR(~b_2 -> ~chi_2- t )
     9.56430614E-01    2     1000021         5   # BR(~b_2 -> ~g      b )
     7.67029434E-05    2     1000006       -24   # BR(~b_2 -> ~t_1    W-)
#
#         PDG            Width
DECAY   1000002     1.70720720E+02   # sup_L decays
#          BR         NDA      ID1       ID2
     4.35495682E-03    2     1000022         2   # BR(~u_L -> ~chi_10 u)
     9.03662391E-05    2     1000023         2   # BR(~u_L -> ~chi_20 u)
     7.23575401E-06    2     1000025         2   # BR(~u_L -> ~chi_30 u)
     4.65311227E-02    2     1000035         2   # BR(~u_L -> ~chi_40 u)
     3.06038394E-04    2     1000024         1   # BR(~u_L -> ~chi_1+ d)
     9.30011058E-02    2     1000037         1   # BR(~u_L -> ~chi_2+ d)
     8.55709174E-01    2     1000021         2   # BR(~u_L -> ~g      u)
#
#         PDG            Width
DECAY   2000002     1.56368839E+02   # sup_R decays
#          BR         NDA      ID1       ID2
     7.56533831E-02    2     1000022         2   # BR(~u_R -> ~chi_10 u)
     8.08840144E-05    2     1000023         2   # BR(~u_R -> ~chi_20 u)
     9.37208834E-05    2     1000025         2   # BR(~u_R -> ~chi_30 u)
     4.83151947E-09    2     1000035         2   # BR(~u_R -> ~chi_40 u)
     9.24172007E-01    2     1000021         2   # BR(~u_R -> ~g      u)
#
#         PDG            Width
DECAY   1000001     1.70738065E+02   # sdown_L decays
#          BR         NDA      ID1       ID2
     4.33746306E-03    2     1000022         1   # BR(~d_L -> ~chi_10 d)
     2.69772312E-05    2     1000023         1   # BR(~d_L -> ~chi_20 d)
     5.37539870E-05    2     1000025         1   # BR(~d_L -> ~chi_30 d)
     4.65548793E-02    2     1000035         1   # BR(~d_L -> ~chi_40 d)
     1.09690502E-05    2    -1000024         2   # BR(~d_L -> ~chi_1- u)
     9.31476625E-02    2    -1000037         2   # BR(~d_L -> ~chi_2- u)
     8.55868295E-01    2     1000021         1   # BR(~d_L -> ~g      d)
#
#         PDG            Width
DECAY   2000001     1.47501829E+02   # sdown_R decays
#          BR         NDA      ID1       ID2
     2.00514737E-02    2     1000022         1   # BR(~d_R -> ~chi_10 d)
     2.14379703E-05    2     1000023         1   # BR(~d_R -> ~chi_20 d)
     2.48403297E-05    2     1000025         1   # BR(~d_R -> ~chi_30 d)
     1.28072994E-09    2     1000035         1   # BR(~d_R -> ~chi_40 d)
     9.79902247E-01    2     1000021         1   # BR(~d_R -> ~g      d)
#
#         PDG            Width
DECAY   1000004     1.70720720E+02   # scharm_L decays
#          BR         NDA      ID1       ID2
     4.35495682E-03    2     1000022         4   # BR(~c_L -> ~chi_10 c)
     9.03662391E-05    2     1000023         4   # BR(~c_L -> ~chi_20 c)
     7.23575401E-06    2     1000025         4   # BR(~c_L -> ~chi_30 c)
     4.65311227E-02    2     1000035         4   # BR(~c_L -> ~chi_40 c)
     3.06038394E-04    2     1000024         3   # BR(~c_L -> ~chi_1+ s)
     9.30011058E-02    2     1000037         3   # BR(~c_L -> ~chi_2+ s)
     8.55709174E-01    2     1000021         4   # BR(~c_L -> ~g      c)
#
#         PDG            Width
DECAY   2000004     1.56368839E+02   # scharm_R decays
#          BR         NDA      ID1       ID2
     7.56533831E-02    2     1000022         4   # BR(~c_R -> ~chi_10 c)
     8.08840144E-05    2     1000023         4   # BR(~c_R -> ~chi_20 c)
     9.37208834E-05    2     1000025         4   # BR(~c_R -> ~chi_30 c)
     4.83151947E-09    2     1000035         4   # BR(~c_R -> ~chi_40 c)
     9.24172007E-01    2     1000021         4   # BR(~c_R -> ~g      c)
#
#         PDG            Width
DECAY   1000003     1.70738065E+02   # sstrange_L decays
#          BR         NDA      ID1       ID2
     4.33746306E-03    2     1000022         3   # BR(~s_L -> ~chi_10 s)
     2.69772312E-05    2     1000023         3   # BR(~s_L -> ~chi_20 s)
     5.37539870E-05    2     1000025         3   # BR(~s_L -> ~chi_30 s)
     4.65548793E-02    2     1000035         3   # BR(~s_L -> ~chi_40 s)
     1.09690502E-05    2    -1000024         4   # BR(~s_L -> ~chi_1- c)
     9.31476625E-02    2    -1000037         4   # BR(~s_L -> ~chi_2- c)
     8.55868295E-01    2     1000021         3   # BR(~s_L -> ~g      s)
#
#         PDG            Width
DECAY   2000003     1.47501829E+02   # sstrange_R decays
#          BR         NDA      ID1       ID2
     2.00514737E-02    2     1000022         3   # BR(~s_R -> ~chi_10 s)
     2.14379703E-05    2     1000023         3   # BR(~s_R -> ~chi_20 s)
     2.48403297E-05    2     1000025         3   # BR(~s_R -> ~chi_30 s)
     1.28072994E-09    2     1000035         3   # BR(~s_R -> ~chi_40 s)
     9.79902247E-01    2     1000021         3   # BR(~s_R -> ~g      s)
#
#         PDG            Width
DECAY   1000011     3.02751177E+01   # selectron_L decays
#          BR         NDA      ID1       ID2
     2.26266929E-01    2     1000022        11   # BR(~e_L -> ~chi_10 e-)
     1.09871719E-03    2     1000023        11   # BR(~e_L -> ~chi_20 e-)
     2.19206143E-05    2     1000025        11   # BR(~e_L -> ~chi_30 e-)
     2.57341308E-01    2     1000035        11   # BR(~e_L -> ~chi_40 e-)
     6.31167084E-05    2    -1000024        12   # BR(~e_L -> ~chi_1- nu_e)
     5.15208009E-01    2    -1000037        12   # BR(~e_L -> ~chi_2- nu_e)
#
#         PDG            Width
DECAY   2000011     2.73736841E+01   # selectron_R decays
#          BR         NDA      ID1       ID2
     9.97707682E-01    2     1000022        11   # BR(~e_R -> ~chi_10 e-)
     1.06187445E-03    2     1000023        11   # BR(~e_R -> ~chi_20 e-)
     1.23038281E-03    2     1000025        11   # BR(~e_R -> ~chi_30 e-)
     6.10721344E-08    2     1000035        11   # BR(~e_R -> ~chi_40 e-)
#
#         PDG            Width
DECAY   1000013     3.02751177E+01   # smuon_L decays
#          BR         NDA      ID1       ID2
     2.26266929E-01    2     1000022        13   # BR(~mu_L -> ~chi_10 mu-)
     1.09871719E-03    2     1000023        13   # BR(~mu_L -> ~chi_20 mu-)
     2.19206143E-05    2     1000025        13   # BR(~mu_L -> ~chi_30 mu-)
     2.57341308E-01    2     1000035        13   # BR(~mu_L -> ~chi_40 mu-)
     6.31167084E-05    2    -1000024        14   # BR(~mu_L -> ~chi_1- nu_mu)
     5.15208009E-01    2    -1000037        14   # BR(~mu_L -> ~chi_2- nu_mu)
#
#         PDG            Width
DECAY   2000013     2.73736841E+01   # smuon_R decays
#          BR         NDA      ID1       ID2
     9.97707682E-01    2     1000022        13   # BR(~mu_R -> ~chi_10 mu-)
     1.06187445E-03    2     1000023        13   # BR(~mu_R -> ~chi_20 mu-)
     1.23038281E-03    2     1000025        13   # BR(~mu_R -> ~chi_30 mu-)
     6.10721344E-08    2     1000035        13   # BR(~mu_R -> ~chi_40 mu-)
#
#         PDG            Width
DECAY   1000015     2.91450672E+01   # stau_1 decays
#          BR         NDA      ID1       ID2
     9.30372710E-01    2     1000022        15   # BR(~tau_1 -> ~chi_10  tau-)
     1.60462251E-02    2     1000023        15   # BR(~tau_1 -> ~chi_20  tau-)
     1.53741049E-02    2     1000025        15   # BR(~tau_1 -> ~chi_30  tau-)
     2.73336265E-03    2     1000035        15   # BR(~tau_1 -> ~chi_40  tau-)
     3.00015219E-02    2    -1000024        16   # BR(~tau_1 -> ~chi_1-  nu_tau)
     5.47207538E-03    2    -1000037        16   # BR(~tau_1 -> ~chi_2-  nu_tau)
#
#         PDG            Width
DECAY   2000015     3.11178247E+01   # stau_2 decays
#          BR         NDA      ID1       ID2
     2.26335921E-01    2     1000022        15   # BR(~tau_2 -> ~chi_10  tau-)
     1.51061748E-02    2     1000023        15   # BR(~tau_2 -> ~chi_20  tau-)
     1.47757563E-02    2     1000025        15   # BR(~tau_2 -> ~chi_30  tau-)
     2.47728787E-01    2     1000035        15   # BR(~tau_2 -> ~chi_40  tau-)
     8.94450517E-05    2    -1000024        16   # BR(~tau_2 -> ~chi_1-  nu_tau)
     4.95963916E-01    2    -1000037        16   # BR(~tau_2 -> ~chi_2-  nu_tau)
#
#         PDG            Width
DECAY   1000012     3.02780250E+01   # snu_eL decays
#          BR         NDA      ID1       ID2
     2.25899673E-01    2     1000022        12   # BR(~nu_eL -> ~chi_10 nu_e)
     4.47269144E-06    2     1000023        12   # BR(~nu_eL -> ~chi_20 nu_e)
     8.24660907E-04    2     1000025        12   # BR(~nu_eL -> ~chi_30 nu_e)
     2.57390519E-01    2     1000035        12   # BR(~nu_eL -> ~chi_40 nu_e)
     1.76042801E-03    2     1000024        11   # BR(~nu_eL -> ~chi_1+ e-)
     5.14120246E-01    2     1000037        11   # BR(~nu_eL -> ~chi_2+ e-)
#
#         PDG            Width
DECAY   1000014     3.02780250E+01   # snu_muL decays
#          BR         NDA      ID1       ID2
     2.25899673E-01    2     1000022        14   # BR(~nu_muL -> ~chi_10 nu_mu)
     4.47269144E-06    2     1000023        14   # BR(~nu_muL -> ~chi_20 nu_mu)
     8.24660907E-04    2     1000025        14   # BR(~nu_muL -> ~chi_30 nu_mu)
     2.57390519E-01    2     1000035        14   # BR(~nu_muL -> ~chi_40 nu_mu)
     1.76042801E-03    2     1000024        13   # BR(~nu_muL -> ~chi_1+ mu-)
     5.14120246E-01    2     1000037        13   # BR(~nu_muL -> ~chi_2+ mu-)
#
#         PDG            Width
DECAY   1000016     3.11464697E+01   # snu_tauL decays
#          BR         NDA      ID1       ID2
     2.19577041E-01    2     1000022        16   # BR(~nu_tauL -> ~chi_10 nu_tau)
     4.34744403E-06    2     1000023        16   # BR(~nu_tauL -> ~chi_20 nu_tau)
     8.01568119E-04    2     1000025        16   # BR(~nu_tauL -> ~chi_30 nu_tau)
     2.50120948E-01    2     1000035        16   # BR(~nu_tauL -> ~chi_40 nu_tau)
     2.98968332E-02    2     1000024        15   # BR(~nu_tauL -> ~chi_1+ tau-)
     4.99599262E-01    2     1000037        15   # BR(~nu_tauL -> ~chi_2+ tau-)
#
#         PDG            Width
DECAY   1000024     5.46070733E-01   # chargino1+ decays
#          BR         NDA      ID1       ID2
     1.00000000E+00    2     1000022        24   # BR(~chi_1+ -> ~chi_10  W+)
#
#         PDG            Width
DECAY   1000037     2.07609251E+01   # chargino2+ decays
#          BR         NDA      ID1       ID2
     2.53280207E-01    2     1000024        23   # BR(~chi_2+ -> ~chi_1+  Z )
     1.91060262E-04    2     1000022        24   # BR(~chi_2+ -> ~chi_10  W+)
     2.44261198E-01    2     1000023        24   # BR(~chi_2+ -> ~chi_20  W+)
     2.44158709E-01    2     1000025        24   # BR(~chi_2+ -> ~chi_30  W+)
     2.58107354E-01    2     1000024        25   # BR(~chi_2+ -> ~chi_1+  h )
     1.47246406E-06    2     1000022        37   # BR(~chi_2+ -> ~chi_10  H+)
#
#         PDG            Width
DECAY   1000022     0.00000000E+00   # neutralino1 decays
#
#         PDG            Width
DECAY   1000023     5.68896425E-01   # neutralino2 decays
#          BR         NDA      ID1       ID2
     5.35270566E-01    2     1000022        23   # BR(~chi_20 -> ~chi_10   Z )
     4.64729434E-01    2     1000022        25   # BR(~chi_20 -> ~chi_10   h )
#
#         PDG            Width
DECAY   1000025     5.70394826E-01   # neutralino3 decays
#          BR         NDA      ID1       ID2
     4.58685451E-01    2     1000022        23   # BR(~chi_30 -> ~chi_10   Z )
     5.41314549E-01    2     1000022        25   # BR(~chi_30 -> ~chi_10   h )
#
#         PDG            Width
DECAY   1000035     2.07766370E+01   # neutralino4 decays
#          BR         NDA      ID1       ID2
     4.00072167E-05    2     1000022        23   # BR(~chi_40 -> ~chi_10   Z )
     8.03620838E-02    2     1000023        23   # BR(~chi_40 -> ~chi_20   Z )
     1.72223276E-01    2     1000025        23   # BR(~chi_40 -> ~chi_30   Z )
     2.44857753E-01    2     1000024       -24   # BR(~chi_40 -> ~chi_1+   W-)
     2.44857753E-01    2    -1000024        24   # BR(~chi_40 -> ~chi_1-   W+)
     1.50928224E-04    2     1000022        25   # BR(~chi_40 -> ~chi_10   h )
     1.40360291E-06    2     1000022        35   # BR(~chi_40 -> ~chi_10   H )
     1.67788914E-07    2     1000022        36   # BR(~chi_40 -> ~chi_10   A )
     1.76906710E-01    2     1000023        25   # BR(~chi_40 -> ~chi_20   h )
     8.05999169E-02    2     1000025        25   # BR(~chi_40 -> ~chi_30   h )
#
#         PDG            Width
DECAY        25     4.05517613E-03   # h decays
#          BR         NDA      ID1       ID2
     6.06911613E-01    2           5        -5   # BR(h -> b       bb     )
     6.39804617E-02    2         -15        15   # BR(h -> tau+    tau-   )
     2.26513942E-04    2         -13        13   # BR(h -> mu+     mu-    )
     4.80169497E-04    2           3        -3   # BR(h -> s       sb     )
     2.08061191E-02    2           4        -4   # BR(h -> c       cb     )
     6.73442760E-02    2          21        21   # BR(h -> g       g      )
     2.31609823E-03    2          22        22   # BR(h -> gam     gam    )
     1.49647465E-03    2          22        23   # BR(h -> Z       gam    )
     2.11192046E-01    2          24       -24   # BR(h -> W+      W-     )
     2.51813554E-02    2          23        23   # BR(h -> Z       Z      )
     6.48722909E-05    2     1000022   1000022   # BR(h -> ~chi_10 ~chi_10)
#
#         PDG            Width
DECAY        35     8.24398469E+00   # H decays
#          BR         NDA      ID1       ID2
     3.91070281E-01    2           5        -5   # BR(H -> b       bb     )
     6.75659076E-02    2         -15        15   # BR(H -> tau+    tau-   )
     2.38918416E-04    2         -13        13   # BR(H -> mu+     mu-    )
     2.92877372E-04    2           3        -3   # BR(H -> s       sb     )
     1.63888478E-06    2           4        -4   # BR(H -> c       cb     )
     1.63737567E-01    2           6        -6   # BR(H -> t       tb     )
     5.44237864E-05    2          21        21   # BR(H -> g       g      )
     2.37955095E-07    2          22        22   # BR(H -> gam     gam    )
     9.66815786E-08    2          23        22   # BR(H -> Z       gam    )
     7.61378001E-05    2          24       -24   # BR(H -> W+      W-     )
     3.80207141E-05    2          23        23   # BR(H -> Z       Z      )
     2.80586740E-04    2          25        25   # BR(H -> h       h      )
    -9.18541171E-24    2          36        36   # BR(H -> A       A      )
     1.25605042E-18    2          23        36   # BR(H -> Z       A      )
     2.29806173E-03    2     1000024  -1000024   # BR(H -> ~chi_1+ ~chi_1-)
     2.16279132E-03    2     1000022   1000022   # BR(H -> ~chi_10 ~chi_10)
     1.59419053E-05    2     1000023   1000023   # BR(H -> ~chi_20 ~chi_20)
     7.54257196E-04    2     1000025   1000025   # BR(H -> ~chi_30 ~chi_30)
     2.23065971E-01    2     1000022   1000023   # BR(H -> ~chi_10 ~chi_20)
     1.47603285E-01    2     1000022   1000025   # BR(H -> ~chi_10 ~chi_30)
     7.42997793E-04    2     1000023   1000025   # BR(H -> ~chi_20 ~chi_30)
#
#         PDG            Width
DECAY        36     8.25801673E+00   # A decays
#          BR         NDA      ID1       ID2
     3.90537082E-01    2           5        -5   # BR(A -> b       bb     )
     6.74529783E-02    2         -15        15   # BR(A -> tau+    tau-   )
     2.38518756E-04    2         -13        13   # BR(A -> mu+     mu-    )
     2.92601269E-04    2           3        -3   # BR(A -> s       sb     )
     1.64275748E-06    2           4        -4   # BR(A -> c       cb     )
     1.64033926E-01    2           6        -6   # BR(A -> t       tb     )
     1.62315418E-04    2          21        21   # BR(A -> g       g      )
     5.87827257E-07    2          22        22   # BR(A -> gam     gam    )
     1.96580801E-07    2          23        22   # BR(A -> Z       gam    )
     7.57203125E-05    2          23        25   # BR(A -> Z       h      )
     3.30885494E-03    2     1000024  -1000024   # BR(A -> ~chi_1+ ~chi_1-)
     2.19699755E-03    2     1000022   1000022   # BR(A -> ~chi_10 ~chi_10)
     1.62605615E-05    2     1000023   1000023   # BR(A -> ~chi_20 ~chi_20)
     1.80478389E-03    2     1000025   1000025   # BR(A -> ~chi_30 ~chi_30)
     1.49617069E-01    2     1000022   1000023   # BR(A -> ~chi_10 ~chi_20)
     2.19983648E-01    2     1000022   1000025   # BR(A -> ~chi_10 ~chi_30)
     2.76817244E-04    2     1000023   1000025   # BR(A -> ~chi_20 ~chi_30)
#
#         PDG            Width
DECAY        37     8.23059914E+00   # H+ decays
#          BR         NDA      ID1       ID2
     6.29946204E-04    2           4        -5   # BR(H+ -> c       bb     )
     6.77097772E-02    2         -15        16   # BR(H+ -> tau+    nu_tau )
     2.39426816E-04    2         -13        14   # BR(H+ -> mu+     nu_mu  )
     4.03163487E-06    2           2        -5   # BR(H+ -> u       bb     )
     1.40487397E-05    2           2        -3   # BR(H+ -> u       sb     )
     2.90529360E-04    2           4        -3   # BR(H+ -> c       sb     )
     5.54883018E-01    2           6        -5   # BR(H+ -> t       bb     )
     7.61297292E-05    2          24        25   # BR(H+ -> W+      h      )
     9.31425153E-13    2          24        36   # BR(H+ -> W+      A      )
     3.75010983E-01    2     1000024   1000022   # BR(H+ -> ~chi_1+ ~chi_10)
     1.12038563E-03    2     1000024   1000023   # BR(H+ -> ~chi_1+ ~chi_20)
     2.17234878E-05    2     1000024   1000025   # BR(H+ -> ~chi_1+ ~chi_30)
