#
#                              ======================
#                              | THE SUSYHIT OUTPUT |
#                              ======================
#
#
#              ------------------------------------------------------
#              |     This is the output of the SUSY-HIT package     |
#              |  created by A.Djouadi, M.Muehlleitner and M.Spira. |
#              |  In case of problems with SUSY-HIT email to        |
#              |           margarete.muehlleitner@cern.ch           |
#              |           michael.spira@psi.ch                     |
#              |           abdelhak.djouadi@cern.ch                 |
#              ------------------------------------------------------
#
#              ------------------------------------------------------
#              |  SUSY Les Houches Accord - MSSM Spectrum + Decays  |
#              |              based on the decay programs           |
#              |                                                    |
#              |                     SDECAY 1.3b                    |
#              |                                                    |
#              |  Authors: M.Muhlleitner, A.Djouadi and Y.Mambrini  |
#              |  Ref.:    Comput.Phys.Commun.168(2005)46           |
#              |           [hep-ph/0311167]                         |
#              |                                                    |
#              |                     HDECAY 3.4                     |
#              |                                                    |
#              |  By: A.Djouadi,J.Kalinowski,M.Muhlleitner,M.Spira  |
#              |  Ref.:    Comput.Phys.Commun.108(1998)56           |
#              |           [hep-ph/9704448]                         |
#              |                                                    |
#              |                                                    |
#              |  If not stated otherwise all DRbar couplings and   |
#              |  soft SUSY breaking masses are given at the scale  |
#              |  Q=  0.50007380E+04
#              |                                                    |
#              ------------------------------------------------------
#
#
BLOCK DCINFO  # Decay Program information
     1   SDECAY/HDECAY # decay calculator
     2   1.3b  /3.4    # version number
#
BLOCK SPINFO  # Spectrum calculator information
     1    SOFTSUSY    # spectrum calculator                
     2    3.4.0       # version number                     
#
BLOCK MODSEL  # Model selection
     1     0   #  nonUniversal                                     
#
BLOCK SMINPUTS  # Standard Model inputs
         1     1.25778332E+02   # alpha_em^-1(M_Z)^MSbar
         2     1.16570000E-05   # G_F [GeV^-2]
         3     1.17200002E-01   # alpha_S(M_Z)^MSbar
         4     9.11876000E+01   # M_Z pole mass
         5     4.25000000E+00   # mb(mb)^MSbar
         6     1.72500000E+02   # mt pole mass
         7     1.77682000E+00   # mtau pole mass
#
BLOCK MINPAR  # Input parameters - minimal models
         3     1.00000000E+01   # tanb                
#
BLOCK EXTPAR  # Input parameters - non-minimal models
         0    -1.00000000E+00   # Set                 
         1     6.00000000E+01   # M_1(MX)             
         2     3.00000000E+03   # M_2(MX)             
         3     1.12229500E+03   # M_3(MX)             
        11     5.00000000E+03   # At(MX)              
        12     5.00000000E+03   # Ab(MX)              
        13     0.00000000E+00   # Atau(MX)            
        23    -8.62041000E+02   # mu(MX)              
        26     3.00000000E+03   # mA(pole)            
        31     5.00000000E+03   # meL(MX)             
        32     5.00000000E+03   # mmuL(MX)            
        33     5.00000000E+03   # mtauL(MX)           
        34     5.00000000E+03   # meR(MX)             
        35     5.00000000E+03   # mmuR(MX)            
        36     5.00000000E+03   # mtauR(MX)           
        41     5.00000000E+03   # mqL1(MX)            
        42     5.00000000E+03   # mqL2(MX)            
        43     5.00000000E+03   # mqL3(MX)            
        44     5.00000000E+03   # muR(MX)             
        45     5.00000000E+03   # mcR(MX)             
        46     5.00000000E+03   # mtR(MX)             
        47     5.00000000E+03   # mdR(MX)             
        48     5.00000000E+03   # msR(MX)             
        49     5.00000000E+03   # mbR(MX)             
#
BLOCK MASS  # Mass Spectrum
# PDG code           mass       particle
        24     8.00935411E+01   # W+
        25     1.24569818E+02   # h
        35     3.00006516E+03   # H
        36     2.99996719E+03   # A
        37     3.00127873E+03   # H+
         5     4.87878001E+00   # b-quark pole mass calculated from mb(mb)_Msbar
   1000001     5.06593820E+03   # ~d_L
   2000001     5.04810673E+03   # ~d_R
   1000002     5.06546214E+03   # ~u_L
   2000002     5.04781779E+03   # ~u_R
   1000003     5.06593820E+03   # ~s_L
   2000003     5.04810673E+03   # ~s_R
   1000004     5.06546214E+03   # ~c_L
   2000004     5.04781779E+03   # ~c_R
   1000005     5.01195662E+03   # ~b_1
   2000005     5.04659673E+03   # ~b_2
   1000006     4.90244385E+03   # ~t_1
   2000006     5.05738044E+03   # ~t_2
   1000011     5.01907824E+03   # ~e_L
   2000011     5.00592778E+03   # ~e_R
   1000012     5.01812910E+03   # ~nu_eL
   1000013     5.01907824E+03   # ~mu_L
   2000013     5.00592778E+03   # ~mu_R
   1000014     5.01812910E+03   # ~nu_muL
   1000015     5.00465120E+03   # ~tau_1
   2000015     5.01873160E+03   # ~tau_2
   1000016     5.01758172E+03   # ~nu_tauL
   1000021     1.40000017E+03   # ~g
   1000022     6.02943894E+01   # ~chi_10
   1000023     8.99733829E+02   # ~chi_20
   1000025    -9.01974807E+02   # ~chi_30
   1000035     3.07423719E+03   # ~chi_40
   1000024     9.00000949E+02   # ~chi_1+
   1000037     3.07440471E+03   # ~chi_2+
#
BLOCK NMIX  # Neutralino Mixing Matrix
  1  1     9.98775397E-01   # N_11
  1  2     1.95969888E-04   # N_12
  1  3    -4.94396990E-02   # N_13
  1  4     1.83955988E-03   # N_14
  2  1     3.36701066E-02   # N_21
  2  2     2.24281493E-02   # N_22
  2  3     7.06575539E-01   # N_23
  2  4     7.06480226E-01   # N_24
  3  1    -3.62473825E-02   # N_31
  3  2     1.52918535E-02   # N_32
  3  3    -7.05890411E-01   # N_33
  3  4     7.07227696E-01   # N_34
  4  1    -3.96744624E-04   # N_41
  4  2     9.99631482E-01   # N_42
  4  3    -5.04497940E-03   # N_43
  4  4    -2.66700552E-02   # N_44
#
BLOCK UMIX  # Chargino Mixing Matrix U
  1  1     7.14706247E-03   # U_11
  1  2     9.99974459E-01   # U_12
  2  1    -9.99974459E-01   # U_21
  2  2     7.14706247E-03   # U_22
#
BLOCK VMIX  # Chargino Mixing Matrix V
  1  1     3.77464889E-02   # V_11
  1  2    -9.99287347E-01   # V_12
  2  1    -9.99287347E-01   # V_21
  2  2    -3.77464889E-02   # V_22
#
BLOCK STOPMIX  # Stop Mixing Matrix
  1  1    -5.08321956E-01   # cos(theta_t)
  1  2     8.61167109E-01   # sin(theta_t)
  2  1    -8.61167109E-01   # -sin(theta_t)
  2  2    -5.08321956E-01   # cos(theta_t)
#
BLOCK SBOTMIX  # Sbottom Mixing Matrix
  1  1     9.97450621E-01   # cos(theta_b)
  1  2    -7.13600635E-02   # sin(theta_b)
  2  1     7.13600635E-02   # -sin(theta_b)
  2  2     9.97450621E-01   # cos(theta_b)
#
BLOCK STAUMIX  # Stau Mixing Matrix
  1  1    -1.02687171E-01   # cos(theta_tau)
  1  2     9.94713700E-01   # sin(theta_tau)
  2  1    -9.94713700E-01   # -sin(theta_tau)
  2  2    -1.02687171E-01   # cos(theta_tau)
#
BLOCK ALPHA  # Higgs mixing
          -1.05453335E-01   # Mixing angle in the neutral Higgs boson sector
#
BLOCK HMIX Q=  5.00073800E+03  # DRbar Higgs Parameters
         1    -8.77613497E+02   # mu(Q)MSSM           
         2     9.47173727E+00   # tan                 
         3     2.41863086E+02   # higgs               
         4     8.54195267E+06   # mA^2(Q)MSSM         
#
BLOCK GAUGE Q=  5.00073800E+03  # The gauge couplings
     1     3.70833075E-01   # gprime(Q) DRbar
     2     6.32701975E-01   # g(Q) DRbar
     3     1.00371661E+00   # g3(Q) DRbar
#
BLOCK AU Q=  5.00073800E+03  # The trilinear couplings
  1  1     5.00000001E+03   # A_u(Q) DRbar
  2  2     5.00000001E+03   # A_c(Q) DRbar
  3  3     5.00000001E+03   # A_t(Q) DRbar
#
BLOCK AD Q=  5.00073800E+03  # The trilinear couplings
  1  1     5.00000000E+03   # A_d(Q) DRbar
  2  2     5.00000000E+03   # A_s(Q) DRbar
  3  3     5.00000001E+03   # A_b(Q) DRbar
#
BLOCK AE Q=  5.00073800E+03  # The trilinear couplings
  1  1     0.00000000E+00   # A_e(Q) DRbar
  2  2     8.11681598E-08   # A_mu(Q) DRbar
  3  3     8.04424700E-08   # A_tau(Q) DRbar
#
BLOCK Yu Q=  5.00073800E+03  # The Yukawa couplings
  1  1     0.00000000E+00   # y_u(Q) DRbar
  2  2     0.00000000E+00   # y_c(Q) DRbar
  3  3     8.17247847E-01   # y_t(Q) DRbar
#
BLOCK Yd Q=  5.00073800E+03  # The Yukawa couplings
  1  1     0.00000000E+00   # y_d(Q) DRbar
  2  2     0.00000000E+00   # y_s(Q) DRbar
  3  3     1.29895326E-01   # y_b(Q) DRbar
#
BLOCK Ye Q=  5.00073800E+03  # The Yukawa couplings
  1  1     0.00000000E+00   # y_e(Q) DRbar
  2  2     0.00000000E+00   # y_mu(Q) DRbar
  3  3     9.69153646E-02   # y_tau(Q) DRbar
#
BLOCK MSOFT Q=  5.00073800E+03  # The soft SUSY breaking masses at the scale Q
         1     6.00000000E+01   # M_1(Q)              
         2     3.00000000E+03   # M_2(Q)              
         3     1.12229500E+03   # M_3(Q)              
        21     7.93164669E+06   # mH1^2(Q)            
        22    -2.05704075E+05   # mH2^2(Q)            
        31     5.00000000E+03   # meL(Q)              
        32     5.00000000E+03   # mmuL(Q)             
        33     5.00000000E+03   # mtauL(Q)            
        34     5.00000000E+03   # meR(Q)              
        35     5.00000000E+03   # mmuR(Q)             
        36     5.00000000E+03   # mtauR(Q)            
        41     5.00000000E+03   # mqL1(Q)             
        42     5.00000000E+03   # mqL2(Q)             
        43     5.00000000E+03   # mqL3(Q)             
        44     5.00000000E+03   # muR(Q)              
        45     5.00000000E+03   # mcR(Q)              
        46     5.00000000E+03   # mtR(Q)              
        47     5.00000000E+03   # mdR(Q)              
        48     5.00000000E+03   # msR(Q)              
        49     5.00000000E+03   # mbR(Q)              
#
#
#
#                             =================
#                             |The decay table|
#                             =================
#
# - The QCD corrections to the decays gluino -> squark  + quark
#                                     squark -> gaugino + quark_prime
#                                     squark -> squark_prime + Higgs
#                                     squark -> gluino  + quark
#   are included.
#
# - The multi-body decays for the inos, stops and sbottoms are included.
#
# - The loop induced decays for the gluino, neutralinos and stops
#   are included.
#
# - The SUSY decays of the top quark are included.
#
#
#         PDG            Width
DECAY         6     1.40289213E+00   # top decays
#          BR         NDA      ID1       ID2
     1.00000000E+00    2           5        24   # BR(t ->  b    W+)
#
#         PDG            Width
DECAY   1000021     5.70781418E-05   # gluino decays
#          BR         NDA      ID1       ID2
     9.99216567E-06    2     1000022        21   # BR(~g -> ~chi_10 g)
     1.87505028E-02    2     1000023        21   # BR(~g -> ~chi_20 g)
     1.82970309E-02    2     1000025        21   # BR(~g -> ~chi_30 g)
#           BR         NDA      ID1       ID2       ID3
     6.61567154E-02    3     1000022         1        -1   # BR(~g -> ~chi_10 d  db)
     8.62125946E-06    3     1000023         1        -1   # BR(~g -> ~chi_20 d  db)
     4.92484476E-06    3     1000025         1        -1   # BR(~g -> ~chi_30 d  db)
     2.25563944E-01    3     1000022         2        -2   # BR(~g -> ~chi_10 u  ub)
     3.11928022E-05    3     1000023         2        -2   # BR(~g -> ~chi_20 u  ub)
     6.16901502E-06    3     1000025         2        -2   # BR(~g -> ~chi_30 u  ub)
     6.61567154E-02    3     1000022         3        -3   # BR(~g -> ~chi_10 s  sb)
     8.62125946E-06    3     1000023         3        -3   # BR(~g -> ~chi_20 s  sb)
     4.92484476E-06    3     1000025         3        -3   # BR(~g -> ~chi_30 s  sb)
     2.25563944E-01    3     1000022         4        -4   # BR(~g -> ~chi_10 c  cb)
     3.11928022E-05    3     1000023         4        -4   # BR(~g -> ~chi_20 c  cb)
     6.16901502E-06    3     1000025         4        -4   # BR(~g -> ~chi_30 c  cb)
     6.71506062E-02    3     1000022         5        -5   # BR(~g -> ~chi_10 b  bb)
     1.78771797E-03    3     1000023         5        -5   # BR(~g -> ~chi_20 b  bb)
     1.73902072E-03    3     1000025         5        -5   # BR(~g -> ~chi_30 b  bb)
     1.90859050E-01    3     1000022         6        -6   # BR(~g -> ~chi_10 t  tb)
     2.30277824E-02    3     1000023         6        -6   # BR(~g -> ~chi_20 t  tb)
     1.11579216E-02    3     1000025         6        -6   # BR(~g -> ~chi_30 t  tb)
     2.36442556E-05    3     1000024         1        -2   # BR(~g -> ~chi_1+ d  ub)
     2.36442556E-05    3    -1000024         2        -1   # BR(~g -> ~chi_1- u  db)
     2.36442556E-05    3     1000024         3        -4   # BR(~g -> ~chi_1+ s  cb)
     2.36442556E-05    3    -1000024         4        -3   # BR(~g -> ~chi_1- c  sb)
     4.17913316E-02    3     1000024         5        -6   # BR(~g -> ~chi_1+ b  tb)
     4.17913316E-02    3    -1000024         6        -5   # BR(~g -> ~chi_1- t  bb)
#
#         PDG            Width
DECAY   1000006     3.91578130E+02   # stop1 decays
#          BR         NDA      ID1       ID2
     2.25112097E-02    2     1000022         6   # BR(~t_1 -> ~chi_10 t )
     7.88445930E-02    2     1000023         6   # BR(~t_1 -> ~chi_20 t )
     7.56430443E-02    2     1000025         6   # BR(~t_1 -> ~chi_30 t )
     5.33879496E-03    2     1000035         6   # BR(~t_1 -> ~chi_40 t )
     1.14080803E-01    2     1000024         5   # BR(~t_1 -> ~chi_1+ b )
     1.06383133E-02    2     1000037         5   # BR(~t_1 -> ~chi_2+ b )
     6.92943242E-01    2     1000021         6   # BR(~t_1 -> ~g      t )
#
#         PDG            Width
DECAY   2000006     3.94638794E+02   # stop2 decays
#          BR         NDA      ID1       ID2
     8.96078596E-03    2     1000022         6   # BR(~t_2 -> ~chi_10 t )
     7.98024805E-02    2     1000023         6   # BR(~t_2 -> ~chi_20 t )
     8.32986746E-02    2     1000025         6   # BR(~t_2 -> ~chi_30 t )
     1.39546744E-02    2     1000035         6   # BR(~t_2 -> ~chi_40 t )
     4.79937916E-02    2     1000024         5   # BR(~t_2 -> ~chi_1+ b )
     2.77700617E-02    2     1000037         5   # BR(~t_2 -> ~chi_2+ b )
     7.34971216E-01    2     1000021         6   # BR(~t_2 -> ~g      t )
     7.33581396E-04    2     1000006        25   # BR(~t_2 -> ~t_1    h )
     2.51473370E-03    2     1000006        23   # BR(~t_2 -> ~t_1    Z )
#
#         PDG            Width
DECAY   1000005     3.71497868E+02   # sbottom1 decays
#          BR         NDA      ID1       ID2
     2.08375047E-03    2     1000022         5   # BR(~b_1 -> ~chi_10 b )
     2.15423502E-03    2     1000023         5   # BR(~b_1 -> ~chi_20 b )
     2.10555761E-03    2     1000025         5   # BR(~b_1 -> ~chi_30 b )
     2.02327364E-02    2     1000035         5   # BR(~b_1 -> ~chi_40 b )
     1.68261263E-01    2    -1000024         6   # BR(~b_1 -> ~chi_1- t )
     4.06436534E-02    2    -1000037         6   # BR(~b_1 -> ~chi_2- t )
     7.62987298E-01    2     1000021         5   # BR(~b_1 -> ~g      b )
     1.53150609E-03    2     1000006       -24   # BR(~b_1 -> ~t_1    W-)
#
#         PDG            Width
DECAY   2000005     2.92409444E+02   # sbottom2 decays
#          BR         NDA      ID1       ID2
     1.00563701E-02    2     1000022         5   # BR(~b_2 -> ~chi_10 b )
     2.74370735E-03    2     1000023         5   # BR(~b_2 -> ~chi_20 b )
     2.81100190E-03    2     1000025         5   # BR(~b_2 -> ~chi_30 b )
     1.34414413E-04    2     1000035         5   # BR(~b_2 -> ~chi_40 b )
     6.53053795E-03    2    -1000024         6   # BR(~b_2 -> ~chi_1- t )
     2.69982701E-04    2    -1000037         6   # BR(~b_2 -> ~chi_2- t )
     9.77413250E-01    2     1000021         5   # BR(~b_2 -> ~g      b )
     4.07353859E-05    2     1000006       -24   # BR(~b_2 -> ~t_1    W-)
#
#         PDG            Width
DECAY   1000002     3.11413696E+02   # sup_L decays
#          BR         NDA      ID1       ID2
     2.39851321E-03    2     1000022         2   # BR(~u_L -> ~chi_10 u)
     4.96543740E-05    2     1000023         2   # BR(~u_L -> ~chi_20 u)
     3.97685658E-06    2     1000025         2   # BR(~u_L -> ~chi_30 u)
     2.51324416E-02    2     1000035         2   # BR(~u_L -> ~chi_40 u)
     1.68166609E-04    2     1000024         1   # BR(~u_L -> ~chi_1+ d)
     5.02317231E-02    2     1000037         1   # BR(~u_L -> ~chi_2+ d)
     9.22015524E-01    2     1000021         2   # BR(~u_L -> ~g      u)
#
#         PDG            Width
DECAY   2000002     2.97709257E+02   # sup_R decays
#          BR         NDA      ID1       ID2
     3.99219278E-02    2     1000022         2   # BR(~u_R -> ~chi_10 u)
     4.25721134E-05    2     1000023         2   # BR(~u_R -> ~chi_20 u)
     4.93227773E-05    2     1000025         2   # BR(~u_R -> ~chi_30 u)
     2.50022324E-09    2     1000035         2   # BR(~u_R -> ~chi_40 u)
     9.59986175E-01    2     1000021         2   # BR(~u_R -> ~g      u)
#
#         PDG            Width
DECAY   1000001     3.11424578E+02   # sdown_L decays
#          BR         NDA      ID1       ID2
     2.38903953E-03    2     1000022         1   # BR(~d_L -> ~chi_10 d)
     1.48273681E-05    2     1000023         1   # BR(~d_L -> ~chi_20 d)
     2.95346406E-05    2     1000025         1   # BR(~d_L -> ~chi_30 d)
     2.51471978E-02    2     1000035         1   # BR(~d_L -> ~chi_40 d)
     6.02938332E-06    2    -1000024         2   # BR(~d_L -> ~chi_1- u)
     5.03147529E-02    2    -1000037         2   # BR(~d_L -> ~chi_2- u)
     9.22098618E-01    2     1000021         1   # BR(~d_L -> ~g      d)
#
#         PDG            Width
DECAY   2000001     2.88796876E+02   # sdown_R decays
#          BR         NDA      ID1       ID2
     1.02890757E-02    2     1000022         1   # BR(~d_R -> ~chi_10 d)
     1.09721888E-05    2     1000023         1   # BR(~d_R -> ~chi_20 d)
     1.27120502E-05    2     1000025         1   # BR(~d_R -> ~chi_30 d)
     6.44468577E-10    2     1000035         1   # BR(~d_R -> ~chi_40 d)
     9.89687239E-01    2     1000021         1   # BR(~d_R -> ~g      d)
#
#         PDG            Width
DECAY   1000004     3.11413696E+02   # scharm_L decays
#          BR         NDA      ID1       ID2
     2.39851321E-03    2     1000022         4   # BR(~c_L -> ~chi_10 c)
     4.96543740E-05    2     1000023         4   # BR(~c_L -> ~chi_20 c)
     3.97685658E-06    2     1000025         4   # BR(~c_L -> ~chi_30 c)
     2.51324416E-02    2     1000035         4   # BR(~c_L -> ~chi_40 c)
     1.68166609E-04    2     1000024         3   # BR(~c_L -> ~chi_1+ s)
     5.02317231E-02    2     1000037         3   # BR(~c_L -> ~chi_2+ s)
     9.22015524E-01    2     1000021         4   # BR(~c_L -> ~g      c)
#
#         PDG            Width
DECAY   2000004     2.97709257E+02   # scharm_R decays
#          BR         NDA      ID1       ID2
     3.99219278E-02    2     1000022         4   # BR(~c_R -> ~chi_10 c)
     4.25721134E-05    2     1000023         4   # BR(~c_R -> ~chi_20 c)
     4.93227773E-05    2     1000025         4   # BR(~c_R -> ~chi_30 c)
     2.50022324E-09    2     1000035         4   # BR(~c_R -> ~chi_40 c)
     9.59986175E-01    2     1000021         4   # BR(~c_R -> ~g      c)
#
#         PDG            Width
DECAY   1000003     3.11424578E+02   # sstrange_L decays
#          BR         NDA      ID1       ID2
     2.38903953E-03    2     1000022         3   # BR(~s_L -> ~chi_10 s)
     1.48273681E-05    2     1000023         3   # BR(~s_L -> ~chi_20 s)
     2.95346406E-05    2     1000025         3   # BR(~s_L -> ~chi_30 s)
     2.51471978E-02    2     1000035         3   # BR(~s_L -> ~chi_40 s)
     6.02938332E-06    2    -1000024         4   # BR(~s_L -> ~chi_1- c)
     5.03147529E-02    2    -1000037         4   # BR(~s_L -> ~chi_2- c)
     9.22098618E-01    2     1000021         3   # BR(~s_L -> ~g      s)
#
#         PDG            Width
DECAY   2000003     2.88796876E+02   # sstrange_R decays
#          BR         NDA      ID1       ID2
     1.02890757E-02    2     1000022         3   # BR(~s_R -> ~chi_10 s)
     1.09721888E-05    2     1000023         3   # BR(~s_R -> ~chi_20 s)
     1.27120502E-05    2     1000025         3   # BR(~s_R -> ~chi_30 s)
     6.44468577E-10    2     1000035         3   # BR(~s_R -> ~chi_40 s)
     9.89687239E-01    2     1000021         3   # BR(~s_R -> ~g      s)
#
#         PDG            Width
DECAY   1000011     3.02833400E+01   # selectron_L decays
#          BR         NDA      ID1       ID2
     2.26244644E-01    2     1000022        11   # BR(~e_L -> ~chi_10 e-)
     1.09901024E-03    2     1000023        11   # BR(~e_L -> ~chi_20 e-)
     2.19023977E-05    2     1000025        11   # BR(~e_L -> ~chi_30 e-)
     2.57348589E-01    2     1000035        11   # BR(~e_L -> ~chi_40 e-)
     6.31562294E-05    2    -1000024        12   # BR(~e_L -> ~chi_1- nu_e)
     5.15222698E-01    2    -1000037        12   # BR(~e_L -> ~chi_2- nu_e)
#
#         PDG            Width
DECAY   2000011     2.73784038E+01   # selectron_R decays
#          BR         NDA      ID1       ID2
     9.97707356E-01    2     1000022        11   # BR(~e_R -> ~chi_10 e-)
     1.06208731E-03    2     1000023        11   # BR(~e_R -> ~chi_20 e-)
     1.23049515E-03    2     1000025        11   # BR(~e_R -> ~chi_30 e-)
     6.10932018E-08    2     1000035        11   # BR(~e_R -> ~chi_40 e-)
#
#         PDG            Width
DECAY   1000013     3.02833400E+01   # smuon_L decays
#          BR         NDA      ID1       ID2
     2.26244644E-01    2     1000022        13   # BR(~mu_L -> ~chi_10 mu-)
     1.09901024E-03    2     1000023        13   # BR(~mu_L -> ~chi_20 mu-)
     2.19023977E-05    2     1000025        13   # BR(~mu_L -> ~chi_30 mu-)
     2.57348589E-01    2     1000035        13   # BR(~mu_L -> ~chi_40 mu-)
     6.31562294E-05    2    -1000024        14   # BR(~mu_L -> ~chi_1- nu_mu)
     5.15222698E-01    2    -1000037        14   # BR(~mu_L -> ~chi_2- nu_mu)
#
#         PDG            Width
DECAY   2000013     2.73784038E+01   # smuon_R decays
#          BR         NDA      ID1       ID2
     9.97707356E-01    2     1000022        13   # BR(~mu_R -> ~chi_10 mu-)
     1.06208731E-03    2     1000023        13   # BR(~mu_R -> ~chi_20 mu-)
     1.23049515E-03    2     1000025        13   # BR(~mu_R -> ~chi_30 mu-)
     6.10932018E-08    2     1000035        13   # BR(~mu_R -> ~chi_40 mu-)
#
#         PDG            Width
DECAY   1000015     2.91505089E+01   # stau_1 decays
#          BR         NDA      ID1       ID2
     9.30361442E-01    2     1000022        15   # BR(~tau_1 -> ~chi_10  tau-)
     1.60496612E-02    2     1000023        15   # BR(~tau_1 -> ~chi_20  tau-)
     1.53772810E-02    2     1000025        15   # BR(~tau_1 -> ~chi_30  tau-)
     2.73276543E-03    2     1000035        15   # BR(~tau_1 -> ~chi_40  tau-)
     3.00079697E-02    2    -1000024        16   # BR(~tau_1 -> ~chi_1-  nu_tau)
     5.47088083E-03    2    -1000037        16   # BR(~tau_1 -> ~chi_2-  nu_tau)
#
#         PDG            Width
DECAY   2000015     3.11263625E+01   # stau_2 decays
#          BR         NDA      ID1       ID2
     2.26310791E-01    2     1000022        15   # BR(~tau_2 -> ~chi_10  tau-)
     1.51081612E-02    2     1000023        15   # BR(~tau_2 -> ~chi_20  tau-)
     1.47774328E-02    2     1000025        15   # BR(~tau_2 -> ~chi_30  tau-)
     2.47735928E-01    2     1000035        15   # BR(~tau_2 -> ~chi_40  tau-)
     8.93674350E-05    2    -1000024        16   # BR(~tau_2 -> ~chi_1-  nu_tau)
     4.95978320E-01    2    -1000037        16   # BR(~tau_2 -> ~chi_2-  nu_tau)
#
#         PDG            Width
DECAY   1000012     3.02862488E+01   # snu_eL decays
#          BR         NDA      ID1       ID2
     2.25877442E-01    2     1000022        12   # BR(~nu_eL -> ~chi_10 nu_e)
     4.48466646E-06    2     1000023        12   # BR(~nu_eL -> ~chi_20 nu_e)
     8.24766184E-04    2     1000025        12   # BR(~nu_eL -> ~chi_30 nu_e)
     2.57397736E-01    2     1000035        12   # BR(~nu_eL -> ~chi_40 nu_e)
     1.76108125E-03    2     1000024        11   # BR(~nu_eL -> ~chi_1+ e-)
     5.14134490E-01    2     1000037        11   # BR(~nu_eL -> ~chi_2+ e-)
#
#         PDG            Width
DECAY   1000014     3.02862488E+01   # snu_muL decays
#          BR         NDA      ID1       ID2
     2.25877442E-01    2     1000022        14   # BR(~nu_muL -> ~chi_10 nu_mu)
     4.48466646E-06    2     1000023        14   # BR(~nu_muL -> ~chi_20 nu_mu)
     8.24766184E-04    2     1000025        14   # BR(~nu_muL -> ~chi_30 nu_mu)
     2.57397736E-01    2     1000035        14   # BR(~nu_muL -> ~chi_40 nu_mu)
     1.76108125E-03    2     1000024        13   # BR(~nu_muL -> ~chi_1+ mu-)
     5.14134490E-01    2     1000037        13   # BR(~nu_muL -> ~chi_2+ mu-)
#
#         PDG            Width
DECAY   1000016     3.11550376E+01   # snu_tauL decays
#          BR         NDA      ID1       ID2
     2.19554663E-01    2     1000022        16   # BR(~nu_tauL -> ~chi_10 nu_tau)
     4.35906841E-06    2     1000023        16   # BR(~nu_tauL -> ~chi_20 nu_tau)
     8.01667633E-04    2     1000025        16   # BR(~nu_tauL -> ~chi_30 nu_tau)
     2.50127061E-01    2     1000035        16   # BR(~nu_tauL -> ~chi_40 nu_tau)
     2.99009425E-02    2     1000024        15   # BR(~nu_tauL -> ~chi_1+ tau-)
     4.99611307E-01    2     1000037        15   # BR(~nu_tauL -> ~chi_2+ tau-)
#
#         PDG            Width
DECAY   1000024     5.46341118E-01   # chargino1+ decays
#          BR         NDA      ID1       ID2
     1.00000000E+00    2     1000022        24   # BR(~chi_1+ -> ~chi_10  W+)
#
#         PDG            Width
DECAY   1000037     2.07734610E+01   # chargino2+ decays
#          BR         NDA      ID1       ID2
     2.53288203E-01    2     1000024        23   # BR(~chi_2+ -> ~chi_1+  Z )
     1.91047477E-04    2     1000022        24   # BR(~chi_2+ -> ~chi_10  W+)
     2.44287403E-01    2     1000023        24   # BR(~chi_2+ -> ~chi_20  W+)
     2.44185228E-01    2     1000025        24   # BR(~chi_2+ -> ~chi_30  W+)
     2.58046635E-01    2     1000024        25   # BR(~chi_2+ -> ~chi_1+  h )
     1.48512575E-06    2     1000022        37   # BR(~chi_2+ -> ~chi_10  H+)
#
#         PDG            Width
DECAY   1000022     0.00000000E+00   # neutralino1 decays
#
#         PDG            Width
DECAY   1000023     5.69110851E-01   # neutralino2 decays
#          BR         NDA      ID1       ID2
     5.35265466E-01    2     1000022        23   # BR(~chi_20 -> ~chi_10   Z )
     4.64734534E-01    2     1000022        25   # BR(~chi_20 -> ~chi_10   h )
#
#         PDG            Width
DECAY   1000025     5.70609324E-01   # neutralino3 decays
#          BR         NDA      ID1       ID2
     4.58732922E-01    2     1000022        23   # BR(~chi_30 -> ~chi_10   Z )
     5.41267078E-01    2     1000022        25   # BR(~chi_30 -> ~chi_10   h )
#
#         PDG            Width
DECAY   1000035     2.07891681E+01   # neutralino4 decays
#          BR         NDA      ID1       ID2
     4.00129799E-05    2     1000022        23   # BR(~chi_40 -> ~chi_10   Z )
     8.03591453E-02    2     1000023        23   # BR(~chi_40 -> ~chi_20   Z )
     1.72234425E-01    2     1000025        23   # BR(~chi_40 -> ~chi_30   Z )
     2.44884100E-01    2     1000024       -24   # BR(~chi_40 -> ~chi_1+   W-)
     2.44884100E-01    2    -1000024        24   # BR(~chi_40 -> ~chi_1-   W+)
     1.50876652E-04    2     1000022        25   # BR(~chi_40 -> ~chi_10   h )
     1.40557021E-06    2     1000022        35   # BR(~chi_40 -> ~chi_10   H )
     1.68520404E-07    2     1000022        36   # BR(~chi_40 -> ~chi_10   A )
     1.76870998E-01    2     1000023        25   # BR(~chi_40 -> ~chi_20   h )
     8.05747675E-02    2     1000025        25   # BR(~chi_40 -> ~chi_30   h )
#
#         PDG            Width
DECAY        25     4.04386437E-03   # h decays
#          BR         NDA      ID1       ID2
     6.12551431E-01    2           5        -5   # BR(h -> b       bb     )
     6.40351274E-02    2         -15        15   # BR(h -> tau+    tau-   )
     2.26708534E-04    2         -13        13   # BR(h -> mu+     mu-    )
     4.80761600E-04    2           3        -3   # BR(h -> s       sb     )
     2.08321749E-02    2           4        -4   # BR(h -> c       cb     )
     6.71523422E-02    2          21        21   # BR(h -> g       g      )
     2.30404073E-03    2          22        22   # BR(h -> gam     gam    )
     1.46852049E-03    2          22        23   # BR(h -> Z       gam    )
     2.06385711E-01    2          24       -24   # BR(h -> W+      W-     )
     2.45034553E-02    2          23        23   # BR(h -> Z       Z      )
     5.97271068E-05    2     1000022   1000022   # BR(h -> ~chi_10 ~chi_10)
#
#         PDG            Width
DECAY        35     8.24071825E+00   # H decays
#          BR         NDA      ID1       ID2
     3.90840167E-01    2           5        -5   # BR(H -> b       bb     )
     6.76314027E-02    2         -15        15   # BR(H -> tau+    tau-   )
     2.39150012E-04    2         -13        13   # BR(H -> mu+     mu-    )
     2.93161510E-04    2           3        -3   # BR(H -> s       sb     )
     1.63855161E-06    2           4        -4   # BR(H -> c       cb     )
     1.63704263E-01    2           6        -6   # BR(H -> t       tb     )
     5.43934347E-05    2          21        21   # BR(H -> g       g      )
     2.37815630E-07    2          22        22   # BR(H -> gam     gam    )
     9.65986697E-08    2          23        22   # BR(H -> Z       gam    )
     7.55718913E-05    2          24       -24   # BR(H -> W+      W-     )
     3.77381110E-05    2          23        23   # BR(H -> Z       Z      )
     2.80450304E-04    2          25        25   # BR(H -> h       h      )
    -2.41692871E-23    2          36        36   # BR(H -> A       A      )
     9.84538279E-19    2          23        36   # BR(H -> Z       A      )
     2.29960816E-03    2     1000024  -1000024   # BR(H -> ~chi_1+ ~chi_1-)
     2.16427409E-03    2     1000022   1000022   # BR(H -> ~chi_10 ~chi_10)
     1.59521601E-05    2     1000023   1000023   # BR(H -> ~chi_20 ~chi_20)
     7.54773876E-04    2     1000025   1000025   # BR(H -> ~chi_30 ~chi_30)
     2.23172082E-01    2     1000022   1000023   # BR(H -> ~chi_10 ~chi_20)
     1.47691634E-01    2     1000022   1000025   # BR(H -> ~chi_10 ~chi_30)
     7.43404850E-04    2     1000023   1000025   # BR(H -> ~chi_20 ~chi_30)
#
#         PDG            Width
DECAY        36     8.25475879E+00   # A decays
#          BR         NDA      ID1       ID2
     3.90306221E-01    2           5        -5   # BR(A -> b       bb     )
     6.75180516E-02    2         -15        15   # BR(A -> tau+    tau-   )
     2.38748860E-04    2         -13        13   # BR(A -> mu+     mu-    )
     2.92883764E-04    2           3        -3   # BR(A -> s       sb     )
     1.64244690E-06    2           4        -4   # BR(A -> c       cb     )
     1.64002910E-01    2           6        -6   # BR(A -> t       tb     )
     1.62324986E-04    2          21        21   # BR(A -> g       g      )
     5.87860537E-07    2          22        22   # BR(A -> gam     gam    )
     1.96503000E-07    2          23        22   # BR(A -> Z       gam    )
     7.51582546E-05    2          23        25   # BR(A -> Z       h      )
     3.31112643E-03    2     1000024  -1000024   # BR(A -> ~chi_1+ ~chi_1-)
     2.19845889E-03    2     1000022   1000022   # BR(A -> ~chi_10 ~chi_10)
     1.62730453E-05    2     1000023   1000023   # BR(A -> ~chi_20 ~chi_20)
     1.80579765E-03    2     1000025   1000025   # BR(A -> ~chi_30 ~chi_30)
     1.49706243E-01    2     1000022   1000023   # BR(A -> ~chi_10 ~chi_20)
     2.20086367E-01    2     1000022   1000025   # BR(A -> ~chi_10 ~chi_30)
     2.77007532E-04    2     1000023   1000025   # BR(A -> ~chi_20 ~chi_30)
#
#         PDG            Width
DECAY        37     8.20121894E+00   # H+ decays
#          BR         NDA      ID1       ID2
     6.26530123E-04    2           4        -5   # BR(H+ -> c       bb     )
     6.79885389E-02    2         -15        16   # BR(H+ -> tau+    nu_tau )
     2.40412538E-04    2         -13        14   # BR(H+ -> mu+     nu_mu  )
     4.00977193E-06    2           2        -5   # BR(H+ -> u       bb     )
     1.41066600E-05    2           2        -3   # BR(H+ -> u       sb     )
     2.91725327E-04    2           4        -3   # BR(H+ -> c       sb     )
     5.53230460E-01    2           6        -5   # BR(H+ -> t       bb     )
     7.57969403E-05    2          24        25   # BR(H+ -> W+      h      )
     6.21807110E-13    2          24        36   # BR(H+ -> W+      A      )
     3.76381991E-01    2     1000024   1000022   # BR(H+ -> ~chi_1+ ~chi_10)
     1.12462884E-03    2     1000024   1000023   # BR(H+ -> ~chi_1+ ~chi_20)
     2.17989423E-05    2     1000024   1000025   # BR(H+ -> ~chi_1+ ~chi_30)
