#
#                              ======================
#                              | THE SUSYHIT OUTPUT |
#                              ======================
#
#
#              ------------------------------------------------------
#              |     This is the output of the SUSY-HIT package     |
#              |  created by A.Djouadi, M.Muehlleitner and M.Spira. |
#              |  In case of problems with SUSY-HIT email to        |
#              |           margarete.muehlleitner@kit.edu           |
#              |           michael.spira@psi.ch                     |
#              |           abdelhak.djouadi@cern.ch                 |
#              ------------------------------------------------------
#
#              ------------------------------------------------------
#              |  SUSY Les Houches Accord - MSSM Spectrum + Decays  |
#              |              based on the decay programs           |
#              |                                                    |
#              |                     SDECAY 1.5                     |
#              |                                                    |
#              |  Authors: M.Muhlleitner, A.Djouadi and Y.Mambrini  |
#              |  Ref.:    Comput.Phys.Commun.168(2005)46           |
#              |           [hep-ph/0311167]                         |
#              |                                                    |
#              |                     HDECAY 3.4                     |
#              |                                                    |
#              |  By: A.Djouadi,J.Kalinowski,M.Muhlleitner,M.Spira  |
#              |  Ref.:    Comput.Phys.Commun.108(1998)56           |
#              |           [hep-ph/9704448]                         |
#              |                                                    |
#              |                                                    |
#              |  If not stated otherwise all DRbar couplings and   |
#              |  soft SUSY breaking masses are given at the scale  |
#              |  Q=  0.91187600E+02
#              |                                                    |
#              ------------------------------------------------------
#
#
BLOCK DCINFO  # Decay Program information
     1   SDECAY/HDECAY # decay calculator
     2   1.5  /3.4    # version number
#
BLOCK SPINFO  # Spectrum calculator information
     1   SuSpect     # RGE +Spectrum calculator            
     2   2.43         # version number                     
#
BLOCK MODSEL  # Model selection
     1     2   # GMSB                                              
#
BLOCK SMINPUTS  # Standard Model inputs
         1     1.27932904E+02   # alpha_em^-1(M_Z)^MSbar
         2     1.16639000E-05   # G_F [GeV^-2]
         3     1.17200000E-01   # alpha_S(M_Z)^MSbar
         4     9.11870000E+01   # M_Z pole mass
         5     4.25000000E+00   # mb(mb)^MSbar
         6     1.72900000E+02   # mt pole mass
         7     1.77700000E+00   # mtau pole mass
#
BLOCK MINPAR  # Input parameters - minimal models
#
BLOCK EXTPAR  # Input parameters - non-minimal models
         0     9.11876000E+01   # EWSB                
         1     4.63000000E+02   # M_1                 
         2     3.00000000E+03   # M_2                 
         3     2.30000000E+03   # M_3                 
        11     0.00000000E+00   # A_t                 
        12     0.00000000E+00   # A_b                 
        13     0.00000000E+00   # A_tau               
        14     0.00000000E+00   # A_u                 
        15     0.00000000E+00   # A_d                 
        16     0.00000000E+00   # A_e                 
        23     4.50000000E+02   # mu(EWSB)            
        25     1.50000000E+00   # tanbeta(in)         
        26     2.00000000E+03   # MA_pole             
        31     5.00000000E+03   # M_eL                
        32     5.00000000E+03   # M_muL               
        33     5.00000000E+03   # M_tauL              
        34     5.00000000E+03   # M_eR                
        35     5.00000000E+03   # M_muR               
        36     5.00000000E+03   # M_tauR              
        41     5.00000000E+03   # M_q1L               
        42     5.00000000E+03   # M_q2L               
        43     5.00000000E+03   # M_q3L               
        44     5.00000000E+03   # M_uR                
        45     5.00000000E+03   # M_cR                
        46     5.00000000E+03   # M_tR                
        47     5.00000000E+03   # M_dR                
        48     5.00000000E+03   # M_sR                
        49     5.00000000E+03   # M_bR                
#
BLOCK MASS  # Mass Spectrum
# PDG code           mass       particle
        24     8.05385972E+01   # W+
        25     1.26000000E+02   # h
        35     2.00423242E+03   # H
        36     2.00000000E+03   # A
        37     2.00201283E+03   # H+
         5     4.87877839E+00   # b-quark pole mass calculated from mb(mb)_Msbar
   1000001     4.90936617E+03   # ~d_L
   2000001     4.90925536E+03   # ~d_R
   1000002     4.90911850E+03   # ~u_L
   2000002     4.90917720E+03   # ~u_R
   1000003     4.90936617E+03   # ~s_L
   2000003     4.90925536E+03   # ~s_R
   1000004     4.90911850E+03   # ~c_L
   2000004     4.90917720E+03   # ~c_R
   1000005     4.90911681E+03   # ~b_1
   2000005     4.90950619E+03   # ~b_2
   1000006     5.04093915E+03   # ~t_1
   2000006     5.34403947E+03   # ~t_2
   1000011     5.00008242E+03   # ~e_L
   2000011     5.00007601E+03   # ~e_R
   1000012     4.99984157E+03   # ~nu_eL
   1000013     5.00008242E+03   # ~mu_L
   2000013     5.00007601E+03   # ~mu_R
   1000014     4.99984157E+03   # ~nu_muL
   1000015     4.99995950E+03   # ~tau_1
   2000015     5.00019955E+03   # ~tau_2
   1000016     4.99984157E+03   # ~nu_tauL
   1000021     2.32579047E+03   # ~g
   1000022     4.42373344E+02   # ~chi_10
   1000023    -4.84209088E+02   # ~chi_20
   1000025     5.29943395E+02   # ~chi_30
   1000035     3.12901629E+03   # ~chi_40
   1000024     4.81854022E+02   # ~chi_1+
   1000037     3.12901573E+03   # ~chi_2+
   1000039     1.00000000E-09   # ~gravitino
#
BLOCK NMIX  # Neutralino Mixing Matrix
  1  1     6.70857185E-01   # N_11
  1  2    -2.13890471E-02   # N_12
  1  3     5.28858875E-01   # N_13
  1  4    -5.19424140E-01   # N_14
  2  1     8.97793657E-03   # N_21
  2  2    -4.31381561E-03   # N_22
  2  3    -7.06541256E-01   # N_23
  2  4    -7.07601753E-01   # N_24
  3  1     7.41532053E-01   # N_31
  3  2     2.00750526E-02   # N_32
  3  3    -4.69887527E-01   # N_33
  3  4     4.78469350E-01   # N_34
  4  1     4.98789217E-04   # N_41
  4  2    -9.99560349E-01   # N_42
  4  3    -1.77046994E-02   # N_43
  4  4     2.37782023E-02   # N_44
#
BLOCK UMIX  # Chargino Mixing Matrix U
  1  1    -2.50292555E-02   # U_11
  1  2     9.99686719E-01   # U_12
  2  1     9.99686719E-01   # U_21
  2  2     2.50292555E-02   # U_22
#
BLOCK VMIX  # Chargino Mixing Matrix V
  1  1    -3.36214966E-02   # V_11
  1  2     9.99434638E-01   # V_12
  2  1     9.99434638E-01   # V_21
  2  2     3.36214966E-02   # V_22
#
BLOCK STOPMIX  # Stop Mixing Matrix
  1  1     9.99774477E-01   # cos(theta_t)
  1  2    -2.12366461E-02   # sin(theta_t)
  2  1     2.12366461E-02   # -sin(theta_t)
  2  2     9.99774477E-01   # cos(theta_t)
#
BLOCK SBOTMIX  # Sbottom Mixing Matrix
  1  1     5.98092028E-01   # cos(theta_b)
  1  2     8.01427430E-01   # sin(theta_b)
  2  1    -8.01427430E-01   # -sin(theta_b)
  2  2     5.98092028E-01   # cos(theta_b)
#
BLOCK STAUMIX  # Stau Mixing Matrix
  1  1     6.97596826E-01   # cos(theta_tau)
  1  2     7.16490522E-01   # sin(theta_tau)
  2  1    -7.16490522E-01   # -sin(theta_tau)
  2  2     6.97596826E-01   # cos(theta_tau)
#
BLOCK ALPHA  # Higgs mixing
          -5.90209850E-01   # Mixing angle in the neutral Higgs boson sector
#
BLOCK HMIX Q=  9.11876000E+01  # DRbar Higgs Parameters
         1     4.50000000E+02   # mu(Q)               
         2     1.49999979E+00   # tanbeta(Q)          
         3     2.51893394E+02   # vev(Q)              
         4     3.74975523E+06   # MA^2(Q)             
#
BLOCK GAUGE Q=  9.11876000E+01  # The gauge couplings
     1     3.52960595E-01   # gprime(Q) DRbar
     2     6.28305888E-01   # g(Q) DRbar
     3     1.07821998E+00   # g3(Q) DRbar
#
BLOCK AU Q=  9.11876000E+01  # The trilinear couplings
  1  1     0.00000000E+00   # A_u(Q) DRbar
  2  2     0.00000000E+00   # A_c(Q) DRbar
  3  3     0.00000000E+00   # A_t(Q) DRbar
#
BLOCK AD Q=  9.11876000E+01  # The trilinear couplings
  1  1     0.00000000E+00   # A_d(Q) DRbar
  2  2     0.00000000E+00   # A_s(Q) DRbar
  3  3     0.00000000E+00   # A_b(Q) DRbar
#
BLOCK AE Q=  9.11876000E+01  # The trilinear couplings
  1  1     0.00000000E+00   # A_e(Q) DRbar
  2  2     0.00000000E+00   # A_mu(Q) DRbar
  3  3     0.00000000E+00   # A_tau(Q) DRbar
#
BLOCK Yu Q=  9.11876000E+01  # The Yukawa couplings
  1  1     0.00000000E+00   # y_u(Q) DRbar
  2  2     0.00000000E+00   # y_c(Q) DRbar
  3  3     1.02681276E+00   # y_t(Q) DRbar
#
BLOCK Yd Q=  9.11876000E+01  # The Yukawa couplings
  1  1     0.00000000E+00   # y_d(Q) DRbar
  2  2     0.00000000E+00   # y_s(Q) DRbar
  3  3     2.72155989E-02   # y_b(Q) DRbar
#
BLOCK Ye Q=  9.11876000E+01  # The Yukawa couplings
  1  1     0.00000000E+00   # y_e(Q) DRbar
  2  2     0.00000000E+00   # y_mu(Q) DRbar
  3  3     1.79911427E-02   # y_tau(Q) DRbar
#
BLOCK MSOFT Q=  9.11876000E+01  # The soft SUSY breaking masses at the scale Q
         1     4.63000000E+02   # M_1                 
         2     3.00000000E+03   # M_2                 
         3     2.30000000E+03   # M_3                 
        14     0.00000000E+00   # A_u                 
        15     0.00000000E+00   # A_d                 
        16     0.00000000E+00   # A_e                 
        21     2.83411310E+06   # M^2_Hd              
        22    -5.55343986E+06   # M^2_Hu              
        31     5.00000000E+03   # M_eL                
        32     5.00000000E+03   # M_muL               
        33     5.00000000E+03   # M_tauL              
        34     5.00000000E+03   # M_eR                
        35     5.00000000E+03   # M_muR               
        36     5.00000000E+03   # M_tauR              
        41     5.00000000E+03   # M_q1L               
        42     5.00000000E+03   # M_q2L               
        43     5.00000000E+03   # M_q3L               
        44     5.00000000E+03   # M_uR                
        45     5.00000000E+03   # M_cR                
        46     5.00000000E+03   # M_tR                
        47     5.00000000E+03   # M_dR                
        48     5.00000000E+03   # M_sR                
        49     5.00000000E+03   # M_bR                
#
#
#
#                             =================
#                             |The decay table|
#                             =================
#
# - The QCD corrections to the decays gluino -> squark  + quark
#                                     squark -> gaugino + quark_prime
#                                     squark -> squark_prime + Higgs
#                                     squark -> gluino  + quark
#   are included.
#
# - The multi-body decays for the inos, stops and sbottoms are included.
#
# - The loop induced decays for the gluino, neutralinos and stops
#   are included.
#
# - The SUSY decays of the top quark are included.
#
# - Possible decays of the NLSP in GMSB models are included.
#
#
#         PDG            Width
DECAY         6     1.37553743E+00   # top decays
#          BR         NDA      ID1       ID2
     1.00000000E+00    2           5        24   # BR(t ->  b    W+)
#
#         PDG            Width
DECAY   1000021     6.90820846E-03   # gluino decays
#          BR         NDA      ID1       ID2
     3.42934203E-03    2     1000022        21   # BR(~g -> ~chi_10 g)
     6.05873812E-03    2     1000023        21   # BR(~g -> ~chi_20 g)
     2.56375913E-03    2     1000025        21   # BR(~g -> ~chi_30 g)
#          BR         NDA      ID1       ID2
0.0E+00    2     1000039    21 # BR(~g -> ~G      g)
#           BR         NDA      ID1       ID2       ID3
     4.14457263E-03    3     1000022         1        -1   # BR(~g -> ~chi_10 d  db)
     1.24125988E-06    3     1000023         1        -1   # BR(~g -> ~chi_20 d  db)
     4.11744780E-03    3     1000025         1        -1   # BR(~g -> ~chi_30 d  db)
     1.28825869E-02    3     1000022         2        -2   # BR(~g -> ~chi_10 u  ub)
     1.37039127E-06    3     1000023         2        -2   # BR(~g -> ~chi_20 u  ub)
     1.50641199E-02    3     1000025         2        -2   # BR(~g -> ~chi_30 u  ub)
     4.14457263E-03    3     1000022         3        -3   # BR(~g -> ~chi_10 s  sb)
     1.24125988E-06    3     1000023         3        -3   # BR(~g -> ~chi_20 s  sb)
     4.11744780E-03    3     1000025         3        -3   # BR(~g -> ~chi_30 s  sb)
     1.28825869E-02    3     1000022         4        -4   # BR(~g -> ~chi_10 c  cb)
     1.37039127E-06    3     1000023         4        -4   # BR(~g -> ~chi_20 c  cb)
     1.50641199E-02    3     1000025         4        -4   # BR(~g -> ~chi_30 c  cb)
     4.24996847E-03    3     1000022         5        -5   # BR(~g -> ~chi_10 b  bb)
     2.07742274E-04    3     1000023         5        -5   # BR(~g -> ~chi_20 b  bb)
     4.21612328E-03    3     1000025         5        -5   # BR(~g -> ~chi_30 b  bb)
     1.14999964E-01    3     1000022         6        -6   # BR(~g -> ~chi_10 t  tb)
     2.03658033E-01    3     1000023         6        -6   # BR(~g -> ~chi_20 t  tb)
     1.10779614E-01    3     1000025         6        -6   # BR(~g -> ~chi_30 t  tb)
     8.23380309E-05    3     1000024         1        -2   # BR(~g -> ~chi_1+ d  ub)
     8.23380309E-05    3    -1000024         2        -1   # BR(~g -> ~chi_1- u  db)
     8.23380309E-05    3     1000024         3        -4   # BR(~g -> ~chi_1+ s  cb)
     8.23380309E-05    3    -1000024         4        -3   # BR(~g -> ~chi_1- c  sb)
     2.32871549E-01    3     1000024         5        -6   # BR(~g -> ~chi_1+ b  tb)
     2.32871549E-01    3    -1000024         6        -5   # BR(~g -> ~chi_1- t  bb)
#
#         PDG            Width
DECAY   1000006     2.64739496E+02   # stop1 decays
#          BR         NDA      ID1       ID2
     7.06570126E-02    2     1000022         6   # BR(~t_1 -> ~chi_10 t )
     1.34267344E-01    2     1000023         6   # BR(~t_1 -> ~chi_20 t )
     6.56347053E-02    2     1000025         6   # BR(~t_1 -> ~chi_30 t )
     2.75379704E-02    2     1000035         6   # BR(~t_1 -> ~chi_40 t )
     2.00630310E-04    2     1000024         5   # BR(~t_1 -> ~chi_1+ b )
     5.48863739E-02    2     1000037         5   # BR(~t_1 -> ~chi_2+ b )
     6.24377915E-01    2     1000021         6   # BR(~t_1 -> ~g      t )
     8.09849002E-03    2     1000005        24   # BR(~t_1 -> ~b_1    W+)
     1.43395584E-02    2     2000005        24   # BR(~t_1 -> ~b_2    W+)
#
#         PDG            Width
DECAY   2000006     3.46923832E+02   # stop2 decays
#          BR         NDA      ID1       ID2
     7.57668367E-02    2     1000022         6   # BR(~t_2 -> ~chi_10 t )
     1.09661043E-01    2     1000023         6   # BR(~t_2 -> ~chi_20 t )
     6.55419376E-02    2     1000025         6   # BR(~t_2 -> ~chi_30 t )
    -2.86043724E-05    2     1000035         6   # BR(~t_2 -> ~chi_40 t )
     2.19259108E-01    2     1000024         5   # BR(~t_2 -> ~chi_1+ b )
    -5.73004028E-05    2     1000037         5   # BR(~t_2 -> ~chi_2+ b )
     5.29422044E-01    2     1000021         6   # BR(~t_2 -> ~g      t )
    -9.48175986E-05    2     1000006        25   # BR(~t_2 -> ~t_1    h )
     7.71680001E-05    2     1000006        23   # BR(~t_2 -> ~t_1    Z )
     1.62085050E-04    2     1000005        24   # BR(~t_2 -> ~b_1    W+)
     2.90499351E-04    2     2000005        24   # BR(~t_2 -> ~b_2    W+)
#
#         PDG            Width
DECAY   1000005     1.69233257E+02   # sbottom1 decays
#          BR         NDA      ID1       ID2
     7.16045292E-03    2     1000022         5   # BR(~b_1 -> ~chi_10 b )
     1.15535336E-04    2     1000023         5   # BR(~b_1 -> ~chi_20 b )
     6.40029994E-03    2     1000025         5   # BR(~b_1 -> ~chi_30 b )
     6.13607267E-03    2     1000035         5   # BR(~b_1 -> ~chi_40 b )
     3.14543449E-02    2    -1000024         6   # BR(~b_1 -> ~chi_1- t )
     1.22991702E-02    2    -1000037         6   # BR(~b_1 -> ~chi_2- t )
     9.36434124E-01    2     1000021         5   # BR(~b_1 -> ~g      b )
#
#         PDG            Width
DECAY   2000005     2.39860237E+02   # sbottom2 decays
#          BR         NDA      ID1       ID2
     1.50398140E-03    2     1000022         5   # BR(~b_2 -> ~chi_10 b )
     1.25880993E-04    2     1000023         5   # BR(~b_2 -> ~chi_20 b )
     2.46213515E-03    2     1000025         5   # BR(~b_2 -> ~chi_30 b )
     2.31440671E-02    2     1000035         5   # BR(~b_2 -> ~chi_40 b )
     2.66099790E-01    2    -1000024         6   # BR(~b_2 -> ~chi_1- t )
     4.64536226E-02    2    -1000037         6   # BR(~b_2 -> ~chi_2- t )
     6.60210523E-01    2     1000021         5   # BR(~b_2 -> ~g      b )
#
#         PDG            Width
DECAY   1000002     1.78857425E+02   # sup_L decays
#          BR         NDA      ID1       ID2
     1.10758502E-03    2     1000022         2   # BR(~u_L -> ~chi_10 u)
     7.04368562E-07    2     1000023         2   # BR(~u_L -> ~chi_20 u)
     2.55737772E-03    2     1000025         2   # BR(~u_L -> ~chi_30 u)
     3.68207712E-02    2     1000035         2   # BR(~u_L -> ~chi_40 u)
     2.29803981E-04    2     1000024         1   # BR(~u_L -> ~chi_1+ d)
     7.36368168E-02    2     1000037         1   # BR(~u_L -> ~chi_2+ d)
     8.85646941E-01    2     1000021         2   # BR(~u_L -> ~g      u)
#
#         PDG            Width
DECAY   2000002     1.68599890E+02   # sup_R decays
#          BR         NDA      ID1       ID2
     2.73070167E-02    2     1000022         2   # BR(~u_R -> ~chi_10 u)
     4.87539099E-06    2     1000023         2   # BR(~u_R -> ~chi_20 u)
     3.31345922E-02    2     1000025         2   # BR(~u_R -> ~chi_30 u)
     5.45816605E-09    2     1000035         2   # BR(~u_R -> ~chi_40 u)
     9.39553510E-01    2     1000021         2   # BR(~u_R -> ~g      u)
#
#         PDG            Width
DECAY   1000001     1.78863774E+02   # sdown_L decays
#          BR         NDA      ID1       ID2
     2.20331088E-03    2     1000022         1   # BR(~d_L -> ~chi_10 d)
     3.65255582E-06    2     1000023         1   # BR(~d_L -> ~chi_20 d)
     1.42849360E-03    2     1000025         1   # BR(~d_L -> ~chi_30 d)
     3.68401270E-02    2     1000035         1   # BR(~d_L -> ~chi_40 d)
     1.27358239E-04    2    -1000024         2   # BR(~d_L -> ~chi_1- u)
     7.36851498E-02    2    -1000037         2   # BR(~d_L -> ~chi_2- u)
     8.85711908E-01    2     1000021         1   # BR(~d_L -> ~g      d)
#
#         PDG            Width
DECAY   2000001     1.60961921E+02   # sdown_R decays
#          BR         NDA      ID1       ID2
     7.15081703E-03    2     1000022         1   # BR(~d_R -> ~chi_10 d)
     1.27670601E-06    2     1000023         1   # BR(~d_R -> ~chi_20 d)
     8.67687089E-03    2     1000025         1   # BR(~d_R -> ~chi_30 d)
     1.42937624E-09    2     1000035         1   # BR(~d_R -> ~chi_40 d)
     9.84171034E-01    2     1000021         1   # BR(~d_R -> ~g      d)
#
#         PDG            Width
DECAY   1000004     1.78857425E+02   # scharm_L decays
#          BR         NDA      ID1       ID2
     1.10758502E-03    2     1000022         4   # BR(~c_L -> ~chi_10 c)
     7.04368562E-07    2     1000023         4   # BR(~c_L -> ~chi_20 c)
     2.55737772E-03    2     1000025         4   # BR(~c_L -> ~chi_30 c)
     3.68207712E-02    2     1000035         4   # BR(~c_L -> ~chi_40 c)
     2.29803981E-04    2     1000024         3   # BR(~c_L -> ~chi_1+ s)
     7.36368168E-02    2     1000037         3   # BR(~c_L -> ~chi_2+ s)
     8.85646941E-01    2     1000021         4   # BR(~c_L -> ~g      c)
#
#         PDG            Width
DECAY   2000004     1.68599890E+02   # scharm_R decays
#          BR         NDA      ID1       ID2
     2.73070167E-02    2     1000022         4   # BR(~c_R -> ~chi_10 c)
     4.87539099E-06    2     1000023         4   # BR(~c_R -> ~chi_20 c)
     3.31345922E-02    2     1000025         4   # BR(~c_R -> ~chi_30 c)
     5.45816605E-09    2     1000035         4   # BR(~c_R -> ~chi_40 c)
     9.39553510E-01    2     1000021         4   # BR(~c_R -> ~g      c)
#
#         PDG            Width
DECAY   1000003     1.78863774E+02   # sstrange_L decays
#          BR         NDA      ID1       ID2
     2.20331088E-03    2     1000022         3   # BR(~s_L -> ~chi_10 s)
     3.65255582E-06    2     1000023         3   # BR(~s_L -> ~chi_20 s)
     1.42849360E-03    2     1000025         3   # BR(~s_L -> ~chi_30 s)
     3.68401270E-02    2     1000035         3   # BR(~s_L -> ~chi_40 s)
     1.27358239E-04    2    -1000024         4   # BR(~s_L -> ~chi_1- c)
     7.36851498E-02    2    -1000037         4   # BR(~s_L -> ~chi_2- c)
     8.85711908E-01    2     1000021         3   # BR(~s_L -> ~g      s)
#
#         PDG            Width
DECAY   2000003     1.60961921E+02   # sstrange_R decays
#          BR         NDA      ID1       ID2
     7.15081703E-03    2     1000022         3   # BR(~s_R -> ~chi_10 s)
     1.27670601E-06    2     1000023         3   # BR(~s_R -> ~chi_20 s)
     8.67687089E-03    2     1000025         3   # BR(~s_R -> ~chi_30 s)
     1.42937624E-09    2     1000035         3   # BR(~s_R -> ~chi_40 s)
     9.84171034E-01    2     1000021         3   # BR(~s_R -> ~g      s)
#
#         PDG            Width
DECAY   1000011     2.79087338E+01   # selectron_L decays
#          BR         NDA      ID1       ID2
     8.75130671E-02    2     1000022        11   # BR(~e_L -> ~chi_10 e-)
     3.67586831E-07    2     1000023        11   # BR(~e_L -> ~chi_20 e-)
     1.31134990E-01    2     1000025        11   # BR(~e_L -> ~chi_30 e-)
     2.60020969E-01    2     1000035        11   # BR(~e_L -> ~chi_40 e-)
     8.65169096E-04    2    -1000024        12   # BR(~e_L -> ~chi_1- nu_e)
     5.20465438E-01    2    -1000037        12   # BR(~e_L -> ~chi_2- nu_e)
#
#         PDG            Width
DECAY   2000011     2.43065677E+01   # selectron_R decays
#          BR         NDA      ID1       ID2
     4.51751967E-01    2     1000022        11   # BR(~e_R -> ~chi_10 e-)
     8.06555974E-05    2     1000023        11   # BR(~e_R -> ~chi_20 e-)
     5.48167284E-01    2     1000025        11   # BR(~e_R -> ~chi_30 e-)
     9.38972018E-08    2     1000035        11   # BR(~e_R -> ~chi_40 e-)
#
#         PDG            Width
DECAY   1000013     2.79087338E+01   # smuon_L decays
#          BR         NDA      ID1       ID2
     8.75130671E-02    2     1000022        13   # BR(~mu_L -> ~chi_10 mu-)
     3.67586831E-07    2     1000023        13   # BR(~mu_L -> ~chi_20 mu-)
     1.31134990E-01    2     1000025        13   # BR(~mu_L -> ~chi_30 mu-)
     2.60020969E-01    2     1000035        13   # BR(~mu_L -> ~chi_40 mu-)
     8.65169096E-04    2    -1000024        14   # BR(~mu_L -> ~chi_1- nu_mu)
     5.20465438E-01    2    -1000037        14   # BR(~mu_L -> ~chi_2- nu_mu)
#
#         PDG            Width
DECAY   2000013     2.43065677E+01   # smuon_R decays
#          BR         NDA      ID1       ID2
     4.51751967E-01    2     1000022        13   # BR(~mu_R -> ~chi_10 mu-)
     8.06555974E-05    2     1000023        13   # BR(~mu_R -> ~chi_20 mu-)
     5.48167284E-01    2     1000025        13   # BR(~mu_R -> ~chi_30 mu-)
     9.38972018E-08    2     1000035        13   # BR(~mu_R -> ~chi_40 mu-)
#
#         PDG            Width
DECAY   1000015     2.61373343E+01   # stau_1 decays
#          BR         NDA      ID1       ID2
     2.67790166E-01    2     1000022        15   # BR(~tau_1 -> ~chi_10  tau-)
     4.44887980E-04    2     1000023        15   # BR(~tau_1 -> ~chi_20  tau-)
     3.24575978E-01    2     1000025        15   # BR(~tau_1 -> ~chi_30  tau-)
     1.34901736E-01    2     1000035        15   # BR(~tau_1 -> ~chi_40  tau-)
     2.12597258E-03    2    -1000024        16   # BR(~tau_1 -> ~chi_1-  nu_tau)
     2.70023616E-01    2    -1000037        16   # BR(~tau_1 -> ~chi_2-  nu_tau)
     1.37644083E-04    2     1000039        15   # BR(~tau_1 -> ~G       tau-)
#
#         PDG            Width
DECAY   2000015     2.61763417E+01   # stau_2 decays
#          BR         NDA      ID1       ID2
     2.46073190E-01    2     1000022        15   # BR(~tau_2 -> ~chi_10  tau-)
     8.36180743E-04    2     1000023        15   # BR(~tau_2 -> ~chi_20  tau-)
     3.25265177E-01    2     1000025        15   # BR(~tau_2 -> ~chi_30  tau-)
     1.42529434E-01    2     1000035        15   # BR(~tau_2 -> ~chi_40  tau-)
     6.10240762E-06    2    -1000024        16   # BR(~tau_2 -> ~chi_1-  nu_tau)
     2.85289916E-01    2    -1000037        16   # BR(~tau_2 -> ~chi_2-  nu_tau)
#
#         PDG            Width
DECAY   1000012     2.79076887E+01   # snu_eL decays
#          BR         NDA      ID1       ID2
     1.09841808E-01    2     1000022        12   # BR(~nu_eL -> ~chi_10 nu_e)
     6.04494045E-05    2     1000023        12   # BR(~nu_eL -> ~chi_20 nu_e)
     1.08126123E-01    2     1000025        12   # BR(~nu_eL -> ~chi_30 nu_e)
     2.60277617E-01    2     1000035        12   # BR(~nu_eL -> ~chi_40 nu_e)
     1.56111097E-03    2     1000024        11   # BR(~nu_eL -> ~chi_1+ e-)
     5.20132891E-01    2     1000037        11   # BR(~nu_eL -> ~chi_2+ e-)
#
#         PDG            Width
DECAY   1000014     2.79076887E+01   # snu_muL decays
#          BR         NDA      ID1       ID2
     1.09841808E-01    2     1000022        14   # BR(~nu_muL -> ~chi_10 nu_mu)
     6.04494045E-05    2     1000023        14   # BR(~nu_muL -> ~chi_20 nu_mu)
     1.08126123E-01    2     1000025        14   # BR(~nu_muL -> ~chi_30 nu_mu)
     2.60277617E-01    2     1000035        14   # BR(~nu_muL -> ~chi_40 nu_mu)
     1.56111097E-03    2     1000024        13   # BR(~nu_muL -> ~chi_1+ mu-)
     5.20132891E-01    2     1000037        13   # BR(~nu_muL -> ~chi_2+ mu-)
#
#         PDG            Width
DECAY   1000016     2.79392774E+01   # snu_tauL decays
#          BR         NDA      ID1       ID2
     1.09717619E-01    2     1000022        16   # BR(~nu_tauL -> ~chi_10 nu_tau)
     6.03810593E-05    2     1000023        16   # BR(~nu_tauL -> ~chi_20 nu_tau)
     1.08003874E-01    2     1000025        16   # BR(~nu_tauL -> ~chi_30 nu_tau)
     2.59983342E-01    2     1000035        16   # BR(~nu_tauL -> ~chi_40 nu_tau)
     2.68950785E-03    2     1000024        15   # BR(~nu_tauL -> ~chi_1+ tau-)
     5.19545276E-01    2     1000037        15   # BR(~nu_tauL -> ~chi_2+ tau-)
#
#         PDG            Width
DECAY   1000024     6.07703832E-05   # chargino1+ decays
#          BR         NDA      ID1       ID2
     2.20742342E-04    2     1000039        24   # BR(~chi_1+ -> ~G       W+)
#           BR         NDA      ID1       ID2       ID3
     3.33631026E-01    3     1000022         2        -1   # BR(~chi_1+ -> ~chi_10 u    db)
     3.33631026E-01    3     1000022         4        -3   # BR(~chi_1+ -> ~chi_10 c    sb)
     1.11210468E-01    3     1000022       -11        12   # BR(~chi_1+ -> ~chi_10 e+   nu_e)
     1.11210468E-01    3     1000022       -13        14   # BR(~chi_1+ -> ~chi_10 mu+  nu_mu)
     1.10096268E-01    3     1000022       -15        16   # BR(~chi_1+ -> ~chi_10 tau+ nu_tau)
#
#         PDG            Width
DECAY   1000037     3.50062361E+01   # chargino2+ decays
#          BR         NDA      ID1       ID2
     2.21830243E-01    2     1000024        23   # BR(~chi_2+ -> ~chi_1+  Z )
     1.12656248E-01    2     1000022        24   # BR(~chi_2+ -> ~chi_10  W+)
     2.16303019E-01    2     1000023        24   # BR(~chi_2+ -> ~chi_20  W+)
     1.03638364E-01    2     1000025        24   # BR(~chi_2+ -> ~chi_30  W+)
     2.22777609E-01    2     1000024        25   # BR(~chi_2+ -> ~chi_1+  h )
     3.05820785E-02    2     1000024        35   # BR(~chi_2+ -> ~chi_1+  H )
     3.08258305E-02    2     1000024        36   # BR(~chi_2+ -> ~chi_1+  A )
     1.79954259E-02    2     1000022        37   # BR(~chi_2+ -> ~chi_10  H+)
     3.05894105E-02    2     1000023        37   # BR(~chi_2+ -> ~chi_20  H+)
     1.27919348E-02    2     1000025        37   # BR(~chi_2+ -> ~chi_30  H+)
     9.83545097E-06    2     1000039        24   # BR(~chi_2+ -> ~G       W+)
     4.69075620E-10    2     1000039        37   # BR(~chi_2+ -> ~G       H+)
#
#         PDG            Width
DECAY   1000022    1.0E-05    # neutralino1 decays
#          BR         NDA      ID1       ID2
     5.00495048E-01    2     1000039        22   # BR(~chi_10 -> ~G        gam)
     4.89323934E-01    2     1000039        23   # BR(~chi_10 -> ~G        Z)
     1.01810172E-02    2     1000039        25   # BR(~chi_10 -> ~G        h)
#
#         PDG            Width
DECAY   1000023     6.56308512E-05   # neutralino2 decays
#          BR         NDA      ID1       ID2
     8.01675903E-04    2     1000022        22   # BR(~chi_20 -> ~chi_10 gam)
#          BR         NDA      ID1       ID2
     1.52481036E-08    2     1000039        22   # BR(~chi_20 -> ~G        gam)
     7.85612286E-06    2     1000039        23   # BR(~chi_20 -> ~G        Z)
     1.69763369E-04    2     1000039        25   # BR(~chi_20 -> ~G        h)
#           BR         NDA      ID1       ID2       ID3
     1.19101940E-01    3     1000022        -2         2   # BR(~chi_20 -> ~chi_10 ub      u)
     1.54182610E-01    3     1000022        -1         1   # BR(~chi_20 -> ~chi_10 db      d)
     1.19101940E-01    3     1000022        -4         4   # BR(~chi_20 -> ~chi_10 cb      c)
     1.54182610E-01    3     1000022        -3         3   # BR(~chi_20 -> ~chi_10 sb      s)
     1.36466511E-01    3     1000022        -5         5   # BR(~chi_20 -> ~chi_10 bb      b)
     3.51959227E-02    3     1000022       -11        11   # BR(~chi_20 -> ~chi_10 e+      e-)
     3.51959227E-02    3     1000022       -13        13   # BR(~chi_20 -> ~chi_10 mu+     mu-)
     3.47594970E-02    3     1000022       -15        15   # BR(~chi_20 -> ~chi_10 tau+    tau-)
     7.02771818E-02    3     1000022       -12        12   # BR(~chi_20 -> ~chi_10 nu_eb   nu_e)
     7.02771818E-02    3     1000022       -14        14   # BR(~chi_20 -> ~chi_10 nu_mub  nu_mu)
     7.02771818E-02    3     1000022       -16        16   # BR(~chi_20 -> ~chi_10 nu_taub nu_tau)
     4.08907658E-07    3     1000024        -2         1   # BR(~chi_20 -> ~chi_1+ ub      d)
     4.08907658E-07    3    -1000024        -1         2   # BR(~chi_20 -> ~chi_1- db      u)
     4.08907658E-07    3     1000024        -4         3   # BR(~chi_20 -> ~chi_1+ cb      s)
     4.08907658E-07    3    -1000024        -3         4   # BR(~chi_20 -> ~chi_1- sb      c)
     1.36302567E-07    3     1000024       -12        11   # BR(~chi_20 -> ~chi_1+ nu_eb   e-)
     1.36302567E-07    3    -1000024        12       -11   # BR(~chi_20 -> ~chi_1- nu_e    e+)
     1.36302567E-07    3     1000024       -14        13   # BR(~chi_20 -> ~chi_1+ nu_mub  mu-)
     1.36302567E-07    3    -1000024        14       -13   # BR(~chi_20 -> ~chi_1- nu_mu   mu+)
     4.81861311E-09    3     1000024       -16        15   # BR(~chi_20 -> ~chi_1+ nu_taub tau-)
     4.81861311E-09    3    -1000024        16       -15   # BR(~chi_20 -> ~chi_1- nu_tau  tau+)
#
#         PDG            Width
DECAY   1000025     3.73820517E-04   # neutralino3 decays
#          BR         NDA      ID1       ID2
     2.16818671E-04    2     1000022        22   # BR(~chi_30 -> ~chi_10 gam)
     5.22981721E-04    2     1000023        22   # BR(~chi_30 -> ~chi_20 gam)
#          BR         NDA      ID1       ID2
     5.54527985E-05    2     1000039        22   # BR(~chi_30 -> ~G        gam)
     3.84073203E-05    2     1000039        23   # BR(~chi_30 -> ~G        Z)
     9.43461707E-07    2     1000039        25   # BR(~chi_30 -> ~G        h)
#           BR         NDA      ID1       ID2       ID3
     3.25838926E-08    3     1000022        -2         2   # BR(~chi_30 -> ~chi_10 ub      u)
     2.99633765E-08    3     1000022        -1         1   # BR(~chi_30 -> ~chi_10 db      d)
     3.25838926E-08    3     1000022        -4         4   # BR(~chi_30 -> ~chi_10 cb      c)
     2.99633765E-08    3     1000022        -3         3   # BR(~chi_30 -> ~chi_10 sb      s)
     1.00270722E-06    3     1000022        -5         5   # BR(~chi_30 -> ~chi_10 bb      b)
     8.52917804E-08    3     1000022       -11        11   # BR(~chi_30 -> ~chi_10 e+      e-)
     8.52917804E-08    3     1000022       -13        13   # BR(~chi_30 -> ~chi_10 mu+     mu-)
     2.31177597E-07    3     1000022       -15        15   # BR(~chi_30 -> ~chi_10 tau+    tau-)
     4.06691658E-09    3     1000022       -12        12   # BR(~chi_30 -> ~chi_10 nu_eb   nu_e)
     4.06691658E-09    3     1000022       -14        14   # BR(~chi_30 -> ~chi_10 nu_mub  nu_mu)
     4.06691658E-09    3     1000022       -16        16   # BR(~chi_30 -> ~chi_10 nu_taub nu_tau)
     2.74996972E-02    3     1000023        -2         2   # BR(~chi_30 -> ~chi_20 ub      u)
     3.55996813E-02    3     1000023        -1         1   # BR(~chi_30 -> ~chi_20 db      d)
     2.74996972E-02    3     1000023        -4         4   # BR(~chi_30 -> ~chi_20 cb      c)
     3.55996813E-02    3     1000023        -3         3   # BR(~chi_30 -> ~chi_20 sb      s)
     3.21153532E-02    3     1000023        -5         5   # BR(~chi_30 -> ~chi_20 bb      b)
     8.12656602E-03    3     1000023       -11        11   # BR(~chi_30 -> ~chi_20 e+      e-)
     8.12656602E-03    3     1000023       -13        13   # BR(~chi_30 -> ~chi_20 mu+     mu-)
     8.03830548E-03    3     1000023       -15        15   # BR(~chi_30 -> ~chi_20 tau+    tau-)
     1.62264012E-02    3     1000023       -12        12   # BR(~chi_30 -> ~chi_20 nu_eb   nu_e)
     1.62264012E-02    3     1000023       -14        14   # BR(~chi_30 -> ~chi_20 nu_mub  nu_mu)
     1.62264012E-02    3     1000023       -16        16   # BR(~chi_30 -> ~chi_20 nu_taub nu_tau)
     1.28075522E-01    3     1000024        -2         1   # BR(~chi_30 -> ~chi_1+ ub      d)
     1.28075522E-01    3    -1000024        -1         2   # BR(~chi_30 -> ~chi_1- db      u)
     1.28075522E-01    3     1000024        -4         3   # BR(~chi_30 -> ~chi_1+ cb      s)
     1.28075522E-01    3    -1000024        -3         4   # BR(~chi_30 -> ~chi_1- sb      c)
     4.26917545E-02    3     1000024       -12        11   # BR(~chi_30 -> ~chi_1+ nu_eb   e-)
     4.26917545E-02    3    -1000024        12       -11   # BR(~chi_30 -> ~chi_1- nu_e    e+)
     4.26917545E-02    3     1000024       -14        13   # BR(~chi_30 -> ~chi_1+ nu_mub  mu-)
     4.26917545E-02    3    -1000024        14       -13   # BR(~chi_30 -> ~chi_1- nu_mu   mu+)
     4.24049990E-02    3     1000024       -16        15   # BR(~chi_30 -> ~chi_1+ nu_taub tau-)
     4.24049990E-02    3    -1000024        16       -15   # BR(~chi_30 -> ~chi_1- nu_tau  tau+)
#
#         PDG            Width
DECAY   1000035     3.50066311E+01   # neutralino4 decays
#          BR         NDA      ID1       ID2
     2.28571140E-03    2     1000022        23   # BR(~chi_40 -> ~chi_10   Z )
     2.17346725E-01    2     1000023        23   # BR(~chi_40 -> ~chi_20   Z )
     2.33164863E-03    2     1000025        23   # BR(~chi_40 -> ~chi_30   Z )
     2.16114699E-01    2     1000024       -24   # BR(~chi_40 -> ~chi_1+   W-)
     2.16114699E-01    2    -1000024        24   # BR(~chi_40 -> ~chi_1-   W+)
     1.13874847E-01    2     1000022        25   # BR(~chi_40 -> ~chi_10   h )
     1.89596367E-03    2     1000022        35   # BR(~chi_40 -> ~chi_10   H )
     1.60729698E-02    2     1000022        36   # BR(~chi_40 -> ~chi_10   A )
     4.60491568E-03    2     1000023        25   # BR(~chi_40 -> ~chi_20   h )
     2.72038556E-02    2     1000023        35   # BR(~chi_40 -> ~chi_20   H )
     3.30321557E-03    2     1000023        36   # BR(~chi_40 -> ~chi_20   A )
     1.04533658E-01    2     1000025        25   # BR(~chi_40 -> ~chi_30   h )
     1.35083959E-03    2     1000025        35   # BR(~chi_40 -> ~chi_30   H )
     1.14246681E-02    2     1000025        36   # BR(~chi_40 -> ~chi_30   A )
     3.07658746E-02    2     1000024       -37   # BR(~chi_40 -> ~chi_1+   H-)
     3.07658746E-02    2    -1000024        37   # BR(~chi_40 -> ~chi_1-   H+)
     2.35998820E-06    2     1000039        22   # BR(~chi_40 -> ~G        gam)
     7.47462517E-06    2     1000039        23   # BR(~chi_40 -> ~G        Z)
     4.80491594E-10    2     1000039        25   # BR(~chi_40 -> ~G        h)
     4.65764946E-10    2     1000039        35   # BR(~chi_40 -> ~G        H)
     1.43403670E-12    2     1000039        36   # BR(~chi_40 -> ~G        A)
#
#         PDG            Width
DECAY        25     4.21781313E-03   # h decays
#          BR         NDA      ID1       ID2
     6.01741752E-01    2           5        -5   # BR(h -> b       bb     )
     6.22482776E-02    2         -15        15   # BR(h -> tau+    tau-   )
     2.20331764E-04    2         -13        13   # BR(h -> mu+     mu-    )
     4.66179215E-04    2           3        -3   # BR(h -> s       sb     )
     2.01112313E-02    2           4        -4   # BR(h -> c       cb     )
     6.64183556E-02    2          21        21   # BR(h -> g       g      )
     2.31232451E-03    2          22        22   # BR(h -> gam     gam    )
     1.62670507E-03    2          22        23   # BR(h -> Z       gam    )
     2.16770260E-01    2          24       -24   # BR(h -> W+      W-     )
     2.80845827E-02    2          23        23   # BR(h -> Z       Z      )
#
#         PDG            Width
DECAY        35     3.99040519E+01   # H decays
#          BR         NDA      ID1       ID2
     1.39612246E-03    2           5        -5   # BR(H -> b       bb     )
     2.33519992E-04    2         -15        15   # BR(H -> tau+    tau-   )
     8.25580112E-07    2         -13        13   # BR(H -> mu+     mu-    )
     1.05702767E-06    2           3        -3   # BR(H -> s       sb     )
     9.53970324E-06    2           4        -4   # BR(H -> c       cb     )
     9.43915319E-01    2           6        -6   # BR(H -> t       tb     )
     7.55913407E-04    2          21        21   # BR(H -> g       g      )
     2.63723042E-06    2          22        22   # BR(H -> gam     gam    )
     1.09850440E-06    2          23        22   # BR(H -> Z       gam    )
     3.19436109E-04    2          24       -24   # BR(H -> W+      W-     )
     1.59282419E-04    2          23        23   # BR(H -> Z       Z      )
     8.57356330E-04    2          25        25   # BR(H -> h       h      )
     9.24264102E-24    2          36        36   # BR(H -> A       A      )
     3.67218916E-11    2          23        36   # BR(H -> Z       A      )
     3.54977379E-12    2          24       -37   # BR(H -> W+      H-     )
     3.54977379E-12    2         -24        37   # BR(H -> W-      H+     )
     5.65258753E-05    2     1000024  -1000024   # BR(H -> ~chi_1+ ~chi_1-)
     9.95156621E-04    2     1000022   1000022   # BR(H -> ~chi_10 ~chi_10)
     2.27664028E-05    2     1000023   1000023   # BR(H -> ~chi_20 ~chi_20)
     5.62234354E-04    2     1000025   1000025   # BR(H -> ~chi_30 ~chi_30)
     2.57959305E-02    2     1000022   1000023   # BR(H -> ~chi_10 ~chi_20)
     1.23573400E-05    2     1000022   1000025   # BR(H -> ~chi_10 ~chi_30)
     2.49029207E-02    2     1000023   1000025   # BR(H -> ~chi_20 ~chi_30)
#
#         PDG            Width
DECAY        36     4.03526779E+01   # A decays
#          BR         NDA      ID1       ID2
     1.39884216E-03    2           5        -5   # BR(A -> b       bb     )
     2.31117657E-04    2         -15        15   # BR(A -> tau+    tau-   )
     8.17084408E-07    2         -13        13   # BR(A -> mu+     mu-    )
     1.07720783E-06    2           3        -3   # BR(A -> s       sb     )
     9.43977560E-06    2           4        -4   # BR(A -> c       cb     )
     9.44754127E-01    2           6        -6   # BR(A -> t       tb     )
     8.94227730E-04    2          21        21   # BR(A -> g       g      )
     2.66894055E-06    2          22        22   # BR(A -> gam     gam    )
     1.28092776E-06    2          23        22   # BR(A -> Z       gam    )
     3.11212374E-04    2          23        25   # BR(A -> Z       h      )
     6.47390265E-04    2     1000024  -1000024   # BR(A -> ~chi_1+ ~chi_1-)
     2.86091232E-02    2     1000022   1000022   # BR(A -> ~chi_10 ~chi_10)
     1.16213144E-06    2     1000023   1000023   # BR(A -> ~chi_20 ~chi_20)
     2.15252699E-02    2     1000025   1000025   # BR(A -> ~chi_30 ~chi_30)
     6.62169333E-04    2     1000022   1000023   # BR(A -> ~chi_10 ~chi_20)
     1.07998178E-04    2     1000022   1000025   # BR(A -> ~chi_10 ~chi_30)
     8.42075738E-04    2     1000023   1000025   # BR(A -> ~chi_20 ~chi_30)
#
#         PDG            Width
DECAY        37     3.95430606E+01   # H+ decays
#          BR         NDA      ID1       ID2
     2.24411981E-06    2           4        -5   # BR(H+ -> c       bb     )
     2.36086998E-04    2         -15        16   # BR(H+ -> tau+    nu_tau )
     8.34652820E-07    2         -13        14   # BR(H+ -> mu+     nu_mu  )
     1.42677540E-08    2           2        -5   # BR(H+ -> u       bb     )
     5.16884087E-08    2           2        -3   # BR(H+ -> u       sb     )
     1.02991104E-05    2           4        -3   # BR(H+ -> c       sb     )
     9.46646952E-01    2           6        -5   # BR(H+ -> t       bb     )
     3.18998185E-04    2          24        25   # BR(H+ -> W+      h      )
     1.09856136E-12    2          24        36   # BR(H+ -> W+      A      )
     2.39318044E-02    2     1000024   1000022   # BR(H+ -> ~chi_1+ ~chi_10)
     1.46296319E-04    2     1000024   1000023   # BR(H+ -> ~chi_1+ ~chi_20)
     2.87064181E-02    2     1000024   1000025   # BR(H+ -> ~chi_1+ ~chi_30)
