#
#                              ======================
#                              | THE SUSYHIT OUTPUT |
#                              ======================
#
#
#              ------------------------------------------------------
#              |     This is the output of the SUSY-HIT package     |
#              |  created by A.Djouadi, M.Muehlleitner and M.Spira. |
#              |  In case of problems with SUSY-HIT email to        |
#              |           margarete.muehlleitner@cern.ch           |
#              |           michael.spira@psi.ch                     |
#              |           abdelhak.djouadi@cern.ch                 |
#              ------------------------------------------------------
#
#              ------------------------------------------------------
#              |  SUSY Les Houches Accord - MSSM Spectrum + Decays  |
#              |              based on the decay programs           |
#              |                                                    |
#              |                     SDECAY 1.3b                    |
#              |                                                    |
#              |  Authors: M.Muhlleitner, A.Djouadi and Y.Mambrini  |
#              |  Ref.:    Comput.Phys.Commun.168(2005)46           |
#              |           [hep-ph/0311167]                         |
#              |                                                    |
#              |                     HDECAY 3.4                     |
#              |                                                    |
#              |  By: A.Djouadi,J.Kalinowski,M.Muhlleitner,M.Spira  |
#              |  Ref.:    Comput.Phys.Commun.108(1998)56           |
#              |           [hep-ph/9704448]                         |
#              |                                                    |
#              |                                                    |
#              |  If not stated otherwise all DRbar couplings and   |
#              |  soft SUSY breaking masses are given at the scale  |
#              |  Q=  0.50007046E+04
#              |                                                    |
#              ------------------------------------------------------
#
#
BLOCK DCINFO  # Decay Program information
     1   SDECAY/HDECAY # decay calculator
     2   1.3b  /3.4    # version number
#
BLOCK SPINFO  # Spectrum calculator information
     1    SOFTSUSY    # spectrum calculator                
     2    3.4.0       # version number                     
#
BLOCK MODSEL  # Model selection
     1     0   #  nonUniversal                                     
#
BLOCK SMINPUTS  # Standard Model inputs
         1     1.25778332E+02   # alpha_em^-1(M_Z)^MSbar
         2     1.16570000E-05   # G_F [GeV^-2]
         3     1.17200002E-01   # alpha_S(M_Z)^MSbar
         4     9.11876000E+01   # M_Z pole mass
         5     4.25000000E+00   # mb(mb)^MSbar
         6     1.72500000E+02   # mt pole mass
         7     1.77682000E+00   # mtau pole mass
#
BLOCK MINPAR  # Input parameters - minimal models
         3     1.00000000E+01   # tanb                
#
BLOCK EXTPAR  # Input parameters - non-minimal models
         0    -1.00000000E+00   # Set                 
         1     6.00000000E+01   # M_1(MX)             
         2     3.00000000E+03   # M_2(MX)             
         3     8.59147000E+02   # M_3(MX)             
        11     5.00000000E+03   # At(MX)              
        12     5.00000000E+03   # Ab(MX)              
        13     0.00000000E+00   # Atau(MX)            
        23    -1.54511800E+03   # mu(MX)              
        26     3.00000000E+03   # mA(pole)            
        31     5.00000000E+03   # meL(MX)             
        32     5.00000000E+03   # mmuL(MX)            
        33     5.00000000E+03   # mtauL(MX)           
        34     5.00000000E+03   # meR(MX)             
        35     5.00000000E+03   # mmuR(MX)            
        36     5.00000000E+03   # mtauR(MX)           
        41     5.00000000E+03   # mqL1(MX)            
        42     5.00000000E+03   # mqL2(MX)            
        43     5.00000000E+03   # mqL3(MX)            
        44     5.00000000E+03   # muR(MX)             
        45     5.00000000E+03   # mcR(MX)             
        46     5.00000000E+03   # mtR(MX)             
        47     5.00000000E+03   # mdR(MX)             
        48     5.00000000E+03   # msR(MX)             
        49     5.00000000E+03   # mbR(MX)             
#
BLOCK MASS  # Mass Spectrum
# PDG code           mass       particle
        24     8.00943099E+01   # W+
        25     1.24393364E+02   # h
        35     3.00008230E+03   # H
        36     2.99999996E+03   # A
        37     3.00087510E+03   # H+
         5     4.87878001E+00   # b-quark pole mass calculated from mb(mb)_Msbar
   1000001     5.06416798E+03   # ~d_L
   2000001     5.04636384E+03   # ~d_R
   1000002     5.06369122E+03   # ~u_L
   2000002     5.04608980E+03   # ~u_R
   1000003     5.06416798E+03   # ~s_L
   2000003     5.04636384E+03   # ~s_R
   1000004     5.06369122E+03   # ~c_L
   2000004     5.04608980E+03   # ~c_R
   1000005     5.01081497E+03   # ~b_1
   2000005     5.04536455E+03   # ~b_2
   1000006     4.90176146E+03   # ~t_1
   2000006     5.05805921E+03   # ~t_2
   1000011     5.01904834E+03   # ~e_L
   2000011     5.00590853E+03   # ~e_R
   1000012     5.01809984E+03   # ~nu_eL
   1000013     5.01904834E+03   # ~mu_L
   2000013     5.00590853E+03   # ~mu_R
   1000014     5.01809984E+03   # ~nu_muL
   1000015     5.00431297E+03   # ~tau_1
   2000015     5.01906515E+03   # ~tau_2
   1000016     5.01756262E+03   # ~nu_tauL
   1000021     1.10000078E+03   # ~g
   1000022     6.03022354E+01   # ~chi_10
   1000023     1.59942691E+03   # ~chi_20
   1000025    -1.60195144E+03   # ~chi_30
   1000035     3.07434679E+03   # ~chi_40
   1000024     1.60000009E+03   # ~chi_1+
   1000037     3.07451438E+03   # ~chi_2+
#
BLOCK NMIX  # Neutralino Mixing Matrix
  1  1     9.99609495E-01   # N_11
  1  2     1.33181436E-04   # N_12
  1  3    -2.78808406E-02   # N_13
  1  4     1.87059116E-03   # N_14
  2  1     1.83902145E-02   # N_21
  2  2     3.29958739E-02   # N_22
  2  3     7.06888822E-01   # N_23
  2  4     7.06315274E-01   # N_24
  3  1    -2.10342545E-02   # N_31
  3  2     1.29802889E-02   # N_32
  3  3    -7.06633160E-01   # N_33
  3  4     7.07148251E-01   # N_34
  4  1    -4.67193702E-04   # N_41
  4  2     9.99371186E-01   # N_42
  4  3    -1.41573009E-02   # N_43
  4  4    -3.25051671E-02   # N_44
#
BLOCK UMIX  # Chargino Mixing Matrix U
  1  1     2.00253775E-02   # U_11
  1  2     9.99799472E-01   # U_12
  2  1    -9.99799472E-01   # U_21
  2  2     2.00253775E-02   # U_22
#
BLOCK VMIX  # Chargino Mixing Matrix V
  1  1     4.59811068E-02   # V_11
  1  2    -9.98942310E-01   # V_12
  2  1    -9.98942310E-01   # V_21
  2  2    -4.59811068E-02   # V_22
#
BLOCK STOPMIX  # Stop Mixing Matrix
  1  1    -5.14956182E-01   # cos(theta_t)
  1  2     8.57216502E-01   # sin(theta_t)
  2  1    -8.57216502E-01   # -sin(theta_t)
  2  2    -5.14956182E-01   # cos(theta_t)
#
BLOCK SBOTMIX  # Sbottom Mixing Matrix
  1  1     9.93770259E-01   # cos(theta_b)
  1  2    -1.11448070E-01   # sin(theta_b)
  2  1     1.11448070E-01   # -sin(theta_b)
  2  2     9.93770259E-01   # cos(theta_b)
#
BLOCK STAUMIX  # Stau Mixing Matrix
  1  1    -1.78640171E-01   # cos(theta_tau)
  1  2     9.83914473E-01   # sin(theta_tau)
  2  1    -9.83914473E-01   # -sin(theta_tau)
  2  2    -1.78640171E-01   # cos(theta_tau)
#
BLOCK ALPHA  # Higgs mixing
          -1.05420595E-01   # Mixing angle in the neutral Higgs boson sector
#
BLOCK HMIX Q=  5.00070458E+03  # DRbar Higgs Parameters
         1    -1.57274552E+03   # mu(Q)MSSM           
         2     9.47411260E+00   # tan                 
         3     2.42035638E+02   # higgs               
         4     8.37503277E+06   # mA^2(Q)MSSM         
#
BLOCK GAUGE Q=  5.00070458E+03  # The gauge couplings
     1     3.70704551E-01   # gprime(Q) DRbar
     2     6.32061933E-01   # g(Q) DRbar
     3     1.00723749E+00   # g3(Q) DRbar
#
BLOCK AU Q=  5.00070458E+03  # The trilinear couplings
  1  1     5.00000001E+03   # A_u(Q) DRbar
  2  2     5.00000001E+03   # A_c(Q) DRbar
  3  3     5.00000001E+03   # A_t(Q) DRbar
#
BLOCK AD Q=  5.00070458E+03  # The trilinear couplings
  1  1     5.00000000E+03   # A_d(Q) DRbar
  2  2     5.00000000E+03   # A_s(Q) DRbar
  3  3     5.00000001E+03   # A_b(Q) DRbar
#
BLOCK AE Q=  5.00070458E+03  # The trilinear couplings
  1  1     0.00000000E+00   # A_e(Q) DRbar
  2  2     3.37589066E-08   # A_mu(Q) DRbar
  3  3     3.28505727E-08   # A_tau(Q) DRbar
#
BLOCK Yu Q=  5.00070458E+03  # The Yukawa couplings
  1  1     0.00000000E+00   # y_u(Q) DRbar
  2  2     0.00000000E+00   # y_c(Q) DRbar
  3  3     8.14666018E-01   # y_t(Q) DRbar
#
BLOCK Yd Q=  5.00070458E+03  # The Yukawa couplings
  1  1     0.00000000E+00   # y_d(Q) DRbar
  2  2     0.00000000E+00   # y_s(Q) DRbar
  3  3     1.30002498E-01   # y_b(Q) DRbar
#
BLOCK Ye Q=  5.00070458E+03  # The Yukawa couplings
  1  1     0.00000000E+00   # y_e(Q) DRbar
  2  2     0.00000000E+00   # y_mu(Q) DRbar
  3  3     9.66057935E-02   # y_tau(Q) DRbar
#
BLOCK MSOFT Q=  5.00070458E+03  # The soft SUSY breaking masses at the scale Q
         1     6.00000000E+01   # M_1(Q)              
         2     3.00000000E+03   # M_2(Q)              
         3     8.59147000E+02   # M_3(Q)              
        21     6.19053199E+06   # mH1^2(Q)            
        22    -1.93290329E+06   # mH2^2(Q)            
        31     5.00000000E+03   # meL(Q)              
        32     5.00000000E+03   # mmuL(Q)             
        33     5.00000000E+03   # mtauL(Q)            
        34     5.00000000E+03   # meR(Q)              
        35     5.00000000E+03   # mmuR(Q)             
        36     5.00000000E+03   # mtauR(Q)            
        41     5.00000000E+03   # mqL1(Q)             
        42     5.00000000E+03   # mqL2(Q)             
        43     5.00000000E+03   # mqL3(Q)             
        44     5.00000000E+03   # muR(Q)              
        45     5.00000000E+03   # mcR(Q)              
        46     5.00000000E+03   # mtR(Q)              
        47     5.00000000E+03   # mdR(Q)              
        48     5.00000000E+03   # msR(Q)              
        49     5.00000000E+03   # mbR(Q)              
#
#
#
#                             =================
#                             |The decay table|
#                             =================
#
# - The QCD corrections to the decays gluino -> squark  + quark
#                                     squark -> gaugino + quark_prime
#                                     squark -> squark_prime + Higgs
#                                     squark -> gluino  + quark
#   are included.
#
# - The multi-body decays for the inos, stops and sbottoms are included.
#
# - The loop induced decays for the gluino, neutralinos and stops
#   are included.
#
# - The SUSY decays of the top quark are included.
#
#
#         PDG            Width
DECAY         6     1.40002168E+00   # top decays
#          BR         NDA      ID1       ID2
     1.00000000E+00    2           5        24   # BR(t ->  b    W+)
#
#         PDG            Width
DECAY   1000021     1.37939728E-05   # gluino decays
#          BR         NDA      ID1       ID2
     1.78966909E-05    2     1000022        21   # BR(~g -> ~chi_10 g)
#           BR         NDA      ID1       ID2       ID3
     8.15944232E-02    3     1000022         1        -1   # BR(~g -> ~chi_10 d  db)
     2.78142015E-01    3     1000022         2        -2   # BR(~g -> ~chi_10 u  ub)
     8.15944232E-02    3     1000022         3        -3   # BR(~g -> ~chi_10 s  sb)
     2.78142015E-01    3     1000022         4        -4   # BR(~g -> ~chi_10 c  cb)
     8.25628900E-02    3     1000022         5        -5   # BR(~g -> ~chi_10 b  bb)
     1.97946338E-01    3     1000022         6        -6   # BR(~g -> ~chi_10 t  tb)
#
#         PDG            Width
DECAY   1000006     3.95722122E+02   # stop1 decays
#          BR         NDA      ID1       ID2
     2.20929974E-02    2     1000022         6   # BR(~t_1 -> ~chi_10 t )
     6.60654627E-02    2     1000023         6   # BR(~t_1 -> ~chi_20 t )
     6.34319777E-02    2     1000025         6   # BR(~t_1 -> ~chi_30 t )
     5.61149533E-03    2     1000035         6   # BR(~t_1 -> ~chi_40 t )
     9.41456397E-02    2     1000024         5   # BR(~t_1 -> ~chi_1+ b )
     1.11559570E-02    2     1000037         5   # BR(~t_1 -> ~chi_2+ b )
     7.37496470E-01    2     1000021         6   # BR(~t_1 -> ~g      t )
#
#         PDG            Width
DECAY   2000006     4.01911797E+02   # stop2 decays
#          BR         NDA      ID1       ID2
     9.03759392E-03    2     1000022         6   # BR(~t_2 -> ~chi_10 t )
     6.75272394E-02    2     1000023         6   # BR(~t_2 -> ~chi_20 t )
     7.03345610E-02    2     1000025         6   # BR(~t_2 -> ~chi_30 t )
     1.33536548E-02    2     1000035         6   # BR(~t_2 -> ~chi_40 t )
     4.23808289E-02    2     1000024         5   # BR(~t_2 -> ~chi_1+ b )
     2.65005223E-02    2     1000037         5   # BR(~t_2 -> ~chi_2+ b )
     7.67548141E-01    2     1000021         6   # BR(~t_2 -> ~g      t )
     7.18038926E-04    2     1000006        25   # BR(~t_2 -> ~t_1    h )
     2.59941976E-03    2     1000006        23   # BR(~t_2 -> ~t_1    Z )
#
#         PDG            Width
DECAY   1000005     3.80930690E+02   # sbottom1 decays
#          BR         NDA      ID1       ID2
     2.06471920E-03    2     1000022         5   # BR(~b_1 -> ~chi_10 b )
     1.87895639E-03    2     1000023         5   # BR(~b_1 -> ~chi_20 b )
     1.76326116E-03    2     1000025         5   # BR(~b_1 -> ~chi_30 b )
     1.94963243E-02    2     1000035         5   # BR(~b_1 -> ~chi_40 b )
     1.39319274E-01    2    -1000024         6   # BR(~b_1 -> ~chi_1- t )
     3.92670503E-02    2    -1000037         6   # BR(~b_1 -> ~chi_2- t )
     7.94740063E-01    2     1000021         5   # BR(~b_1 -> ~g      b )
     1.47035131E-03    2     1000006       -24   # BR(~b_1 -> ~t_1    W-)
#
#         PDG            Width
DECAY   2000005     3.11690784E+02   # sbottom2 decays
#          BR         NDA      ID1       ID2
     9.39549174E-03    2     1000022         5   # BR(~b_2 -> ~chi_10 b )
     2.17539306E-03    2     1000023         5   # BR(~b_2 -> ~chi_20 b )
     2.28360919E-03    2     1000025         5   # BR(~b_2 -> ~chi_30 b )
     3.23690924E-04    2     1000035         5   # BR(~b_2 -> ~chi_40 b )
     6.54005078E-03    2    -1000024         6   # BR(~b_2 -> ~chi_1- t )
     6.51579635E-04    2    -1000037         6   # BR(~b_2 -> ~chi_2- t )
     9.78536727E-01    2     1000021         5   # BR(~b_2 -> ~g      b )
     9.34576677E-05    2     1000006       -24   # BR(~b_2 -> ~t_1    W-)
#
#         PDG            Width
DECAY   1000002     3.30433612E+02   # sup_L decays
#          BR         NDA      ID1       ID2
     2.26213426E-03    2     1000022         2   # BR(~u_L -> ~chi_10 u)
     6.41986120E-05    2     1000023         2   # BR(~u_L -> ~chi_20 u)
     3.76815352E-06    2     1000025         2   # BR(~u_L -> ~chi_30 u)
     2.35825912E-02    2     1000035         2   # BR(~u_L -> ~chi_40 u)
     2.02718276E-04    2     1000024         1   # BR(~u_L -> ~chi_1+ d)
     4.71273561E-02    2     1000037         1   # BR(~u_L -> ~chi_2+ d)
     9.26757233E-01    2     1000021         2   # BR(~u_L -> ~g      u)
#
#         PDG            Width
DECAY   2000002     3.16865405E+02   # sup_R decays
#          BR         NDA      ID1       ID2
     3.75611096E-02    2     1000022         2   # BR(~u_R -> ~chi_10 u)
     1.02892249E-05    2     1000023         2   # BR(~u_R -> ~chi_20 u)
     1.34510501E-05    2     1000025         2   # BR(~u_R -> ~chi_30 u)
     3.24932035E-09    2     1000035         2   # BR(~u_R -> ~chi_40 u)
     9.62415147E-01    2     1000021         2   # BR(~u_R -> ~g      u)
#
#         PDG            Width
DECAY   1000001     3.30444680E+02   # sdown_L decays
#          BR         NDA      ID1       ID2
     2.25611366E-03    2     1000022         1   # BR(~d_L -> ~chi_10 d)
     4.14504908E-05    2     1000023         1   # BR(~d_L -> ~chi_20 d)
     1.39998573E-05    2     1000025         1   # BR(~d_L -> ~chi_30 d)
     2.35978011E-02    2     1000035         1   # BR(~d_L -> ~chi_40 d)
     3.84538678E-05    2    -1000024         2   # BR(~d_L -> ~chi_1- u)
     4.72214510E-02    2    -1000037         2   # BR(~d_L -> ~chi_2- u)
     9.26830730E-01    2     1000021         1   # BR(~d_L -> ~g      d)
#
#         PDG            Width
DECAY   2000001     3.07953429E+02   # sdown_R decays
#          BR         NDA      ID1       ID2
     9.66255262E-03    2     1000022         1   # BR(~d_R -> ~chi_10 d)
     2.64695529E-06    2     1000023         1   # BR(~d_R -> ~chi_20 d)
     3.46035116E-06    2     1000025         1   # BR(~d_R -> ~chi_30 d)
     8.35990333E-10    2     1000035         1   # BR(~d_R -> ~chi_40 d)
     9.90331339E-01    2     1000021         1   # BR(~d_R -> ~g      d)
#
#         PDG            Width
DECAY   1000004     3.30433612E+02   # scharm_L decays
#          BR         NDA      ID1       ID2
     2.26213426E-03    2     1000022         4   # BR(~c_L -> ~chi_10 c)
     6.41986120E-05    2     1000023         4   # BR(~c_L -> ~chi_20 c)
     3.76815352E-06    2     1000025         4   # BR(~c_L -> ~chi_30 c)
     2.35825912E-02    2     1000035         4   # BR(~c_L -> ~chi_40 c)
     2.02718276E-04    2     1000024         3   # BR(~c_L -> ~chi_1+ s)
     4.71273561E-02    2     1000037         3   # BR(~c_L -> ~chi_2+ s)
     9.26757233E-01    2     1000021         4   # BR(~c_L -> ~g      c)
#
#         PDG            Width
DECAY   2000004     3.16865405E+02   # scharm_R decays
#          BR         NDA      ID1       ID2
     3.75611096E-02    2     1000022         4   # BR(~c_R -> ~chi_10 c)
     1.02892249E-05    2     1000023         4   # BR(~c_R -> ~chi_20 c)
     1.34510501E-05    2     1000025         4   # BR(~c_R -> ~chi_30 c)
     3.24932035E-09    2     1000035         4   # BR(~c_R -> ~chi_40 c)
     9.62415147E-01    2     1000021         4   # BR(~c_R -> ~g      c)
#
#         PDG            Width
DECAY   1000003     3.30444680E+02   # sstrange_L decays
#          BR         NDA      ID1       ID2
     2.25611366E-03    2     1000022         3   # BR(~s_L -> ~chi_10 s)
     4.14504908E-05    2     1000023         3   # BR(~s_L -> ~chi_20 s)
     1.39998573E-05    2     1000025         3   # BR(~s_L -> ~chi_30 s)
     2.35978011E-02    2     1000035         3   # BR(~s_L -> ~chi_40 s)
     3.84538678E-05    2    -1000024         4   # BR(~s_L -> ~chi_1- c)
     4.72214510E-02    2    -1000037         4   # BR(~s_L -> ~chi_2- c)
     9.26830730E-01    2     1000021         3   # BR(~s_L -> ~g      s)
#
#         PDG            Width
DECAY   2000003     3.07953429E+02   # sstrange_R decays
#          BR         NDA      ID1       ID2
     9.66255262E-03    2     1000022         3   # BR(~s_R -> ~chi_10 s)
     2.64695529E-06    2     1000023         3   # BR(~s_R -> ~chi_20 s)
     3.46035116E-06    2     1000025         3   # BR(~s_R -> ~chi_30 s)
     8.35990333E-10    2     1000035         3   # BR(~s_R -> ~chi_40 s)
     9.90331339E-01    2     1000021         3   # BR(~s_R -> ~g      s)
#
#         PDG            Width
DECAY   1000011     3.02365077E+01   # selectron_L decays
#          BR         NDA      ID1       ID2
     2.26766230E-01    2     1000022        11   # BR(~e_L -> ~chi_10 e-)
     1.02066136E-03    2     1000023        11   # BR(~e_L -> ~chi_20 e-)
     2.20465359E-07    2     1000025        11   # BR(~e_L -> ~chi_30 e-)
     2.57043440E-01    2     1000035        11   # BR(~e_L -> ~chi_40 e-)
     4.26988963E-04    2    -1000024        12   # BR(~e_L -> ~chi_1- nu_e)
     5.14742459E-01    2    -1000037        12   # BR(~e_L -> ~chi_2- nu_e)
#
#         PDG            Width
DECAY   2000011     2.73594305E+01   # selectron_R decays
#          BR         NDA      ID1       ID2
     9.99370502E-01    2     1000022        11   # BR(~e_R -> ~chi_10 e-)
     2.72794517E-04    2     1000023        11   # BR(~e_R -> ~chi_20 e-)
     3.56618819E-04    2     1000025        11   # BR(~e_R -> ~chi_30 e-)
     8.47074306E-08    2     1000035        11   # BR(~e_R -> ~chi_40 e-)
#
#         PDG            Width
DECAY   1000013     3.02365077E+01   # smuon_L decays
#          BR         NDA      ID1       ID2
     2.26766230E-01    2     1000022        13   # BR(~mu_L -> ~chi_10 mu-)
     1.02066136E-03    2     1000023        13   # BR(~mu_L -> ~chi_20 mu-)
     2.20465359E-07    2     1000025        13   # BR(~mu_L -> ~chi_30 mu-)
     2.57043440E-01    2     1000035        13   # BR(~mu_L -> ~chi_40 mu-)
     4.26988963E-04    2    -1000024        14   # BR(~mu_L -> ~chi_1- nu_mu)
     5.14742459E-01    2    -1000037        14   # BR(~mu_L -> ~chi_2- nu_mu)
#
#         PDG            Width
DECAY   2000013     2.73594305E+01   # smuon_R decays
#          BR         NDA      ID1       ID2
     9.99370502E-01    2     1000022        13   # BR(~mu_R -> ~chi_10 mu-)
     2.72794517E-04    2     1000023        13   # BR(~mu_R -> ~chi_20 mu-)
     3.56618819E-04    2     1000025        13   # BR(~mu_R -> ~chi_30 mu-)
     8.47074306E-08    2     1000035        13   # BR(~mu_R -> ~chi_40 mu-)
#
#         PDG            Width
DECAY   1000015     2.89399598E+01   # stau_1 decays
#          BR         NDA      ID1       ID2
     9.22763700E-01    2     1000022        15   # BR(~tau_1 -> ~chi_10  tau-)
     1.38773410E-02    2     1000023        15   # BR(~tau_1 -> ~chi_20  tau-)
     1.24877928E-02    2     1000025        15   # BR(~tau_1 -> ~chi_30  tau-)
     8.20090230E-03    2     1000035        15   # BR(~tau_1 -> ~chi_40  tau-)
     2.62472668E-02    2    -1000024        16   # BR(~tau_1 -> ~chi_1-  nu_tau)
     1.64229972E-02    2    -1000037        16   # BR(~tau_1 -> ~chi_2-  nu_tau)
#
#         PDG            Width
DECAY   2000015     3.08917298E+01   # stau_2 decays
#          BR         NDA      ID1       ID2
     2.42417003E-01    2     1000022        15   # BR(~tau_2 -> ~chi_10  tau-)
     1.25214070E-02    2     1000023        15   # BR(~tau_2 -> ~chi_20  tau-)
     1.28695707E-02    2     1000025        15   # BR(~tau_2 -> ~chi_30  tau-)
     2.43837567E-01    2     1000035        15   # BR(~tau_2 -> ~chi_40  tau-)
     6.01183088E-05    2    -1000024        16   # BR(~tau_2 -> ~chi_1-  nu_tau)
     4.88294335E-01    2    -1000037        16   # BR(~tau_2 -> ~chi_2-  nu_tau)
#
#         PDG            Width
DECAY   1000012     3.02383651E+01   # snu_eL decays
#          BR         NDA      ID1       ID2
     2.26503515E-01    2     1000022        12   # BR(~nu_eL -> ~chi_10 nu_e)
     2.62571211E-04    2     1000023        12   # BR(~nu_eL -> ~chi_20 nu_e)
     3.40925888E-04    2     1000025        12   # BR(~nu_eL -> ~chi_30 nu_e)
     2.57144269E-01    2     1000035        12   # BR(~nu_eL -> ~chi_40 nu_e)
     2.25044375E-03    2     1000024        11   # BR(~nu_eL -> ~chi_1+ e-)
     5.13498276E-01    2     1000037        11   # BR(~nu_eL -> ~chi_2+ e-)
#
#         PDG            Width
DECAY   1000014     3.02383651E+01   # snu_muL decays
#          BR         NDA      ID1       ID2
     2.26503515E-01    2     1000022        14   # BR(~nu_muL -> ~chi_10 nu_mu)
     2.62571211E-04    2     1000023        14   # BR(~nu_muL -> ~chi_20 nu_mu)
     3.40925888E-04    2     1000025        14   # BR(~nu_muL -> ~chi_30 nu_mu)
     2.57144269E-01    2     1000035        14   # BR(~nu_muL -> ~chi_40 nu_mu)
     2.25044375E-03    2     1000024        13   # BR(~nu_muL -> ~chi_1+ mu-)
     5.13498276E-01    2     1000037        13   # BR(~nu_muL -> ~chi_2+ mu-)
#
#         PDG            Width
DECAY   1000016     3.09807819E+01   # snu_tauL decays
#          BR         NDA      ID1       ID2
     2.21051952E-01    2     1000022        16   # BR(~nu_tauL -> ~chi_10 nu_tau)
     2.56239165E-04    2     1000023        16   # BR(~nu_tauL -> ~chi_20 nu_tau)
     3.32704220E-04    2     1000025        16   # BR(~nu_tauL -> ~chi_30 nu_tau)
     2.50890670E-01    2     1000035        16   # BR(~nu_tauL -> ~chi_40 nu_tau)
     2.64559130E-02    2     1000024        15   # BR(~nu_tauL -> ~chi_1+ tau-)
     5.01012522E-01    2     1000037        15   # BR(~nu_tauL -> ~chi_2+ tau-)
#
#         PDG            Width
DECAY   1000024     9.85836056E-01   # chargino1+ decays
#          BR         NDA      ID1       ID2
     1.00000000E+00    2     1000022        24   # BR(~chi_1+ -> ~chi_10  W+)
#
#         PDG            Width
DECAY   1000037     1.79150874E+01   # chargino2+ decays
#          BR         NDA      ID1       ID2
     2.52596937E-01    2     1000024        23   # BR(~chi_2+ -> ~chi_1+  Z )
     2.85004941E-04    2     1000022        24   # BR(~chi_2+ -> ~chi_10  W+)
     2.44148789E-01    2     1000023        24   # BR(~chi_2+ -> ~chi_20  W+)
     2.43584914E-01    2     1000025        24   # BR(~chi_2+ -> ~chi_30  W+)
     2.59384078E-01    2     1000024        25   # BR(~chi_2+ -> ~chi_1+  h )
     2.76960806E-07    2     1000022        37   # BR(~chi_2+ -> ~chi_10  H+)
#
#         PDG            Width
DECAY   1000022     0.00000000E+00   # neutralino1 decays
#
#         PDG            Width
DECAY   1000023     1.03644440E+00   # neutralino2 decays
#          BR         NDA      ID1       ID2
     5.58707263E-01    2     1000022        23   # BR(~chi_20 -> ~chi_10   Z )
     4.41292737E-01    2     1000022        25   # BR(~chi_20 -> ~chi_10   h )
#
#         PDG            Width
DECAY   1000025     1.04722351E+00   # neutralino3 decays
#          BR         NDA      ID1       ID2
     4.23713861E-01    2     1000022        23   # BR(~chi_30 -> ~chi_10   Z )
     5.76286139E-01    2     1000022        25   # BR(~chi_30 -> ~chi_10   h )
#
#         PDG            Width
DECAY   1000035     1.79094247E+01   # neutralino4 decays
#          BR         NDA      ID1       ID2
     1.08006147E-04    2     1000022        23   # BR(~chi_40 -> ~chi_10   Z )
     3.40824966E-02    2     1000023        23   # BR(~chi_40 -> ~chi_20   Z )
     2.18102060E-01    2     1000025        23   # BR(~chi_40 -> ~chi_30   Z )
     2.44240486E-01    2     1000024       -24   # BR(~chi_40 -> ~chi_1+   W-)
     2.44240486E-01    2    -1000024        24   # BR(~chi_40 -> ~chi_1-   W+)
     1.84732589E-04    2     1000022        25   # BR(~chi_40 -> ~chi_10   h )
     2.47300250E-07    2     1000022        35   # BR(~chi_40 -> ~chi_10   H )
     3.99678893E-08    2     1000022        36   # BR(~chi_40 -> ~chi_10   A )
     2.25054521E-01    2     1000023        25   # BR(~chi_40 -> ~chi_20   h )
     3.39869254E-02    2     1000025        25   # BR(~chi_40 -> ~chi_30   h )
#
#         PDG            Width
DECAY        25     4.01440533E-03   # h decays
#          BR         NDA      ID1       ID2
     6.14735201E-01    2           5        -5   # BR(h -> b       bb     )
     6.44055363E-02    2         -15        15   # BR(h -> tau+    tau-   )
     2.28020709E-04    2         -13        13   # BR(h -> mu+     mu-    )
     4.83678617E-04    2           3        -3   # BR(h -> s       sb     )
     2.09611567E-02    2           4        -4   # BR(h -> c       cb     )
     6.73631867E-02    2          21        21   # BR(h -> g       g      )
     2.30758194E-03    2          22        22   # BR(h -> gam     gam    )
     1.45581443E-03    2          22        23   # BR(h -> Z       gam    )
     2.03894947E-01    2          24       -24   # BR(h -> W+      W-     )
     2.41388271E-02    2          23        23   # BR(h -> Z       Z      )
     2.60495719E-05    2     1000022   1000022   # BR(h -> ~chi_10 ~chi_10)
#
#         PDG            Width
DECAY        35     7.07627308E+00   # H decays
#          BR         NDA      ID1       ID2
     4.61001720E-01    2           5        -5   # BR(H -> b       bb     )
     7.88006436E-02    2         -15        15   # BR(H -> tau+    tau-   )
     2.78645335E-04    2         -13        13   # BR(H -> mu+     mu-    )
     3.41576560E-04    2           3        -3   # BR(H -> s       sb     )
     1.90700419E-06    2           4        -4   # BR(H -> c       cb     )
     1.90524823E-01    2           6        -6   # BR(H -> t       tb     )
     6.32079530E-05    2          21        21   # BR(H -> g       g      )
     3.82659206E-07    2          22        22   # BR(H -> gam     gam    )
     1.12420242E-07    2          23        22   # BR(H -> Z       gam    )
     8.37168801E-05    2          24       -24   # BR(H -> W+      W-     )
     4.18054539E-05    2          23        23   # BR(H -> Z       Z      )
     3.20814316E-04    2          25        25   # BR(H -> h       h      )
     4.37970951E-23    2          36        36   # BR(H -> A       A      )
     6.24281751E-19    2          23        36   # BR(H -> Z       A      )
     7.97948299E-04    2     1000022   1000022   # BR(H -> ~chi_10 ~chi_10)
     1.58682766E-01    2     1000022   1000023   # BR(H -> ~chi_10 ~chi_20)
     1.09059931E-01    2     1000022   1000025   # BR(H -> ~chi_10 ~chi_30)
#
#         PDG            Width
DECAY        36     7.07906991E+00   # A decays
#          BR         NDA      ID1       ID2
     4.60974277E-01    2           5        -5   # BR(A -> b       bb     )
     7.87717746E-02    2         -15        15   # BR(A -> tau+    tau-   )
     2.78542862E-04    2         -13        13   # BR(A -> mu+     mu-    )
     3.41700255E-04    2           3        -3   # BR(A -> s       sb     )
     1.91428169E-06    2           4        -4   # BR(A -> c       cb     )
     1.91146380E-01    2           6        -6   # BR(A -> t       tb     )
     1.89227999E-04    2          21        21   # BR(A -> g       g      )
     3.23576517E-07    2          22        22   # BR(A -> gam     gam    )
     2.29098097E-07    2          23        22   # BR(A -> Z       gam    )
     8.33701150E-05    2          23        25   # BR(A -> Z       h      )
     8.21930474E-04    2     1000022   1000022   # BR(A -> ~chi_10 ~chi_10)
     1.10308775E-01    2     1000022   1000023   # BR(A -> ~chi_10 ~chi_20)
     1.57081554E-01    2     1000022   1000025   # BR(A -> ~chi_10 ~chi_30)
#
#         PDG            Width
DECAY        37     7.05784330E+00   # H+ decays
#          BR         NDA      ID1       ID2
     7.39008134E-04    2           4        -5   # BR(H+ -> c       bb     )
     7.90317302E-02    2         -15        16   # BR(H+ -> tau+    nu_tau )
     2.79462085E-04    2         -13        14   # BR(H+ -> mu+     nu_mu  )
     4.72962775E-06    2           2        -5   # BR(H+ -> u       bb     )
     1.63982517E-05    2           2        -3   # BR(H+ -> u       sb     )
     3.39113530E-04    2           4        -3   # BR(H+ -> c       sb     )
     6.49589362E-01    2           6        -5   # BR(H+ -> t       bb     )
     8.37477554E-05    2          24        25   # BR(H+ -> W+      h      )
     9.55864391E-14    2          24        36   # BR(H+ -> W+      A      )
     2.69916449E-01    2     1000024   1000022   # BR(H+ -> ~chi_1+ ~chi_10)
