#
#                              ======================
#                              | THE SUSYHIT OUTPUT |
#                              ======================
#
#
#              ------------------------------------------------------
#              |     This is the output of the SUSY-HIT package     |
#              |  created by A.Djouadi, M.Muehlleitner and M.Spira. |
#              |  In case of problems with SUSY-HIT email to        |
#              |           margarete.muehlleitner@cern.ch           |
#              |           michael.spira@psi.ch                     |
#              |           abdelhak.djouadi@cern.ch                 |
#              ------------------------------------------------------
#
#              ------------------------------------------------------
#              |  SUSY Les Houches Accord - MSSM Spectrum + Decays  |
#              |              based on the decay programs           |
#              |                                                    |
#              |                     SDECAY 1.3b                    |
#              |                                                    |
#              |  Authors: M.Muhlleitner, A.Djouadi and Y.Mambrini  |
#              |  Ref.:    Comput.Phys.Commun.168(2005)46           |
#              |           [hep-ph/0311167]                         |
#              |                                                    |
#              |                     HDECAY 3.4                     |
#              |                                                    |
#              |  By: A.Djouadi,J.Kalinowski,M.Muhlleitner,M.Spira  |
#              |  Ref.:    Comput.Phys.Commun.108(1998)56           |
#              |           [hep-ph/9704448]                         |
#              |                                                    |
#              |                                                    |
#              |  If not stated otherwise all DRbar couplings and   |
#              |  soft SUSY breaking masses are given at the scale  |
#              |  Q=  0.50007370E+04
#              |                                                    |
#              ------------------------------------------------------
#
#
BLOCK DCINFO  # Decay Program information
     1   SDECAY/HDECAY # decay calculator
     2   1.3b  /3.4    # version number
#
BLOCK SPINFO  # Spectrum calculator information
     1    SOFTSUSY    # spectrum calculator                
     2    3.4.0       # version number                     
#
BLOCK MODSEL  # Model selection
     1     0   #  nonUniversal                                     
#
BLOCK SMINPUTS  # Standard Model inputs
         1     1.25778332E+02   # alpha_em^-1(M_Z)^MSbar
         2     1.16570000E-05   # G_F [GeV^-2]
         3     1.17200002E-01   # alpha_S(M_Z)^MSbar
         4     9.11876000E+01   # M_Z pole mass
         5     4.25000000E+00   # mb(mb)^MSbar
         6     1.72500000E+02   # mt pole mass
         7     1.77682000E+00   # mtau pole mass
#
BLOCK MINPAR  # Input parameters - minimal models
         3     1.00000000E+01   # tanb                
#
BLOCK EXTPAR  # Input parameters - non-minimal models
         0    -1.00000000E+00   # Set                 
         1     6.00000000E+01   # M_1(MX)             
         2     3.00000000E+03   # M_2(MX)             
         3     1.85478500E+03   # M_3(MX)             
        11     5.00000000E+03   # At(MX)              
        12     5.00000000E+03   # Ab(MX)              
        13     0.00000000E+00   # Atau(MX)            
        23    -1.05624600E+03   # mu(MX)              
        26     3.00000000E+03   # mA(pole)            
        31     5.00000000E+03   # meL(MX)             
        32     5.00000000E+03   # mmuL(MX)            
        33     5.00000000E+03   # mtauL(MX)           
        34     5.00000000E+03   # meR(MX)             
        35     5.00000000E+03   # mmuR(MX)            
        36     5.00000000E+03   # mtauR(MX)           
        41     5.00000000E+03   # mqL1(MX)            
        42     5.00000000E+03   # mqL2(MX)            
        43     5.00000000E+03   # mqL3(MX)            
        44     5.00000000E+03   # muR(MX)             
        45     5.00000000E+03   # mcR(MX)             
        46     5.00000000E+03   # mtR(MX)             
        47     5.00000000E+03   # mdR(MX)             
        48     5.00000000E+03   # msR(MX)             
        49     5.00000000E+03   # mbR(MX)             
#
BLOCK MASS  # Mass Spectrum
# PDG code           mass       particle
        24     8.00956351E+01   # W+
        25     1.24798354E+02   # h
        35     3.00008321E+03   # H
        36     2.99999745E+03   # A
        37     3.00102692E+03   # H+
         5     4.87878001E+00   # b-quark pole mass calculated from mb(mb)_Msbar
   1000001     5.07475410E+03   # ~d_L
   2000001     5.05696895E+03   # ~d_R
   1000002     5.07428133E+03   # ~u_L
   2000002     5.05668604E+03   # ~u_R
   1000003     5.07475410E+03   # ~s_L
   2000003     5.05696895E+03   # ~s_R
   1000004     5.07428133E+03   # ~c_L
   2000004     5.05668604E+03   # ~c_R
   1000005     5.02047669E+03   # ~b_1
   2000005     5.05553595E+03   # ~b_2
   1000006     4.91181646E+03   # ~t_1
   2000006     5.06531692E+03   # ~t_2
   1000011     5.01906494E+03   # ~e_L
   2000011     5.00592109E+03   # ~e_R
   1000012     5.01811655E+03   # ~nu_eL
   1000013     5.01906494E+03   # ~mu_L
   2000013     5.00592109E+03   # ~mu_R
   1000014     5.01811655E+03   # ~nu_muL
   1000015     5.00457010E+03   # ~tau_1
   2000015     5.01880456E+03   # ~tau_2
   1000016     5.01757170E+03   # ~nu_tauL
   1000021     2.20000099E+03   # ~g
   1000022     6.03010225E+01   # ~chi_10
   1000023     1.09959025E+03   # ~chi_20
   1000025    -1.10186356E+03   # ~chi_30
   1000035     3.07427069E+03   # ~chi_40
   1000024     1.10000012E+03   # ~chi_1+
   1000037     3.07443812E+03   # ~chi_2+
#
BLOCK NMIX  # Neutralino Mixing Matrix
  1  1     9.99178423E-01   # N_11
  1  2     1.73968173E-04   # N_12
  1  3    -4.04773516E-02   # N_13
  1  4     2.00796671E-03   # N_14
  2  1     2.72082675E-02   # N_21
  2  2     2.46692836E-02   # N_22
  2  3     7.06784944E-01   # N_23
  2  4     7.06474472E-01   # N_24
  3  1    -3.00336770E-02   # N_31
  3  2     1.45507429E-02   # N_32
  3  3    -7.06233265E-01   # N_33
  3  4     7.07192215E-01   # N_34
  4  1    -4.08188858E-04   # N_41
  4  2     9.99589752E-01   # N_42
  4  3    -7.15555333E-03   # N_43
  4  4    -2.77301167E-02   # N_44
#
BLOCK UMIX  # Chargino Mixing Matrix U
  1  1     1.01340414E-02   # U_11
  1  2     9.99948649E-01   # U_12
  2  1    -9.99948649E-01   # U_21
  2  2     1.01340414E-02   # U_22
#
BLOCK VMIX  # Chargino Mixing Matrix V
  1  1     3.92459619E-02   # V_11
  1  2    -9.99229580E-01   # V_12
  2  1    -9.99229580E-01   # V_21
  2  2    -3.92459619E-02   # V_22
#
BLOCK STOPMIX  # Stop Mixing Matrix
  1  1    -5.06825048E-01   # cos(theta_t)
  1  2     8.62048938E-01   # sin(theta_t)
  2  1    -8.62048938E-01   # -sin(theta_t)
  2  2    -5.06825048E-01   # cos(theta_t)
#
BLOCK SBOTMIX  # Sbottom Mixing Matrix
  1  1     9.96664315E-01   # cos(theta_b)
  1  2    -8.16103131E-02   # sin(theta_b)
  2  1     8.16103131E-02   # -sin(theta_b)
  2  2     9.96664315E-01   # cos(theta_b)
#
BLOCK STAUMIX  # Stau Mixing Matrix
  1  1    -1.25031076E-01   # cos(theta_tau)
  1  2     9.92152826E-01   # sin(theta_tau)
  2  1    -9.92152826E-01   # -sin(theta_tau)
  2  2    -1.25031076E-01   # cos(theta_tau)
#
BLOCK ALPHA  # Higgs mixing
          -1.05476218E-01   # Mixing angle in the neutral Higgs boson sector
#
BLOCK HMIX Q=  5.00073704E+03  # DRbar Higgs Parameters
         1    -1.07564034E+03   # mu(Q)MSSM           
         2     9.46957844E+00   # tan                 
         3     2.41872874E+02   # higgs               
         4     8.49039866E+06   # mA^2(Q)MSSM         
#
BLOCK GAUGE Q=  5.00073704E+03  # The gauge couplings
     1     3.70771488E-01   # gprime(Q) DRbar
     2     6.32433964E-01   # g(Q) DRbar
     3     9.97101476E-01   # g3(Q) DRbar
#
BLOCK AU Q=  5.00073704E+03  # The trilinear couplings
  1  1     5.00000001E+03   # A_u(Q) DRbar
  2  2     5.00000001E+03   # A_c(Q) DRbar
  3  3     5.00000002E+03   # A_t(Q) DRbar
#
BLOCK AD Q=  5.00073704E+03  # The trilinear couplings
  1  1     5.00000001E+03   # A_d(Q) DRbar
  2  2     5.00000001E+03   # A_s(Q) DRbar
  3  3     5.00000001E+03   # A_b(Q) DRbar
#
BLOCK AE Q=  5.00073704E+03  # The trilinear couplings
  1  1     0.00000000E+00   # A_e(Q) DRbar
  2  2     2.05369794E-07   # A_mu(Q) DRbar
  3  3     2.05127542E-07   # A_tau(Q) DRbar
#
BLOCK Yu Q=  5.00073704E+03  # The Yukawa couplings
  1  1     0.00000000E+00   # y_u(Q) DRbar
  2  2     0.00000000E+00   # y_c(Q) DRbar
  3  3     8.20385018E-01   # y_t(Q) DRbar
#
BLOCK Yd Q=  5.00073704E+03  # The Yukawa couplings
  1  1     0.00000000E+00   # y_d(Q) DRbar
  2  2     0.00000000E+00   # y_s(Q) DRbar
  3  3     1.30923968E-01   # y_b(Q) DRbar
#
BLOCK Ye Q=  5.00073704E+03  # The Yukawa couplings
  1  1     0.00000000E+00   # y_e(Q) DRbar
  2  2     0.00000000E+00   # y_mu(Q) DRbar
  3  3     9.68029347E-02   # y_tau(Q) DRbar
#
BLOCK MSOFT Q=  5.00073704E+03  # The soft SUSY breaking masses at the scale Q
         1     6.00000000E+01   # M_1(Q)              
         2     3.00000000E+03   # M_2(Q)              
         3     1.85478500E+03   # M_3(Q)              
        21     7.53426039E+06   # mH1^2(Q)            
        22    -5.94850548E+05   # mH2^2(Q)            
        31     5.00000000E+03   # meL(Q)              
        32     5.00000000E+03   # mmuL(Q)             
        33     5.00000000E+03   # mtauL(Q)            
        34     5.00000000E+03   # meR(Q)              
        35     5.00000000E+03   # mmuR(Q)             
        36     5.00000000E+03   # mtauR(Q)            
        41     5.00000000E+03   # mqL1(Q)             
        42     5.00000000E+03   # mqL2(Q)             
        43     4.99999999E+03   # mqL3(Q)             
        44     5.00000000E+03   # muR(Q)              
        45     5.00000000E+03   # mcR(Q)              
        46     4.99999999E+03   # mtR(Q)              
        47     5.00000000E+03   # mdR(Q)              
        48     5.00000000E+03   # msR(Q)              
        49     5.00000000E+03   # mbR(Q)              
#
#
#
#                             =================
#                             |The decay table|
#                             =================
#
# - The QCD corrections to the decays gluino -> squark  + quark
#                                     squark -> gaugino + quark_prime
#                                     squark -> squark_prime + Higgs
#                                     squark -> gluino  + quark
#   are included.
#
# - The multi-body decays for the inos, stops and sbottoms are included.
#
# - The loop induced decays for the gluino, neutralinos and stops
#   are included.
#
# - The SUSY decays of the top quark are included.
#
#
#         PDG            Width
DECAY         6     1.40161236E+00   # top decays
#          BR         NDA      ID1       ID2
     1.00000000E+00    2           5        24   # BR(t ->  b    W+)
#
#         PDG            Width
DECAY   1000021     1.14333821E-03   # gluino decays
#          BR         NDA      ID1       ID2
     3.39423512E-06    2     1000022        21   # BR(~g -> ~chi_10 g)
     8.33311596E-03    2     1000023        21   # BR(~g -> ~chi_20 g)
     8.22293183E-03    2     1000025        21   # BR(~g -> ~chi_30 g)
#           BR         NDA      ID1       ID2       ID3
     3.36019291E-02    3     1000022         1        -1   # BR(~g -> ~chi_10 d  db)
     2.04764543E-05    3     1000023         1        -1   # BR(~g -> ~chi_20 d  db)
     8.90835015E-06    3     1000025         1        -1   # BR(~g -> ~chi_30 d  db)
     1.14572411E-01    3     1000022         2        -2   # BR(~g -> ~chi_10 u  ub)
     5.68700618E-05    3     1000023         2        -2   # BR(~g -> ~chi_20 u  ub)
     1.01653593E-05    3     1000025         2        -2   # BR(~g -> ~chi_30 u  ub)
     3.36019291E-02    3     1000022         3        -3   # BR(~g -> ~chi_10 s  sb)
     2.04764543E-05    3     1000023         3        -3   # BR(~g -> ~chi_20 s  sb)
     8.90835015E-06    3     1000025         3        -3   # BR(~g -> ~chi_30 s  sb)
     1.14572411E-01    3     1000022         4        -4   # BR(~g -> ~chi_10 c  cb)
     5.68700618E-05    3     1000023         4        -4   # BR(~g -> ~chi_20 c  cb)
     1.01653593E-05    3     1000025         4        -4   # BR(~g -> ~chi_30 c  cb)
     3.40671737E-02    3     1000022         5        -5   # BR(~g -> ~chi_10 b  bb)
     3.86941815E-03    3     1000023         5        -5   # BR(~g -> ~chi_20 b  bb)
     3.81148258E-03    3     1000025         5        -5   # BR(~g -> ~chi_30 b  bb)
     1.13852544E-01    3     1000022         6        -6   # BR(~g -> ~chi_10 t  tb)
     1.33269522E-01    3     1000023         6        -6   # BR(~g -> ~chi_20 t  tb)
     1.13503736E-01    3     1000025         6        -6   # BR(~g -> ~chi_30 t  tb)
     5.77869078E-05    3     1000024         1        -2   # BR(~g -> ~chi_1+ d  ub)
     5.77869078E-05    3    -1000024         2        -1   # BR(~g -> ~chi_1- u  db)
     5.77869078E-05    3     1000024         3        -4   # BR(~g -> ~chi_1+ s  cb)
     5.77869078E-05    3    -1000024         4        -3   # BR(~g -> ~chi_1- c  sb)
     1.42147007E-01    3     1000024         5        -6   # BR(~g -> ~chi_1+ b  tb)
     1.42147007E-01    3    -1000024         6        -5   # BR(~g -> ~chi_1- t  bb)
#
#         PDG            Width
DECAY   1000006     3.21185730E+02   # stop1 decays
#          BR         NDA      ID1       ID2
     2.75844739E-02    2     1000022         6   # BR(~t_1 -> ~chi_10 t )
     9.29848844E-02    2     1000023         6   # BR(~t_1 -> ~chi_20 t )
     8.94027875E-02    2     1000025         6   # BR(~t_1 -> ~chi_30 t )
     6.46592742E-03    2     1000035         6   # BR(~t_1 -> ~chi_40 t )
     1.35599010E-01    2     1000024         5   # BR(~t_1 -> ~chi_1+ b )
     1.28789073E-02    2     1000037         5   # BR(~t_1 -> ~chi_2+ b )
     6.35084010E-01    2     1000021         6   # BR(~t_1 -> ~g      t )
#
#         PDG            Width
DECAY   2000006     3.29982296E+02   # stop2 decays
#          BR         NDA      ID1       ID2
     1.05144557E-02    2     1000022         6   # BR(~t_2 -> ~chi_10 t )
     9.29341083E-02    2     1000023         6   # BR(~t_2 -> ~chi_20 t )
     9.67522791E-02    2     1000025         6   # BR(~t_2 -> ~chi_30 t )
     1.68710111E-02    2     1000035         6   # BR(~t_2 -> ~chi_40 t )
     5.50413095E-02    2     1000024         5   # BR(~t_2 -> ~chi_1+ b )
     3.35567739E-02    2     1000037         5   # BR(~t_2 -> ~chi_2+ b )
     6.90542000E-01    2     1000021         6   # BR(~t_2 -> ~g      t )
     8.59899158E-04    2     1000006        25   # BR(~t_2 -> ~t_1    h )
     2.92816351E-03    2     1000006        23   # BR(~t_2 -> ~t_1    Z )
#
#         PDG            Width
DECAY   1000005     3.05176705E+02   # sbottom1 decays
#          BR         NDA      ID1       ID2
     2.53353666E-03    2     1000022         5   # BR(~b_1 -> ~chi_10 b )
     2.58799817E-03    2     1000023         5   # BR(~b_1 -> ~chi_20 b )
     2.50720792E-03    2     1000025         5   # BR(~b_1 -> ~chi_30 b )
     2.47204905E-02    2     1000035         5   # BR(~b_1 -> ~chi_40 b )
     1.98603451E-01    2    -1000024         6   # BR(~b_1 -> ~chi_1- t )
     4.96828727E-02    2    -1000037         6   # BR(~b_1 -> ~chi_2- t )
     7.17557010E-01    2     1000021         5   # BR(~b_1 -> ~g      b )
     1.80743254E-03    2     1000006       -24   # BR(~b_1 -> ~t_1    W-)
#
#         PDG            Width
DECAY   2000005     2.28373576E+02   # sbottom2 decays
#          BR         NDA      ID1       ID2
     1.28451138E-02    2     1000022         5   # BR(~b_2 -> ~chi_10 b )
     3.42289713E-03    2     1000023         5   # BR(~b_2 -> ~chi_20 b )
     3.52333538E-03    2     1000025         5   # BR(~b_2 -> ~chi_30 b )
     2.24100206E-04    2     1000035         5   # BR(~b_2 -> ~chi_40 b )
     8.54828930E-03    2    -1000024         6   # BR(~b_2 -> ~chi_1- t )
     4.50315800E-04    2    -1000037         6   # BR(~b_2 -> ~chi_2- t )
     9.70917201E-01    2     1000021         5   # BR(~b_2 -> ~g      b )
     6.87476561E-05    2     1000006       -24   # BR(~b_2 -> ~t_1    W-)
#
#         PDG            Width
DECAY   1000002     2.47623437E+02   # sup_L decays
#          BR         NDA      ID1       ID2
     3.01132657E-03    2     1000022         2   # BR(~u_L -> ~chi_10 u)
     6.45381221E-05    2     1000023         2   # BR(~u_L -> ~chi_20 u)
     5.40739661E-06    2     1000025         2   # BR(~u_L -> ~chi_30 u)
     3.17705848E-02    2     1000035         2   # BR(~u_L -> ~chi_40 u)
     2.21084272E-04    2     1000024         1   # BR(~u_L -> ~chi_1+ d)
     6.34975609E-02    2     1000037         1   # BR(~u_L -> ~chi_2+ d)
     9.01429498E-01    2     1000021         2   # BR(~u_L -> ~g      u)
#
#         PDG            Width
DECAY   2000002     2.33609123E+02   # sup_R decays
#          BR         NDA      ID1       ID2
     5.08013608E-02    2     1000022         2   # BR(~u_R -> ~chi_10 u)
     3.42698660E-05    2     1000023         2   # BR(~u_R -> ~chi_20 u)
     4.17398114E-05    2     1000025         2   # BR(~u_R -> ~chi_30 u)
     3.39258779E-09    2     1000035         2   # BR(~u_R -> ~chi_40 u)
     9.49122626E-01    2     1000021         2   # BR(~u_R -> ~g      u)
#
#         PDG            Width
DECAY   1000001     2.47638980E+02   # sdown_L decays
#          BR         NDA      ID1       ID2
     3.00070917E-03    2     1000022         1   # BR(~d_L -> ~chi_10 d)
     2.68814874E-05    2     1000023         1   # BR(~d_L -> ~chi_20 d)
     2.99174124E-05    2     1000025         1   # BR(~d_L -> ~chi_30 d)
     3.17885168E-02    2     1000035         1   # BR(~d_L -> ~chi_40 d)
     1.47419451E-05    2    -1000024         2   # BR(~d_L -> ~chi_1- u)
     6.36045697E-02    2    -1000037         2   # BR(~d_L -> ~chi_2- u)
     9.01534664E-01    2     1000021         1   # BR(~d_L -> ~g      d)
#
#         PDG            Width
DECAY   2000001     2.24719218E+02   # sdown_R decays
#          BR         NDA      ID1       ID2
     1.32035161E-02    2     1000022         1   # BR(~d_R -> ~chi_10 d)
     8.90699772E-06    2     1000023         1   # BR(~d_R -> ~chi_20 d)
     1.08484936E-05    2     1000025         1   # BR(~d_R -> ~chi_30 d)
     8.81863940E-10    2     1000035         1   # BR(~d_R -> ~chi_40 d)
     9.86776728E-01    2     1000021         1   # BR(~d_R -> ~g      d)
#
#         PDG            Width
DECAY   1000004     2.47623437E+02   # scharm_L decays
#          BR         NDA      ID1       ID2
     3.01132657E-03    2     1000022         4   # BR(~c_L -> ~chi_10 c)
     6.45381221E-05    2     1000023         4   # BR(~c_L -> ~chi_20 c)
     5.40739661E-06    2     1000025         4   # BR(~c_L -> ~chi_30 c)
     3.17705848E-02    2     1000035         4   # BR(~c_L -> ~chi_40 c)
     2.21084272E-04    2     1000024         3   # BR(~c_L -> ~chi_1+ s)
     6.34975609E-02    2     1000037         3   # BR(~c_L -> ~chi_2+ s)
     9.01429498E-01    2     1000021         4   # BR(~c_L -> ~g      c)
#
#         PDG            Width
DECAY   2000004     2.33609123E+02   # scharm_R decays
#          BR         NDA      ID1       ID2
     5.08013608E-02    2     1000022         4   # BR(~c_R -> ~chi_10 c)
     3.42698660E-05    2     1000023         4   # BR(~c_R -> ~chi_20 c)
     4.17398114E-05    2     1000025         4   # BR(~c_R -> ~chi_30 c)
     3.39258779E-09    2     1000035         4   # BR(~c_R -> ~chi_40 c)
     9.49122626E-01    2     1000021         4   # BR(~c_R -> ~g      c)
#
#         PDG            Width
DECAY   1000003     2.47638980E+02   # sstrange_L decays
#          BR         NDA      ID1       ID2
     3.00070917E-03    2     1000022         3   # BR(~s_L -> ~chi_10 s)
     2.68814874E-05    2     1000023         3   # BR(~s_L -> ~chi_20 s)
     2.99174124E-05    2     1000025         3   # BR(~s_L -> ~chi_30 s)
     3.17885168E-02    2     1000035         3   # BR(~s_L -> ~chi_40 s)
     1.47419451E-05    2    -1000024         4   # BR(~s_L -> ~chi_1- c)
     6.36045697E-02    2    -1000037         4   # BR(~s_L -> ~chi_2- c)
     9.01534664E-01    2     1000021         3   # BR(~s_L -> ~g      s)
#
#         PDG            Width
DECAY   2000003     2.24719218E+02   # sstrange_R decays
#          BR         NDA      ID1       ID2
     1.32035161E-02    2     1000022         3   # BR(~s_R -> ~chi_10 s)
     8.90699772E-06    2     1000023         3   # BR(~s_R -> ~chi_20 s)
     1.08484936E-05    2     1000025         3   # BR(~s_R -> ~chi_30 s)
     8.81863940E-10    2     1000035         3   # BR(~s_R -> ~chi_40 s)
     9.86776728E-01    2     1000021         3   # BR(~s_R -> ~g      s)
#
#         PDG            Width
DECAY   1000011     3.02617485E+01   # selectron_L decays
#          BR         NDA      ID1       ID2
     2.26495842E-01    2     1000022        11   # BR(~e_L -> ~chi_10 e-)
     9.86790321E-04    2     1000023        11   # BR(~e_L -> ~chi_20 e-)
     5.58597299E-06    2     1000025        11   # BR(~e_L -> ~chi_30 e-)
     2.57280045E-01    2     1000035        11   # BR(~e_L -> ~chi_40 e-)
     1.22828298E-04    2    -1000024        12   # BR(~e_L -> ~chi_1- nu_e)
     5.15108908E-01    2    -1000037        12   # BR(~e_L -> ~chi_2- nu_e)
#
#         PDG            Width
DECAY   2000011     2.73692928E+01   # selectron_R decays
#          BR         NDA      ID1       ID2
     9.98511963E-01    2     1000022        11   # BR(~e_R -> ~chi_10 e-)
     6.70874266E-04    2     1000023        11   # BR(~e_R -> ~chi_20 e-)
     8.17097888E-04    2     1000025        11   # BR(~e_R -> ~chi_30 e-)
     6.46665829E-08    2     1000035        11   # BR(~e_R -> ~chi_40 e-)
#
#         PDG            Width
DECAY   1000013     3.02617485E+01   # smuon_L decays
#          BR         NDA      ID1       ID2
     2.26495842E-01    2     1000022        13   # BR(~mu_L -> ~chi_10 mu-)
     9.86790321E-04    2     1000023        13   # BR(~mu_L -> ~chi_20 mu-)
     5.58597299E-06    2     1000025        13   # BR(~mu_L -> ~chi_30 mu-)
     2.57280045E-01    2     1000035        13   # BR(~mu_L -> ~chi_40 mu-)
     1.22828298E-04    2    -1000024        14   # BR(~mu_L -> ~chi_1- nu_mu)
     5.15108908E-01    2    -1000037        14   # BR(~mu_L -> ~chi_2- nu_mu)
#
#         PDG            Width
DECAY   2000013     2.73692928E+01   # smuon_R decays
#          BR         NDA      ID1       ID2
     9.98511963E-01    2     1000022        13   # BR(~mu_R -> ~chi_10 mu-)
     6.70874266E-04    2     1000023        13   # BR(~mu_R -> ~chi_20 mu-)
     8.17097888E-04    2     1000025        13   # BR(~mu_R -> ~chi_30 mu-)
     6.46665829E-08    2     1000035        13   # BR(~mu_R -> ~chi_40 mu-)
#
#         PDG            Width
DECAY   1000015     2.90943684E+01   # stau_1 decays
#          BR         NDA      ID1       ID2
     9.28968655E-01    2     1000022        15   # BR(~tau_1 -> ~chi_10  tau-)
     1.53515666E-02    2     1000023        15   # BR(~tau_1 -> ~chi_20  tau-)
     1.44822963E-02    2     1000025        15   # BR(~tau_1 -> ~chi_30  tau-)
     4.04105258E-03    2     1000035        15   # BR(~tau_1 -> ~chi_40  tau-)
     2.90659461E-02    2    -1000024        16   # BR(~tau_1 -> ~chi_1-  nu_tau)
     8.09048371E-03    2    -1000037        16   # BR(~tau_1 -> ~chi_2-  nu_tau)
#
#         PDG            Width
DECAY   2000015     3.10601510E+01   # stau_2 decays
#          BR         NDA      ID1       ID2
     2.30234808E-01    2     1000022        15   # BR(~tau_2 -> ~chi_10  tau-)
     1.44014108E-02    2     1000023        15   # BR(~tau_2 -> ~chi_20  tau-)
     1.43384993E-02    2     1000025        15   # BR(~tau_2 -> ~chi_30  tau-)
     2.46800804E-01    2     1000035        15   # BR(~tau_2 -> ~chi_40  tau-)
     9.61136628E-05    2    -1000024        16   # BR(~tau_2 -> ~chi_1-  nu_tau)
     4.94128364E-01    2    -1000037        16   # BR(~tau_2 -> ~chi_2-  nu_tau)
#
#         PDG            Width
DECAY   1000012     3.02644139E+01   # snu_eL decays
#          BR         NDA      ID1       ID2
     2.26164245E-01    2     1000022        12   # BR(~nu_eL -> ~chi_10 nu_e)
     4.54407805E-05    2     1000023        12   # BR(~nu_eL -> ~chi_20 nu_e)
     6.18022492E-04    2     1000025        12   # BR(~nu_eL -> ~chi_30 nu_e)
     2.57338336E-01    2     1000035        12   # BR(~nu_eL -> ~chi_40 nu_e)
     1.84156119E-03    2     1000024        11   # BR(~nu_eL -> ~chi_1+ e-)
     5.13992394E-01    2     1000037        11   # BR(~nu_eL -> ~chi_2+ e-)
#
#         PDG            Width
DECAY   1000014     3.02644139E+01   # snu_muL decays
#          BR         NDA      ID1       ID2
     2.26164245E-01    2     1000022        14   # BR(~nu_muL -> ~chi_10 nu_mu)
     4.54407805E-05    2     1000023        14   # BR(~nu_muL -> ~chi_20 nu_mu)
     6.18022492E-04    2     1000025        14   # BR(~nu_muL -> ~chi_30 nu_mu)
     2.57338336E-01    2     1000035        14   # BR(~nu_muL -> ~chi_40 nu_mu)
     1.84156119E-03    2     1000024        13   # BR(~nu_muL -> ~chi_1+ mu-)
     5.13992394E-01    2     1000037        13   # BR(~nu_muL -> ~chi_2+ mu-)
#
#         PDG            Width
DECAY   1000016     3.11026651E+01   # snu_tauL decays
#          BR         NDA      ID1       ID2
     2.20044962E-01    2     1000022        16   # BR(~nu_tauL -> ~chi_10 nu_tau)
     4.42103319E-05    2     1000023        16   # BR(~nu_tauL -> ~chi_20 nu_tau)
     6.01287579E-04    2     1000025        16   # BR(~nu_tauL -> ~chi_30 nu_tau)
     2.50310257E-01    2     1000035        16   # BR(~nu_tauL -> ~chi_40 nu_tau)
     2.90445784E-02    2     1000024        15   # BR(~nu_tauL -> ~chi_1+ tau-)
     4.99954706E-01    2     1000037        15   # BR(~nu_tauL -> ~chi_2+ tau-)
#
#         PDG            Width
DECAY   1000024     6.71708017E-01   # chargino1+ decays
#          BR         NDA      ID1       ID2
     1.00000000E+00    2     1000022        24   # BR(~chi_1+ -> ~chi_10  W+)
#
#         PDG            Width
DECAY   1000037     2.00490711E+01   # chargino2+ decays
#          BR         NDA      ID1       ID2
     2.53106676E-01    2     1000024        23   # BR(~chi_2+ -> ~chi_1+  Z )
     2.05837163E-04    2     1000022        24   # BR(~chi_2+ -> ~chi_10  W+)
     2.44058746E-01    2     1000023        24   # BR(~chi_2+ -> ~chi_20  W+)
     2.44032825E-01    2     1000025        24   # BR(~chi_2+ -> ~chi_30  W+)
     2.58594985E-01    2     1000024        25   # BR(~chi_2+ -> ~chi_1+  h )
     9.30184948E-07    2     1000022        37   # BR(~chi_2+ -> ~chi_10  H+)
#
#         PDG            Width
DECAY   1000022     0.00000000E+00   # neutralino1 decays
#
#         PDG            Width
DECAY   1000023     7.02915012E-01   # neutralino2 decays
#          BR         NDA      ID1       ID2
     5.44440841E-01    2     1000022        23   # BR(~chi_20 -> ~chi_10   Z )
     4.55559159E-01    2     1000022        25   # BR(~chi_20 -> ~chi_10   h )
#
#         PDG            Width
DECAY   1000025     7.07388587E-01   # neutralino3 decays
#          BR         NDA      ID1       ID2
     4.43584250E-01    2     1000022        23   # BR(~chi_30 -> ~chi_10   Z )
     5.56415750E-01    2     1000022        25   # BR(~chi_30 -> ~chi_10   h )
#
#         PDG            Width
DECAY   1000035     2.00627444E+01   # neutralino4 decays
#          BR         NDA      ID1       ID2
     5.54563756E-05    2     1000022        23   # BR(~chi_40 -> ~chi_10   Z )
     6.53754781E-02    2     1000023        23   # BR(~chi_40 -> ~chi_20   Z )
     1.87013237E-01    2     1000025        23   # BR(~chi_40 -> ~chi_30   Z )
     2.44696161E-01    2     1000024       -24   # BR(~chi_40 -> ~chi_1+   W-)
     2.44696161E-01    2    -1000024        24   # BR(~chi_40 -> ~chi_1-   W+)
     1.52336125E-04    2     1000022        25   # BR(~chi_40 -> ~chi_10   h )
     8.62278325E-07    2     1000022        35   # BR(~chi_40 -> ~chi_10   H )
     1.09034800E-07    2     1000022        36   # BR(~chi_40 -> ~chi_10   A )
     1.92477635E-01    2     1000023        25   # BR(~chi_40 -> ~chi_20   h )
     6.55325647E-02    2     1000025        25   # BR(~chi_40 -> ~chi_30   h )
#
#         PDG            Width
DECAY        25     4.05638595E-03   # h decays
#          BR         NDA      ID1       ID2
     6.07358019E-01    2           5        -5   # BR(h -> b       bb     )
     6.39536754E-02    2         -15        15   # BR(h -> tau+    tau-   )
     2.26419154E-04    2         -13        13   # BR(h -> mu+     mu-    )
     4.79976599E-04    2           3        -3   # BR(h -> s       sb     )
     2.07985258E-02    2           4        -4   # BR(h -> c       cb     )
     6.73069621E-02    2          21        21   # BR(h -> g       g      )
     2.31474913E-03    2          22        22   # BR(h -> gam     gam    )
     1.49465116E-03    2          22        23   # BR(h -> Z       gam    )
     2.10875144E-01    2          24       -24   # BR(h -> W+      W-     )
     2.51409337E-02    2          23        23   # BR(h -> Z       Z      )
     5.09439230E-05    2     1000022   1000022   # BR(h -> ~chi_10 ~chi_10)
#
#         PDG            Width
DECAY        35     7.95423677E+00   # H decays
#          BR         NDA      ID1       ID2
     4.07009355E-01    2           5        -5   # BR(H -> b       bb     )
     7.00357275E-02    2         -15        15   # BR(H -> tau+    tau-   )
     2.47651895E-04    2         -13        13   # BR(H -> mu+     mu-    )
     3.03583244E-04    2           3        -3   # BR(H -> s       sb     )
     1.69831751E-06    2           4        -4   # BR(H -> c       cb     )
     1.69675372E-01    2           6        -6   # BR(H -> t       tb     )
     5.63720617E-05    2          21        21   # BR(H -> g       g      )
     3.01291863E-07    2          22        22   # BR(H -> gam     gam    )
     1.00194804E-07    2          23        22   # BR(H -> Z       gam    )
     7.77535881E-05    2          24       -24   # BR(H -> W+      W-     )
     3.88275877E-05    2          23        23   # BR(H -> Z       Z      )
     2.89224525E-04    2          25        25   # BR(H -> h       h      )
    -1.77443822E-23    2          36        36   # BR(H -> A       A      )
     9.91693315E-19    2          23        36   # BR(H -> Z       A      )
     1.60352903E-03    2     1000024  -1000024   # BR(H -> ~chi_1+ ~chi_1-)
     1.50008012E-03    2     1000022   1000022   # BR(H -> ~chi_10 ~chi_10)
     5.86984900E-05    2     1000023   1000023   # BR(H -> ~chi_20 ~chi_20)
     3.73145527E-04    2     1000025   1000025   # BR(H -> ~chi_30 ~chi_30)
     2.08840660E-01    2     1000022   1000023   # BR(H -> ~chi_10 ~chi_20)
     1.39545511E-01    2     1000022   1000025   # BR(H -> ~chi_10 ~chi_30)
     3.42408422E-04    2     1000023   1000025   # BR(H -> ~chi_20 ~chi_30)
#
#         PDG            Width
DECAY        36     7.97271448E+00   # A decays
#          BR         NDA      ID1       ID2
     4.06202737E-01    2           5        -5   # BR(A -> b       bb     )
     6.98754253E-02    2         -15        15   # BR(A -> tau+    tau-   )
     2.47084709E-04    2         -13        13   # BR(A -> mu+     mu-    )
     3.03109374E-04    2           3        -3   # BR(A -> s       sb     )
     1.70134078E-06    2           4        -4   # BR(A -> c       cb     )
     1.69883634E-01    2           6        -6   # BR(A -> t       tb     )
     1.68111849E-04    2          21        21   # BR(A -> g       g      )
     5.55097980E-07    2          22        22   # BR(A -> gam     gam    )
     2.03621250E-07    2          23        22   # BR(A -> Z       gam    )
     7.72797340E-05    2          23        25   # BR(A -> Z       h      )
     3.10300157E-03    2     1000024  -1000024   # BR(A -> ~chi_1+ ~chi_1-)
     1.53085152E-03    2     1000022   1000022   # BR(A -> ~chi_10 ~chi_10)
     8.28129254E-05    2     1000023   1000023   # BR(A -> ~chi_20 ~chi_20)
     1.23695228E-03    2     1000025   1000025   # BR(A -> ~chi_30 ~chi_30)
     1.41105109E-01    2     1000022   1000023   # BR(A -> ~chi_10 ~chi_20)
     2.06112730E-01    2     1000022   1000025   # BR(A -> ~chi_10 ~chi_30)
     6.87002961E-05    2     1000023   1000025   # BR(A -> ~chi_20 ~chi_30)
#
#         PDG            Width
DECAY        37     7.94154208E+00   # H+ decays
#          BR         NDA      ID1       ID2
     6.54743311E-04    2           4        -5   # BR(H+ -> c       bb     )
     7.01737749E-02    2         -15        16   # BR(H+ -> tau+    nu_tau )
     2.48139695E-04    2         -13        14   # BR(H+ -> mu+     nu_mu  )
     4.19033558E-06    2           2        -5   # BR(H+ -> u       bb     )
     1.45602238E-05    2           2        -3   # BR(H+ -> u       sb     )
     3.01106507E-04    2           4        -3   # BR(H+ -> c       sb     )
     5.76206211E-01    2           6        -5   # BR(H+ -> t       bb     )
     7.77128604E-05    2          24        25   # BR(H+ -> W+      h      )
     1.91347602E-13    2          24        36   # BR(H+ -> W+      A      )
     3.51598120E-01    2     1000024   1000022   # BR(H+ -> ~chi_1+ ~chi_10)
     6.73369135E-04    2     1000024   1000023   # BR(H+ -> ~chi_1+ ~chi_20)
     4.80727455E-05    2     1000024   1000025   # BR(H+ -> ~chi_1+ ~chi_30)
