#
#                              ======================
#                              | THE SUSYHIT OUTPUT |
#                              ======================
#
#
#              ------------------------------------------------------
#              |     This is the output of the SUSY-HIT package     |
#              |  created by A.Djouadi, M.Muehlleitner and M.Spira. |
#              |  In case of problems with SUSY-HIT email to        |
#              |           margarete.muehlleitner@cern.ch           |
#              |           michael.spira@psi.ch                     |
#              |           abdelhak.djouadi@cern.ch                 |
#              ------------------------------------------------------
#
#              ------------------------------------------------------
#              |  SUSY Les Houches Accord - MSSM Spectrum + Decays  |
#              |              based on the decay programs           |
#              |                                                    |
#              |                     SDECAY 1.3b                    |
#              |                                                    |
#              |  Authors: M.Muhlleitner, A.Djouadi and Y.Mambrini  |
#              |  Ref.:    Comput.Phys.Commun.168(2005)46           |
#              |           [hep-ph/0311167]                         |
#              |                                                    |
#              |                     HDECAY 3.4                     |
#              |                                                    |
#              |  By: A.Djouadi,J.Kalinowski,M.Muhlleitner,M.Spira  |
#              |  Ref.:    Comput.Phys.Commun.108(1998)56           |
#              |           [hep-ph/9704448]                         |
#              |                                                    |
#              |                                                    |
#              |  If not stated otherwise all DRbar couplings and   |
#              |  soft SUSY breaking masses are given at the scale  |
#              |  Q=  0.50006998E+04
#              |                                                    |
#              ------------------------------------------------------
#
#
BLOCK DCINFO  # Decay Program information
     1   SDECAY/HDECAY # decay calculator
     2   1.3b  /3.4    # version number
#
BLOCK SPINFO  # Spectrum calculator information
     1    SOFTSUSY    # spectrum calculator                
     2    3.4.0       # version number                     
#
BLOCK MODSEL  # Model selection
     1     0   #  nonUniversal                                     
#
BLOCK SMINPUTS  # Standard Model inputs
         1     1.25778332E+02   # alpha_em^-1(M_Z)^MSbar
         2     1.16570000E-05   # G_F [GeV^-2]
         3     1.17200002E-01   # alpha_S(M_Z)^MSbar
         4     9.11876000E+01   # M_Z pole mass
         5     4.25000000E+00   # mb(mb)^MSbar
         6     1.72500000E+02   # mt pole mass
         7     1.77682000E+00   # mtau pole mass
#
BLOCK MINPAR  # Input parameters - minimal models
         3     1.00000000E+01   # tanb                
#
BLOCK EXTPAR  # Input parameters - non-minimal models
         0    -1.00000000E+00   # Set                 
         1     6.00000000E+01   # M_1(MX)             
         2     3.00000000E+03   # M_2(MX)             
         3     1.94903800E+03   # M_3(MX)             
        11     5.00000000E+03   # At(MX)              
        12     5.00000000E+03   # Ab(MX)              
        13     0.00000000E+00   # Atau(MX)            
        23    -1.93696800E+03   # mu(MX)              
        26     3.00000000E+03   # mA(pole)            
        31     5.00000000E+03   # meL(MX)             
        32     5.00000000E+03   # mmuL(MX)            
        33     5.00000000E+03   # mtauL(MX)           
        34     5.00000000E+03   # meR(MX)             
        35     5.00000000E+03   # mmuR(MX)            
        36     5.00000000E+03   # mtauR(MX)           
        41     5.00000000E+03   # mqL1(MX)            
        42     5.00000000E+03   # mqL2(MX)            
        43     5.00000000E+03   # mqL3(MX)            
        44     5.00000000E+03   # muR(MX)             
        45     5.00000000E+03   # mcR(MX)             
        46     5.00000000E+03   # mtR(MX)             
        47     5.00000000E+03   # mdR(MX)             
        48     5.00000000E+03   # msR(MX)             
        49     5.00000000E+03   # mbR(MX)             
#
BLOCK MASS  # Mass Spectrum
# PDG code           mass       particle
        24     8.00976491E+01   # W+
        25     1.24814912E+02   # h
        35     3.00007615E+03   # H
        36     2.99999995E+03   # A
        37     3.00087266E+03   # H+
         5     4.87878001E+00   # b-quark pole mass calculated from mb(mb)_Msbar
   1000001     5.07631232E+03   # ~d_L
   2000001     5.05856922E+03   # ~d_R
   1000002     5.07583995E+03   # ~u_L
   2000002     5.05830118E+03   # ~u_R
   1000003     5.07631232E+03   # ~s_L
   2000003     5.05856922E+03   # ~s_R
   1000004     5.07583995E+03   # ~c_L
   2000004     5.05830118E+03   # ~c_R
   1000005     5.02303179E+03   # ~b_1
   2000005     5.05781007E+03   # ~b_2
   1000006     4.91572457E+03   # ~t_1
   2000006     5.06983868E+03   # ~t_2
   1000011     5.01903205E+03   # ~e_L
   2000011     5.00590192E+03   # ~e_R
   1000012     5.01808434E+03   # ~nu_eL
   1000013     5.01903205E+03   # ~mu_L
   2000013     5.00590192E+03   # ~mu_R
   1000014     5.01808434E+03   # ~nu_muL
   1000015     5.00405778E+03   # ~tau_1
   2000015     5.01933125E+03   # ~tau_2
   1000016     5.01755614E+03   # ~nu_tauL
   1000021     2.30000014E+03   # ~g
   1000022     6.02993049E+01   # ~chi_10
   1000023     1.99938317E+03   # ~chi_20
   1000025    -2.00239755E+03   # ~chi_30
   1000035     3.07449703E+03   # ~chi_40
   1000024     2.00000093E+03   # ~chi_1+
   1000037     3.07466492E+03   # ~chi_2+
#
BLOCK NMIX  # Neutralino Mixing Matrix
  1  1     9.99749444E-01   # N_11
  1  2     1.11637646E-04   # N_12
  1  3    -2.23212027E-02   # N_13
  1  4     1.67375479E-03   # N_14
  2  1     1.45912276E-02   # N_21
  2  2     4.52822238E-02   # N_22
  2  3     7.06689852E-01   # N_23
  2  4     7.05922141E-01   # N_24
  3  1    -1.69652811E-02   # N_31
  3  2     1.19413264E-02   # N_32
  3  3    -7.06777909E-01   # N_33
  3  4     7.07131227E-01   # N_34
  4  1    -5.70370729E-04   # N_41
  4  2     9.98902854E-01   # N_42
  4  3    -2.35840055E-02   # N_43
  4  4    -4.04543804E-02   # N_44
#
BLOCK UMIX  # Chargino Mixing Matrix U
  1  1     3.32830095E-02   # U_11
  1  2     9.99445967E-01   # U_12
  2  1    -9.99445967E-01   # U_21
  2  2     3.32830095E-02   # U_22
#
BLOCK VMIX  # Chargino Mixing Matrix V
  1  1     5.71424249E-02   # V_11
  1  2    -9.98366037E-01   # V_12
  2  1    -9.98366037E-01   # V_21
  2  2    -5.71424249E-02   # V_22
#
BLOCK STOPMIX  # Stop Mixing Matrix
  1  1    -5.15452445E-01   # cos(theta_t)
  1  2     8.56918186E-01   # sin(theta_t)
  2  1    -8.56918186E-01   # -sin(theta_t)
  2  2    -5.15452445E-01   # cos(theta_t)
#
BLOCK SBOTMIX  # Sbottom Mixing Matrix
  1  1     9.90696699E-01   # cos(theta_b)
  1  2    -1.36088393E-01   # sin(theta_b)
  2  1     1.36088393E-01   # -sin(theta_b)
  2  2     9.90696699E-01   # cos(theta_b)
#
BLOCK STAUMIX  # Stau Mixing Matrix
  1  1    -2.18670739E-01   # cos(theta_tau)
  1  2     9.75798703E-01   # sin(theta_tau)
  2  1    -9.75798703E-01   # -sin(theta_tau)
  2  2    -2.18670739E-01   # cos(theta_tau)
#
BLOCK ALPHA  # Higgs mixing
          -1.05460570E-01   # Mixing angle in the neutral Higgs boson sector
#
BLOCK HMIX Q=  5.00069978E+03  # DRbar Higgs Parameters
         1    -1.97262279E+03   # mu(Q)MSSM           
         2     9.47036697E+00   # tan                 
         3     2.42056317E+02   # higgs               
         4     8.32997266E+06   # mA^2(Q)MSSM         
#
BLOCK GAUGE Q=  5.00069978E+03  # The gauge couplings
     1     3.70628647E-01   # gprime(Q) DRbar
     2     6.31746714E-01   # g(Q) DRbar
     3     9.96436206E-01   # g3(Q) DRbar
#
BLOCK AU Q=  5.00069978E+03  # The trilinear couplings
  1  1     5.00000001E+03   # A_u(Q) DRbar
  2  2     5.00000001E+03   # A_c(Q) DRbar
  3  3     5.00000002E+03   # A_t(Q) DRbar
#
BLOCK AD Q=  5.00069978E+03  # The trilinear couplings
  1  1     5.00000001E+03   # A_d(Q) DRbar
  2  2     5.00000001E+03   # A_s(Q) DRbar
  3  3     5.00000001E+03   # A_b(Q) DRbar
#
BLOCK AE Q=  5.00069978E+03  # The trilinear couplings
  1  1     0.00000000E+00   # A_e(Q) DRbar
  2  2     2.25513251E-07   # A_mu(Q) DRbar
  3  3     2.25336674E-07   # A_tau(Q) DRbar
#
BLOCK Yu Q=  5.00069978E+03  # The Yukawa couplings
  1  1     0.00000000E+00   # y_u(Q) DRbar
  2  2     0.00000000E+00   # y_c(Q) DRbar
  3  3     8.20102850E-01   # y_t(Q) DRbar
#
BLOCK Yd Q=  5.00069978E+03  # The Yukawa couplings
  1  1     0.00000000E+00   # y_d(Q) DRbar
  2  2     0.00000000E+00   # y_s(Q) DRbar
  3  3     1.32298093E-01   # y_b(Q) DRbar
#
BLOCK Ye Q=  5.00069978E+03  # The Yukawa couplings
  1  1     0.00000000E+00   # y_e(Q) DRbar
  2  2     0.00000000E+00   # y_mu(Q) DRbar
  3  3     9.64528032E-02   # y_tau(Q) DRbar
#
BLOCK MSOFT Q=  5.00069978E+03  # The soft SUSY breaking masses at the scale Q
         1     6.00000000E+01   # M_1(Q)              
         2     3.00000000E+03   # M_2(Q)              
         3     1.94903800E+03   # M_3(Q)              
        21     4.75183227E+06   # mH1^2(Q)            
        22    -3.35933946E+06   # mH2^2(Q)            
        31     5.00000000E+03   # meL(Q)              
        32     5.00000000E+03   # mmuL(Q)             
        33     5.00000000E+03   # mtauL(Q)            
        34     5.00000000E+03   # meR(Q)              
        35     5.00000000E+03   # mmuR(Q)             
        36     5.00000000E+03   # mtauR(Q)            
        41     5.00000000E+03   # mqL1(Q)             
        42     5.00000000E+03   # mqL2(Q)             
        43     4.99999999E+03   # mqL3(Q)             
        44     5.00000000E+03   # muR(Q)              
        45     5.00000000E+03   # mcR(Q)              
        46     4.99999999E+03   # mtR(Q)              
        47     5.00000000E+03   # mdR(Q)              
        48     5.00000000E+03   # msR(Q)              
        49     5.00000000E+03   # mbR(Q)              
#
#
#
#                             =================
#                             |The decay table|
#                             =================
#
# - The QCD corrections to the decays gluino -> squark  + quark
#                                     squark -> gaugino + quark_prime
#                                     squark -> squark_prime + Higgs
#                                     squark -> gluino  + quark
#   are included.
#
# - The multi-body decays for the inos, stops and sbottoms are included.
#
# - The loop induced decays for the gluino, neutralinos and stops
#   are included.
#
# - The SUSY decays of the top quark are included.
#
#
#         PDG            Width
DECAY         6     1.39848002E+00   # top decays
#          BR         NDA      ID1       ID2
     1.00000000E+00    2           5        24   # BR(t ->  b    W+)
#
#         PDG            Width
DECAY   1000021     6.44151919E-04   # gluino decays
#          BR         NDA      ID1       ID2
     6.95101768E-06    2     1000022        21   # BR(~g -> ~chi_10 g)
     6.38466691E-04    2     1000023        21   # BR(~g -> ~chi_20 g)
     6.33987133E-04    2     1000025        21   # BR(~g -> ~chi_30 g)
#           BR         NDA      ID1       ID2       ID3
     7.54117844E-02    3     1000022         1        -1   # BR(~g -> ~chi_10 d  db)
     5.08113950E-07    3     1000023         1        -1   # BR(~g -> ~chi_20 d  db)
     2.46372564E-08    3     1000025         1        -1   # BR(~g -> ~chi_30 d  db)
     2.57089979E-01    3     1000022         2        -2   # BR(~g -> ~chi_10 u  ub)
     6.79204067E-07    3     1000023         2        -2   # BR(~g -> ~chi_20 u  ub)
     2.25051666E-08    3     1000025         2        -2   # BR(~g -> ~chi_30 u  ub)
     7.54117844E-02    3     1000022         3        -3   # BR(~g -> ~chi_10 s  sb)
     5.08113950E-07    3     1000023         3        -3   # BR(~g -> ~chi_20 s  sb)
     2.46372564E-08    3     1000025         3        -3   # BR(~g -> ~chi_30 s  sb)
     2.57089979E-01    3     1000022         4        -4   # BR(~g -> ~chi_10 c  cb)
     6.79204067E-07    3     1000023         4        -4   # BR(~g -> ~chi_20 c  cb)
     2.25051666E-08    3     1000025         4        -4   # BR(~g -> ~chi_30 c  cb)
     7.62847428E-02    3     1000022         5        -5   # BR(~g -> ~chi_10 b  bb)
     2.59752891E-05    3     1000023         5        -5   # BR(~g -> ~chi_20 b  bb)
     2.38962897E-05    3     1000025         5        -5   # BR(~g -> ~chi_30 b  bb)
     2.57009866E-01    3     1000022         6        -6   # BR(~g -> ~chi_10 t  tb)
     1.14873952E-06    3     1000024         1        -2   # BR(~g -> ~chi_1+ d  ub)
     1.14873952E-06    3    -1000024         2        -1   # BR(~g -> ~chi_1- u  db)
     1.14873952E-06    3     1000024         3        -4   # BR(~g -> ~chi_1+ s  cb)
     1.14873952E-06    3    -1000024         4        -3   # BR(~g -> ~chi_1- c  sb)
     1.82762474E-04    3     1000024         5        -6   # BR(~g -> ~chi_1+ b  tb)
     1.82762474E-04    3    -1000024         6        -5   # BR(~g -> ~chi_1- t  bb)
#
#         PDG            Width
DECAY   1000006     2.87659099E+02   # stop1 decays
#          BR         NDA      ID1       ID2
     3.04707949E-02    2     1000022         6   # BR(~t_1 -> ~chi_10 t )
     7.95033623E-02    2     1000023         6   # BR(~t_1 -> ~chi_20 t )
     7.62846927E-02    2     1000025         6   # BR(~t_1 -> ~chi_30 t )
     8.03789327E-03    2     1000035         6   # BR(~t_1 -> ~chi_40 t )
     1.13343131E-01    2     1000024         5   # BR(~t_1 -> ~chi_1+ b )
     1.59239483E-02    2     1000037         5   # BR(~t_1 -> ~chi_2+ b )
     6.76436177E-01    2     1000021         6   # BR(~t_1 -> ~g      t )
#
#         PDG            Width
DECAY   2000006     3.04625701E+02   # stop2 decays
#          BR         NDA      ID1       ID2
     1.17305728E-02    2     1000022         6   # BR(~t_2 -> ~chi_10 t )
     7.92836902E-02    2     1000023         6   # BR(~t_2 -> ~chi_20 t )
     8.26621306E-02    2     1000025         6   # BR(~t_2 -> ~chi_30 t )
     1.76188177E-02    2     1000035         6   # BR(~t_2 -> ~chi_40 t )
     5.01777613E-02    2     1000024         5   # BR(~t_2 -> ~chi_1+ b )
     3.48183548E-02    2     1000037         5   # BR(~t_2 -> ~chi_2+ b )
     7.19493994E-01    2     1000021         6   # BR(~t_2 -> ~g      t )
     9.05268313E-04    2     1000006        25   # BR(~t_2 -> ~t_1    h )
     3.30941040E-03    2     1000006        23   # BR(~t_2 -> ~t_1    Z )
#
#         PDG            Width
DECAY   1000005     2.81506026E+02   # sbottom1 decays
#          BR         NDA      ID1       ID2
     2.82780597E-03    2     1000022         5   # BR(~b_1 -> ~chi_10 b )
     2.39171233E-03    2     1000023         5   # BR(~b_1 -> ~chi_20 b )
     2.15336931E-03    2     1000025         5   # BR(~b_1 -> ~chi_30 b )
     2.63930198E-02    2     1000035         5   # BR(~b_1 -> ~chi_40 b )
     1.65647426E-01    2    -1000024         6   # BR(~b_1 -> ~chi_1- t )
     5.33698028E-02    2    -1000037         6   # BR(~b_1 -> ~chi_2- t )
     7.45368408E-01    2     1000021         5   # BR(~b_1 -> ~g      b )
     1.84845573E-03    2     1000006       -24   # BR(~b_1 -> ~t_1    W-)
#
#         PDG            Width
DECAY   2000005     2.19384144E+02   # sbottom2 decays
#          BR         NDA      ID1       ID2
     1.32543743E-02    2     1000022         5   # BR(~b_2 -> ~chi_10 b )
     2.73614145E-03    2     1000023         5   # BR(~b_2 -> ~chi_20 b )
     2.94181513E-03    2     1000025         5   # BR(~b_2 -> ~chi_30 b )
     6.97570759E-04    2     1000035         5   # BR(~b_2 -> ~chi_40 b )
     9.54134445E-03    2    -1000024         6   # BR(~b_2 -> ~chi_1- t )
     1.40871989E-03    2    -1000037         6   # BR(~b_2 -> ~chi_2- t )
     9.69223499E-01    2     1000021         5   # BR(~b_2 -> ~g      b )
     1.96535134E-04    2     1000006       -24   # BR(~b_2 -> ~t_1    W-)
#
#         PDG            Width
DECAY   1000002     2.38450834E+02   # sup_L decays
#          BR         NDA      ID1       ID2
     3.12535183E-03    2     1000022         2   # BR(~u_L -> ~chi_10 u)
     1.35578498E-04    2     1000023         2   # BR(~u_L -> ~chi_20 u)
     4.34669187E-06    2     1000025         2   # BR(~u_L -> ~chi_30 u)
     3.28987169E-02    2     1000035         2   # BR(~u_L -> ~chi_40 u)
     3.82037817E-04    2     1000024         1   # BR(~u_L -> ~chi_1+ d)
     6.57331578E-02    2     1000037         1   # BR(~u_L -> ~chi_2+ d)
     8.97720810E-01    2     1000021         2   # BR(~u_L -> ~g      u)
#
#         PDG            Width
DECAY   2000002     2.24430249E+02   # sup_R decays
#          BR         NDA      ID1       ID2
     5.28826097E-02    2     1000022         2   # BR(~u_R -> ~chi_10 u)
     8.05024104E-06    2     1000023         2   # BR(~u_R -> ~chi_20 u)
     1.08708686E-05    2     1000025         2   # BR(~u_R -> ~chi_30 u)
     6.89520111E-09    2     1000035         2   # BR(~u_R -> ~chi_40 u)
     9.47098462E-01    2     1000021         2   # BR(~u_R -> ~g      u)
#
#         PDG            Width
DECAY   1000001     2.38469202E+02   # sdown_L decays
#          BR         NDA      ID1       ID2
     3.11827621E-03    2     1000022         1   # BR(~d_L -> ~chi_10 d)
     1.05345366E-04    2     1000023         1   # BR(~d_L -> ~chi_20 d)
     1.36103091E-05    2     1000025         1   # BR(~d_L -> ~chi_30 d)
     3.29209953E-02    2     1000035         1   # BR(~d_L -> ~chi_40 d)
     1.29619712E-04    2    -1000024         2   # BR(~d_L -> ~chi_1- u)
     6.58906169E-02    2    -1000037         2   # BR(~d_L -> ~chi_2- u)
     8.97821536E-01    2     1000021         1   # BR(~d_L -> ~g      d)
#
#         PDG            Width
DECAY   2000001     2.15548885E+02   # sdown_R decays
#          BR         NDA      ID1       ID2
     1.37661306E-02    2     1000022         1   # BR(~d_R -> ~chi_10 d)
     2.09567852E-06    2     1000023         1   # BR(~d_R -> ~chi_20 d)
     2.82995861E-06    2     1000025         1   # BR(~d_R -> ~chi_30 d)
     1.79514337E-09    2     1000035         1   # BR(~d_R -> ~chi_40 d)
     9.86228942E-01    2     1000021         1   # BR(~d_R -> ~g      d)
#
#         PDG            Width
DECAY   1000004     2.38450834E+02   # scharm_L decays
#          BR         NDA      ID1       ID2
     3.12535183E-03    2     1000022         4   # BR(~c_L -> ~chi_10 c)
     1.35578498E-04    2     1000023         4   # BR(~c_L -> ~chi_20 c)
     4.34669187E-06    2     1000025         4   # BR(~c_L -> ~chi_30 c)
     3.28987169E-02    2     1000035         4   # BR(~c_L -> ~chi_40 c)
     3.82037817E-04    2     1000024         3   # BR(~c_L -> ~chi_1+ s)
     6.57331578E-02    2     1000037         3   # BR(~c_L -> ~chi_2+ s)
     8.97720810E-01    2     1000021         4   # BR(~c_L -> ~g      c)
#
#         PDG            Width
DECAY   2000004     2.24430249E+02   # scharm_R decays
#          BR         NDA      ID1       ID2
     5.28826097E-02    2     1000022         4   # BR(~c_R -> ~chi_10 c)
     8.05024104E-06    2     1000023         4   # BR(~c_R -> ~chi_20 c)
     1.08708686E-05    2     1000025         4   # BR(~c_R -> ~chi_30 c)
     6.89520111E-09    2     1000035         4   # BR(~c_R -> ~chi_40 c)
     9.47098462E-01    2     1000021         4   # BR(~c_R -> ~g      c)
#
#         PDG            Width
DECAY   1000003     2.38469202E+02   # sstrange_L decays
#          BR         NDA      ID1       ID2
     3.11827621E-03    2     1000022         3   # BR(~s_L -> ~chi_10 s)
     1.05345366E-04    2     1000023         3   # BR(~s_L -> ~chi_20 s)
     1.36103091E-05    2     1000025         3   # BR(~s_L -> ~chi_30 s)
     3.29209953E-02    2     1000035         3   # BR(~s_L -> ~chi_40 s)
     1.29619712E-04    2    -1000024         4   # BR(~s_L -> ~chi_1- c)
     6.58906169E-02    2    -1000037         4   # BR(~s_L -> ~chi_2- c)
     8.97821536E-01    2     1000021         3   # BR(~s_L -> ~g      s)
#
#         PDG            Width
DECAY   2000003     2.15548885E+02   # sstrange_R decays
#          BR         NDA      ID1       ID2
     1.37661306E-02    2     1000022         3   # BR(~s_R -> ~chi_10 s)
     2.09567852E-06    2     1000023         3   # BR(~s_R -> ~chi_20 s)
     2.82995861E-06    2     1000025         3   # BR(~s_R -> ~chi_30 s)
     1.79514337E-09    2     1000035         3   # BR(~s_R -> ~chi_40 s)
     9.86228942E-01    2     1000021         3   # BR(~s_R -> ~g      s)
#
#         PDG            Width
DECAY   1000011     3.02180155E+01   # selectron_L decays
#          BR         NDA      ID1       ID2
     2.26858166E-01    2     1000022        11   # BR(~e_L -> ~chi_10 e-)
     1.35301230E-03    2     1000023        11   # BR(~e_L -> ~chi_20 e-)
     1.84289929E-06    2     1000025        11   # BR(~e_L -> ~chi_30 e-)
     2.56639310E-01    2     1000035        11   # BR(~e_L -> ~chi_40 e-)
     1.03377305E-03    2    -1000024        12   # BR(~e_L -> ~chi_1- nu_e)
     5.14113896E-01    2    -1000037        12   # BR(~e_L -> ~chi_2- nu_e)
#
#         PDG            Width
DECAY   2000011     2.73483048E+01   # selectron_R decays
#          BR         NDA      ID1       ID2
     9.99646240E-01    2     1000022        11   # BR(~e_R -> ~chi_10 e-)
     1.50460955E-04    2     1000023        11   # BR(~e_R -> ~chi_20 e-)
     2.03172370E-04    2     1000025        11   # BR(~e_R -> ~chi_30 e-)
     1.26237216E-07    2     1000035        11   # BR(~e_R -> ~chi_40 e-)
#
#         PDG            Width
DECAY   1000013     3.02180155E+01   # smuon_L decays
#          BR         NDA      ID1       ID2
     2.26858166E-01    2     1000022        13   # BR(~mu_L -> ~chi_10 mu-)
     1.35301230E-03    2     1000023        13   # BR(~mu_L -> ~chi_20 mu-)
     1.84289929E-06    2     1000025        13   # BR(~mu_L -> ~chi_30 mu-)
     2.56639310E-01    2     1000035        13   # BR(~mu_L -> ~chi_40 mu-)
     1.03377305E-03    2    -1000024        14   # BR(~mu_L -> ~chi_1- nu_mu)
     5.14113896E-01    2    -1000037        14   # BR(~mu_L -> ~chi_2- nu_mu)
#
#         PDG            Width
DECAY   2000013     2.73483048E+01   # smuon_R decays
#          BR         NDA      ID1       ID2
     9.99646240E-01    2     1000022        13   # BR(~mu_R -> ~chi_10 mu-)
     1.50460955E-04    2     1000023        13   # BR(~mu_R -> ~chi_20 mu-)
     2.03172370E-04    2     1000025        13   # BR(~mu_R -> ~chi_30 mu-)
     1.26237216E-07    2     1000035        13   # BR(~mu_R -> ~chi_40 mu-)
#
#         PDG            Width
DECAY   1000015     2.87877731E+01   # stau_1 decays
#          BR         NDA      ID1       ID2
     9.16116799E-01    2     1000022        15   # BR(~tau_1 -> ~chi_10  tau-)
     1.27162424E-02    2     1000023        15   # BR(~tau_1 -> ~chi_20  tau-)
     1.08252621E-02    2     1000025        15   # BR(~tau_1 -> ~chi_30  tau-)
     1.21769536E-02    2     1000035        15   # BR(~tau_1 -> ~chi_40  tau-)
     2.37678848E-02    2    -1000024        16   # BR(~tau_1 -> ~chi_1-  nu_tau)
     2.43968581E-02    2    -1000037        16   # BR(~tau_1 -> ~chi_2-  nu_tau)
#
#         PDG            Width
DECAY   2000015     3.07296621E+01   # stau_2 decays
#          BR         NDA      ID1       ID2
     2.54315799E-01    2     1000022        15   # BR(~tau_2 -> ~chi_10  tau-)
     1.08632901E-02    2     1000023        15   # BR(~tau_2 -> ~chi_20  tau-)
     1.13428192E-02    2     1000025        15   # BR(~tau_2 -> ~chi_30  tau-)
     2.40902004E-01    2     1000035        15   # BR(~tau_2 -> ~chi_40  tau-)
     7.26708955E-07    2    -1000024        16   # BR(~tau_2 -> ~chi_1-  nu_tau)
     4.82575360E-01    2    -1000037        16   # BR(~tau_2 -> ~chi_2-  nu_tau)
#
#         PDG            Width
DECAY   1000012     3.02190301E+01   # snu_eL decays
#          BR         NDA      ID1       ID2
     2.26635076E-01    2     1000022        12   # BR(~nu_eL -> ~chi_10 nu_e)
     6.29135513E-04    2     1000023        12   # BR(~nu_eL -> ~chi_20 nu_e)
     2.23390142E-04    2     1000025        12   # BR(~nu_eL -> ~chi_30 nu_e)
     2.56809703E-01    2     1000035        12   # BR(~nu_eL -> ~chi_40 nu_e)
     3.04606262E-03    2     1000024        11   # BR(~nu_eL -> ~chi_1+ e-)
     5.12656633E-01    2     1000037        11   # BR(~nu_eL -> ~chi_2+ e-)
#
#         PDG            Width
DECAY   1000014     3.02190301E+01   # snu_muL decays
#          BR         NDA      ID1       ID2
     2.26635076E-01    2     1000022        14   # BR(~nu_muL -> ~chi_10 nu_mu)
     6.29135513E-04    2     1000023        14   # BR(~nu_muL -> ~chi_20 nu_mu)
     2.23390142E-04    2     1000025        14   # BR(~nu_muL -> ~chi_30 nu_mu)
     2.56809703E-01    2     1000035        14   # BR(~nu_muL -> ~chi_40 nu_mu)
     3.04606262E-03    2     1000024        13   # BR(~nu_muL -> ~chi_1+ mu-)
     5.12656633E-01    2     1000037        13   # BR(~nu_muL -> ~chi_2+ mu-)
#
#         PDG            Width
DECAY   1000016     3.08666740E+01   # snu_tauL decays
#          BR         NDA      ID1       ID2
     2.21856456E-01    2     1000022        16   # BR(~nu_tauL -> ~chi_10 nu_tau)
     6.15821233E-04    2     1000023        16   # BR(~nu_tauL -> ~chi_20 nu_tau)
     2.18662515E-04    2     1000025        16   # BR(~nu_tauL -> ~chi_30 nu_tau)
     2.51331246E-01    2     1000035        16   # BR(~nu_tauL -> ~chi_40 nu_tau)
     2.42484544E-02    2     1000024        15   # BR(~nu_tauL -> ~chi_1+ tau-)
     5.01729361E-01    2     1000037        15   # BR(~nu_tauL -> ~chi_2+ tau-)
#
#         PDG            Width
DECAY   1000024     1.23493554E+00   # chargino1+ decays
#          BR         NDA      ID1       ID2
     1.00000000E+00    2     1000022        24   # BR(~chi_1+ -> ~chi_10  W+)
#
#         PDG            Width
DECAY   1000037     1.53621119E+01   # chargino2+ decays
#          BR         NDA      ID1       ID2
     2.51881324E-01    2     1000024        23   # BR(~chi_2+ -> ~chi_1+  Z )
     4.76620642E-04    2     1000022        24   # BR(~chi_2+ -> ~chi_10  W+)
     2.45383080E-01    2     1000023        24   # BR(~chi_2+ -> ~chi_20  W+)
     2.42770275E-01    2     1000025        24   # BR(~chi_2+ -> ~chi_30  W+)
     2.59488657E-01    2     1000024        25   # BR(~chi_2+ -> ~chi_1+  h )
     4.32255899E-08    2     1000022        37   # BR(~chi_2+ -> ~chi_10  H+)
#
#         PDG            Width
DECAY   1000022     0.00000000E+00   # neutralino1 decays
#
#         PDG            Width
DECAY   1000023     1.30079802E+00   # neutralino2 decays
#          BR         NDA      ID1       ID2
     5.65491214E-01    2     1000022        23   # BR(~chi_20 -> ~chi_10   Z )
     4.34508786E-01    2     1000022        25   # BR(~chi_20 -> ~chi_10   h )
#
#         PDG            Width
DECAY   1000025     1.31712413E+00   # neutralino3 decays
#          BR         NDA      ID1       ID2
     4.15222583E-01    2     1000022        23   # BR(~chi_30 -> ~chi_10   Z )
     5.84777417E-01    2     1000022        25   # BR(~chi_30 -> ~chi_10   h )
#
#         PDG            Width
DECAY   1000035     1.53154816E+01   # neutralino4 decays
#          BR         NDA      ID1       ID2
     2.14707298E-04    2     1000022        23   # BR(~chi_40 -> ~chi_10   Z )
     1.67163730E-02    2     1000023        23   # BR(~chi_40 -> ~chi_20   Z )
     2.35825909E-01    2     1000025        23   # BR(~chi_40 -> ~chi_30   Z )
     2.43573351E-01    2     1000024       -24   # BR(~chi_40 -> ~chi_1+   W-)
     2.43573351E-01    2    -1000024        24   # BR(~chi_40 -> ~chi_1-   W+)
     2.82177320E-04    2     1000022        25   # BR(~chi_40 -> ~chi_10   h )
     3.23302964E-08    2     1000022        35   # BR(~chi_40 -> ~chi_10   H )
     1.24543872E-08    2     1000022        36   # BR(~chi_40 -> ~chi_10   A )
     2.43350940E-01    2     1000023        25   # BR(~chi_40 -> ~chi_20   h )
     1.64631470E-02    2     1000025        25   # BR(~chi_40 -> ~chi_30   h )
#
#         PDG            Width
DECAY        25     4.03185255E-03   # h decays
#          BR         NDA      ID1       ID2
     6.04593935E-01    2           5        -5   # BR(h -> b       bb     )
     6.43429591E-02    2         -15        15   # BR(h -> tau+    tau-   )
     2.27797286E-04    2         -13        13   # BR(h -> mu+     mu-    )
     4.82886394E-04    2           3        -3   # BR(h -> s       sb     )
     2.09273476E-02    2           4        -4   # BR(h -> c       cb     )
     6.77421315E-02    2          21        21   # BR(h -> g       g      )
     2.33040069E-03    2          22        22   # BR(h -> gam     gam    )
     1.50609920E-03    2          22        23   # BR(h -> Z       gam    )
     2.12478607E-01    2          24       -24   # BR(h -> W+      W-     )
     2.53465777E-02    2          23        23   # BR(h -> Z       Z      )
     2.12583721E-05    2     1000022   1000022   # BR(h -> ~chi_10 ~chi_10)
#
#         PDG            Width
DECAY        35     6.36097266E+00   # H decays
#          BR         NDA      ID1       ID2
     5.19743028E-01    2           5        -5   # BR(H -> b       bb     )
     8.75924296E-02    2         -15        15   # BR(H -> tau+    tau-   )
     3.09733789E-04    2         -13        13   # BR(H -> mu+     mu-    )
     3.79686267E-04    2           3        -3   # BR(H -> s       sb     )
     2.12306747E-06    2           4        -4   # BR(H -> c       cb     )
     2.12111247E-01    2           6        -6   # BR(H -> t       tb     )
     7.03531052E-05    2          21        21   # BR(H -> g       g      )
     3.97884965E-07    2          22        22   # BR(H -> gam     gam    )
     1.25306148E-07    2          23        22   # BR(H -> Z       gam    )
     9.21904141E-05    2          24       -24   # BR(H -> W+      W-     )
     4.60368740E-05    2          23        23   # BR(H -> Z       Z      )
     3.52979312E-04    2          25        25   # BR(H -> h       h      )
     2.64903082E-23    2          36        36   # BR(H -> A       A      )
     8.08880738E-19    2          23        36   # BR(H -> Z       A      )
     5.68034835E-04    2     1000022   1000022   # BR(H -> ~chi_10 ~chi_10)
     1.04387560E-01    2     1000022   1000023   # BR(H -> ~chi_10 ~chi_20)
     7.43440754E-02    2     1000022   1000025   # BR(H -> ~chi_10 ~chi_30)
#
#         PDG            Width
DECAY        36     6.36433629E+00   # A decays
#          BR         NDA      ID1       ID2
     5.19640993E-01    2           5        -5   # BR(A -> b       bb     )
     8.75488088E-02    2         -15        15   # BR(A -> tau+    tau-   )
     3.09579109E-04    2         -13        13   # BR(A -> mu+     mu-    )
     3.79773857E-04    2           3        -3   # BR(A -> s       sb     )
     2.13094575E-06    2           4        -4   # BR(A -> c       cb     )
     2.12780892E-01    2           6        -6   # BR(A -> t       tb     )
     2.10576105E-04    2          21        21   # BR(A -> g       g      )
     4.11603569E-07    2          22        22   # BR(A -> gam     gam    )
     2.55170755E-07    2          23        22   # BR(A -> Z       gam    )
     9.17936650E-05    2          23        25   # BR(A -> Z       h      )
     5.86992417E-04    2     1000022   1000022   # BR(A -> ~chi_10 ~chi_10)
     7.52719310E-02    2     1000022   1000023   # BR(A -> ~chi_10 ~chi_20)
     1.03175862E-01    2     1000022   1000025   # BR(A -> ~chi_10 ~chi_30)
#
#         PDG            Width
DECAY        37     6.38893541E+00   # H+ decays
#          BR         NDA      ID1       ID2
     8.39431103E-04    2           4        -5   # BR(H+ -> c       bb     )
     8.72370926E-02    2         -15        16   # BR(H+ -> tau+    nu_tau )
     3.08476857E-04    2         -13        14   # BR(H+ -> mu+     nu_mu  )
     5.37233201E-06    2           2        -5   # BR(H+ -> u       bb     )
     1.81007798E-05    2           2        -3   # BR(H+ -> u       sb     )
     3.74324790E-04    2           4        -3   # BR(H+ -> c       sb     )
     7.32149766E-01    2           6        -5   # BR(H+ -> t       bb     )
     9.15787684E-05    2          24        25   # BR(H+ -> W+      h      )
     1.04137937E-13    2          24        36   # BR(H+ -> W+      A      )
     1.78975857E-01    2     1000024   1000022   # BR(H+ -> ~chi_1+ ~chi_10)
