#
#                              ======================
#                              | THE SUSYHIT OUTPUT |
#                              ======================
#
#
#              ------------------------------------------------------
#              |     This is the output of the SUSY-HIT package     |
#              |  created by A.Djouadi, M.Muehlleitner and M.Spira. |
#              |  In case of problems with SUSY-HIT email to        |
#              |           margarete.muehlleitner@cern.ch           |
#              |           michael.spira@psi.ch                     |
#              |           abdelhak.djouadi@cern.ch                 |
#              ------------------------------------------------------
#
#              ------------------------------------------------------
#              |  SUSY Les Houches Accord - MSSM Spectrum + Decays  |
#              |              based on the decay programs           |
#              |                                                    |
#              |                     SDECAY 1.3b                    |
#              |                                                    |
#              |  Authors: M.Muhlleitner, A.Djouadi and Y.Mambrini  |
#              |  Ref.:    Comput.Phys.Commun.168(2005)46           |
#              |           [hep-ph/0311167]                         |
#              |                                                    |
#              |                     HDECAY 3.4                     |
#              |                                                    |
#              |  By: A.Djouadi,J.Kalinowski,M.Muhlleitner,M.Spira  |
#              |  Ref.:    Comput.Phys.Commun.108(1998)56           |
#              |           [hep-ph/9704448]                         |
#              |                                                    |
#              |                                                    |
#              |  If not stated otherwise all DRbar couplings and   |
#              |  soft SUSY breaking masses are given at the scale  |
#              |  Q=  0.50007374E+04
#              |                                                    |
#              ------------------------------------------------------
#
#
BLOCK DCINFO  # Decay Program information
     1   SDECAY/HDECAY # decay calculator
     2   1.3b  /3.4    # version number
#
BLOCK SPINFO  # Spectrum calculator information
     1    SOFTSUSY    # spectrum calculator                
     2    3.4.0       # version number                     
#
BLOCK MODSEL  # Model selection
     1     0   #  nonUniversal                                     
#
BLOCK SMINPUTS  # Standard Model inputs
         1     1.25778332E+02   # alpha_em^-1(M_Z)^MSbar
         2     1.16570000E-05   # G_F [GeV^-2]
         3     1.17200002E-01   # alpha_S(M_Z)^MSbar
         4     9.11876000E+01   # M_Z pole mass
         5     4.25000000E+00   # mb(mb)^MSbar
         6     1.72500000E+02   # mt pole mass
         7     1.77682000E+00   # mtau pole mass
#
BLOCK MINPAR  # Input parameters - minimal models
         3     1.00000000E+01   # tanb                
#
BLOCK EXTPAR  # Input parameters - non-minimal models
         0    -1.00000000E+00   # Set                 
         1     6.00000000E+01   # M_1(MX)             
         2     3.00000000E+03   # M_2(MX)             
         3     1.39219700E+03   # M_3(MX)             
        11     5.00000000E+03   # At(MX)              
        12     5.00000000E+03   # Ab(MX)              
        13     0.00000000E+00   # Atau(MX)            
        23    -9.59088000E+02   # mu(MX)              
        26     3.00000000E+03   # mA(pole)            
        31     5.00000000E+03   # meL(MX)             
        32     5.00000000E+03   # mmuL(MX)            
        33     5.00000000E+03   # mtauL(MX)           
        34     5.00000000E+03   # meR(MX)             
        35     5.00000000E+03   # mmuR(MX)            
        36     5.00000000E+03   # mtauR(MX)           
        41     5.00000000E+03   # mqL1(MX)            
        42     5.00000000E+03   # mqL2(MX)            
        43     5.00000000E+03   # mqL3(MX)            
        44     5.00000000E+03   # muR(MX)             
        45     5.00000000E+03   # mcR(MX)             
        46     5.00000000E+03   # mtR(MX)             
        47     5.00000000E+03   # mdR(MX)             
        48     5.00000000E+03   # msR(MX)             
        49     5.00000000E+03   # mbR(MX)             
#
BLOCK MASS  # Mass Spectrum
# PDG code           mass       particle
        24     8.00946239E+01   # W+
        25     1.24691267E+02   # h
        35     3.00008137E+03   # H
        36     2.99999858E+03   # A
        37     3.00112495E+03   # H+
         5     4.87878001E+00   # b-quark pole mass calculated from mb(mb)_Msbar
   1000001     5.06847025E+03   # ~d_L
   2000001     5.05065508E+03   # ~d_R
   1000002     5.06799527E+03   # ~u_L
   2000002     5.05036904E+03   # ~u_R
   1000003     5.06847025E+03   # ~s_L
   2000003     5.05065508E+03   # ~s_R
   1000004     5.06799527E+03   # ~c_L
   2000004     5.05036904E+03   # ~c_R
   1000005     5.01431911E+03   # ~b_1
   2000005     5.04918779E+03   # ~b_2
   1000006     4.90501998E+03   # ~t_1
   2000006     5.05962740E+03   # ~t_2
   1000011     5.01907173E+03   # ~e_L
   2000011     5.00592433E+03   # ~e_R
   1000012     5.01812297E+03   # ~nu_eL
   1000013     5.01907173E+03   # ~mu_L
   2000013     5.00592433E+03   # ~mu_R
   1000014     5.01812297E+03   # ~nu_muL
   1000015     5.00461225E+03   # ~tau_1
   2000015     5.01876642E+03   # ~tau_2
   1000016     5.01757682E+03   # ~nu_tauL
   1000021     1.70000057E+03   # ~g
   1000022     6.02985490E+01   # ~chi_10
   1000023     9.99653015E+02   # ~chi_20
   1000025    -1.00190673E+03   # ~chi_30
   1000035     3.07425574E+03   # ~chi_40
   1000024     1.00000098E+03   # ~chi_1+
   1000037     3.07442322E+03   # ~chi_2+
#
BLOCK NMIX  # Neutralino Mixing Matrix
  1  1     9.99007011E-01   # N_11
  1  2     1.84578017E-04   # N_12
  1  3    -4.45097498E-02   # N_13
  1  4     1.95940641E-03   # N_14
  2  1     3.00963541E-02   # N_21
  2  2     2.34937064E-02   # N_22
  2  3     7.06701100E-01   # N_23
  2  4     7.06481288E-01   # N_24
  3  1    -3.28487323E-02   # N_31
  3  2     1.49122331E-02   # N_32
  3  3    -7.06084710E-01   # N_33
  3  4     7.07207868E-01   # N_34
  4  1    -4.01777276E-04   # N_41
  4  2     9.99612744E-01   # N_42
  4  3    -6.06786264E-03   # N_43
  4  4    -2.71547900E-02   # N_44
#
BLOCK UMIX  # Chargino Mixing Matrix U
  1  1     8.59493666E-03   # U_11
  1  2     9.99963063E-01   # U_12
  2  1    -9.99963063E-01   # U_21
  2  2     8.59493666E-03   # U_22
#
BLOCK VMIX  # Chargino Mixing Matrix V
  1  1     3.84324886E-02   # V_11
  1  2    -9.99261199E-01   # V_12
  2  1    -9.99261199E-01   # V_21
  2  2    -3.84324886E-02   # V_22
#
BLOCK STOPMIX  # Stop Mixing Matrix
  1  1    -5.07950468E-01   # cos(theta_t)
  1  2     8.61386279E-01   # sin(theta_t)
  2  1    -8.61386279E-01   # -sin(theta_t)
  2  2    -5.07950468E-01   # cos(theta_t)
#
BLOCK SBOTMIX  # Sbottom Mixing Matrix
  1  1     9.97070756E-01   # cos(theta_b)
  1  2    -7.64846882E-02   # sin(theta_b)
  2  1     7.64846882E-02   # -sin(theta_b)
  2  2     9.97070756E-01   # cos(theta_b)
#
BLOCK STAUMIX  # Stau Mixing Matrix
  1  1    -1.13911002E-01   # cos(theta_tau)
  1  2     9.93490958E-01   # sin(theta_tau)
  2  1    -9.93490958E-01   # -sin(theta_tau)
  2  2    -1.13911002E-01   # cos(theta_tau)
#
BLOCK ALPHA  # Higgs mixing
          -1.05464983E-01   # Mixing angle in the neutral Higgs boson sector
#
BLOCK HMIX Q=  5.00073736E+03  # DRbar Higgs Parameters
         1    -9.76555715E+02   # mu(Q)MSSM           
         2     9.47063632E+00   # tan                 
         3     2.41865178E+02   # higgs               
         4     8.51477927E+06   # mA^2(Q)MSSM         
#
BLOCK GAUGE Q=  5.00073736E+03  # The gauge couplings
     1     3.70803107E-01   # gprime(Q) DRbar
     2     6.32569138E-01   # g(Q) DRbar
     3     1.00088101E+00   # g3(Q) DRbar
#
BLOCK AU Q=  5.00073736E+03  # The trilinear couplings
  1  1     5.00000001E+03   # A_u(Q) DRbar
  2  2     5.00000001E+03   # A_c(Q) DRbar
  3  3     5.00000001E+03   # A_t(Q) DRbar
#
BLOCK AD Q=  5.00073736E+03  # The trilinear couplings
  1  1     5.00000000E+03   # A_d(Q) DRbar
  2  2     5.00000000E+03   # A_s(Q) DRbar
  3  3     5.00000001E+03   # A_b(Q) DRbar
#
BLOCK AE Q=  5.00073736E+03  # The trilinear couplings
  1  1     0.00000000E+00   # A_e(Q) DRbar
  2  2     1.28371101E-07   # A_mu(Q) DRbar
  3  3     1.27829285E-07   # A_tau(Q) DRbar
#
BLOCK Yu Q=  5.00073736E+03  # The Yukawa couplings
  1  1     0.00000000E+00   # y_u(Q) DRbar
  2  2     0.00000000E+00   # y_c(Q) DRbar
  3  3     8.18747641E-01   # y_t(Q) DRbar
#
BLOCK Yd Q=  5.00073736E+03  # The Yukawa couplings
  1  1     0.00000000E+00   # y_d(Q) DRbar
  2  2     0.00000000E+00   # y_s(Q) DRbar
  3  3     1.30346356E-01   # y_b(Q) DRbar
#
BLOCK Ye Q=  5.00073736E+03  # The Yukawa couplings
  1  1     0.00000000E+00   # y_e(Q) DRbar
  2  2     0.00000000E+00   # y_mu(Q) DRbar
  3  3     9.68587992E-02   # y_tau(Q) DRbar
#
BLOCK MSOFT Q=  5.00073736E+03  # The soft SUSY breaking masses at the scale Q
         1     6.00000000E+01   # M_1(Q)              
         2     3.00000000E+03   # M_2(Q)              
         3     1.39219700E+03   # M_3(Q)              
        21     7.74280242E+06   # mH1^2(Q)            
        22    -3.90503277E+05   # mH2^2(Q)            
        31     5.00000000E+03   # meL(Q)              
        32     5.00000000E+03   # mmuL(Q)             
        33     5.00000000E+03   # mtauL(Q)            
        34     5.00000000E+03   # meR(Q)              
        35     5.00000000E+03   # mmuR(Q)             
        36     5.00000000E+03   # mtauR(Q)            
        41     5.00000000E+03   # mqL1(Q)             
        42     5.00000000E+03   # mqL2(Q)             
        43     5.00000000E+03   # mqL3(Q)             
        44     5.00000000E+03   # muR(Q)              
        45     5.00000000E+03   # mcR(Q)              
        46     4.99999999E+03   # mtR(Q)              
        47     5.00000000E+03   # mdR(Q)              
        48     5.00000000E+03   # msR(Q)              
        49     5.00000000E+03   # mbR(Q)              
#
#
#
#                             =================
#                             |The decay table|
#                             =================
#
# - The QCD corrections to the decays gluino -> squark  + quark
#                                     squark -> gaugino + quark_prime
#                                     squark -> squark_prime + Higgs
#                                     squark -> gluino  + quark
#   are included.
#
# - The multi-body decays for the inos, stops and sbottoms are included.
#
# - The loop induced decays for the gluino, neutralinos and stops
#   are included.
#
# - The SUSY decays of the top quark are included.
#
#
#         PDG            Width
DECAY         6     1.40225578E+00   # top decays
#          BR         NDA      ID1       ID2
     1.00000000E+00    2           5        24   # BR(t ->  b    W+)
#
#         PDG            Width
DECAY   1000021     1.91708269E-04   # gluino decays
#          BR         NDA      ID1       ID2
     6.69076487E-06    2     1000022        21   # BR(~g -> ~chi_10 g)
     1.42612545E-02    2     1000023        21   # BR(~g -> ~chi_20 g)
     1.39992761E-02    2     1000025        21   # BR(~g -> ~chi_30 g)
#           BR         NDA      ID1       ID2       ID3
     5.27969851E-02    3     1000022         1        -1   # BR(~g -> ~chi_10 d  db)
     1.34352685E-05    3     1000023         1        -1   # BR(~g -> ~chi_20 d  db)
     6.63644569E-06    3     1000025         1        -1   # BR(~g -> ~chi_30 d  db)
     1.80013552E-01    3     1000022         2        -2   # BR(~g -> ~chi_10 u  ub)
     4.24860522E-05    3     1000023         2        -2   # BR(~g -> ~chi_20 u  ub)
     7.90867662E-06    3     1000025         2        -2   # BR(~g -> ~chi_30 u  ub)
     5.27969851E-02    3     1000022         3        -3   # BR(~g -> ~chi_10 s  sb)
     1.34352685E-05    3     1000023         3        -3   # BR(~g -> ~chi_20 s  sb)
     6.63644569E-06    3     1000025         3        -3   # BR(~g -> ~chi_30 s  sb)
     1.80013552E-01    3     1000022         4        -4   # BR(~g -> ~chi_10 c  cb)
     4.24860522E-05    3     1000023         4        -4   # BR(~g -> ~chi_20 c  cb)
     7.90867662E-06    3     1000025         4        -4   # BR(~g -> ~chi_30 c  cb)
     5.35486366E-02    3     1000022         5        -5   # BR(~g -> ~chi_10 b  bb)
     2.68203504E-03    3     1000023         5        -5   # BR(~g -> ~chi_20 b  bb)
     2.62606455E-03    3     1000025         5        -5   # BR(~g -> ~chi_30 b  bb)
     1.66168939E-01    3     1000022         6        -6   # BR(~g -> ~chi_10 t  tb)
     6.81384951E-02    3     1000023         6        -6   # BR(~g -> ~chi_20 t  tb)
     4.68278642E-02    3     1000025         6        -6   # BR(~g -> ~chi_30 t  tb)
     3.77153948E-05    3     1000024         1        -2   # BR(~g -> ~chi_1+ d  ub)
     3.77153948E-05    3    -1000024         2        -1   # BR(~g -> ~chi_1- u  db)
     3.77153948E-05    3     1000024         3        -4   # BR(~g -> ~chi_1+ s  cb)
     3.77153948E-05    3    -1000024         4        -3   # BR(~g -> ~chi_1- c  sb)
     8.29139377E-02    3     1000024         5        -6   # BR(~g -> ~chi_1+ b  tb)
     8.29139377E-02    3    -1000024         6        -5   # BR(~g -> ~chi_1- t  bb)
#
#         PDG            Width
DECAY   1000006     3.66953497E+02   # stop1 decays
#          BR         NDA      ID1       ID2
     2.40679825E-02    2     1000022         6   # BR(~t_1 -> ~chi_10 t )
     8.28682910E-02    2     1000023         6   # BR(~t_1 -> ~chi_20 t )
     7.96029023E-02    2     1000025         6   # BR(~t_1 -> ~chi_30 t )
     5.68900252E-03    2     1000035         6   # BR(~t_1 -> ~chi_40 t )
     1.20234686E-01    2     1000024         5   # BR(~t_1 -> ~chi_1+ b )
     1.13339724E-02    2     1000037         5   # BR(~t_1 -> ~chi_2+ b )
     6.76203164E-01    2     1000021         6   # BR(~t_1 -> ~g      t )
#
#         PDG            Width
DECAY   2000006     3.72457367E+02   # stop2 decays
#          BR         NDA      ID1       ID2
     9.43491772E-03    2     1000022         6   # BR(~t_2 -> ~chi_10 t )
     8.35575956E-02    2     1000023         6   # BR(~t_2 -> ~chi_20 t )
     8.70868990E-02    2     1000025         6   # BR(~t_2 -> ~chi_30 t )
     1.48315219E-02    2     1000035         6   # BR(~t_2 -> ~chi_40 t )
     5.00087359E-02    2     1000024         5   # BR(~t_2 -> ~chi_1+ b )
     2.95080935E-02    2     1000037         5   # BR(~t_2 -> ~chi_2+ b )
     7.22147782E-01    2     1000021         6   # BR(~t_2 -> ~g      t )
     7.74999709E-04    2     1000006        25   # BR(~t_2 -> ~t_1    h )
     2.64945428E-03    2     1000006        23   # BR(~t_2 -> ~t_1    Z )
#
#         PDG            Width
DECAY   1000005     3.48600754E+02   # sbottom1 decays
#          BR         NDA      ID1       ID2
     2.21985154E-03    2     1000022         5   # BR(~b_1 -> ~chi_10 b )
     2.28202385E-03    2     1000023         5   # BR(~b_1 -> ~chi_20 b )
     2.22048209E-03    2     1000025         5   # BR(~b_1 -> ~chi_30 b )
     2.15774302E-02    2     1000035         5   # BR(~b_1 -> ~chi_40 b )
     1.76814569E-01    2    -1000024         6   # BR(~b_1 -> ~chi_1- t )
     4.33546450E-02    2    -1000037         6   # BR(~b_1 -> ~chi_2- t )
     7.49911301E-01    2     1000021         5   # BR(~b_1 -> ~g      b )
     1.61969653E-03    2     1000006       -24   # BR(~b_1 -> ~t_1    W-)
#
#         PDG            Width
DECAY   2000005     2.70548564E+02   # sbottom2 decays
#          BR         NDA      ID1       ID2
     1.08603334E-02    2     1000022         5   # BR(~b_2 -> ~chi_10 b )
     2.92868518E-03    2     1000023         5   # BR(~b_2 -> ~chi_20 b )
     3.00764280E-03    2     1000025         5   # BR(~b_2 -> ~chi_30 b )
     1.66885552E-04    2     1000035         5   # BR(~b_2 -> ~chi_40 b )
     7.14420225E-03    2    -1000024         6   # BR(~b_2 -> ~chi_1- t )
     3.35268761E-04    2    -1000037         6   # BR(~b_2 -> ~chi_2- t )
     9.75506100E-01    2     1000021         5   # BR(~b_2 -> ~g      b )
     5.08818804E-05    2     1000006       -24   # BR(~b_2 -> ~t_1    W-)
#
#         PDG            Width
DECAY   1000002     2.89623979E+02   # sup_L decays
#          BR         NDA      ID1       ID2
     2.57789693E-03    2     1000022         2   # BR(~u_L -> ~chi_10 u)
     5.38943234E-05    2     1000023         2   # BR(~u_L -> ~chi_20 u)
     4.50448852E-06    2     1000025         2   # BR(~u_L -> ~chi_30 u)
     2.70645439E-02    2     1000035         2   # BR(~u_L -> ~chi_40 u)
     1.84504874E-04    2     1000024         1   # BR(~u_L -> ~chi_1+ d)
     5.40926998E-02    2     1000037         1   # BR(~u_L -> ~chi_2+ d)
     9.16021956E-01    2     1000021         2   # BR(~u_L -> ~g      u)
#
#         PDG            Width
DECAY   2000002     2.75814057E+02   # sup_R decays
#          BR         NDA      ID1       ID2
     4.30781081E-02    2     1000022         2   # BR(~u_R -> ~chi_10 u)
     3.61437147E-05    2     1000023         2   # BR(~u_R -> ~chi_20 u)
     4.30410520E-05    2     1000025         2   # BR(~u_R -> ~chi_30 u)
     2.77274414E-09    2     1000035         2   # BR(~u_R -> ~chi_40 u)
     9.56842704E-01    2     1000021         2   # BR(~u_R -> ~g      u)
#
#         PDG            Width
DECAY   1000001     2.89636654E+02   # sdown_L decays
#          BR         NDA      ID1       ID2
     2.56829529E-03    2     1000022         1   # BR(~d_L -> ~chi_10 d)
     1.93776629E-05    2     1000023         1   # BR(~d_L -> ~chi_20 d)
     2.84110060E-05    2     1000025         1   # BR(~d_L -> ~chi_30 d)
     2.70802693E-02    2     1000035         1   # BR(~d_L -> ~chi_40 d)
     9.22836331E-06    2    -1000024         2   # BR(~d_L -> ~chi_1- u)
     5.41831661E-02    2    -1000037         2   # BR(~d_L -> ~chi_2- u)
     9.16111252E-01    2     1000021         1   # BR(~d_L -> ~g      d)
#
#         PDG            Width
DECAY   2000001     2.66909273E+02   # sdown_R decays
#          BR         NDA      ID1       ID2
     1.11294621E-02    2     1000022         1   # BR(~d_R -> ~chi_10 d)
     9.33800841E-06    2     1000023         1   # BR(~d_R -> ~chi_20 d)
     1.11199894E-05    2     1000025         1   # BR(~d_R -> ~chi_30 d)
     7.16447975E-10    2     1000035         1   # BR(~d_R -> ~chi_40 d)
     9.88850079E-01    2     1000021         1   # BR(~d_R -> ~g      d)
#
#         PDG            Width
DECAY   1000004     2.89623979E+02   # scharm_L decays
#          BR         NDA      ID1       ID2
     2.57789693E-03    2     1000022         4   # BR(~c_L -> ~chi_10 c)
     5.38943234E-05    2     1000023         4   # BR(~c_L -> ~chi_20 c)
     4.50448852E-06    2     1000025         4   # BR(~c_L -> ~chi_30 c)
     2.70645439E-02    2     1000035         4   # BR(~c_L -> ~chi_40 c)
     1.84504874E-04    2     1000024         3   # BR(~c_L -> ~chi_1+ s)
     5.40926998E-02    2     1000037         3   # BR(~c_L -> ~chi_2+ s)
     9.16021956E-01    2     1000021         4   # BR(~c_L -> ~g      c)
#
#         PDG            Width
DECAY   2000004     2.75814057E+02   # scharm_R decays
#          BR         NDA      ID1       ID2
     4.30781081E-02    2     1000022         4   # BR(~c_R -> ~chi_10 c)
     3.61437147E-05    2     1000023         4   # BR(~c_R -> ~chi_20 c)
     4.30410520E-05    2     1000025         4   # BR(~c_R -> ~chi_30 c)
     2.77274414E-09    2     1000035         4   # BR(~c_R -> ~chi_40 c)
     9.56842704E-01    2     1000021         4   # BR(~c_R -> ~g      c)
#
#         PDG            Width
DECAY   1000003     2.89636654E+02   # sstrange_L decays
#          BR         NDA      ID1       ID2
     2.56829529E-03    2     1000022         3   # BR(~s_L -> ~chi_10 s)
     1.93776629E-05    2     1000023         3   # BR(~s_L -> ~chi_20 s)
     2.84110060E-05    2     1000025         3   # BR(~s_L -> ~chi_30 s)
     2.70802693E-02    2     1000035         3   # BR(~s_L -> ~chi_40 s)
     9.22836331E-06    2    -1000024         4   # BR(~s_L -> ~chi_1- c)
     5.41831661E-02    2    -1000037         4   # BR(~s_L -> ~chi_2- c)
     9.16111252E-01    2     1000021         3   # BR(~s_L -> ~g      s)
#
#         PDG            Width
DECAY   2000003     2.66909273E+02   # sstrange_R decays
#          BR         NDA      ID1       ID2
     1.11294621E-02    2     1000022         3   # BR(~s_R -> ~chi_10 s)
     9.33800841E-06    2     1000023         3   # BR(~s_R -> ~chi_20 s)
     1.11199894E-05    2     1000025         3   # BR(~s_R -> ~chi_30 s)
     7.16447975E-10    2     1000035         3   # BR(~s_R -> ~chi_40 s)
     9.88850079E-01    2     1000021         3   # BR(~s_R -> ~g      s)
#
#         PDG            Width
DECAY   1000011     3.02725619E+01   # selectron_L decays
#          BR         NDA      ID1       ID2
     2.26384418E-01    2     1000022        11   # BR(~e_L -> ~chi_10 e-)
     1.02984385E-03    2     1000023        11   # BR(~e_L -> ~chi_20 e-)
     1.14761444E-05    2     1000025        11   # BR(~e_L -> ~chi_30 e-)
     2.57316078E-01    2     1000035        11   # BR(~e_L -> ~chi_40 e-)
     8.99130239E-05    2    -1000024        12   # BR(~e_L -> ~chi_1- nu_e)
     5.15168271E-01    2    -1000037        12   # BR(~e_L -> ~chi_2- nu_e)
#
#         PDG            Width
DECAY   2000011     2.73739681E+01   # selectron_R decays
#          BR         NDA      ID1       ID2
     9.98169810E-01    2     1000022        11   # BR(~e_R -> ~chi_10 e-)
     8.35361184E-04    2     1000023        11   # BR(~e_R -> ~chi_20 e-)
     9.94765874E-04    2     1000025        11   # BR(~e_R -> ~chi_30 e-)
     6.26519115E-08    2     1000035        11   # BR(~e_R -> ~chi_40 e-)
#
#         PDG            Width
DECAY   1000013     3.02725619E+01   # smuon_L decays
#          BR         NDA      ID1       ID2
     2.26384418E-01    2     1000022        13   # BR(~mu_L -> ~chi_10 mu-)
     1.02984385E-03    2     1000023        13   # BR(~mu_L -> ~chi_20 mu-)
     1.14761444E-05    2     1000025        13   # BR(~mu_L -> ~chi_30 mu-)
     2.57316078E-01    2     1000035        13   # BR(~mu_L -> ~chi_40 mu-)
     8.99130239E-05    2    -1000024        14   # BR(~mu_L -> ~chi_1- nu_mu)
     5.15168271E-01    2    -1000037        14   # BR(~mu_L -> ~chi_2- nu_mu)
#
#         PDG            Width
DECAY   2000013     2.73739681E+01   # smuon_R decays
#          BR         NDA      ID1       ID2
     9.98169810E-01    2     1000022        13   # BR(~mu_R -> ~chi_10 mu-)
     8.35361184E-04    2     1000023        13   # BR(~mu_R -> ~chi_20 mu-)
     9.94765874E-04    2     1000025        13   # BR(~mu_R -> ~chi_30 mu-)
     6.26519115E-08    2     1000035        13   # BR(~mu_R -> ~chi_40 mu-)
#
#         PDG            Width
DECAY   1000015     2.91234706E+01   # stau_1 decays
#          BR         NDA      ID1       ID2
     9.29771436E-01    2     1000022        15   # BR(~tau_1 -> ~chi_10  tau-)
     1.56811378E-02    2     1000023        15   # BR(~tau_1 -> ~chi_20  tau-)
     1.49120960E-02    2     1000025        15   # BR(~tau_1 -> ~chi_30  tau-)
     3.35826737E-03    2     1000035        15   # BR(~tau_1 -> ~chi_40  tau-)
     2.95537730E-02    2    -1000024        16   # BR(~tau_1 -> ~chi_1-  nu_tau)
     6.72329024E-03    2    -1000037        16   # BR(~tau_1 -> ~chi_2-  nu_tau)
#
#         PDG            Width
DECAY   2000015     3.10942636E+01   # stau_2 decays
#          BR         NDA      ID1       ID2
     2.28200590E-01    2     1000022        15   # BR(~tau_2 -> ~chi_10  tau-)
     1.47547006E-02    2     1000023        15   # BR(~tau_2 -> ~chi_20  tau-)
     1.45687561E-02    2     1000025        15   # BR(~tau_2 -> ~chi_30  tau-)
     2.47288785E-01    2     1000035        15   # BR(~tau_2 -> ~chi_40  tau-)
     9.39048200E-05    2    -1000024        16   # BR(~tau_2 -> ~chi_1-  nu_tau)
     4.95093263E-01    2    -1000037        16   # BR(~tau_2 -> ~chi_2-  nu_tau)
#
#         PDG            Width
DECAY   1000012     3.02753552E+01   # snu_eL decays
#          BR         NDA      ID1       ID2
     2.26035558E-01    2     1000022        12   # BR(~nu_eL -> ~chi_10 nu_e)
     2.08330516E-05    2     1000023        12   # BR(~nu_eL -> ~chi_20 nu_e)
     7.10012266E-04    2     1000025        12   # BR(~nu_eL -> ~chi_30 nu_e)
     2.57369327E-01    2     1000035        12   # BR(~nu_eL -> ~chi_40 nu_e)
     1.79720866E-03    2     1000024        11   # BR(~nu_eL -> ~chi_1+ e-)
     5.14067061E-01    2     1000037        11   # BR(~nu_eL -> ~chi_2+ e-)
#
#         PDG            Width
DECAY   1000014     3.02753552E+01   # snu_muL decays
#          BR         NDA      ID1       ID2
     2.26035558E-01    2     1000022        14   # BR(~nu_muL -> ~chi_10 nu_mu)
     2.08330516E-05    2     1000023        14   # BR(~nu_muL -> ~chi_20 nu_mu)
     7.10012266E-04    2     1000025        14   # BR(~nu_muL -> ~chi_30 nu_mu)
     2.57369327E-01    2     1000035        14   # BR(~nu_muL -> ~chi_40 nu_mu)
     1.79720866E-03    2     1000024        13   # BR(~nu_muL -> ~chi_1+ mu-)
     5.14067061E-01    2     1000037        13   # BR(~nu_muL -> ~chi_2+ mu-)
#
#         PDG            Width
DECAY   1000016     3.11295076E+01   # snu_tauL decays
#          BR         NDA      ID1       ID2
     2.19809502E-01    2     1000022        16   # BR(~nu_tauL -> ~chi_10 nu_tau)
     2.02588506E-05    2     1000023        16   # BR(~nu_tauL -> ~chi_20 nu_tau)
     6.90442835E-04    2     1000025        16   # BR(~nu_tauL -> ~chi_30 nu_tau)
     2.50214743E-01    2     1000035        16   # BR(~nu_tauL -> ~chi_40 nu_tau)
     2.94888836E-02    2     1000024        15   # BR(~nu_tauL -> ~chi_1+ tau-)
     4.99776170E-01    2     1000037        15   # BR(~nu_tauL -> ~chi_2+ tau-)
#
#         PDG            Width
DECAY   1000024     6.09049431E-01   # chargino1+ decays
#          BR         NDA      ID1       ID2
     1.00000000E+00    2     1000022        24   # BR(~chi_1+ -> ~chi_10  W+)
#
#         PDG            Width
DECAY   1000037     2.04163077E+01   # chargino2+ decays
#          BR         NDA      ID1       ID2
     2.53198678E-01    2     1000024        23   # BR(~chi_2+ -> ~chi_1+  Z )
     1.97857233E-04    2     1000022        24   # BR(~chi_2+ -> ~chi_10  W+)
     2.44160769E-01    2     1000023        24   # BR(~chi_2+ -> ~chi_20  W+)
     2.44111833E-01    2     1000025        24   # BR(~chi_2+ -> ~chi_30  W+)
     2.58329692E-01    2     1000024        25   # BR(~chi_2+ -> ~chi_1+  h )
     1.17095779E-06    2     1000022        37   # BR(~chi_2+ -> ~chi_10  H+)
#
#         PDG            Width
DECAY   1000022     0.00000000E+00   # neutralino1 decays
#
#         PDG            Width
DECAY   1000023     6.36094237E-01   # neutralino2 decays
#          BR         NDA      ID1       ID2
     5.40218799E-01    2     1000022        23   # BR(~chi_20 -> ~chi_10   Z )
     4.59781201E-01    2     1000022        25   # BR(~chi_20 -> ~chi_10   h )
#
#         PDG            Width
DECAY   1000025     6.39136158E-01   # neutralino3 decays
#          BR         NDA      ID1       ID2
     4.50314530E-01    2     1000022        23   # BR(~chi_30 -> ~chi_10   Z )
     5.49685470E-01    2     1000022        25   # BR(~chi_30 -> ~chi_10   h )
#
#         PDG            Width
DECAY   1000035     2.04313218E+01   # neutralino4 decays
#          BR         NDA      ID1       ID2
     4.77452152E-05    2     1000022        23   # BR(~chi_40 -> ~chi_10   Z )
     7.27260474E-02    2     1000023        23   # BR(~chi_40 -> ~chi_20   Z )
     1.79758660E-01    2     1000025        23   # BR(~chi_40 -> ~chi_30   Z )
     2.44791275E-01    2     1000024       -24   # BR(~chi_40 -> ~chi_1+   W-)
     2.44791275E-01    2    -1000024        24   # BR(~chi_40 -> ~chi_1-   W+)
     1.51058340E-04    2     1000022        25   # BR(~chi_40 -> ~chi_10   h )
     1.09485027E-06    2     1000022        35   # BR(~chi_40 -> ~chi_10   H )
     1.34437926E-07    2     1000022        36   # BR(~chi_40 -> ~chi_10   A )
     1.84816149E-01    2     1000023        25   # BR(~chi_40 -> ~chi_20   h )
     7.29165610E-02    2     1000025        25   # BR(~chi_40 -> ~chi_30   h )
#
#         PDG            Width
DECAY        25     4.05242338E-03   # h decays
#          BR         NDA      ID1       ID2
     6.09984741E-01    2           5        -5   # BR(h -> b       bb     )
     6.39617025E-02    2         -15        15   # BR(h -> tau+    tau-   )
     2.26448045E-04    2         -13        13   # BR(h -> mu+     mu-    )
     4.80118085E-04    2           3        -3   # BR(h -> s       sb     )
     2.08044848E-02    2           4        -4   # BR(h -> c       cb     )
     6.72027775E-02    2          21        21   # BR(h -> g       g      )
     2.30864113E-03    2          22        22   # BR(h -> gam     gam    )
     1.48167140E-03    2          22        23   # BR(h -> Z       gam    )
     2.08665281E-01    2          24       -24   # BR(h -> W+      W-     )
     2.48288716E-02    2          23        23   # BR(h -> Z       Z      )
     5.52621865E-05    2     1000022   1000022   # BR(h -> ~chi_10 ~chi_10)
#
#         PDG            Width
DECAY        35     8.10220989E+00   # H decays
#          BR         NDA      ID1       ID2
     3.98432456E-01    2           5        -5   # BR(H -> b       bb     )
     6.87719586E-02    2         -15        15   # BR(H -> tau+    tau-   )
     2.43183108E-04    2         -13        13   # BR(H -> mu+     mu-    )
     2.98105239E-04    2           3        -3   # BR(H -> s       sb     )
     1.66694178E-06    2           4        -4   # BR(H -> c       cb     )
     1.66540685E-01    2           6        -6   # BR(H -> t       tb     )
     5.53328891E-05    2          21        21   # BR(H -> g       g      )
     2.68867205E-07    2          22        22   # BR(H -> gam     gam    )
     9.83089903E-08    2          23        22   # BR(H -> Z       gam    )
     7.65819038E-05    2          24       -24   # BR(H -> W+      W-     )
     3.82424829E-05    2          23        23   # BR(H -> Z       Z      )
     2.84608221E-04    2          25        25   # BR(H -> h       h      )
    -2.70096482E-23    2          36        36   # BR(H -> A       A      )
     6.02125485E-19    2          23        36   # BR(H -> Z       A      )
     1.97506355E-03    2     1000024  -1000024   # BR(H -> ~chi_1+ ~chi_1-)
     1.78231339E-03    2     1000022   1000022   # BR(H -> ~chi_10 ~chi_10)
     3.94832120E-05    2     1000023   1000023   # BR(H -> ~chi_20 ~chi_20)
     5.44180073E-04    2     1000025   1000025   # BR(H -> ~chi_30 ~chi_30)
     2.16460454E-01    2     1000022   1000023   # BR(H -> ~chi_10 ~chi_20)
     1.43942688E-01    2     1000022   1000025   # BR(H -> ~chi_10 ~chi_30)
     5.12630378E-04    2     1000023   1000025   # BR(H -> ~chi_20 ~chi_30)
#
#         PDG            Width
DECAY        36     8.11852818E+00   # A decays
#          BR         NDA      ID1       ID2
     3.97766291E-01    2           5        -5   # BR(A -> b       bb     )
     6.86357785E-02    2         -15        15   # BR(A -> tau+    tau-   )
     2.42701225E-04    2         -13        13   # BR(A -> mu+     mu-    )
     2.97731923E-04    2           3        -3   # BR(A -> s       sb     )
     1.67041098E-06    2           4        -4   # BR(A -> c       cb     )
     1.66795207E-01    2           6        -6   # BR(A -> t       tb     )
     1.65070898E-04    2          21        21   # BR(A -> g       g      )
     5.74660931E-07    2          22        22   # BR(A -> gam     gam    )
     1.99884635E-07    2          23        22   # BR(A -> Z       gam    )
     7.61395586E-05    2          23        25   # BR(A -> Z       h      )
     3.22785051E-03    2     1000024  -1000024   # BR(A -> ~chi_1+ ~chi_1-)
     1.81514013E-03    2     1000022   1000022   # BR(A -> ~chi_10 ~chi_10)
     4.63753410E-05    2     1000023   1000023   # BR(A -> ~chi_20 ~chi_20)
     1.50011113E-03    2     1000025   1000025   # BR(A -> ~chi_30 ~chi_30)
     1.45712986E-01    2     1000022   1000023   # BR(A -> ~chi_10 ~chi_20)
     2.13569876E-01    2     1000022   1000025   # BR(A -> ~chi_10 ~chi_30)
     1.46294782E-04    2     1000023   1000025   # BR(A -> ~chi_20 ~chi_30)
#
#         PDG            Width
DECAY        37     8.07400532E+00   # H+ decays
#          BR         NDA      ID1       ID2
     6.39638849E-04    2           4        -5   # BR(H+ -> c       bb     )
     6.90401718E-02    2         -15        16   # BR(H+ -> tau+    nu_tau )
     2.44131190E-04    2         -13        14   # BR(H+ -> mu+     nu_mu  )
     4.09366742E-06    2           2        -5   # BR(H+ -> u       bb     )
     1.43249540E-05    2           2        -3   # BR(H+ -> u       sb     )
     2.96240390E-04    2           4        -3   # BR(H+ -> c       sb     )
     5.63998198E-01    2           6        -5   # BR(H+ -> t       bb     )
     7.66949598E-05    2          24        25   # BR(H+ -> W+      h      )
     2.95098075E-13    2          24        36   # BR(H+ -> W+      A      )
     3.64777978E-01    2     1000024   1000022   # BR(H+ -> ~chi_1+ ~chi_10)
     8.75719298E-04    2     1000024   1000023   # BR(H+ -> ~chi_1+ ~chi_20)
     3.28086620E-05    2     1000024   1000025   # BR(H+ -> ~chi_1+ ~chi_30)
