#
#                              ======================
#                              | THE SUSYHIT OUTPUT |
#                              ======================
#
#
#              ------------------------------------------------------
#              |     This is the output of the SUSY-HIT package     |
#              |  created by A.Djouadi, M.Muehlleitner and M.Spira. |
#              |  In case of problems with SUSY-HIT email to        |
#              |           margarete.muehlleitner@kit.edu           |
#              |           michael.spira@psi.ch                     |
#              |           abdelhak.djouadi@cern.ch                 |
#              ------------------------------------------------------
#
#              ------------------------------------------------------
#              |  SUSY Les Houches Accord - MSSM Spectrum + Decays  |
#              |              based on the decay programs           |
#              |                                                    |
#              |                     SDECAY 1.5a                    |
#              |                                                    |
#              |  Authors: M.Muhlleitner, A.Djouadi and Y.Mambrini  |
#              |  Ref.:    Comput.Phys.Commun.168(2005)46           |
#              |           [hep-ph/0311167]                         |
#              |                                                    |
#              |                     HDECAY 3.4                     |
#              |                                                    |
#              |  By: A.Djouadi,J.Kalinowski,M.Muhlleitner,M.Spira  |
#              |  Ref.:    Comput.Phys.Commun.108(1998)56           |
#              |           [hep-ph/9704448]                         |
#              |                                                    |
#              |                                                    |
#              |  If not stated otherwise all DRbar couplings and   |
#              |  soft SUSY breaking masses are given at the scale  |
#              |  Q=  0.91187600E+02
#              |                                                    |
#              ------------------------------------------------------
#
#
BLOCK DCINFO  # Decay Program information
     1   SDECAY/HDECAY # decay calculator
     2   1.5a /3.4    # version number
#
BLOCK SPINFO  # Spectrum calculator information
     1   SuSpect     # RGE +Spectrum calculator            
     2   2.43         # version number                     
#
BLOCK MODSEL  # Model selection
     1     2   # GMSB                                              
#
BLOCK SMINPUTS  # Standard Model inputs
         1     1.27932904E+02   # alpha_em^-1(M_Z)^MSbar
         2     1.16639000E-05   # G_F [GeV^-2]
         3     1.17200000E-01   # alpha_S(M_Z)^MSbar
         4     9.11870000E+01   # M_Z pole mass
         5     4.25000000E+00   # mb(mb)^MSbar
         6     1.72900000E+02   # mt pole mass
         7     1.77700000E+00   # mtau pole mass
#
BLOCK MINPAR  # Input parameters - minimal models
#
BLOCK EXTPAR  # Input parameters - non-minimal models
         0     9.11876000E+01   # EWSB                
         1     1.24400000E+03   # M_1                 
         2     3.00000000E+03   # M_2                 
         3     2.20000000E+03   # M_3                 
        11     0.00000000E+00   # A_t                 
        12     0.00000000E+00   # A_b                 
        13     0.00000000E+00   # A_tau               
        14     0.00000000E+00   # A_u                 
        15     0.00000000E+00   # A_d                 
        16     0.00000000E+00   # A_e                 
        23     1.25000000E+03   # mu(EWSB)            
        25     1.50000000E+00   # tanbeta(in)         
        26     2.00000000E+03   # MA_pole             
        31     5.00000000E+03   # M_eL                
        32     5.00000000E+03   # M_muL               
        33     5.00000000E+03   # M_tauL              
        34     5.00000000E+03   # M_eR                
        35     5.00000000E+03   # M_muR               
        36     5.00000000E+03   # M_tauR              
        41     5.00000000E+03   # M_q1L               
        42     5.00000000E+03   # M_q2L               
        43     5.00000000E+03   # M_q3L               
        44     5.00000000E+03   # M_uR                
        45     5.00000000E+03   # M_cR                
        46     5.00000000E+03   # M_tR                
        47     5.00000000E+03   # M_dR                
        48     5.00000000E+03   # M_sR                
        49     5.00000000E+03   # M_bR                
#
BLOCK MASS  # Mass Spectrum
# PDG code           mass       particle
        24     8.05410155E+01   # W+
        25     1.25000000E+02   # h
        35     2.00402497E+03   # H
        36     2.00000000E+03   # A
        37     2.00151183E+03   # H+
         5     4.87877839E+00   # b-quark pole mass calculated from mb(mb)_Msbar
   1000001     5.00013293E+03   # ~d_L
   2000001     5.00002536E+03   # ~d_R
   1000002     4.99989243E+03   # ~u_L
   2000002     4.99994927E+03   # ~u_R
   1000003     5.00013293E+03   # ~s_L
   2000003     5.00002536E+03   # ~s_R
   1000004     4.99989243E+03   # ~c_L
   2000004     4.99994927E+03   # ~c_R
   1000005     4.99957317E+03   # ~b_1
   2000005     5.00058651E+03   # ~b_2
   1000006     4.98954523E+03   # ~t_1
   2000006     5.01489382E+03   # ~t_2
   1000011     5.00008220E+03   # ~e_L
   2000011     5.00007609E+03   # ~e_R
   1000012     4.99984171E+03   # ~nu_eL
   1000013     5.00008220E+03   # ~mu_L
   2000013     5.00007609E+03   # ~mu_R
   1000014     4.99984171E+03   # ~nu_muL
   1000015     4.99974600E+03   # ~tau_1
   2000015     5.00041289E+03   # ~tau_2
   1000016     4.99984171E+03   # ~nu_tauL
   1000021     2.20000000E+03   # ~g
   1000022     1.20171179E+03   # ~chi_10
   1000023    -1.25008717E+03   # ~chi_20
   1000025     1.28888790E+03   # ~chi_30
   1000035     3.00348748E+03   # ~chi_40
   1000024     1.24662771E+03   # ~chi_1+
   1000037     3.00348546E+03   # ~chi_2+
   1000039     1.00000000E-09   # ~gravitino
#
BLOCK NMIX  # Neutralino Mixing Matrix
  1  1     7.17340968E-01   # N_11
  1  2    -2.99896810E-02   # N_12
  1  3     4.94135457E-01   # N_13
  1  4    -4.90257793E-01   # N_14
  2  1     3.50045627E-03   # N_21
  2  2    -3.65194848E-03   # N_22
  2  3    -7.06974453E-01   # N_23
  2  4    -7.07220993E-01   # N_24
  3  1     6.96712596E-01   # N_31
  3  2     3.24930623E-02   # N_32
  3  3    -5.05168031E-01   # N_33
  3  4     5.08272584E-01   # N_34
  4  1     1.11381227E-03   # N_41
  4  2    -9.99015257E-01   # N_42
  4  3    -2.86798290E-02   # N_43
  4  4     3.38340600E-02   # N_44
#
BLOCK UMIX  # Chargino Mixing Matrix U
  1  1    -4.05325912E-02   # U_11
  1  2     9.99178217E-01   # U_12
  2  1     9.99178217E-01   # U_21
  2  2     4.05325912E-02   # U_22
#
BLOCK VMIX  # Chargino Mixing Matrix V
  1  1    -4.78230997E-02   # V_11
  1  2     9.98855821E-01   # V_12
  2  1     9.98855821E-01   # V_21
  2  2     4.78230997E-02   # V_22
#
BLOCK STOPMIX  # Stop Mixing Matrix
  1  1     7.07898734E-01   # cos(theta_t)
  1  2     7.06313940E-01   # sin(theta_t)
  2  1    -7.06313940E-01   # -sin(theta_t)
  2  2     7.07898734E-01   # cos(theta_t)
#
BLOCK SBOTMIX  # Sbottom Mixing Matrix
  1  1     6.68525603E-01   # cos(theta_b)
  1  2     7.43689127E-01   # sin(theta_b)
  2  1    -7.43689127E-01   # -sin(theta_b)
  2  2     6.68525603E-01   # cos(theta_b)
#
BLOCK STAUMIX  # Stau Mixing Matrix
  1  1     7.03859717E-01   # cos(theta_tau)
  1  2     7.10339003E-01   # sin(theta_tau)
  2  1    -7.10339003E-01   # -sin(theta_tau)
  2  2     7.03859717E-01   # cos(theta_tau)
#
BLOCK ALPHA  # Higgs mixing
          -5.90206206E-01   # Mixing angle in the neutral Higgs boson sector
#
BLOCK HMIX Q=  9.11876000E+01  # DRbar Higgs Parameters
         1     1.25000000E+03   # mu(Q)               
         2     1.49999979E+00   # tanbeta(Q)          
         3     2.52156960E+02   # vev(Q)              
         4     3.39072464E+06   # MA^2(Q)             
#
BLOCK GAUGE Q=  9.11876000E+01  # The gauge couplings
     1     3.52784344E-01   # gprime(Q) DRbar
     2     6.27184762E-01   # g(Q) DRbar
     3     1.07892705E+00   # g3(Q) DRbar
#
BLOCK AU Q=  9.11876000E+01  # The trilinear couplings
  1  1     0.00000000E+00   # A_u(Q) DRbar
  2  2     0.00000000E+00   # A_c(Q) DRbar
  3  3     0.00000000E+00   # A_t(Q) DRbar
#
BLOCK AD Q=  9.11876000E+01  # The trilinear couplings
  1  1     0.00000000E+00   # A_d(Q) DRbar
  2  2     0.00000000E+00   # A_s(Q) DRbar
  3  3     0.00000000E+00   # A_b(Q) DRbar
#
BLOCK AE Q=  9.11876000E+01  # The trilinear couplings
  1  1     0.00000000E+00   # A_e(Q) DRbar
  2  2     0.00000000E+00   # A_mu(Q) DRbar
  3  3     0.00000000E+00   # A_tau(Q) DRbar
#
BLOCK Yu Q=  9.11876000E+01  # The Yukawa couplings
  1  1     0.00000000E+00   # y_u(Q) DRbar
  2  2     0.00000000E+00   # y_c(Q) DRbar
  3  3     1.02563119E+00   # y_t(Q) DRbar
#
BLOCK Yd Q=  9.11876000E+01  # The Yukawa couplings
  1  1     0.00000000E+00   # y_d(Q) DRbar
  2  2     0.00000000E+00   # y_s(Q) DRbar
  3  3     2.71677136E-02   # y_b(Q) DRbar
#
BLOCK Ye Q=  9.11876000E+01  # The Yukawa couplings
  1  1     0.00000000E+00   # y_e(Q) DRbar
  2  2     0.00000000E+00   # y_mu(Q) DRbar
  3  3     1.79803218E-02   # y_tau(Q) DRbar
#
BLOCK MSOFT Q=  9.11876000E+01  # The soft SUSY breaking masses at the scale Q
         1     1.24400000E+03   # M_1                 
         2     3.00000000E+03   # M_2                 
         3     2.20000000E+03   # M_3                 
        14     0.00000000E+00   # A_u                 
        15     0.00000000E+00   # A_d                 
        16     0.00000000E+00   # A_e                 
        21     1.29788045E+06   # M^2_Hd              
        22    -6.82560823E+06   # M^2_Hu              
        31     5.00000000E+03   # M_eL                
        32     5.00000000E+03   # M_muL               
        33     5.00000000E+03   # M_tauL              
        34     5.00000000E+03   # M_eR                
        35     5.00000000E+03   # M_muR               
        36     5.00000000E+03   # M_tauR              
        41     5.00000000E+03   # M_q1L               
        42     5.00000000E+03   # M_q2L               
        43     5.00000000E+03   # M_q3L               
        44     5.00000000E+03   # M_uR                
        45     5.00000000E+03   # M_cR                
        46     5.00000000E+03   # M_tR                
        47     5.00000000E+03   # M_dR                
        48     5.00000000E+03   # M_sR                
        49     5.00000000E+03   # M_bR                
#
#
#
#                             =================
#                             |The decay table|
#                             =================
#
# - The QCD corrections to the decays gluino -> squark  + quark
#                                     squark -> gaugino + quark_prime
#                                     squark -> squark_prime + Higgs
#                                     squark -> gluino  + quark
#   are included.
#
# - The multi-body decays for the inos, stops and sbottoms are included.
#
# - The loop induced decays for the gluino, neutralinos and stops
#   are included.
#
# - The SUSY decays of the top quark are included.
#
# - Possible decays of the NLSP in GMSB models are included.
#
#
#         PDG            Width
DECAY         6     1.37052988E+00   # top decays
#          BR         NDA      ID1       ID2
     1.00000000E+00    2           5        24   # BR(t ->  b    W+)
#
#         PDG            Width
DECAY   1000021     7.30290478E-04   # gluino decays
#          BR         NDA      ID1       ID2
     1.05675025E-02    2     1000022        21   # BR(~g -> ~chi_10 g)
     1.97830866E-02    2     1000023        21   # BR(~g -> ~chi_20 g)
     9.32661286E-03    2     1000025        21   # BR(~g -> ~chi_30 g)
#          BR         NDA      ID1       ID2
     0.00000000E+00    2     1000039        21   # BR(~g -> ~G      g)
#           BR         NDA      ID1       ID2       ID3
     5.57594868E-03    3     1000022         1        -1   # BR(~g -> ~chi_10 d  db)
     3.46725117E-07    3     1000023         1        -1   # BR(~g -> ~chi_20 d  db)
     3.06192284E-03    3     1000025         1        -1   # BR(~g -> ~chi_30 d  db)
     1.68479734E-02    3     1000022         2        -2   # BR(~g -> ~chi_10 u  ub)
     2.71253014E-07    3     1000023         2        -2   # BR(~g -> ~chi_20 u  ub)
     1.17803230E-02    3     1000025         2        -2   # BR(~g -> ~chi_30 u  ub)
     5.57594868E-03    3     1000022         3        -3   # BR(~g -> ~chi_10 s  sb)
     3.46725117E-07    3     1000023         3        -3   # BR(~g -> ~chi_20 s  sb)
     3.06192284E-03    3     1000025         3        -3   # BR(~g -> ~chi_30 s  sb)
     1.68479734E-02    3     1000022         4        -4   # BR(~g -> ~chi_10 c  cb)
     2.71253014E-07    3     1000023         4        -4   # BR(~g -> ~chi_20 c  cb)
     1.17803230E-02    3     1000025         4        -4   # BR(~g -> ~chi_30 c  cb)
     5.65189932E-03    3     1000022         5        -5   # BR(~g -> ~chi_10 b  bb)
     1.78786197E-04    3     1000023         5        -5   # BR(~g -> ~chi_20 b  bb)
     3.15657801E-03    3     1000025         5        -5   # BR(~g -> ~chi_30 b  bb)
     1.02931509E-01    3     1000022         6        -6   # BR(~g -> ~chi_10 t  tb)
     1.61029268E-01    3     1000023         6        -6   # BR(~g -> ~chi_20 t  tb)
     1.04420354E-01    3     1000025         6        -6   # BR(~g -> ~chi_30 t  tb)
     1.83802942E-04    3     1000024         1        -2   # BR(~g -> ~chi_1+ d  ub)
     1.83802942E-04    3    -1000024         2        -1   # BR(~g -> ~chi_1- u  db)
     1.83802942E-04    3     1000024         3        -4   # BR(~g -> ~chi_1+ s  cb)
     1.83802942E-04    3    -1000024         4        -3   # BR(~g -> ~chi_1- c  sb)
     2.13219605E-01    3     1000024         5        -6   # BR(~g -> ~chi_1+ b  tb)
     2.13219605E-01    3    -1000024         6        -5   # BR(~g -> ~chi_1- t  bb)
#
#         PDG            Width
DECAY   1000006     2.90167485E+02   # stop1 decays
#          BR         NDA      ID1       ID2
     8.48208145E-02    2     1000022         6   # BR(~t_1 -> ~chi_10 t )
     1.11248133E-01    2     1000023         6   # BR(~t_1 -> ~chi_20 t )
     4.34244971E-02    2     1000025         6   # BR(~t_1 -> ~chi_30 t )
     1.16681511E-02    2     1000035         6   # BR(~t_1 -> ~chi_40 t )
     1.16469492E-01    2     1000024         5   # BR(~t_1 -> ~chi_1+ b )
     2.31414313E-02    2     1000037         5   # BR(~t_1 -> ~chi_2+ b )
     6.09227481E-01    2     1000021         6   # BR(~t_1 -> ~g      t )
#
#         PDG            Width
DECAY   2000006     2.78612691E+02   # stop2 decays
#          BR         NDA      ID1       ID2
     3.93628165E-02    2     1000022         6   # BR(~t_2 -> ~chi_10 t )
     1.11804593E-01    2     1000023         6   # BR(~t_2 -> ~chi_20 t )
     8.97603964E-02    2     1000025         6   # BR(~t_2 -> ~chi_30 t )
     1.59740254E-02    2     1000035         6   # BR(~t_2 -> ~chi_40 t )
     1.06648437E-01    2     1000024         5   # BR(~t_2 -> ~chi_1+ b )
     3.17334261E-02    2     1000037         5   # BR(~t_2 -> ~chi_2+ b )
     6.04716306E-01    2     1000021         6   # BR(~t_2 -> ~g      t )
#
#         PDG            Width
DECAY   1000005     2.09437408E+02   # sbottom1 decays
#          BR         NDA      ID1       ID2
     5.22637629E-03    2     1000022         5   # BR(~b_1 -> ~chi_10 b )
     9.07545327E-05    2     1000023         5   # BR(~b_1 -> ~chi_20 b )
     2.77085626E-03    2     1000025         5   # BR(~b_1 -> ~chi_30 b )
     1.52031913E-02    2     1000035         5   # BR(~b_1 -> ~chi_40 b )
     1.21048843E-01    2    -1000024         6   # BR(~b_1 -> ~chi_1- t )
     3.06291776E-02    2    -1000037         6   # BR(~b_1 -> ~chi_2- t )
     8.25030801E-01    2     1000021         5   # BR(~b_1 -> ~g      b )
#
#         PDG            Width
DECAY   2000005     2.25692120E+02   # sbottom2 decays
#          BR         NDA      ID1       ID2
     2.62234013E-03    2     1000022         5   # BR(~b_2 -> ~chi_10 b )
     1.14485798E-04    2     1000023         5   # BR(~b_2 -> ~chi_20 b )
     3.20229685E-03    2     1000025         5   # BR(~b_2 -> ~chi_30 b )
     2.01564948E-02    2     1000035         5   # BR(~b_2 -> ~chi_40 b )
     1.68218522E-01    2    -1000024         6   # BR(~b_2 -> ~chi_1- t )
     4.06213865E-02    2    -1000037         6   # BR(~b_2 -> ~chi_2- t )
     7.65064474E-01    2     1000021         5   # BR(~b_2 -> ~g      b )
#
#         PDG            Width
DECAY   1000002     1.96592812E+02   # sup_L decays
#          BR         NDA      ID1       ID2
     9.30209016E-04    2     1000022         2   # BR(~u_L -> ~chi_10 u)
     7.56650936E-07    2     1000023         2   # BR(~u_L -> ~chi_20 u)
     2.22496500E-03    2     1000025         2   # BR(~u_L -> ~chi_30 u)
     3.92963517E-02    2     1000035         2   # BR(~u_L -> ~chi_40 u)
     3.85961119E-04    2     1000024         1   # BR(~u_L -> ~chi_1+ d)
     7.86005961E-02    2     1000037         1   # BR(~u_L -> ~chi_2+ d)
     8.78561160E-01    2     1000021         2   # BR(~u_L -> ~g      u)
#
#         PDG            Width
DECAY   2000002     1.82057211E+02   # sup_R decays
#          BR         NDA      ID1       ID2
     2.66192032E-02    2     1000022         2   # BR(~u_R -> ~chi_10 u)
     6.27539129E-07    2     1000023         2   # BR(~u_R -> ~chi_20 u)
     2.46527709E-02    2     1000025         2   # BR(~u_R -> ~chi_30 u)
     2.96820857E-08    2     1000035         2   # BR(~u_R -> ~chi_40 u)
     9.48727369E-01    2     1000021         2   # BR(~u_R -> ~g      u)
#
#         PDG            Width
DECAY   1000001     1.96599028E+02   # sdown_L decays
#          BR         NDA      ID1       ID2
     2.30438935E-03    2     1000022         1   # BR(~d_L -> ~chi_10 d)
     1.56508993E-06    2     1000023         1   # BR(~d_L -> ~chi_20 d)
     8.05330696E-04    2     1000025         1   # BR(~d_L -> ~chi_30 d)
     3.93341119E-02    2     1000035         1   # BR(~d_L -> ~chi_40 d)
     2.77261621E-04    2    -1000024         2   # BR(~d_L -> ~chi_1- u)
     7.86611189E-02    2    -1000037         2   # BR(~d_L -> ~chi_2- u)
     8.78616222E-01    2     1000021         1   # BR(~d_L -> ~g      d)
#
#         PDG            Width
DECAY   2000001     1.75061494E+02   # sdown_R decays
#          BR         NDA      ID1       ID2
     6.92086873E-03    2     1000022         1   # BR(~d_R -> ~chi_10 d)
     1.63157301E-07    2     1000023         1   # BR(~d_R -> ~chi_20 d)
     6.40960930E-03    2     1000025         1   # BR(~d_R -> ~chi_30 d)
     7.71743708E-09    2     1000035         1   # BR(~d_R -> ~chi_40 d)
     9.86669351E-01    2     1000021         1   # BR(~d_R -> ~g      d)
#
#         PDG            Width
DECAY   1000004     1.96592812E+02   # scharm_L decays
#          BR         NDA      ID1       ID2
     9.30209016E-04    2     1000022         4   # BR(~c_L -> ~chi_10 c)
     7.56650936E-07    2     1000023         4   # BR(~c_L -> ~chi_20 c)
     2.22496500E-03    2     1000025         4   # BR(~c_L -> ~chi_30 c)
     3.92963517E-02    2     1000035         4   # BR(~c_L -> ~chi_40 c)
     3.85961119E-04    2     1000024         3   # BR(~c_L -> ~chi_1+ s)
     7.86005961E-02    2     1000037         3   # BR(~c_L -> ~chi_2+ s)
     8.78561160E-01    2     1000021         4   # BR(~c_L -> ~g      c)
#
#         PDG            Width
DECAY   2000004     1.82057211E+02   # scharm_R decays
#          BR         NDA      ID1       ID2
     2.66192032E-02    2     1000022         4   # BR(~c_R -> ~chi_10 c)
     6.27539129E-07    2     1000023         4   # BR(~c_R -> ~chi_20 c)
     2.46527709E-02    2     1000025         4   # BR(~c_R -> ~chi_30 c)
     2.96820857E-08    2     1000035         4   # BR(~c_R -> ~chi_40 c)
     9.48727369E-01    2     1000021         4   # BR(~c_R -> ~g      c)
#
#         PDG            Width
DECAY   1000003     1.96599028E+02   # sstrange_L decays
#          BR         NDA      ID1       ID2
     2.30438935E-03    2     1000022         3   # BR(~s_L -> ~chi_10 s)
     1.56508993E-06    2     1000023         3   # BR(~s_L -> ~chi_20 s)
     8.05330696E-04    2     1000025         3   # BR(~s_L -> ~chi_30 s)
     3.93341119E-02    2     1000035         3   # BR(~s_L -> ~chi_40 s)
     2.77261621E-04    2    -1000024         4   # BR(~s_L -> ~chi_1- c)
     7.86611189E-02    2    -1000037         4   # BR(~s_L -> ~chi_2- c)
     8.78616222E-01    2     1000021         3   # BR(~s_L -> ~g      s)
#
#         PDG            Width
DECAY   2000003     1.75061494E+02   # sstrange_R decays
#          BR         NDA      ID1       ID2
     6.92086873E-03    2     1000022         3   # BR(~s_R -> ~chi_10 s)
     1.63157301E-07    2     1000023         3   # BR(~s_R -> ~chi_20 s)
     6.40960930E-03    2     1000025         3   # BR(~s_R -> ~chi_30 s)
     7.71743708E-09    2     1000035         3   # BR(~s_R -> ~chi_40 s)
     9.86669351E-01    2     1000021         3   # BR(~s_R -> ~g      s)
#
#         PDG            Width
DECAY   1000011     2.94775565E+01   # selectron_L decays
#          BR         NDA      ID1       ID2
     8.22041769E-02    2     1000022        11   # BR(~e_L -> ~chi_10 e-)
     1.65223495E-06    2     1000023        11   # BR(~e_L -> ~chi_20 e-)
     1.04178196E-01    2     1000025        11   # BR(~e_L -> ~chi_30 e-)
     2.70280608E-01    2     1000035        11   # BR(~e_L -> ~chi_40 e-)
     1.91810312E-03    2    -1000024        12   # BR(~e_L -> ~chi_1- nu_e)
     5.41417264E-01    2    -1000037        12   # BR(~e_L -> ~chi_2- nu_e)
#
#         PDG            Width
DECAY   2000011     2.17866334E+01   # selectron_R decays
#          BR         NDA      ID1       ID2
     5.19202885E-01    2     1000022        11   # BR(~e_R -> ~chi_10 e-)
     1.22391367E-05    2     1000023        11   # BR(~e_R -> ~chi_20 e-)
     4.80784300E-01    2     1000025        11   # BR(~e_R -> ~chi_30 e-)
     5.76005663E-07    2     1000035        11   # BR(~e_R -> ~chi_40 e-)
#
#         PDG            Width
DECAY   1000013     2.94775565E+01   # smuon_L decays
#          BR         NDA      ID1       ID2
     8.22041769E-02    2     1000022        13   # BR(~mu_L -> ~chi_10 mu-)
     1.65223495E-06    2     1000023        13   # BR(~mu_L -> ~chi_20 mu-)
     1.04178196E-01    2     1000025        13   # BR(~mu_L -> ~chi_30 mu-)
     2.70280608E-01    2     1000035        13   # BR(~mu_L -> ~chi_40 mu-)
     1.91810312E-03    2    -1000024        14   # BR(~mu_L -> ~chi_1- nu_mu)
     5.41417264E-01    2    -1000037        14   # BR(~mu_L -> ~chi_2- nu_mu)
#
#         PDG            Width
DECAY   2000013     2.17866334E+01   # smuon_R decays
#          BR         NDA      ID1       ID2
     5.19202885E-01    2     1000022        13   # BR(~mu_R -> ~chi_10 mu-)
     1.22391367E-05    2     1000023        13   # BR(~mu_R -> ~chi_20 mu-)
     4.80784300E-01    2     1000025        13   # BR(~mu_R -> ~chi_30 mu-)
     5.76005663E-07    2     1000035        13   # BR(~mu_R -> ~chi_40 mu-)
#
#         PDG            Width
DECAY   1000015     2.56759474E+01   # stau_1 decays
#          BR         NDA      ID1       ID2
     2.75210755E-01    2     1000022        15   # BR(~tau_1 -> ~chi_10  tau-)
     4.48533280E-04    2     1000023        15   # BR(~tau_1 -> ~chi_20  tau-)
     2.60513427E-01    2     1000025        15   # BR(~tau_1 -> ~chi_30  tau-)
     1.53332821E-01    2     1000035        15   # BR(~tau_1 -> ~chi_40  tau-)
     3.20181077E-03    2    -1000024        16   # BR(~tau_1 -> ~chi_1-  nu_tau)
     3.07152565E-01    2    -1000037        16   # BR(~tau_1 -> ~chi_2-  nu_tau)
     1.40087582E-04    2     1000039        15   # BR(~tau_1 -> ~G       tau-)
#
#         PDG            Width
DECAY   2000015     2.56766248E+01   # stau_2 decays
#          BR         NDA      ID1       ID2
     2.60253225E-01    2     1000022        15   # BR(~tau_2 -> ~chi_10  tau-)
     6.64104886E-04    2     1000023        15   # BR(~tau_2 -> ~chi_20  tau-)
     2.67598787E-01    2     1000025        15   # BR(~tau_2 -> ~chi_30  tau-)
     1.56963531E-01    2     1000035        15   # BR(~tau_2 -> ~chi_40  tau-)
     9.98331345E-05    2    -1000024        16   # BR(~tau_2 -> ~chi_1-  nu_tau)
     3.14420518E-01    2    -1000037        16   # BR(~tau_2 -> ~chi_2-  nu_tau)
#
#         PDG            Width
DECAY   1000012     2.94780945E+01   # snu_eL decays
#          BR         NDA      ID1       ID2
     1.10716791E-01    2     1000022        12   # BR(~nu_eL -> ~chi_10 nu_e)
     1.84286249E-05    2     1000023        12   # BR(~nu_eL -> ~chi_20 nu_e)
     7.47094993E-02    2     1000025        12   # BR(~nu_eL -> ~chi_30 nu_e)
     2.70912053E-01    2     1000035        12   # BR(~nu_eL -> ~chi_40 nu_e)
     2.66995723E-03    2     1000024        11   # BR(~nu_eL -> ~chi_1+ e-)
     5.40973271E-01    2     1000037        11   # BR(~nu_eL -> ~chi_2+ e-)
#
#         PDG            Width
DECAY   1000014     2.94780945E+01   # snu_muL decays
#          BR         NDA      ID1       ID2
     1.10716791E-01    2     1000022        14   # BR(~nu_muL -> ~chi_10 nu_mu)
     1.84286249E-05    2     1000023        14   # BR(~nu_muL -> ~chi_20 nu_mu)
     7.47094993E-02    2     1000025        14   # BR(~nu_muL -> ~chi_30 nu_mu)
     2.70912053E-01    2     1000035        14   # BR(~nu_muL -> ~chi_40 nu_mu)
     2.66995723E-03    2     1000024        13   # BR(~nu_muL -> ~chi_1+ mu-)
     5.40973271E-01    2     1000037        13   # BR(~nu_muL -> ~chi_2+ mu-)
#
#         PDG            Width
DECAY   1000016     2.95063501E+01   # snu_tauL decays
#          BR         NDA      ID1       ID2
     1.10610768E-01    2     1000022        16   # BR(~nu_tauL -> ~chi_10 nu_tau)
     1.84109774E-05    2     1000023        16   # BR(~nu_tauL -> ~chi_20 nu_tau)
     7.46379566E-02    2     1000025        16   # BR(~nu_tauL -> ~chi_30 nu_tau)
     2.70652624E-01    2     1000035        16   # BR(~nu_tauL -> ~chi_40 nu_tau)
     3.62377499E-03    2     1000024        15   # BR(~nu_tauL -> ~chi_1+ tau-)
     5.40456466E-01    2     1000037        15   # BR(~nu_tauL -> ~chi_2+ tau-)
#
#         PDG            Width
DECAY   1000024     1.16379228E-04   # chargino1+ decays
#          BR         NDA      ID1       ID2
     1.46811508E-02    2     1000039        24   # BR(~chi_1+ -> ~G       W+)
#           BR         NDA      ID1       ID2       ID3
     3.29259412E-01    3     1000022         2        -1   # BR(~chi_1+ -> ~chi_10 u    db)
     3.27649462E-01    3     1000022         4        -3   # BR(~chi_1+ -> ~chi_10 c    sb)
     1.09753268E-01    3     1000022       -11        12   # BR(~chi_1+ -> ~chi_10 e+   nu_e)
     1.09750252E-01    3     1000022       -13        14   # BR(~chi_1+ -> ~chi_10 mu+  nu_mu)
     1.08906456E-01    3     1000022       -15        16   # BR(~chi_1+ -> ~chi_10 tau+ nu_tau)
#
#         PDG            Width
DECAY   1000037     3.67468757E+01   # chargino2+ decays
#          BR         NDA      ID1       ID2
     2.53123619E-01    2     1000024        23   # BR(~chi_2+ -> ~chi_1+  Z )
     1.12689445E-01    2     1000022        24   # BR(~chi_2+ -> ~chi_10  W+)
     2.46309261E-01    2     1000023        24   # BR(~chi_2+ -> ~chi_20  W+)
     1.34074115E-01    2     1000025        24   # BR(~chi_2+ -> ~chi_30  W+)
     2.53795930E-01    2     1000024        25   # BR(~chi_2+ -> ~chi_1+  h )
     7.62932018E-06    2     1000039        24   # BR(~chi_2+ -> ~G       W+)
     6.73243944E-10    2     1000039        37   # BR(~chi_2+ -> ~G       H+)
#
#         PDG            Width
DECAY   1000022    1.0E-05    # neutralino1 decays
#          BR         NDA      ID1       ID2
     4.98396123E-01    2     1000039        22   # BR(~chi_10 -> ~G        gam)
     4.90397157E-01    2     1000039        23   # BR(~chi_10 -> ~G        Z)
     1.12067194E-02    2     1000039        25   # BR(~chi_10 -> ~G        h)
#
#         PDG            Width
DECAY   1000023     1.36628429E-04   # neutralino2 decays
#          BR         NDA      ID1       ID2
     9.41392823E-04    2     1000022        22   # BR(~chi_20 -> ~chi_10 gam)
#          BR         NDA      ID1       ID2
     4.08755622E-08    2     1000039        22   # BR(~chi_20 -> ~G        gam)
     4.85692703E-04    2     1000039        23   # BR(~chi_20 -> ~G        Z)
     1.18912124E-02    2     1000039        25   # BR(~chi_20 -> ~G        h)
#           BR         NDA      ID1       ID2       ID3
     1.17196225E-01    3     1000022        -2         2   # BR(~chi_20 -> ~chi_10 ub      u)
     1.51748399E-01    3     1000022        -1         1   # BR(~chi_20 -> ~chi_10 db      d)
     1.16414469E-01    3     1000022        -4         4   # BR(~chi_20 -> ~chi_10 cb      c)
     1.51727293E-01    3     1000022        -3         3   # BR(~chi_20 -> ~chi_10 sb      s)
     1.38346596E-01    3     1000022        -5         5   # BR(~chi_20 -> ~chi_10 bb      b)
     3.46553886E-02    3     1000022       -11        11   # BR(~chi_20 -> ~chi_10 e+      e-)
     3.46541636E-02    3     1000022       -13        13   # BR(~chi_20 -> ~chi_10 mu+     mu-)
     3.43096364E-02    3     1000022       -15        15   # BR(~chi_20 -> ~chi_10 tau+    tau-)
     6.92078694E-02    3     1000022       -12        12   # BR(~chi_20 -> ~chi_10 nu_eb   nu_e)
     6.92078694E-02    3     1000022       -14        14   # BR(~chi_20 -> ~chi_10 nu_mub  nu_mu)
     6.92078694E-02    3     1000022       -16        16   # BR(~chi_20 -> ~chi_10 nu_taub nu_tau)
     1.33729402E-06    3     1000024        -2         1   # BR(~chi_20 -> ~chi_1+ ub      d)
     1.33729402E-06    3    -1000024        -1         2   # BR(~chi_20 -> ~chi_1- db      u)
     5.93327940E-07    3     1000024        -4         3   # BR(~chi_20 -> ~chi_1+ cb      s)
     5.93327940E-07    3    -1000024        -3         4   # BR(~chi_20 -> ~chi_1- sb      c)
     4.45764702E-07    3     1000024       -12        11   # BR(~chi_20 -> ~chi_1+ nu_eb   e-)
     4.45764702E-07    3    -1000024        12       -11   # BR(~chi_20 -> ~chi_1- nu_e    e+)
     4.43697224E-07    3     1000024       -14        13   # BR(~chi_20 -> ~chi_1+ nu_mub  mu-)
     4.43697224E-07    3    -1000024        14       -13   # BR(~chi_20 -> ~chi_1- nu_mu   mu+)
     1.21064171E-07    3     1000024       -16        15   # BR(~chi_20 -> ~chi_1+ nu_taub tau-)
     1.21064171E-07    3    -1000024        16       -15   # BR(~chi_20 -> ~chi_1- nu_tau  tau+)
#
#         PDG            Width
DECAY   1000025     2.23021954E-04   # neutralino3 decays
#          BR         NDA      ID1       ID2
     3.70722938E-04    2     1000022        22   # BR(~chi_30 -> ~chi_10 gam)
     8.07944425E-06    2     1000023        22   # BR(~chi_30 -> ~chi_20 gam)
#          BR         NDA      ID1       ID2
     7.13063492E-03    2     1000039        22   # BR(~chi_30 -> ~G        gam)
     6.21460275E-03    2     1000039        23   # BR(~chi_30 -> ~G        Z)
     1.76112759E-04    2     1000039        25   # BR(~chi_30 -> ~G        h)
#           BR         NDA      ID1       ID2       ID3
     1.08245361E-05    3     1000022        -2         2   # BR(~chi_30 -> ~chi_10 ub      u)
     1.29095743E-05    3     1000022        -1         1   # BR(~chi_30 -> ~chi_10 db      d)
     1.37800954E-05    3     1000022        -4         4   # BR(~chi_30 -> ~chi_10 cb      c)
     1.29648987E-05    3     1000022        -3         3   # BR(~chi_30 -> ~chi_10 sb      s)
     2.33838611E-05    3     1000022        -5         5   # BR(~chi_30 -> ~chi_10 bb      b)
     2.26576525E-06    3     1000022       -11        11   # BR(~chi_30 -> ~chi_10 e+      e-)
     2.26573924E-06    3     1000022       -13        13   # BR(~chi_30 -> ~chi_10 mu+     mu-)
     3.87644956E-06    3     1000022       -15        15   # BR(~chi_30 -> ~chi_10 tau+    tau-)
     6.30571848E-06    3     1000022       -12        12   # BR(~chi_30 -> ~chi_10 nu_eb   nu_e)
     6.30571848E-06    3     1000022       -14        14   # BR(~chi_30 -> ~chi_10 nu_mub  nu_mu)
     6.30571848E-06    3     1000022       -16        16   # BR(~chi_30 -> ~chi_10 nu_taub nu_tau)
     2.38622570E-02    3     1000023        -2         2   # BR(~chi_30 -> ~chi_20 ub      u)
     3.08974505E-02    3     1000023        -1         1   # BR(~chi_30 -> ~chi_20 db      d)
     2.36338057E-02    3     1000023        -4         4   # BR(~chi_30 -> ~chi_20 cb      c)
     3.08909717E-02    3     1000023        -3         3   # BR(~chi_30 -> ~chi_20 sb      s)
     2.68394151E-02    3     1000023        -5         5   # BR(~chi_30 -> ~chi_20 bb      b)
     7.05619016E-03    3     1000023       -11        11   # BR(~chi_30 -> ~chi_20 e+      e-)
     7.05584494E-03    3     1000023       -13        13   # BR(~chi_30 -> ~chi_20 mu+     mu-)
     6.95841861E-03    3     1000023       -15        15   # BR(~chi_30 -> ~chi_20 tau+    tau-)
     1.40913367E-02    3     1000023       -12        12   # BR(~chi_30 -> ~chi_20 nu_eb   nu_e)
     1.40913367E-02    3     1000023       -14        14   # BR(~chi_30 -> ~chi_20 nu_mub  nu_mu)
     1.40913367E-02    3     1000023       -16        16   # BR(~chi_30 -> ~chi_20 nu_taub nu_tau)
     1.31458912E-01    3     1000024        -2         1   # BR(~chi_30 -> ~chi_1+ ub      d)
     1.31458912E-01    3    -1000024        -1         2   # BR(~chi_30 -> ~chi_1- db      u)
     1.30731410E-01    3     1000024        -4         3   # BR(~chi_30 -> ~chi_1+ cb      s)
     1.30731410E-01    3    -1000024        -3         4   # BR(~chi_30 -> ~chi_1- sb      c)
     4.38195711E-02    3     1000024       -12        11   # BR(~chi_30 -> ~chi_1+ nu_eb   e-)
     4.38195711E-02    3    -1000024        12       -11   # BR(~chi_30 -> ~chi_1- nu_e    e+)
     4.38182072E-02    3     1000024       -14        13   # BR(~chi_30 -> ~chi_1+ nu_mub  mu-)
     4.38182072E-02    3    -1000024        14       -13   # BR(~chi_30 -> ~chi_1- nu_mu   mu+)
     4.34370480E-02    3     1000024       -16        15   # BR(~chi_30 -> ~chi_1+ nu_taub tau-)
     4.34370480E-02    3    -1000024        16       -15   # BR(~chi_30 -> ~chi_1- nu_tau  tau+)
#
#         PDG            Width
DECAY   1000035     3.67471455E+01   # neutralino4 decays
#          BR         NDA      ID1       ID2
     7.92094770E-04    2     1000022        23   # BR(~chi_40 -> ~chi_10   Z )
     2.51328275E-01    2     1000023        23   # BR(~chi_40 -> ~chi_20   Z )
     9.13166499E-04    2     1000025        23   # BR(~chi_40 -> ~chi_30   Z )
     2.46391979E-01    2     1000024       -24   # BR(~chi_40 -> ~chi_1+   W-)
     2.46391979E-01    2    -1000024        24   # BR(~chi_40 -> ~chi_1-   W+)
     1.15288154E-01    2     1000022        25   # BR(~chi_40 -> ~chi_10   h )
     1.67873511E-03    2     1000023        25   # BR(~chi_40 -> ~chi_20   h )
     1.37207987E-01    2     1000025        25   # BR(~chi_40 -> ~chi_30   h )
     1.82957991E-06    2     1000039        22   # BR(~chi_40 -> ~G        gam)
     5.79888690E-06    2     1000039        23   # BR(~chi_40 -> ~G        Z)
     5.61210007E-10    2     1000039        25   # BR(~chi_40 -> ~G        h)
     6.60086670E-10    2     1000039        35   # BR(~chi_40 -> ~G        H)
     9.53960126E-12    2     1000039        36   # BR(~chi_40 -> ~G        A)
#
#         PDG            Width
DECAY        25     4.08610747E-03   # h decays
#          BR         NDA      ID1       ID2
     6.17798884E-01    2           5        -5   # BR(h -> b       bb     )
     6.37428239E-02    2         -15        15   # BR(h -> tau+    tau-   )
     2.25626120E-04    2         -13        13   # BR(h -> mu+     mu-    )
     4.78121999E-04    2           3        -3   # BR(h -> s       sb     )
     2.06268460E-02    2           4        -4   # BR(h -> c       cb     )
     6.69757443E-02    2          21        21   # BR(h -> g       g      )
     2.30379580E-03    2          22        22   # BR(h -> gam     gam    )
     1.53734039E-03    2          22        23   # BR(h -> Z       gam    )
     2.00696306E-01    2          24       -24   # BR(h -> W+      W-     )
     2.56145120E-02    2          23        23   # BR(h -> Z       Z      )
#
#         PDG            Width
DECAY        35     3.78109055E+01   # H decays
#          BR         NDA      ID1       ID2
     1.46934899E-03    2           5        -5   # BR(H -> b       bb     )
     2.46422949E-04    2         -15        15   # BR(H -> tau+    tau-   )
     8.71196869E-07    2         -13        13   # BR(H -> mu+     mu-    )
     1.11544903E-06    2           3        -3   # BR(H -> s       sb     )
     1.00667974E-05    2           4        -4   # BR(H -> c       cb     )
     9.96063449E-01    2           6        -6   # BR(H -> t       tb     )
     7.97666937E-04    2          21        21   # BR(H -> g       g      )
     2.70981469E-06    2          22        22   # BR(H -> gam     gam    )
     1.15998597E-06    2          23        22   # BR(H -> Z       gam    )
     3.35902114E-04    2          24       -24   # BR(H -> W+      W-     )
     1.67492968E-04    2          23        23   # BR(H -> Z       Z      )
     9.03793871E-04    2          25        25   # BR(H -> h       h      )
     7.50935219E-24    2          36        36   # BR(H -> A       A      )
     3.01462559E-11    2          23        36   # BR(H -> Z       A      )
     6.97072475E-12    2          24       -37   # BR(H -> W+      H-     )
     6.97072475E-12    2         -24        37   # BR(H -> W-      H+     )
#
#         PDG            Width
DECAY        36     3.82382177E+01   # A decays
#          BR         NDA      ID1       ID2
     1.47229078E-03    2           5        -5   # BR(A -> b       bb     )
     2.43897780E-04    2         -15        15   # BR(A -> tau+    tau-   )
     8.62266758E-07    2         -13        13   # BR(A -> mu+     mu-    )
     1.13677424E-06    2           3        -3   # BR(A -> s       sb     )
     9.96176726E-06    2           4        -4   # BR(A -> c       cb     )
     9.96996235E-01    2           6        -6   # BR(A -> t       tb     )
     9.43675877E-04    2          21        21   # BR(A -> g       g      )
     3.18686884E-06    2          22        22   # BR(A -> gam     gam    )
     1.35257400E-06    2          23        22   # BR(A -> Z       gam    )
     3.27400225E-04    2          23        25   # BR(A -> Z       h      )
#
#         PDG            Width
DECAY        37     3.74472802E+01   # H+ decays
#          BR         NDA      ID1       ID2
     2.36044442E-06    2           4        -5   # BR(H+ -> c       bb     )
     2.49237493E-04    2         -15        16   # BR(H+ -> tau+    nu_tau )
     8.81144572E-07    2         -13        14   # BR(H+ -> mu+     nu_mu  )
     1.50069581E-08    2           2        -5   # BR(H+ -> u       bb     )
     5.45694002E-08    2           2        -3   # BR(H+ -> u       sb     )
     1.08731599E-05    2           4        -3   # BR(H+ -> c       sb     )
     9.99401030E-01    2           6        -5   # BR(H+ -> t       bb     )
     3.35548636E-04    2          24        25   # BR(H+ -> W+      h      )
     2.77363330E-13    2          24        36   # BR(H+ -> W+      A      )
