#
#                              ======================
#                              | THE SUSYHIT OUTPUT |
#                              ======================
#
#
#              ------------------------------------------------------
#              |     This is the output of the SUSY-HIT package     |
#              |  created by A.Djouadi, M.Muehlleitner and M.Spira. |
#              |  In case of problems with SUSY-HIT email to        |
#              |           margarete.muehlleitner@kit.edu           |
#              |           michael.spira@psi.ch                     |
#              |           abdelhak.djouadi@cern.ch                 |
#              ------------------------------------------------------
#
#              ------------------------------------------------------
#              |  SUSY Les Houches Accord - MSSM Spectrum + Decays  |
#              |              based on the decay programs           |
#              |                                                    |
#              |                     SDECAY 1.5a                    |
#              |                                                    |
#              |  Authors: M.Muhlleitner, A.Djouadi and Y.Mambrini  |
#              |  Ref.:    Comput.Phys.Commun.168(2005)46           |
#              |           [hep-ph/0311167]                         |
#              |                                                    |
#              |                     HDECAY 3.4                     |
#              |                                                    |
#              |  By: A.Djouadi,J.Kalinowski,M.Muhlleitner,M.Spira  |
#              |  Ref.:    Comput.Phys.Commun.108(1998)56           |
#              |           [hep-ph/9704448]                         |
#              |                                                    |
#              |                                                    |
#              |  If not stated otherwise all DRbar couplings and   |
#              |  soft SUSY breaking masses are given at the scale  |
#              |  Q=  0.91187600E+02
#              |                                                    |
#              ------------------------------------------------------
#
#
BLOCK DCINFO  # Decay Program information
     1   SDECAY/HDECAY # decay calculator
     2   1.5a /3.4    # version number
#
BLOCK SPINFO  # Spectrum calculator information
     1   SuSpect     # RGE +Spectrum calculator            
     2   2.43         # version number                     
#
BLOCK MODSEL  # Model selection
     1     2   # GMSB                                              
#
BLOCK SMINPUTS  # Standard Model inputs
         1     1.27932904E+02   # alpha_em^-1(M_Z)^MSbar
         2     1.16639000E-05   # G_F [GeV^-2]
         3     1.17200000E-01   # alpha_S(M_Z)^MSbar
         4     9.11870000E+01   # M_Z pole mass
         5     4.25000000E+00   # mb(mb)^MSbar
         6     1.72900000E+02   # mt pole mass
         7     1.77700000E+00   # mtau pole mass
#
BLOCK MINPAR  # Input parameters - minimal models
#
BLOCK EXTPAR  # Input parameters - non-minimal models
         0     9.11876000E+01   # EWSB                
         1     2.42300000E+03   # M_1                 
         2     3.00000000E+03   # M_2                 
         3     3.00000000E+03   # M_3                 
        11     0.00000000E+00   # A_t                 
        12     0.00000000E+00   # A_b                 
        13     0.00000000E+00   # A_tau               
        14     0.00000000E+00   # A_u                 
        15     0.00000000E+00   # A_d                 
        16     0.00000000E+00   # A_e                 
        23     2.45000000E+03   # mu(EWSB)            
        25     1.50000000E+00   # tanbeta(in)         
        26     2.00000000E+03   # MA_pole             
        31     5.00000000E+03   # M_eL                
        32     5.00000000E+03   # M_muL               
        33     5.00000000E+03   # M_tauL              
        34     5.00000000E+03   # M_eR                
        35     5.00000000E+03   # M_muR               
        36     5.00000000E+03   # M_tauR              
        41     5.00000000E+03   # M_q1L               
        42     5.00000000E+03   # M_q2L               
        43     5.00000000E+03   # M_q3L               
        44     5.00000000E+03   # M_uR                
        45     5.00000000E+03   # M_cR                
        46     5.00000000E+03   # M_tR                
        47     5.00000000E+03   # M_dR                
        48     5.00000000E+03   # M_sR                
        49     5.00000000E+03   # M_bR                
#
BLOCK MASS  # Mass Spectrum
# PDG code           mass       particle
        24     8.05426328E+01   # W+
        25     1.25000000E+02   # h
        35     2.00397179E+03   # H
        36     2.00000000E+03   # A
        37     2.00152614E+03   # H+
         5     4.87877839E+00   # b-quark pole mass calculated from mb(mb)_Msbar
   1000001     5.00013293E+03   # ~d_L
   2000001     5.00002540E+03   # ~d_R
   1000002     4.99989247E+03   # ~u_L
   2000002     4.99994920E+03   # ~u_R
   1000003     5.00013293E+03   # ~s_L
   2000003     5.00002540E+03   # ~s_R
   1000004     4.99989247E+03   # ~c_L
   2000004     4.99994920E+03   # ~c_R
   1000005     4.99909299E+03   # ~b_1
   2000005     5.00106659E+03   # ~b_2
   1000006     4.97734491E+03   # ~t_1
   2000006     5.02699715E+03   # ~t_2
   1000011     5.00008213E+03   # ~e_L
   2000011     5.00007620E+03   # ~e_R
   1000012     4.99984166E+03   # ~nu_eL
   1000013     5.00008213E+03   # ~mu_L
   2000013     5.00007620E+03   # ~mu_R
   1000014     4.99984166E+03   # ~nu_muL
   1000015     4.99942565E+03   # ~tau_1
   2000015     5.00073323E+03   # ~tau_2
   1000016     4.99984166E+03   # ~nu_tauL
   1000021     3.00000000E+03   # ~g
   1000022     2.38712270E+03   # ~chi_10
   1000023    -2.45005978E+03   # ~chi_20
   1000025     2.47511110E+03   # ~chi_30
   1000035     3.01082598E+03   # ~chi_40
   1000024     2.43932299E+03   # ~chi_1+
   1000037     3.01076525E+03   # ~chi_2+
   1000039     1.00000000E-09   # ~gravitino
#
BLOCK NMIX  # Neutralino Mixing Matrix
  1  1     7.69877830E-01   # N_11
  1  2    -8.00570398E-02   # N_12
  1  3     4.48867117E-01   # N_13
  1  4    -4.46539257E-01   # N_14
  2  1     1.79192733E-03   # N_21
  2  2    -2.84611417E-03   # N_22
  2  3    -7.07059650E-01   # N_23
  2  4    -7.07145912E-01   # N_24
  3  1     6.38106163E-01   # N_31
  3  2     1.12534907E-01   # N_32
  3  3    -5.38039604E-01   # N_33
  3  4     5.39138020E-01   # N_34
  4  1     1.02684169E-02   # N_41
  4  2    -9.90413381E-01   # N_42
  4  3    -9.53852590E-02   # N_43
  4  4     9.93858502E-02   # N_44
#
BLOCK UMIX  # Chargino Mixing Matrix U
  1  1    -1.34153735E-01   # U_11
  1  2     9.90960532E-01   # U_12
  2  1     9.90960532E-01   # U_21
  2  2     1.34153735E-01   # U_22
#
BLOCK VMIX  # Chargino Mixing Matrix V
  1  1    -1.39790619E-01   # V_11
  1  2     9.90181086E-01   # V_12
  2  1     9.90181086E-01   # V_21
  2  2     1.39790619E-01   # V_22
#
BLOCK STOPMIX  # Stop Mixing Matrix
  1  1     7.07510420E-01   # cos(theta_t)
  1  2     7.06702912E-01   # sin(theta_t)
  2  1    -7.06702912E-01   # -sin(theta_t)
  2  2     7.07510420E-01   # cos(theta_t)
#
BLOCK SBOTMIX  # Sbottom Mixing Matrix
  1  1     6.87574178E-01   # cos(theta_b)
  1  2     7.26114144E-01   # sin(theta_b)
  2  1    -7.26114144E-01   # -sin(theta_b)
  2  2     6.87574178E-01   # cos(theta_b)
#
BLOCK STAUMIX  # Stau Mixing Matrix
  1  1     7.05503354E-01   # cos(theta_tau)
  1  2     7.08706581E-01   # sin(theta_tau)
  2  1    -7.08706581E-01   # -sin(theta_tau)
  2  2     7.05503354E-01   # cos(theta_tau)
#
BLOCK ALPHA  # Higgs mixing
          -5.90183768E-01   # Mixing angle in the neutral Higgs boson sector
#
BLOCK HMIX Q=  9.11876000E+01  # DRbar Higgs Parameters
         1     2.45000000E+03   # mu(Q)               
         2     1.49999979E+00   # tanbeta(Q)          
         3     2.52428250E+02   # vev(Q)              
         4     2.70118983E+06   # MA^2(Q)             
#
BLOCK GAUGE Q=  9.11876000E+01  # The gauge couplings
     1     3.52672023E-01   # gprime(Q) DRbar
     2     6.26473144E-01   # g(Q) DRbar
     3     1.07403037E+00   # g3(Q) DRbar
#
BLOCK AU Q=  9.11876000E+01  # The trilinear couplings
  1  1     0.00000000E+00   # A_u(Q) DRbar
  2  2     0.00000000E+00   # A_c(Q) DRbar
  3  3     0.00000000E+00   # A_t(Q) DRbar
#
BLOCK AD Q=  9.11876000E+01  # The trilinear couplings
  1  1     0.00000000E+00   # A_d(Q) DRbar
  2  2     0.00000000E+00   # A_s(Q) DRbar
  3  3     0.00000000E+00   # A_b(Q) DRbar
#
BLOCK AE Q=  9.11876000E+01  # The trilinear couplings
  1  1     0.00000000E+00   # A_e(Q) DRbar
  2  2     0.00000000E+00   # A_mu(Q) DRbar
  3  3     0.00000000E+00   # A_tau(Q) DRbar
#
BLOCK Yu Q=  9.11876000E+01  # The Yukawa couplings
  1  1     0.00000000E+00   # y_u(Q) DRbar
  2  2     0.00000000E+00   # y_c(Q) DRbar
  3  3     1.02388143E+00   # y_t(Q) DRbar
#
BLOCK Yd Q=  9.11876000E+01  # The Yukawa couplings
  1  1     0.00000000E+00   # y_d(Q) DRbar
  2  2     0.00000000E+00   # y_s(Q) DRbar
  3  3     2.70802132E-02   # y_b(Q) DRbar
#
BLOCK Ye Q=  9.11876000E+01  # The Yukawa couplings
  1  1     0.00000000E+00   # y_e(Q) DRbar
  2  2     0.00000000E+00   # y_mu(Q) DRbar
  3  3     1.79681302E-02   # y_tau(Q) DRbar
#
BLOCK MSOFT Q=  9.11876000E+01  # The soft SUSY breaking masses at the scale Q
         1     2.42300000E+03   # M_1                 
         2     3.00000000E+03   # M_2                 
         3     3.00000000E+03   # M_3                 
        14     0.00000000E+00   # A_u                 
        15     0.00000000E+00   # A_d                 
        16     0.00000000E+00   # A_e                 
        21    -3.65659387E+06   # M^2_Hd              
        22    -1.07667411E+07   # M^2_Hu              
        31     5.00000000E+03   # M_eL                
        32     5.00000000E+03   # M_muL               
        33     5.00000000E+03   # M_tauL              
        34     5.00000000E+03   # M_eR                
        35     5.00000000E+03   # M_muR               
        36     5.00000000E+03   # M_tauR              
        41     5.00000000E+03   # M_q1L               
        42     5.00000000E+03   # M_q2L               
        43     5.00000000E+03   # M_q3L               
        44     5.00000000E+03   # M_uR                
        45     5.00000000E+03   # M_cR                
        46     5.00000000E+03   # M_tR                
        47     5.00000000E+03   # M_dR                
        48     5.00000000E+03   # M_sR                
        49     5.00000000E+03   # M_bR                
#
#
#
#                             =================
#                             |The decay table|
#                             =================
#
# - The QCD corrections to the decays gluino -> squark  + quark
#                                     squark -> gaugino + quark_prime
#                                     squark -> squark_prime + Higgs
#                                     squark -> gluino  + quark
#   are included.
#
# - The multi-body decays for the inos, stops and sbottoms are included.
#
# - The loop induced decays for the gluino, neutralinos and stops
#   are included.
#
# - The SUSY decays of the top quark are included.
#
# - Possible decays of the NLSP in GMSB models are included.
#
#
#         PDG            Width
DECAY         6     1.36735284E+00   # top decays
#          BR         NDA      ID1       ID2
     1.00000000E+00    2           5        24   # BR(t ->  b    W+)
#
#         PDG            Width
DECAY   1000021     3.61769268E-04   # gluino decays
#          BR         NDA      ID1       ID2
     8.56529212E-03    2     1000022        21   # BR(~g -> ~chi_10 g)
     1.58061024E-02    2     1000023        21   # BR(~g -> ~chi_20 g)
     8.28978864E-03    2     1000025        21   # BR(~g -> ~chi_30 g)
#          BR         NDA      ID1       ID2
     0.00000000E+00    2     1000039        21   # BR(~g -> ~G      g)
#           BR         NDA      ID1       ID2       ID3
     3.34380604E-03    3     1000022         1        -1   # BR(~g -> ~chi_10 d  db)
     5.52724856E-08    3     1000023         1        -1   # BR(~g -> ~chi_20 d  db)
     7.13476359E-04    3     1000025         1        -1   # BR(~g -> ~chi_30 d  db)
     8.44418396E-03    3     1000022         2        -2   # BR(~g -> ~chi_10 u  ub)
     4.23725200E-08    3     1000023         2        -2   # BR(~g -> ~chi_20 u  ub)
     3.52225767E-03    3     1000025         2        -2   # BR(~g -> ~chi_30 u  ub)
     3.34380604E-03    3     1000022         3        -3   # BR(~g -> ~chi_10 s  sb)
     5.52724856E-08    3     1000023         3        -3   # BR(~g -> ~chi_20 s  sb)
     7.13476359E-04    3     1000025         3        -3   # BR(~g -> ~chi_30 s  sb)
     8.44418396E-03    3     1000022         4        -4   # BR(~g -> ~chi_10 c  cb)
     4.23725200E-08    3     1000023         4        -4   # BR(~g -> ~chi_20 c  cb)
     3.52225767E-03    3     1000025         4        -4   # BR(~g -> ~chi_30 c  cb)
     3.35867184E-03    3     1000022         5        -5   # BR(~g -> ~chi_10 b  bb)
     5.76823636E-05    3     1000023         5        -5   # BR(~g -> ~chi_20 b  bb)
     7.46750057E-04    3     1000025         5        -5   # BR(~g -> ~chi_30 b  bb)
     1.95570065E-02    3     1000022         6        -6   # BR(~g -> ~chi_10 t  tb)
     1.85579382E-02    3     1000023         6        -6   # BR(~g -> ~chi_20 t  tb)
     1.60105792E-02    3     1000025         6        -6   # BR(~g -> ~chi_30 t  tb)
     6.28697833E-04    3     1000024         1        -2   # BR(~g -> ~chi_1+ d  ub)
     6.28697833E-04    3    -1000024         2        -1   # BR(~g -> ~chi_1- u  db)
     6.28697833E-04    3     1000024         3        -4   # BR(~g -> ~chi_1+ s  cb)
     6.28697833E-04    3    -1000024         4        -3   # BR(~g -> ~chi_1- c  sb)
     5.05823040E-02    3     1000024         5        -6   # BR(~g -> ~chi_1+ b  tb)
     5.05823040E-02    3    -1000024         6        -5   # BR(~g -> ~chi_1- t  bb)
#
#         PDG            Width
DECAY   1000006     1.94150399E+02   # stop1 decays
#          BR         NDA      ID1       ID2
     7.63371329E-02    2     1000022         6   # BR(~t_1 -> ~chi_10 t )
     1.09087772E-01    2     1000023         6   # BR(~t_1 -> ~chi_20 t )
     5.21439715E-02    2     1000025         6   # BR(~t_1 -> ~chi_30 t )
     1.31849068E-02    2     1000035         6   # BR(~t_1 -> ~chi_40 t )
     1.26208544E-01    2     1000024         5   # BR(~t_1 -> ~chi_1+ b )
     2.46412863E-02    2     1000037         5   # BR(~t_1 -> ~chi_2+ b )
     5.98396386E-01    2     1000021         6   # BR(~t_1 -> ~g      t )
#
#         PDG            Width
DECAY   2000006     1.82858725E+02   # stop2 decays
#          BR         NDA      ID1       ID2
     2.95998728E-02    2     1000022         6   # BR(~t_2 -> ~chi_10 t )
     1.08915871E-01    2     1000023         6   # BR(~t_2 -> ~chi_20 t )
     9.15557479E-02    2     1000025         6   # BR(~t_2 -> ~chi_30 t )
     3.11325472E-02    2     1000035         6   # BR(~t_2 -> ~chi_40 t )
     9.00553057E-02    2     1000024         5   # BR(~t_2 -> ~chi_1+ b )
     5.97508151E-02    2     1000037         5   # BR(~t_2 -> ~chi_2+ b )
     5.88989840E-01    2     1000021         6   # BR(~t_2 -> ~g      t )
#
#         PDG            Width
DECAY   1000005     1.42429571E+02   # sbottom1 decays
#          BR         NDA      ID1       ID2
     6.35097164E-03    2     1000022         5   # BR(~b_1 -> ~chi_10 b )
     9.07416447E-05    2     1000023         5   # BR(~b_1 -> ~chi_20 b )
     1.87108181E-03    2     1000025         5   # BR(~b_1 -> ~chi_30 b )
     2.40927523E-02    2     1000035         5   # BR(~b_1 -> ~chi_40 b )
     1.29905502E-01    2    -1000024         6   # BR(~b_1 -> ~chi_1- t )
     5.07045476E-02    2    -1000037         6   # BR(~b_1 -> ~chi_2- t )
     7.86984403E-01    2     1000021         5   # BR(~b_1 -> ~g      b )
#
#         PDG            Width
DECAY   2000005     1.47849268E+02   # sbottom2 decays
#          BR         NDA      ID1       ID2
     4.10802731E-03    2     1000022         5   # BR(~b_2 -> ~chi_10 b )
     1.07958216E-04    2     1000023         5   # BR(~b_2 -> ~chi_20 b )
     2.47124731E-03    2     1000025         5   # BR(~b_2 -> ~chi_30 b )
     2.78740479E-02    2     1000035         5   # BR(~b_2 -> ~chi_40 b )
     1.49358679E-01    2    -1000024         6   # BR(~b_2 -> ~chi_1- t )
     5.86600366E-02    2    -1000037         6   # BR(~b_2 -> ~chi_2- t )
     7.57420003E-01    2     1000021         5   # BR(~b_2 -> ~g      b )
#
#         PDG            Width
DECAY   1000002     1.35604258E+02   # sup_L decays
#          BR         NDA      ID1       ID2
     3.42773855E-04    2     1000022         2   # BR(~u_L -> ~chi_10 u)
     5.04344544E-07    2     1000023         2   # BR(~u_L -> ~chi_20 u)
     4.26413748E-03    2     1000025         2   # BR(~u_L -> ~chi_30 u)
     5.52507532E-02    2     1000035         2   # BR(~u_L -> ~chi_40 u)
     3.14620687E-03    2     1000024         1   # BR(~u_L -> ~chi_1+ d)
     1.10885728E-01    2     1000037         1   # BR(~u_L -> ~chi_2+ d)
     8.26109896E-01    2     1000021         2   # BR(~u_L -> ~g      u)
#
#         PDG            Width
DECAY   2000002     1.18228822E+02   # sup_R decays
#          BR         NDA      ID1       ID2
     3.16459787E-02    2     1000022         2   # BR(~u_R -> ~chi_10 u)
     1.66128768E-07    2     1000023         2   # BR(~u_R -> ~chi_20 u)
     2.07963618E-02    2     1000025         2   # BR(~u_R -> ~chi_30 u)
     3.85286955E-06    2     1000035         2   # BR(~u_R -> ~chi_40 u)
     9.47553641E-01    2     1000021         2   # BR(~u_R -> ~g      u)
#
#         PDG            Width
DECAY   1000001     1.35614607E+02   # sdown_L decays
#          BR         NDA      ID1       ID2
     4.16522449E-03    2     1000022         1   # BR(~d_L -> ~chi_10 d)
     8.10855526E-07    2     1000023         1   # BR(~d_L -> ~chi_20 d)
     4.10348038E-06    2     1000025         1   # BR(~d_L -> ~chi_30 d)
     5.56868836E-02    2     1000035         1   # BR(~d_L -> ~chi_40 d)
     2.89768191E-03    2    -1000024         2   # BR(~d_L -> ~chi_1- u)
     1.11069320E-01    2    -1000037         2   # BR(~d_L -> ~chi_2- u)
     8.26175975E-01    2     1000021         1   # BR(~d_L -> ~g      d)
#
#         PDG            Width
DECAY   2000001     1.13583920E+02   # sdown_R decays
#          BR         NDA      ID1       ID2
     8.23530195E-03    2     1000022         1   # BR(~d_R -> ~chi_10 d)
     4.32321048E-08    2     1000023         1   # BR(~d_R -> ~chi_20 d)
     5.41189203E-03    2     1000025         1   # BR(~d_R -> ~chi_30 d)
     1.00265706E-06    2     1000035         1   # BR(~d_R -> ~chi_40 d)
     9.86351760E-01    2     1000021         1   # BR(~d_R -> ~g      d)
#
#         PDG            Width
DECAY   1000004     1.35604258E+02   # scharm_L decays
#          BR         NDA      ID1       ID2
     3.42773855E-04    2     1000022         4   # BR(~c_L -> ~chi_10 c)
     5.04344544E-07    2     1000023         4   # BR(~c_L -> ~chi_20 c)
     4.26413748E-03    2     1000025         4   # BR(~c_L -> ~chi_30 c)
     5.52507532E-02    2     1000035         4   # BR(~c_L -> ~chi_40 c)
     3.14620687E-03    2     1000024         3   # BR(~c_L -> ~chi_1+ s)
     1.10885728E-01    2     1000037         3   # BR(~c_L -> ~chi_2+ s)
     8.26109896E-01    2     1000021         4   # BR(~c_L -> ~g      c)
#
#         PDG            Width
DECAY   2000004     1.18228822E+02   # scharm_R decays
#          BR         NDA      ID1       ID2
     3.16459787E-02    2     1000022         4   # BR(~c_R -> ~chi_10 c)
     1.66128768E-07    2     1000023         4   # BR(~c_R -> ~chi_20 c)
     2.07963618E-02    2     1000025         4   # BR(~c_R -> ~chi_30 c)
     3.85286955E-06    2     1000035         4   # BR(~c_R -> ~chi_40 c)
     9.47553641E-01    2     1000021         4   # BR(~c_R -> ~g      c)
#
#         PDG            Width
DECAY   1000003     1.35614607E+02   # sstrange_L decays
#          BR         NDA      ID1       ID2
     4.16522449E-03    2     1000022         3   # BR(~s_L -> ~chi_10 s)
     8.10855526E-07    2     1000023         3   # BR(~s_L -> ~chi_20 s)
     4.10348038E-06    2     1000025         3   # BR(~s_L -> ~chi_30 s)
     5.56868836E-02    2     1000035         3   # BR(~s_L -> ~chi_40 s)
     2.89768191E-03    2    -1000024         4   # BR(~s_L -> ~chi_1- c)
     1.11069320E-01    2    -1000037         4   # BR(~s_L -> ~chi_2- c)
     8.26175975E-01    2     1000021         3   # BR(~s_L -> ~g      s)
#
#         PDG            Width
DECAY   2000003     1.13583920E+02   # sstrange_R decays
#          BR         NDA      ID1       ID2
     8.23530195E-03    2     1000022         3   # BR(~s_R -> ~chi_10 s)
     4.32321048E-08    2     1000023         3   # BR(~s_R -> ~chi_20 s)
     5.41189203E-03    2     1000025         3   # BR(~s_R -> ~chi_30 s)
     1.00265706E-06    2     1000035         3   # BR(~s_R -> ~chi_40 s)
     9.86351760E-01    2     1000021         3   # BR(~s_R -> ~g      s)
#
#         PDG            Width
DECAY   1000011     2.76027137E+01   # selectron_L decays
#          BR         NDA      ID1       ID2
     5.26312819E-02    2     1000022        11   # BR(~e_L -> ~chi_10 e-)
     1.37855309E-06    2     1000023        11   # BR(~e_L -> ~chi_20 e-)
     8.97044245E-02    2     1000025        11   # BR(~e_L -> ~chi_30 e-)
     2.78557837E-01    2     1000035        11   # BR(~e_L -> ~chi_40 e-)
     1.47798928E-02    2    -1000024        12   # BR(~e_L -> ~chi_1- nu_e)
     5.64325186E-01    2    -1000037        12   # BR(~e_L -> ~chi_2- nu_e)
#
#         PDG            Width
DECAY   2000011     1.44863305E+01   # selectron_R decays
#          BR         NDA      ID1       ID2
     6.03504445E-01    2     1000022        11   # BR(~e_R -> ~chi_10 e-)
     3.16715296E-06    2     1000023        11   # BR(~e_R -> ~chi_20 e-)
     3.96419213E-01    2     1000025        11   # BR(~e_R -> ~chi_30 e-)
     7.31749731E-05    2     1000035        11   # BR(~e_R -> ~chi_40 e-)
#
#         PDG            Width
DECAY   1000013     2.76027137E+01   # smuon_L decays
#          BR         NDA      ID1       ID2
     5.26312819E-02    2     1000022        13   # BR(~mu_L -> ~chi_10 mu-)
     1.37855309E-06    2     1000023        13   # BR(~mu_L -> ~chi_20 mu-)
     8.97044245E-02    2     1000025        13   # BR(~mu_L -> ~chi_30 mu-)
     2.78557837E-01    2     1000035        13   # BR(~mu_L -> ~chi_40 mu-)
     1.47798928E-02    2    -1000024        14   # BR(~mu_L -> ~chi_1- nu_mu)
     5.64325186E-01    2    -1000037        14   # BR(~mu_L -> ~chi_2- nu_mu)
#
#         PDG            Width
DECAY   2000013     1.44863305E+01   # smuon_R decays
#          BR         NDA      ID1       ID2
     6.03504445E-01    2     1000022        13   # BR(~mu_R -> ~chi_10 mu-)
     3.16715296E-06    2     1000023        13   # BR(~mu_R -> ~chi_20 mu-)
     3.96419213E-01    2     1000025        13   # BR(~mu_R -> ~chi_30 mu-)
     7.31749731E-05    2     1000035        13   # BR(~mu_R -> ~chi_40 mu-)
#
#         PDG            Width
DECAY   1000015     2.10848089E+01   # stau_1 decays
#          BR         NDA      ID1       ID2
     2.47895973E-01    2     1000022        15   # BR(~tau_1 -> ~chi_10  tau-)
     3.82658784E-04    2     1000023        15   # BR(~tau_1 -> ~chi_20  tau-)
     1.92685543E-01    2     1000025        15   # BR(~tau_1 -> ~chi_30  tau-)
     1.80009645E-01    2     1000035        15   # BR(~tau_1 -> ~chi_40  tau-)
     1.41618218E-02    2    -1000024        16   # BR(~tau_1 -> ~chi_1-  nu_tau)
     3.64693822E-01    2    -1000037        16   # BR(~tau_1 -> ~chi_2-  nu_tau)
     1.70536485E-04    2     1000039        15   # BR(~tau_1 -> ~G       tau-)
#
#         PDG            Width
DECAY   2000015     2.10634655E+01   # stau_2 decays
#          BR         NDA      ID1       ID2
     2.36240590E-01    2     1000022        15   # BR(~tau_2 -> ~chi_10  tau-)
     5.01223922E-04    2     1000023        15   # BR(~tau_2 -> ~chi_20  tau-)
     1.97816200E-01    2     1000025        15   # BR(~tau_2 -> ~chi_30  tau-)
     1.84909960E-01    2     1000035        15   # BR(~tau_2 -> ~chi_40  tau-)
     6.05915510E-03    2    -1000024        16   # BR(~tau_2 -> ~chi_1-  nu_tau)
     3.74472872E-01    2    -1000037        16   # BR(~tau_2 -> ~chi_2-  nu_tau)
#
#         PDG            Width
DECAY   1000012     2.76067163E+01   # snu_eL decays
#          BR         NDA      ID1       ID2
     1.11109104E-01    2     1000022        12   # BR(~nu_eL -> ~chi_10 nu_e)
     6.06666005E-06    2     1000023        12   # BR(~nu_eL -> ~chi_20 nu_e)
     2.45220746E-02    2     1000025        12   # BR(~nu_eL -> ~chi_30 nu_e)
     2.85051426E-01    2     1000035        12   # BR(~nu_eL -> ~chi_40 nu_e)
     1.60439702E-02    2     1000024        11   # BR(~nu_eL -> ~chi_1+ e-)
     5.63267358E-01    2     1000037        11   # BR(~nu_eL -> ~chi_2+ e-)
#
#         PDG            Width
DECAY   1000014     2.76067163E+01   # snu_muL decays
#          BR         NDA      ID1       ID2
     1.11109104E-01    2     1000022        14   # BR(~nu_muL -> ~chi_10 nu_mu)
     6.06666005E-06    2     1000023        14   # BR(~nu_muL -> ~chi_20 nu_mu)
     2.45220746E-02    2     1000025        14   # BR(~nu_muL -> ~chi_30 nu_mu)
     2.85051426E-01    2     1000035        14   # BR(~nu_muL -> ~chi_40 nu_mu)
     1.60439702E-02    2     1000024        13   # BR(~nu_muL -> ~chi_1+ mu-)
     5.63267358E-01    2     1000037        13   # BR(~nu_muL -> ~chi_2+ mu-)
#
#         PDG            Width
DECAY   1000016     2.76252502E+01   # snu_tauL decays
#          BR         NDA      ID1       ID2
     1.11034561E-01    2     1000022        16   # BR(~nu_tauL -> ~chi_10 nu_tau)
     6.06258990E-06    2     1000023        16   # BR(~nu_tauL -> ~chi_20 nu_tau)
     2.45056226E-02    2     1000025        16   # BR(~nu_tauL -> ~chi_30 nu_tau)
     2.84860183E-01    2     1000035        16   # BR(~nu_tauL -> ~chi_40 nu_tau)
     1.66930246E-02    2     1000024        15   # BR(~nu_tauL -> ~chi_1+ tau-)
     5.62900546E-01    2     1000037        15   # BR(~nu_tauL -> ~chi_2+ tau-)
#
#         PDG            Width
DECAY   1000024     2.84679579E-04   # chargino1+ decays
#          BR         NDA      ID1       ID2
     1.77120840E-01    2     1000039        24   # BR(~chi_1+ -> ~G       W+)
     1.95366146E-03    2     1000039        37   # BR(~chi_1+ -> ~G       H+)
#           BR         NDA      ID1       ID2       ID3
     2.74142062E-01    3     1000022         2        -1   # BR(~chi_1+ -> ~chi_10 u    db)
     2.73159936E-01    3     1000022         4        -3   # BR(~chi_1+ -> ~chi_10 c    sb)
     9.13807737E-02    3     1000022       -11        12   # BR(~chi_1+ -> ~chi_10 e+   nu_e)
     9.13789361E-02    3     1000022       -13        14   # BR(~chi_1+ -> ~chi_10 mu+  nu_mu)
     9.08637916E-02    3     1000022       -15        16   # BR(~chi_1+ -> ~chi_10 tau+ nu_tau)
#
#         PDG            Width
DECAY   1000037     2.35063222E+01   # chargino2+ decays
#          BR         NDA      ID1       ID2
     2.58030672E-01    2     1000024        23   # BR(~chi_2+ -> ~chi_1+  Z )
     9.02364105E-02    2     1000022        24   # BR(~chi_2+ -> ~chi_10  W+)
     2.45025129E-01    2     1000023        24   # BR(~chi_2+ -> ~chi_20  W+)
     1.61922789E-01    2     1000025        24   # BR(~chi_2+ -> ~chi_30  W+)
     2.44773018E-01    2     1000024        25   # BR(~chi_2+ -> ~chi_1+  h )
     1.19716102E-05    2     1000039        24   # BR(~chi_2+ -> ~G       W+)
     1.08537490E-08    2     1000039        37   # BR(~chi_2+ -> ~G       H+)
#
#         PDG            Width
DECAY   1000022    1.0E-05    # neutralino1 decays
#          BR         NDA      ID1       ID2
     4.99808422E-01    2     1000039        22   # BR(~chi_10 -> ~G        gam)
     4.89173131E-01    2     1000039        23   # BR(~chi_10 -> ~G        Z)
     9.10177654E-03    2     1000039        25   # BR(~chi_10 -> ~G        h)
     1.83846171E-03    2     1000039        35   # BR(~chi_10 -> ~G        H)
     7.82081839E-05    2     1000039        36   # BR(~chi_10 -> ~G        A)
#
#         PDG            Width
DECAY   1000023     5.49509902E-04   # neutralino2 decays
#          BR         NDA      ID1       ID2
     7.51982740E-05    2     1000022        22   # BR(~chi_20 -> ~chi_10 gam)
#          BR         NDA      ID1       ID2
     5.05507684E-09    2     1000039        22   # BR(~chi_20 -> ~G        gam)
     3.54158128E-03    2     1000039        23   # BR(~chi_20 -> ~G        Z)
     8.80816789E-02    2     1000039        25   # BR(~chi_20 -> ~G        h)
     4.17419848E-05    2     1000039        35   # BR(~chi_20 -> ~G        H)
     1.10191020E-03    2     1000039        36   # BR(~chi_20 -> ~G        A)
#           BR         NDA      ID1       ID2       ID3
     1.07074776E-01    3     1000022        -2         2   # BR(~chi_20 -> ~chi_10 ub      u)
     1.38661744E-01    3     1000022        -1         1   # BR(~chi_20 -> ~chi_10 db      d)
     1.06598502E-01    3     1000022        -4         4   # BR(~chi_20 -> ~chi_10 cb      c)
     1.38649876E-01    3     1000022        -3         3   # BR(~chi_20 -> ~chi_10 sb      s)
     1.31037143E-01    3     1000022        -5         5   # BR(~chi_20 -> ~chi_10 bb      b)
     3.16756116E-02    3     1000022       -11        11   # BR(~chi_20 -> ~chi_10 e+      e-)
     3.16748255E-02    3     1000022       -13        13   # BR(~chi_20 -> ~chi_10 mu+     mu-)
     3.14540478E-02    3     1000022       -15        15   # BR(~chi_20 -> ~chi_10 tau+    tau-)
     6.32628445E-02    3     1000022       -12        12   # BR(~chi_20 -> ~chi_10 nu_eb   nu_e)
     6.32628445E-02    3     1000022       -14        14   # BR(~chi_20 -> ~chi_10 nu_mub  nu_mu)
     6.32628445E-02    3     1000022       -16        16   # BR(~chi_20 -> ~chi_10 nu_taub nu_tau)
     9.43338056E-05    3     1000024        -2         1   # BR(~chi_20 -> ~chi_1+ ub      d)
     9.43338056E-05    3    -1000024        -1         2   # BR(~chi_20 -> ~chi_1- db      u)
     8.66730909E-05    3     1000024        -4         3   # BR(~chi_20 -> ~chi_1+ cb      s)
     8.66730909E-05    3    -1000024        -3         4   # BR(~chi_20 -> ~chi_1- sb      c)
     3.14446058E-05    3     1000024       -12        11   # BR(~chi_20 -> ~chi_1+ nu_eb   e-)
     3.14446058E-05    3    -1000024        12       -11   # BR(~chi_20 -> ~chi_1- nu_e    e+)
     3.14293875E-05    3     1000024       -14        13   # BR(~chi_20 -> ~chi_1+ nu_mub  mu-)
     3.14293875E-05    3    -1000024        14       -13   # BR(~chi_20 -> ~chi_1- nu_mu   mu+)
     2.75320194E-05    3     1000024       -16        15   # BR(~chi_20 -> ~chi_1+ nu_taub tau-)
     2.75320194E-05    3    -1000024        16       -15   # BR(~chi_20 -> ~chi_1- nu_tau  tau+)
#
#         PDG            Width
DECAY   1000025     1.69923271E-04   # neutralino3 decays
#          BR         NDA      ID1       ID2
     4.94833934E-04    2     1000022        22   # BR(~chi_30 -> ~chi_10 gam)
     1.30891575E-06    2     1000023        22   # BR(~chi_30 -> ~chi_20 gam)
#          BR         NDA      ID1       ID2
     2.35154553E-01    2     1000039        22   # BR(~chi_30 -> ~G        gam)
     2.03590482E-01    2     1000039        23   # BR(~chi_30 -> ~G        Z)
     6.86994108E-03    2     1000039        25   # BR(~chi_30 -> ~G        h)
     2.47278377E-03    2     1000039        35   # BR(~chi_30 -> ~G        H)
     1.00843189E-04    2     1000039        36   # BR(~chi_30 -> ~G        A)
#           BR         NDA      ID1       ID2       ID3
     5.40952245E-05    3     1000022        -2         2   # BR(~chi_30 -> ~chi_10 ub      u)
     6.69041479E-05    3     1000022        -1         1   # BR(~chi_30 -> ~chi_10 db      d)
     1.19162297E-04    3     1000022        -4         4   # BR(~chi_30 -> ~chi_10 cb      c)
     6.81208209E-05    3     1000022        -3         3   # BR(~chi_30 -> ~chi_10 sb      s)
     2.99483457E-04    3     1000022        -5         5   # BR(~chi_30 -> ~chi_10 bb      b)
     1.28820678E-05    3     1000022       -11        11   # BR(~chi_30 -> ~chi_10 e+      e-)
     1.28819222E-05    3     1000022       -13        13   # BR(~chi_30 -> ~chi_10 mu+     mu-)
     4.82772038E-05    3     1000022       -15        15   # BR(~chi_30 -> ~chi_10 tau+    tau-)
     3.15423664E-05    3     1000022       -12        12   # BR(~chi_30 -> ~chi_10 nu_eb   nu_e)
     3.15423664E-05    3     1000022       -14        14   # BR(~chi_30 -> ~chi_10 nu_mub  nu_mu)
     3.15423664E-05    3     1000022       -16        16   # BR(~chi_30 -> ~chi_10 nu_taub nu_tau)
     3.80983890E-03    3     1000023        -2         2   # BR(~chi_30 -> ~chi_20 ub      u)
     4.93374179E-03    3     1000023        -1         1   # BR(~chi_30 -> ~chi_20 db      d)
     3.73043789E-03    3     1000023        -4         4   # BR(~chi_30 -> ~chi_20 cb      c)
     4.93135455E-03    3     1000023        -3         3   # BR(~chi_30 -> ~chi_20 sb      s)
     3.51202566E-03    3     1000023        -5         5   # BR(~chi_30 -> ~chi_20 bb      b)
     1.12705467E-03    3     1000023       -11        11   # BR(~chi_30 -> ~chi_20 e+      e-)
     1.12694061E-03    3     1000023       -13        13   # BR(~chi_30 -> ~chi_20 mu+     mu-)
     1.09427790E-03    3     1000023       -15        15   # BR(~chi_30 -> ~chi_20 tau+    tau-)
     2.25095608E-03    3     1000023       -12        12   # BR(~chi_30 -> ~chi_20 nu_eb   nu_e)
     2.25095608E-03    3     1000023       -14        14   # BR(~chi_30 -> ~chi_20 nu_mub  nu_mu)
     2.25095608E-03    3     1000023       -16        16   # BR(~chi_30 -> ~chi_20 nu_taub nu_tau)
     8.69287415E-02    3     1000024        -2         1   # BR(~chi_30 -> ~chi_1+ ub      d)
     8.69287415E-02    3    -1000024        -1         2   # BR(~chi_30 -> ~chi_1- db      u)
     8.62568876E-02    3     1000024        -4         3   # BR(~chi_30 -> ~chi_1+ cb      s)
     8.62568876E-02    3    -1000024        -3         4   # BR(~chi_30 -> ~chi_1- sb      c)
     2.89762082E-02    3     1000024       -12        11   # BR(~chi_30 -> ~chi_1+ nu_eb   e-)
     2.89762082E-02    3    -1000024        12       -11   # BR(~chi_30 -> ~chi_1- nu_e    e+)
     2.89749461E-02    3     1000024       -14        13   # BR(~chi_30 -> ~chi_1+ nu_mub  mu-)
     2.89749461E-02    3    -1000024        14       -13   # BR(~chi_30 -> ~chi_1- nu_mu   mu+)
     2.86233563E-02    3     1000024       -16        15   # BR(~chi_30 -> ~chi_1+ nu_taub tau-)
     2.86233563E-02    3    -1000024        16       -15   # BR(~chi_30 -> ~chi_1- nu_tau  tau+)
#
#         PDG            Width
DECAY   1000035     2.34968661E+01   # neutralino4 decays
#          BR         NDA      ID1       ID2
     4.64193939E-05    2     1000022        23   # BR(~chi_40 -> ~chi_10   Z )
     2.52329182E-01    2     1000023        23   # BR(~chi_40 -> ~chi_20   Z )
     6.52220904E-05    2     1000025        23   # BR(~chi_40 -> ~chi_30   Z )
     2.50549286E-01    2     1000024       -24   # BR(~chi_40 -> ~chi_1+   W-)
     2.50549286E-01    2    -1000024        24   # BR(~chi_40 -> ~chi_1-   W+)
     8.80281197E-02    2     1000022        25   # BR(~chi_40 -> ~chi_10   h )
     1.00877497E-04    2     1000023        25   # BR(~chi_40 -> ~chi_20   h )
     1.58319622E-01    2     1000025        25   # BR(~chi_40 -> ~chi_30   h )
     2.75719405E-06    2     1000039        22   # BR(~chi_40 -> ~G        gam)
     9.21305007E-06    2     1000039        23   # BR(~chi_40 -> ~G        Z)
     5.23520099E-09    2     1000039        25   # BR(~chi_40 -> ~G        h)
     1.05631132E-08    2     1000039        35   # BR(~chi_40 -> ~G        H)
     3.47014881E-10    2     1000039        36   # BR(~chi_40 -> ~G        A)
#
#         PDG            Width
DECAY        25     4.09157909E-03   # h decays
#          BR         NDA      ID1       ID2
     6.18362911E-01    2           5        -5   # BR(h -> b       bb     )
     6.36533167E-02    2         -15        15   # BR(h -> tau+    tau-   )
     2.25309298E-04    2         -13        13   # BR(h -> mu+     mu-    )
     4.77451225E-04    2           3        -3   # BR(h -> s       sb     )
     2.05998812E-02    2           4        -4   # BR(h -> c       cb     )
     6.68855737E-02    2          21        21   # BR(h -> g       g      )
     2.29923194E-03    2          22        22   # BR(h -> gam     gam    )
     1.53537078E-03    2          22        23   # BR(h -> Z       gam    )
     2.00380694E-01    2          24       -24   # BR(h -> W+      W-     )
     2.55802606E-02    2          23        23   # BR(h -> Z       Z      )
#
#         PDG            Width
DECAY        35     3.78065681E+01   # H decays
#          BR         NDA      ID1       ID2
     1.46059096E-03    2           5        -5   # BR(H -> b       bb     )
     2.46452088E-04    2         -15        15   # BR(H -> tau+    tau-   )
     8.71299888E-07    2         -13        13   # BR(H -> mu+     mu-    )
     1.11558568E-06    2           3        -3   # BR(H -> s       sb     )
     1.00670477E-05    2           4        -4   # BR(H -> c       cb     )
     9.96086746E-01    2           6        -6   # BR(H -> t       tb     )
     7.97635618E-04    2          21        21   # BR(H -> g       g      )
     2.71809202E-06    2          22        22   # BR(H -> gam     gam    )
     1.16058967E-06    2          23        22   # BR(H -> Z       gam    )
     3.29107419E-04    2          24       -24   # BR(H -> W+      W-     )
     1.64104927E-04    2          23        23   # BR(H -> Z       Z      )
     8.99430286E-04    2          25        25   # BR(H -> h       h      )
     6.85854580E-24    2          36        36   # BR(H -> A       A      )
     2.82111761E-11    2          23        36   # BR(H -> Z       A      )
     6.08450153E-12    2          24       -37   # BR(H -> W+      H-     )
     6.08450153E-12    2         -24        37   # BR(H -> W-      H+     )
#
#         PDG            Width
DECAY        36     3.82376227E+01   # A decays
#          BR         NDA      ID1       ID2
     1.46345086E-03    2           5        -5   # BR(A -> b       bb     )
     2.43901575E-04    2         -15        15   # BR(A -> tau+    tau-   )
     8.62280174E-07    2         -13        13   # BR(A -> mu+     mu-    )
     1.13679192E-06    2           3        -3   # BR(A -> s       sb     )
     9.96192225E-06    2           4        -4   # BR(A -> c       cb     )
     9.97011747E-01    2           6        -6   # BR(A -> t       tb     )
     9.43690560E-04    2          21        21   # BR(A -> g       g      )
     3.12429773E-06    2          22        22   # BR(A -> gam     gam    )
     1.35314008E-06    2          23        22   # BR(A -> Z       gam    )
     3.20771527E-04    2          23        25   # BR(A -> Z       h      )
#
#         PDG            Width
DECAY        37     3.74468038E+01   # H+ decays
#          BR         NDA      ID1       ID2
     2.34086703E-06    2           4        -5   # BR(H+ -> c       bb     )
     2.49242446E-04    2         -15        16   # BR(H+ -> tau+    nu_tau )
     8.81162082E-07    2         -13        14   # BR(H+ -> mu+     nu_mu  )
     1.48816613E-08    2           2        -5   # BR(H+ -> u       bb     )
     5.45704318E-08    2           2        -3   # BR(H+ -> u       sb     )
     1.08733654E-05    2           4        -3   # BR(H+ -> c       sb     )
     9.99407832E-01    2           6        -5   # BR(H+ -> t       bb     )
     3.28761094E-04    2          24        25   # BR(H+ -> W+      h      )
     2.90742521E-13    2          24        36   # BR(H+ -> W+      A      )
