#
#                              ======================
#                              | THE SUSYHIT OUTPUT |
#                              ======================
#
#
#              ------------------------------------------------------
#              |     This is the output of the SUSY-HIT package     |
#              |  created by A.Djouadi, M.Muehlleitner and M.Spira. |
#              |  In case of problems with SUSY-HIT email to        |
#              |           margarete.muehlleitner@kit.edu           |
#              |           michael.spira@psi.ch                     |
#              |           abdelhak.djouadi@cern.ch                 |
#              ------------------------------------------------------
#
#              ------------------------------------------------------
#              |  SUSY Les Houches Accord - MSSM Spectrum + Decays  |
#              |              based on the decay programs           |
#              |                                                    |
#              |                     SDECAY 1.5                     |
#              |                                                    |
#              |  Authors: M.Muhlleitner, A.Djouadi and Y.Mambrini  |
#              |  Ref.:    Comput.Phys.Commun.168(2005)46           |
#              |           [hep-ph/0311167]                         |
#              |                                                    |
#              |                     HDECAY 3.4                     |
#              |                                                    |
#              |  By: A.Djouadi,J.Kalinowski,M.Muhlleitner,M.Spira  |
#              |  Ref.:    Comput.Phys.Commun.108(1998)56           |
#              |           [hep-ph/9704448]                         |
#              |                                                    |
#              |                                                    |
#              |  If not stated otherwise all DRbar couplings and   |
#              |  soft SUSY breaking masses are given at the scale  |
#              |  Q=  0.91187600E+02
#              |                                                    |
#              ------------------------------------------------------
#
#
BLOCK DCINFO  # Decay Program information
     1   SDECAY/HDECAY # decay calculator
     2   1.5  /3.4    # version number
#
BLOCK SPINFO  # Spectrum calculator information
     1   SuSpect     # RGE +Spectrum calculator            
     2   2.43         # version number                     
#
BLOCK MODSEL  # Model selection
     1     2   # GMSB                                              
#
BLOCK SMINPUTS  # Standard Model inputs
         1     1.27932904E+02   # alpha_em^-1(M_Z)^MSbar
         2     1.16639000E-05   # G_F [GeV^-2]
         3     1.17200000E-01   # alpha_S(M_Z)^MSbar
         4     9.11870000E+01   # M_Z pole mass
         5     4.25000000E+00   # mb(mb)^MSbar
         6     1.72900000E+02   # mt pole mass
         7     1.77700000E+00   # mtau pole mass
#
BLOCK MINPAR  # Input parameters - minimal models
#
BLOCK EXTPAR  # Input parameters - non-minimal models
         0     9.11876000E+01   # EWSB                
         1     1.05200000E+03   # M_1                 
         2     3.00000000E+03   # M_2                 
         3     1.10000000E+03   # M_3                 
        11     0.00000000E+00   # A_t                 
        12     0.00000000E+00   # A_b                 
        13     0.00000000E+00   # A_tau               
        14     0.00000000E+00   # A_u                 
        15     0.00000000E+00   # A_d                 
        16     0.00000000E+00   # A_e                 
        23     1.05000000E+03   # mu(EWSB)            
        25     1.50000000E+00   # tanbeta(in)         
        26     2.00000000E+03   # MA_pole             
        31     5.00000000E+03   # M_eL                
        32     5.00000000E+03   # M_muL               
        33     5.00000000E+03   # M_tauL              
        34     5.00000000E+03   # M_eR                
        35     5.00000000E+03   # M_muR               
        36     5.00000000E+03   # M_tauR              
        41     5.00000000E+03   # M_q1L               
        42     5.00000000E+03   # M_q2L               
        43     5.00000000E+03   # M_q3L               
        44     5.00000000E+03   # M_uR                
        45     5.00000000E+03   # M_cR                
        46     5.00000000E+03   # M_tR                
        47     5.00000000E+03   # M_dR                
        48     5.00000000E+03   # M_sR                
        49     5.00000000E+03   # M_bR                
#
BLOCK MASS  # Mass Spectrum
# PDG code           mass       particle
        24     8.05405960E+01   # W+
        25     1.26000000E+02   # h
        35     2.00408023E+03   # H
        36     2.00000000E+03   # A
        37     2.00155825E+03   # H+
         5     4.87877839E+00   # b-quark pole mass calculated from mb(mb)_Msbar
   1000001     5.01677080E+03   # ~d_L
   2000001     5.01666165E+03   # ~d_R
   1000002     5.01652678E+03   # ~u_L
   2000002     5.01658448E+03   # ~u_R
   1000003     5.01677080E+03   # ~s_L
   2000003     5.01666165E+03   # ~s_R
   1000004     5.01652678E+03   # ~c_L
   2000004     5.01658448E+03   # ~c_R
   1000005     5.01628394E+03   # ~b_1
   2000005     5.01714995E+03   # ~b_2
   1000006     5.13917652E+03   # ~t_1
   2000006     5.43374723E+03   # ~t_2
   1000011     5.00008222E+03   # ~e_L
   2000011     5.00007606E+03   # ~e_R
   1000012     4.99984171E+03   # ~nu_eL
   1000013     5.00008222E+03   # ~mu_L
   2000013     5.00007606E+03   # ~mu_R
   1000014     4.99984171E+03   # ~nu_muL
   1000015     4.99979938E+03   # ~tau_1
   2000015     5.00035953E+03   # ~tau_2
   1000016     4.99984171E+03   # ~nu_tauL
   1000021     1.24135572E+03   # ~g
   1000022     1.07288655E+03   # ~chi_10
   1000023    -1.12034769E+03   # ~chi_20
   1000025     1.16004605E+03   # ~chi_30
   1000035     3.12881411E+03   # ~chi_40
   1000024     1.11731986E+03   # ~chi_1+
   1000037     3.12881277E+03   # ~chi_2+
   1000039     1.85785714E-07   # ~gravitino
#
BLOCK NMIX  # Neutralino Mixing Matrix
  1  1     7.13538176E-01   # N_11
  1  2    -2.64223051E-02   # N_12
  1  3     4.97192088E-01   # N_13
  1  4    -4.92914964E-01   # N_14
  2  1     3.90442064E-03   # N_21
  2  2    -3.65606190E-03   # N_22
  2  3    -7.06953449E-01   # N_23
  2  4    -7.07239853E-01   # N_24
  3  1     7.00604954E-01   # N_31
  3  2     2.81453755E-02   # N_32
  3  3    -5.02400447E-01   # N_33
  3  4     5.05919289E-01   # N_34
  4  1     8.51832022E-04   # N_41
  4  2    -9.99247884E-01   # N_42
  4  3    -2.47111303E-02   # N_43
  4  4     2.98714174E-02   # N_44
#
BLOCK UMIX  # Chargino Mixing Matrix U
  1  1    -3.49286467E-02   # U_11
  1  2     9.99389809E-01   # U_12
  2  1     9.99389809E-01   # U_21
  2  2     3.49286467E-02   # U_22
#
BLOCK VMIX  # Chargino Mixing Matrix V
  1  1    -4.22280504E-02   # V_11
  1  2     9.99107998E-01   # V_12
  2  1     9.99107998E-01   # V_21
  2  2     4.22280504E-02   # V_22
#
BLOCK STOPMIX  # Stop Mixing Matrix
  1  1     9.99988012E-01   # cos(theta_t)
  1  2     4.89651471E-03   # sin(theta_t)
  2  1    -4.89651471E-03   # -sin(theta_t)
  2  2     9.99988012E-01   # cos(theta_t)
#
BLOCK SBOTMIX  # Sbottom Mixing Matrix
  1  1     6.61046645E-01   # cos(theta_b)
  1  2     7.50344809E-01   # sin(theta_b)
  2  1    -7.50344809E-01   # -sin(theta_b)
  2  2     6.61046645E-01   # cos(theta_b)
#
BLOCK STAUMIX  # Stau Mixing Matrix
  1  1     7.03207748E-01   # cos(theta_tau)
  1  2     7.10984432E-01   # sin(theta_tau)
  2  1    -7.10984432E-01   # -sin(theta_tau)
  2  2     7.03207748E-01   # cos(theta_tau)
#
BLOCK ALPHA  # Higgs mixing
          -5.90199152E-01   # Mixing angle in the neutral Higgs boson sector
#
BLOCK HMIX Q=  9.11876000E+01  # DRbar Higgs Parameters
         1     1.05000000E+03   # mu(Q)               
         2     1.49999979E+00   # tanbeta(Q)          
         3     2.52094393E+02   # vev(Q)              
         4     3.53518051E+06   # MA^2(Q)             
#
BLOCK GAUGE Q=  9.11876000E+01  # The gauge couplings
     1     3.52813867E-01   # gprime(Q) DRbar
     2     6.27371936E-01   # g(Q) DRbar
     3     1.09012951E+00   # g3(Q) DRbar
#
BLOCK AU Q=  9.11876000E+01  # The trilinear couplings
  1  1     0.00000000E+00   # A_u(Q) DRbar
  2  2     0.00000000E+00   # A_c(Q) DRbar
  3  3     0.00000000E+00   # A_t(Q) DRbar
#
BLOCK AD Q=  9.11876000E+01  # The trilinear couplings
  1  1     0.00000000E+00   # A_d(Q) DRbar
  2  2     0.00000000E+00   # A_s(Q) DRbar
  3  3     0.00000000E+00   # A_b(Q) DRbar
#
BLOCK AE Q=  9.11876000E+01  # The trilinear couplings
  1  1     0.00000000E+00   # A_e(Q) DRbar
  2  2     0.00000000E+00   # A_mu(Q) DRbar
  3  3     0.00000000E+00   # A_tau(Q) DRbar
#
BLOCK Yu Q=  9.11876000E+01  # The Yukawa couplings
  1  1     0.00000000E+00   # y_u(Q) DRbar
  2  2     0.00000000E+00   # y_c(Q) DRbar
  3  3     1.02500808E+00   # y_t(Q) DRbar
#
BLOCK Yd Q=  9.11876000E+01  # The Yukawa couplings
  1  1     0.00000000E+00   # y_d(Q) DRbar
  2  2     0.00000000E+00   # y_s(Q) DRbar
  3  3     2.71862034E-02   # y_b(Q) DRbar
#
BLOCK Ye Q=  9.11876000E+01  # The Yukawa couplings
  1  1     0.00000000E+00   # y_e(Q) DRbar
  2  2     0.00000000E+00   # y_mu(Q) DRbar
  3  3     1.79831109E-02   # y_tau(Q) DRbar
#
BLOCK MSOFT Q=  9.11876000E+01  # The soft SUSY breaking masses at the scale Q
         1     1.05200000E+03   # M_1                 
         2     3.00000000E+03   # M_2                 
         3     1.10000000E+03   # M_3                 
        14     0.00000000E+00   # A_u                 
        15     0.00000000E+00   # A_d                 
        16     0.00000000E+00   # A_e                 
        21     1.81574287E+06   # M^2_Hd              
        22    -6.51570656E+06   # M^2_Hu              
        31     5.00000000E+03   # M_eL                
        32     5.00000000E+03   # M_muL               
        33     5.00000000E+03   # M_tauL              
        34     5.00000000E+03   # M_eR                
        35     5.00000000E+03   # M_muR               
        36     5.00000000E+03   # M_tauR              
        41     5.00000000E+03   # M_q1L               
        42     5.00000000E+03   # M_q2L               
        43     5.00000000E+03   # M_q3L               
        44     5.00000000E+03   # M_uR                
        45     5.00000000E+03   # M_cR                
        46     5.00000000E+03   # M_tR                
        47     5.00000000E+03   # M_dR                
        48     5.00000000E+03   # M_sR                
        49     5.00000000E+03   # M_bR                
#
#
#
#                             =================
#                             |The decay table|
#                             =================
#
# - The QCD corrections to the decays gluino -> squark  + quark
#                                     squark -> gaugino + quark_prime
#                                     squark -> squark_prime + Higgs
#                                     squark -> gluino  + quark
#   are included.
#
# - The multi-body decays for the inos, stops and sbottoms are included.
#
# - The loop induced decays for the gluino, neutralinos and stops
#   are included.
#
# - The SUSY decays of the top quark are included.
#
# - Possible decays of the NLSP in GMSB models are included.
#
#
#         PDG            Width
DECAY         6     1.37136591E+00   # top decays
#          BR         NDA      ID1       ID2
     1.00000000E+00    2           5        24   # BR(t ->  b    W+)
#
#         PDG            Width
DECAY   1000021     1.06801707E-07   # gluino decays
#          BR         NDA      ID1       ID2
     4.72824066E-01    2     1000022        21   # BR(~g -> ~chi_10 g)
     3.85840686E-01    2     1000023        21   # BR(~g -> ~chi_20 g)
     6.25871401E-02    2     1000025        21   # BR(~g -> ~chi_30 g)
#          BR         NDA      ID1       ID2
     9.20586981E-04    2     1000039        21   # BR(~g -> ~G      g)
#           BR         NDA      ID1       ID2       ID3
     8.27714834E-03    3     1000022         1        -1   # BR(~g -> ~chi_10 d  db)
     1.24588065E-07    3     1000023         1        -1   # BR(~g -> ~chi_20 d  db)
     2.00689861E-04    3     1000025         1        -1   # BR(~g -> ~chi_30 d  db)
     2.53541359E-02    3     1000022         2        -2   # BR(~g -> ~chi_10 u  ub)
     9.97113373E-08    3     1000023         2        -2   # BR(~g -> ~chi_20 u  ub)
     7.59586378E-04    3     1000025         2        -2   # BR(~g -> ~chi_30 u  ub)
     8.27714834E-03    3     1000022         3        -3   # BR(~g -> ~chi_10 s  sb)
     1.24588065E-07    3     1000023         3        -3   # BR(~g -> ~chi_20 s  sb)
     2.00689861E-04    3     1000025         3        -3   # BR(~g -> ~chi_30 s  sb)
     2.53541359E-02    3     1000022         4        -4   # BR(~g -> ~chi_10 c  cb)
     9.97113373E-08    3     1000023         4        -4   # BR(~g -> ~chi_20 c  cb)
     7.59586378E-04    3     1000025         4        -4   # BR(~g -> ~chi_30 c  cb)
     8.13435874E-03    3     1000022         5        -5   # BR(~g -> ~chi_10 b  bb)
     6.46122494E-05    3     1000023         5        -5   # BR(~g -> ~chi_20 b  bb)
     2.10677570E-04    3     1000025         5        -5   # BR(~g -> ~chi_30 b  bb)
     5.85757144E-05    3     1000024         1        -2   # BR(~g -> ~chi_1+ d  ub)
     5.85757144E-05    3    -1000024         2        -1   # BR(~g -> ~chi_1- u  db)
     5.85757144E-05    3     1000024         3        -4   # BR(~g -> ~chi_1+ s  cb)
     5.85757144E-05    3    -1000024         4        -3   # BR(~g -> ~chi_1- c  sb)
#
#         PDG            Width
DECAY   1000006     3.28884014E+02   # stop1 decays
#          BR         NDA      ID1       ID2
     4.98385766E-02    2     1000022         6   # BR(~t_1 -> ~chi_10 t )
     1.01506403E-01    2     1000023         6   # BR(~t_1 -> ~chi_20 t )
     5.33696491E-02    2     1000025         6   # BR(~t_1 -> ~chi_30 t )
     2.36042387E-02    2     1000035         6   # BR(~t_1 -> ~chi_40 t )
     9.70958765E-05    2     1000024         5   # BR(~t_1 -> ~chi_1+ b )
     4.69176759E-02    2     1000037         5   # BR(~t_1 -> ~chi_2+ b )
     7.12522201E-01    2     1000021         6   # BR(~t_1 -> ~g      t )
     5.41784182E-03    2     1000005        24   # BR(~t_1 -> ~b_1    W+)
     6.72631849E-03    2     2000005        24   # BR(~t_1 -> ~b_2    W+)
#
#         PDG            Width
DECAY   2000006     4.01726869E+02   # stop2 decays
#          BR         NDA      ID1       ID2
     5.71804672E-02    2     1000022         6   # BR(~t_2 -> ~chi_10 t )
     8.91110846E-02    2     1000023         6   # BR(~t_2 -> ~chi_20 t )
     5.81152150E-02    2     1000025         6   # BR(~t_2 -> ~chi_30 t )
     3.08765965E-05    2     1000035         6   # BR(~t_2 -> ~chi_40 t )
     1.78481968E-01    2     1000024         5   # BR(~t_2 -> ~chi_1+ b )
     6.22892218E-05    2     1000037         5   # BR(~t_2 -> ~chi_2+ b )
     6.17011863E-01    2     1000021         6   # BR(~t_2 -> ~g      t )
    -1.94125327E-05    2     1000006        25   # BR(~t_2 -> ~t_1    h )
     3.45525244E-06    2     1000006        23   # BR(~t_2 -> ~t_1    Z )
     9.74341905E-06    2     1000005        24   # BR(~t_2 -> ~b_1    W+)
     1.24496319E-05    2     2000005        24   # BR(~t_2 -> ~b_2    W+)
#
#         PDG            Width
DECAY   1000005     2.65057524E+02   # sbottom1 decays
#          BR         NDA      ID1       ID2
     4.21151983E-03    2     1000022         5   # BR(~b_1 -> ~chi_10 b )
     7.35611239E-05    2     1000023         5   # BR(~b_1 -> ~chi_20 b )
     2.34240466E-03    2     1000025         5   # BR(~b_1 -> ~chi_30 b )
     1.08265623E-02    2     1000035         5   # BR(~b_1 -> ~chi_40 b )
     9.63397374E-02    2    -1000024         6   # BR(~b_1 -> ~chi_1- t )
     2.17862856E-02    2    -1000037         6   # BR(~b_1 -> ~chi_2- t )
     8.64419929E-01    2     1000021         5   # BR(~b_1 -> ~g      b )
#
#         PDG            Width
DECAY   2000005     2.82533866E+02   # sbottom2 decays
#          BR         NDA      ID1       ID2
     2.07938925E-03    2     1000022         5   # BR(~b_2 -> ~chi_10 b )
     9.50428431E-05    2     1000023         5   # BR(~b_2 -> ~chi_20 b )
     2.67939955E-03    2     1000025         5   # BR(~b_2 -> ~chi_30 b )
     1.49600811E-02    2     1000035         5   # BR(~b_2 -> ~chi_40 b )
     1.39290951E-01    2    -1000024         6   # BR(~b_2 -> ~chi_1- t )
     3.01094918E-02    2    -1000037         6   # BR(~b_2 -> ~chi_2- t )
     8.10785645E-01    2     1000021         5   # BR(~b_2 -> ~g      b )
#
#         PDG            Width
DECAY   1000002     2.51053052E+02   # sup_L decays
#          BR         NDA      ID1       ID2
     7.93413324E-04    2     1000022         2   # BR(~u_L -> ~chi_10 u)
     5.83768974E-07    2     1000023         2   # BR(~u_L -> ~chi_20 u)
     1.72322258E-03    2     1000025         2   # BR(~u_L -> ~chi_30 u)
     2.82429125E-02    2     1000035         2   # BR(~u_L -> ~chi_40 u)
     2.43623289E-04    2     1000024         1   # BR(~u_L -> ~chi_1+ d)
     5.64881245E-02    2     1000037         1   # BR(~u_L -> ~chi_2+ d)
     9.12508120E-01    2     1000021         2   # BR(~u_L -> ~g      u)
#
#         PDG            Width
DECAY   2000002     2.38735083E+02   # sup_R decays
#          BR         NDA      ID1       ID2
     2.07313454E-02    2     1000022         2   # BR(~u_R -> ~chi_10 u)
     6.15357320E-07    2     1000023         2   # BR(~u_R -> ~chi_20 u)
     1.96634810E-02    2     1000025         2   # BR(~u_R -> ~chi_30 u)
     1.21393438E-08    2     1000035         2   # BR(~u_R -> ~chi_40 u)
     9.59604546E-01    2     1000021         2   # BR(~u_R -> ~g      u)
#
#         PDG            Width
DECAY   1000001     2.51057108E+02   # sdown_L decays
#          BR         NDA      ID1       ID2
     1.76705582E-03    2     1000022         1   # BR(~d_L -> ~chi_10 d)
     1.31457676E-06    2     1000023         1   # BR(~d_L -> ~chi_20 d)
     7.21457451E-04    2     1000025         1   # BR(~d_L -> ~chi_30 d)
     2.82653627E-02    2     1000035         1   # BR(~d_L -> ~chi_40 d)
     1.66685890E-04    2    -1000024         2   # BR(~d_L -> ~chi_1- u)
     5.65287778E-02    2    -1000037         2   # BR(~d_L -> ~chi_2- u)
     9.12549346E-01    2     1000021         1   # BR(~d_L -> ~g      d)
#
#         PDG            Width
DECAY   2000001     2.31506713E+02   # sdown_R decays
#          BR         NDA      ID1       ID2
     5.34475909E-03    2     1000022         1   # BR(~d_R -> ~chi_10 d)
     1.58645639E-07    2     1000023         1   # BR(~d_R -> ~chi_20 d)
     5.06945507E-03    2     1000025         1   # BR(~d_R -> ~chi_30 d)
     3.12976287E-09    2     1000035         1   # BR(~d_R -> ~chi_40 d)
     9.89585624E-01    2     1000021         1   # BR(~d_R -> ~g      d)
#
#         PDG            Width
DECAY   1000004     2.51053052E+02   # scharm_L decays
#          BR         NDA      ID1       ID2
     7.93413324E-04    2     1000022         4   # BR(~c_L -> ~chi_10 c)
     5.83768974E-07    2     1000023         4   # BR(~c_L -> ~chi_20 c)
     1.72322258E-03    2     1000025         4   # BR(~c_L -> ~chi_30 c)
     2.82429125E-02    2     1000035         4   # BR(~c_L -> ~chi_40 c)
     2.43623289E-04    2     1000024         3   # BR(~c_L -> ~chi_1+ s)
     5.64881245E-02    2     1000037         3   # BR(~c_L -> ~chi_2+ s)
     9.12508120E-01    2     1000021         4   # BR(~c_L -> ~g      c)
#
#         PDG            Width
DECAY   2000004     2.38735083E+02   # scharm_R decays
#          BR         NDA      ID1       ID2
     2.07313454E-02    2     1000022         4   # BR(~c_R -> ~chi_10 c)
     6.15357320E-07    2     1000023         4   # BR(~c_R -> ~chi_20 c)
     1.96634810E-02    2     1000025         4   # BR(~c_R -> ~chi_30 c)
     1.21393438E-08    2     1000035         4   # BR(~c_R -> ~chi_40 c)
     9.59604546E-01    2     1000021         4   # BR(~c_R -> ~g      c)
#
#         PDG            Width
DECAY   1000003     2.51057108E+02   # sstrange_L decays
#          BR         NDA      ID1       ID2
     1.76705582E-03    2     1000022         3   # BR(~s_L -> ~chi_10 s)
     1.31457676E-06    2     1000023         3   # BR(~s_L -> ~chi_20 s)
     7.21457451E-04    2     1000025         3   # BR(~s_L -> ~chi_30 s)
     2.82653627E-02    2     1000035         3   # BR(~s_L -> ~chi_40 s)
     1.66685890E-04    2    -1000024         4   # BR(~s_L -> ~chi_1- c)
     5.65287778E-02    2    -1000037         4   # BR(~s_L -> ~chi_2- c)
     9.12549346E-01    2     1000021         3   # BR(~s_L -> ~g      s)
#
#         PDG            Width
DECAY   2000003     2.31506713E+02   # sstrange_R decays
#          BR         NDA      ID1       ID2
     5.34475909E-03    2     1000022         3   # BR(~s_R -> ~chi_10 s)
     1.58645639E-07    2     1000023         3   # BR(~s_R -> ~chi_20 s)
     5.06945507E-03    2     1000025         3   # BR(~s_R -> ~chi_30 s)
     3.12976287E-09    2     1000035         3   # BR(~s_R -> ~chi_40 s)
     9.89585624E-01    2     1000021         3   # BR(~s_R -> ~g      s)
#
#         PDG            Width
DECAY   1000011     2.73747772E+01   # selectron_L decays
#          BR         NDA      ID1       ID2
     9.14423698E-02    2     1000022        11   # BR(~e_L -> ~chi_10 e-)
     1.37576628E-06    2     1000023        11   # BR(~e_L -> ~chi_20 e-)
     1.14087461E-01    2     1000025        11   # BR(~e_L -> ~chi_30 e-)
     2.64078757E-01    2     1000035        11   # BR(~e_L -> ~chi_40 e-)
     1.57498885E-03    2    -1000024        12   # BR(~e_L -> ~chi_1- nu_e)
     5.28815047E-01    2    -1000037        12   # BR(~e_L -> ~chi_2- nu_e)
#
#         PDG            Width
DECAY   2000011     2.23566883E+01   # selectron_R decays
#          BR         NDA      ID1       ID2
     5.13231718E-01    2     1000022        11   # BR(~e_R -> ~chi_10 e-)
     1.52332634E-05    2     1000023        11   # BR(~e_R -> ~chi_20 e-)
     4.86752751E-01    2     1000025        11   # BR(~e_R -> ~chi_30 e-)
     2.97545740E-07    2     1000035        11   # BR(~e_R -> ~chi_40 e-)
#
#         PDG            Width
DECAY   1000013     2.73747772E+01   # smuon_L decays
#          BR         NDA      ID1       ID2
     9.14423698E-02    2     1000022        13   # BR(~mu_L -> ~chi_10 mu-)
     1.37576628E-06    2     1000023        13   # BR(~mu_L -> ~chi_20 mu-)
     1.14087461E-01    2     1000025        13   # BR(~mu_L -> ~chi_30 mu-)
     2.64078757E-01    2     1000035        13   # BR(~mu_L -> ~chi_40 mu-)
     1.57498885E-03    2    -1000024        14   # BR(~mu_L -> ~chi_1- nu_mu)
     5.28815047E-01    2    -1000037        14   # BR(~mu_L -> ~chi_2- nu_mu)
#
#         PDG            Width
DECAY   2000013     2.23566883E+01   # smuon_R decays
#          BR         NDA      ID1       ID2
     5.13231718E-01    2     1000022        13   # BR(~mu_R -> ~chi_10 mu-)
     1.52332634E-05    2     1000023        13   # BR(~mu_R -> ~chi_20 mu-)
     4.86752751E-01    2     1000025        13   # BR(~mu_R -> ~chi_30 mu-)
     2.97545740E-07    2     1000035        13   # BR(~mu_R -> ~chi_40 mu-)
#
#         PDG            Width
DECAY   1000015     2.49141898E+01   # stau_1 decays
#          BR         NDA      ID1       ID2
     2.88958360E-01    2     1000022        15   # BR(~tau_1 -> ~chi_10  tau-)
     4.70985060E-04    2     1000023        15   # BR(~tau_1 -> ~chi_20  tau-)
     2.77856731E-01    2     1000025        15   # BR(~tau_1 -> ~chi_30  tau-)
     1.43164472E-01    2     1000035        15   # BR(~tau_1 -> ~chi_40  tau-)
     2.86319126E-03    2    -1000024        16   # BR(~tau_1 -> ~chi_1-  nu_tau)
     2.86686257E-01    2    -1000037        16   # BR(~tau_1 -> ~chi_2-  nu_tau)
     4.18290399E-09    2     1000039        15   # BR(~tau_1 -> ~G       tau-)
#
#         PDG            Width
DECAY   2000015     2.49043271E+01   # stau_2 decays
#          BR         NDA      ID1       ID2
     2.72748336E-01    2     1000022        15   # BR(~tau_2 -> ~chi_10  tau-)
     7.08741646E-04    2     1000023        15   # BR(~tau_2 -> ~chi_20  tau-)
     2.84983483E-01    2     1000025        15   # BR(~tau_2 -> ~chi_30  tau-)
     1.47054835E-01    2     1000035        15   # BR(~tau_2 -> ~chi_40  tau-)
     3.12036461E-05    2    -1000024        16   # BR(~tau_2 -> ~chi_1-  nu_tau)
     2.94473401E-01    2    -1000037        16   # BR(~tau_2 -> ~chi_2-  nu_tau)
#
#         PDG            Width
DECAY   1000012     2.73750599E+01   # snu_eL decays
#          BR         NDA      ID1       ID2
     1.19033982E-01    2     1000022        12   # BR(~nu_eL -> ~chi_10 nu_e)
     2.20893427E-05    2     1000023        12   # BR(~nu_eL -> ~chi_20 nu_e)
     8.56840738E-02    2     1000025        12   # BR(~nu_eL -> ~chi_30 nu_e)
     2.64537423E-01    2     1000035        12   # BR(~nu_eL -> ~chi_40 nu_e)
     2.30189897E-03    2     1000024        11   # BR(~nu_eL -> ~chi_1+ e-)
     5.28420533E-01    2     1000037        11   # BR(~nu_eL -> ~chi_2+ e-)
#
#         PDG            Width
DECAY   1000014     2.73750599E+01   # snu_muL decays
#          BR         NDA      ID1       ID2
     1.19033982E-01    2     1000022        14   # BR(~nu_muL -> ~chi_10 nu_mu)
     2.20893427E-05    2     1000023        14   # BR(~nu_muL -> ~chi_20 nu_mu)
     8.56840738E-02    2     1000025        14   # BR(~nu_muL -> ~chi_30 nu_mu)
     2.64537423E-01    2     1000035        14   # BR(~nu_muL -> ~chi_40 nu_mu)
     2.30189897E-03    2     1000024        13   # BR(~nu_muL -> ~chi_1+ mu-)
     5.28420533E-01    2     1000037        13   # BR(~nu_muL -> ~chi_2+ mu-)
#
#         PDG            Width
DECAY   1000016     2.74040708E+01   # snu_tauL decays
#          BR         NDA      ID1       ID2
     1.18907968E-01    2     1000022        16   # BR(~nu_tauL -> ~chi_10 nu_tau)
     2.20659581E-05    2     1000023        16   # BR(~nu_tauL -> ~chi_20 nu_tau)
     8.55933656E-02    2     1000025        16   # BR(~nu_tauL -> ~chi_30 nu_tau)
     2.64257374E-01    2     1000035        16   # BR(~nu_tauL -> ~chi_40 nu_tau)
     3.35715352E-03    2     1000024        15   # BR(~nu_tauL -> ~chi_1+ tau-)
     5.27862072E-01    2     1000037        15   # BR(~nu_tauL -> ~chi_2+ tau-)
#
#         PDG            Width
DECAY   1000024     1.08903523E-04   # chargino1+ decays
#          BR         NDA      ID1       ID2
     2.61733022E-07    2     1000039        24   # BR(~chi_1+ -> ~G       W+)
#           BR         NDA      ID1       ID2       ID3
     3.33625491E-01    3     1000022         2        -1   # BR(~chi_1+ -> ~chi_10 u    db)
     3.33625491E-01    3     1000022         4        -3   # BR(~chi_1+ -> ~chi_10 c    sb)
     1.11208628E-01    3     1000022       -11        12   # BR(~chi_1+ -> ~chi_10 e+   nu_e)
     1.11208628E-01    3     1000022       -13        14   # BR(~chi_1+ -> ~chi_10 mu+  nu_mu)
     1.10331500E-01    3     1000022       -15        16   # BR(~chi_1+ -> ~chi_10 tau+ nu_tau)
#
#         PDG            Width
DECAY   1000037     3.73825207E+01   # chargino2+ decays
#          BR         NDA      ID1       ID2
     2.52222659E-01    2     1000024        23   # BR(~chi_2+ -> ~chi_1+  Z )
     1.13968769E-01    2     1000022        24   # BR(~chi_2+ -> ~chi_10  W+)
     2.45566166E-01    2     1000023        24   # BR(~chi_2+ -> ~chi_20  W+)
     1.31903077E-01    2     1000025        24   # BR(~chi_2+ -> ~chi_30  W+)
     2.53247696E-01    2     1000024        25   # BR(~chi_2+ -> ~chi_1+  h )
     6.10295715E-04    2     1000024        35   # BR(~chi_2+ -> ~chi_1+  H )
     8.02507306E-04    2     1000024        36   # BR(~chi_2+ -> ~chi_1+  A )
     1.07575597E-03    2     1000022        37   # BR(~chi_2+ -> ~chi_10  H+)
     6.03073677E-04    2     1000023        37   # BR(~chi_2+ -> ~chi_20  H+)
     2.66672582E-10    2     1000039        24   # BR(~chi_2+ -> ~G       W+)
     2.27014073E-14    2     1000039        37   # BR(~chi_2+ -> ~G       H+)
#
#         PDG            Width
DECAY   1000022     3.52176872E-11   # neutralino1 decays
#          BR         NDA      ID1       ID2
     4.99326421E-01    2     1000039        22   # BR(~chi_10 -> ~G        gam)
     4.89438082E-01    2     1000039        23   # BR(~chi_10 -> ~G        Z)
     1.12354975E-02    2     1000039        25   # BR(~chi_10 -> ~G        h)
#
#         PDG            Width
DECAY   1000023     1.22661446E-04   # neutralino2 decays
#          BR         NDA      ID1       ID2
     1.25467993E-03    2     1000022        22   # BR(~chi_20 -> ~chi_10 gam)
#          BR         NDA      ID1       ID2
     1.24581643E-12    2     1000039        22   # BR(~chi_20 -> ~G        gam)
     9.01821069E-09    2     1000039        23   # BR(~chi_20 -> ~G        Z)
     2.19504564E-07    2     1000039        25   # BR(~chi_20 -> ~G        h)
#           BR         NDA      ID1       ID2       ID3
     1.18596710E-01    3     1000022        -2         2   # BR(~chi_20 -> ~chi_10 ub      u)
     1.53556270E-01    3     1000022        -1         1   # BR(~chi_20 -> ~chi_10 db      d)
     1.18596710E-01    3     1000022        -4         4   # BR(~chi_20 -> ~chi_10 cb      c)
     1.53556270E-01    3     1000022        -3         3   # BR(~chi_20 -> ~chi_10 sb      s)
     1.39520698E-01    3     1000022        -5         5   # BR(~chi_20 -> ~chi_10 bb      b)
     3.50656929E-02    3     1000022       -11        11   # BR(~chi_20 -> ~chi_10 e+      e-)
     3.50656929E-02    3     1000022       -13        13   # BR(~chi_20 -> ~chi_10 mu+     mu-)
     3.47061339E-02    3     1000022       -15        15   # BR(~chi_20 -> ~chi_10 tau+    tau-)
     7.00255799E-02    3     1000022       -12        12   # BR(~chi_20 -> ~chi_10 nu_eb   nu_e)
     7.00255799E-02    3     1000022       -14        14   # BR(~chi_20 -> ~chi_10 nu_mub  nu_mu)
     7.00255799E-02    3     1000022       -16        16   # BR(~chi_20 -> ~chi_10 nu_taub nu_tau)
     7.66193561E-07    3     1000024        -2         1   # BR(~chi_20 -> ~chi_1+ ub      d)
     7.66193561E-07    3    -1000024        -1         2   # BR(~chi_20 -> ~chi_1- db      u)
     7.66193561E-07    3     1000024        -4         3   # BR(~chi_20 -> ~chi_1+ cb      s)
     7.66193561E-07    3    -1000024        -3         4   # BR(~chi_20 -> ~chi_1- sb      c)
     2.55397869E-07    3     1000024       -12        11   # BR(~chi_20 -> ~chi_1+ nu_eb   e-)
     2.55397869E-07    3    -1000024        12       -11   # BR(~chi_20 -> ~chi_1- nu_e    e+)
     2.55397869E-07    3     1000024       -14        13   # BR(~chi_20 -> ~chi_1+ nu_mub  mu-)
     2.55397869E-07    3    -1000024        14       -13   # BR(~chi_20 -> ~chi_1- nu_mu   mu+)
     4.40284715E-08    3     1000024       -16        15   # BR(~chi_20 -> ~chi_1+ nu_taub tau-)
     4.40284715E-08    3    -1000024        16       -15   # BR(~chi_20 -> ~chi_1- nu_tau  tau+)
#
#         PDG            Width
DECAY   1000025     2.33026305E-04   # neutralino3 decays
#          BR         NDA      ID1       ID2
     3.60693651E-04    2     1000022        22   # BR(~chi_30 -> ~chi_10 gam)
     7.90740655E-06    2     1000023        22   # BR(~chi_30 -> ~chi_20 gam)
#          BR         NDA      ID1       ID2
     1.17258200E-07    2     1000039        22   # BR(~chi_30 -> ~G        gam)
     1.01620676E-07    2     1000039        23   # BR(~chi_30 -> ~G        Z)
     2.83976832E-09    2     1000039        25   # BR(~chi_30 -> ~G        h)
#           BR         NDA      ID1       ID2       ID3
     9.20754879E-06    3     1000022        -2         2   # BR(~chi_30 -> ~chi_10 ub      u)
     1.09453025E-05    3     1000022        -1         1   # BR(~chi_30 -> ~chi_10 db      d)
     9.20754879E-06    3     1000022        -4         4   # BR(~chi_30 -> ~chi_10 cb      c)
     1.09453025E-05    3     1000022        -3         3   # BR(~chi_30 -> ~chi_10 sb      s)
     1.70676010E-05    3     1000022        -5         5   # BR(~chi_30 -> ~chi_10 bb      b)
     1.90076232E-06    3     1000022       -11        11   # BR(~chi_30 -> ~chi_10 e+      e-)
     1.90076232E-06    3     1000022       -13        13   # BR(~chi_30 -> ~chi_10 mu+     mu-)
     2.84935054E-06    3     1000022       -15        15   # BR(~chi_30 -> ~chi_10 tau+    tau-)
     5.36318094E-06    3     1000022       -12        12   # BR(~chi_30 -> ~chi_10 nu_eb   nu_e)
     5.36318094E-06    3     1000022       -14        14   # BR(~chi_30 -> ~chi_10 nu_mub  nu_mu)
     5.36318094E-06    3     1000022       -16        16   # BR(~chi_30 -> ~chi_10 nu_taub nu_tau)
     2.53597903E-02    3     1000023        -2         2   # BR(~chi_30 -> ~chi_20 ub      u)
     3.28353214E-02    3     1000023        -1         1   # BR(~chi_30 -> ~chi_20 db      d)
     2.53597903E-02    3     1000023        -4         4   # BR(~chi_30 -> ~chi_20 cb      c)
     3.28353214E-02    3     1000023        -3         3   # BR(~chi_30 -> ~chi_20 sb      s)
     2.86966756E-02    3     1000023        -5         5   # BR(~chi_30 -> ~chi_20 bb      b)
     7.49820585E-03    3     1000023       -11        11   # BR(~chi_30 -> ~chi_20 e+      e-)
     7.49820585E-03    3     1000023       -13        13   # BR(~chi_30 -> ~chi_20 mu+     mu-)
     7.39792167E-03    3     1000023       -15        15   # BR(~chi_30 -> ~chi_20 tau+    tau-)
     1.49736808E-02    3     1000023       -12        12   # BR(~chi_30 -> ~chi_20 nu_eb   nu_e)
     1.49736808E-02    3     1000023       -14        14   # BR(~chi_30 -> ~chi_20 nu_mub  nu_mu)
     1.49736808E-02    3     1000023       -16        16   # BR(~chi_30 -> ~chi_20 nu_taub nu_tau)
     1.31316115E-01    3     1000024        -2         1   # BR(~chi_30 -> ~chi_1+ ub      d)
     1.31316115E-01    3    -1000024        -1         2   # BR(~chi_30 -> ~chi_1- db      u)
     1.31316115E-01    3     1000024        -4         3   # BR(~chi_30 -> ~chi_1+ cb      s)
     1.31316115E-01    3    -1000024        -3         4   # BR(~chi_30 -> ~chi_1- sb      c)
     4.37719728E-02    3     1000024       -12        11   # BR(~chi_30 -> ~chi_1+ nu_eb   e-)
     4.37719728E-02    3    -1000024        12       -11   # BR(~chi_30 -> ~chi_1- nu_e    e+)
     4.37719728E-02    3     1000024       -14        13   # BR(~chi_30 -> ~chi_1+ nu_mub  mu-)
     4.37719728E-02    3    -1000024        14       -13   # BR(~chi_30 -> ~chi_1- nu_mu   mu+)
     4.33982196E-02    3     1000024       -16        15   # BR(~chi_30 -> ~chi_1+ nu_taub tau-)
     4.33982196E-02    3    -1000024        16       -15   # BR(~chi_30 -> ~chi_1- nu_tau  tau+)
#
#         PDG            Width
DECAY   1000035     3.73860060E+01   # neutralino4 decays
#          BR         NDA      ID1       ID2
     1.03907026E-03    2     1000022        23   # BR(~chi_40 -> ~chi_10   Z )
     2.49970055E-01    2     1000023        23   # BR(~chi_40 -> ~chi_20   Z )
     1.18856763E-03    2     1000025        23   # BR(~chi_40 -> ~chi_30   Z )
     2.45540675E-01    2     1000024       -24   # BR(~chi_40 -> ~chi_1+   W-)
     2.45540675E-01    2    -1000024        24   # BR(~chi_40 -> ~chi_1-   W+)
     1.16496222E-01    2     1000022        25   # BR(~chi_40 -> ~chi_10   h )
     7.41993528E-04    2     1000022        35   # BR(~chi_40 -> ~chi_10   H )
     3.07311179E-04    2     1000022        36   # BR(~chi_40 -> ~chi_10   A )
     2.19821586E-03    2     1000023        25   # BR(~chi_40 -> ~chi_20   h )
     1.43841373E-05    2     1000023        35   # BR(~chi_40 -> ~chi_20   H )
     6.38020260E-04    2     1000023        36   # BR(~chi_40 -> ~chi_20   A )
     1.34851188E-01    2     1000025        25   # BR(~chi_40 -> ~chi_30   h )
     7.36811513E-04    2     1000024       -37   # BR(~chi_40 -> ~chi_1+   H-)
     7.36811513E-04    2    -1000024        37   # BR(~chi_40 -> ~chi_1-   H+)
     6.39853446E-11    2     1000039        22   # BR(~chi_40 -> ~G        gam)
     2.02638630E-10    2     1000039        23   # BR(~chi_40 -> ~G        Z)
     1.62726078E-14    2     1000039        25   # BR(~chi_40 -> ~G        h)
     2.23339685E-14    2     1000039        35   # BR(~chi_40 -> ~G        H)
     2.60646702E-16    2     1000039        36   # BR(~chi_40 -> ~G        A)
#
#         PDG            Width
DECAY        25     4.21812150E-03   # h decays
#          BR         NDA      ID1       ID2
     6.01841254E-01    2           5        -5   # BR(h -> b       bb     )
     6.22417388E-02    2         -15        15   # BR(h -> tau+    tau-   )
     2.20308620E-04    2         -13        13   # BR(h -> mu+     mu-    )
     4.66130525E-04    2           3        -3   # BR(h -> s       sb     )
     2.01100493E-02    2           4        -4   # BR(h -> c       cb     )
     6.64115560E-02    2          21        21   # BR(h -> g       g      )
     2.30794194E-03    2          22        22   # BR(h -> gam     gam    )
     1.62669945E-03    2          22        23   # BR(h -> Z       gam    )
     2.16691791E-01    2          24       -24   # BR(h -> W+      W-     )
     2.80825309E-02    2          23        23   # BR(h -> Z       Z      )
#
#         PDG            Width
DECAY        35     3.78110677E+01   # H decays
#          BR         NDA      ID1       ID2
     1.47238982E-03    2           5        -5   # BR(H -> b       bb     )
     2.46431016E-04    2         -15        15   # BR(H -> tau+    tau-   )
     8.71225390E-07    2         -13        13   # BR(H -> mu+     mu-    )
     1.11548147E-06    2           3        -3   # BR(H -> s       sb     )
     1.00667813E-05    2           4        -4   # BR(H -> c       cb     )
     9.96063386E-01    2           6        -6   # BR(H -> t       tb     )
     7.97752916E-04    2          21        21   # BR(H -> g       g      )
     2.70805991E-06    2          22        22   # BR(H -> gam     gam    )
     1.15987136E-06    2          23        22   # BR(H -> Z       gam    )
     3.33781361E-04    2          24       -24   # BR(H -> W+      W-     )
     1.66435492E-04    2          23        23   # BR(H -> Z       Z      )
     9.03902066E-04    2          25        25   # BR(H -> h       h      )
     8.05909683E-24    2          36        36   # BR(H -> A       A      )
     3.22725286E-11    2          23        36   # BR(H -> Z       A      )
     7.09413843E-12    2          24       -37   # BR(H -> W+      H-     )
     7.09413843E-12    2         -24        37   # BR(H -> W-      H+     )
#
#         PDG            Width
DECAY        36     3.82382499E+01   # A decays
#          BR         NDA      ID1       ID2
     1.47526271E-03    2           5        -5   # BR(A -> b       bb     )
     2.43897574E-04    2         -15        15   # BR(A -> tau+    tau-   )
     8.62266032E-07    2         -13        13   # BR(A -> mu+     mu-    )
     1.13677328E-06    2           3        -3   # BR(A -> s       sb     )
     9.96175886E-06    2           4        -4   # BR(A -> c       cb     )
     9.96995395E-01    2           6        -6   # BR(A -> t       tb     )
     9.43675082E-04    2          21        21   # BR(A -> g       g      )
     3.21135207E-06    2          22        22   # BR(A -> gam     gam    )
     1.35243151E-06    2          23        22   # BR(A -> Z       gam    )
     3.25245289E-04    2          23        25   # BR(A -> Z       h      )
#
#         PDG            Width
DECAY        37     3.74481191E+01   # H+ decays
#          BR         NDA      ID1       ID2
     2.36707052E-06    2           4        -5   # BR(H+ -> c       bb     )
     2.49237690E-04    2         -15        16   # BR(H+ -> tau+    nu_tau )
     8.81145268E-07    2         -13        14   # BR(H+ -> mu+     nu_mu  )
     1.50493653E-08    2           2        -5   # BR(H+ -> u       bb     )
     5.45692720E-08    2           2        -3   # BR(H+ -> u       sb     )
     1.08731343E-05    2           4        -3   # BR(H+ -> c       sb     )
     9.99403215E-01    2           6        -5   # BR(H+ -> t       bb     )
     3.33356536E-04    2          24        25   # BR(H+ -> W+      h      )
     3.22627076E-13    2          24        36   # BR(H+ -> W+      A      )
