#
#                              ======================
#                              | THE SUSYHIT OUTPUT |
#                              ======================
#
#
#              ------------------------------------------------------
#              |     This is the output of the SUSY-HIT package     |
#              |  created by A.Djouadi, M.Muehlleitner and M.Spira. |
#              |  In case of problems with SUSY-HIT email to        |
#              |           margarete.muehlleitner@kit.edu           |
#              |           michael.spira@psi.ch                     |
#              |           abdelhak.djouadi@cern.ch                 |
#              ------------------------------------------------------
#
#              ------------------------------------------------------
#              |  SUSY Les Houches Accord - MSSM Spectrum + Decays  |
#              |              based on the decay programs           |
#              |                                                    |
#              |                     SDECAY 1.5                     |
#              |                                                    |
#              |  Authors: M.Muhlleitner, A.Djouadi and Y.Mambrini  |
#              |  Ref.:    Comput.Phys.Commun.168(2005)46           |
#              |           [hep-ph/0311167]                         |
#              |                                                    |
#              |                     HDECAY 3.4                     |
#              |                                                    |
#              |  By: A.Djouadi,J.Kalinowski,M.Muhlleitner,M.Spira  |
#              |  Ref.:    Comput.Phys.Commun.108(1998)56           |
#              |           [hep-ph/9704448]                         |
#              |                                                    |
#              |                                                    |
#              |  If not stated otherwise all DRbar couplings and   |
#              |  soft SUSY breaking masses are given at the scale  |
#              |  Q=  0.91187600E+02
#              |                                                    |
#              ------------------------------------------------------
#
#
BLOCK DCINFO  # Decay Program information
     1   SDECAY/HDECAY # decay calculator
     2   1.5  /3.4    # version number
#
BLOCK SPINFO  # Spectrum calculator information
     1   SuSpect     # RGE +Spectrum calculator            
     2   2.43         # version number                     
#
BLOCK MODSEL  # Model selection
     1     2   # GMSB                                              
#
BLOCK SMINPUTS  # Standard Model inputs
         1     1.27932904E+02   # alpha_em^-1(M_Z)^MSbar
         2     1.16639000E-05   # G_F [GeV^-2]
         3     1.17200000E-01   # alpha_S(M_Z)^MSbar
         4     9.11870000E+01   # M_Z pole mass
         5     4.25000000E+00   # mb(mb)^MSbar
         6     1.72900000E+02   # mt pole mass
         7     1.77700000E+00   # mtau pole mass
#
BLOCK MINPAR  # Input parameters - minimal models
#
BLOCK EXTPAR  # Input parameters - non-minimal models
         0     9.11876000E+01   # EWSB                
         1     1.05200000E+03   # M_1                 
         2     3.00000000E+03   # M_2                 
         3     1.80000000E+03   # M_3                 
        11     0.00000000E+00   # A_t                 
        12     0.00000000E+00   # A_b                 
        13     0.00000000E+00   # A_tau               
        14     0.00000000E+00   # A_u                 
        15     0.00000000E+00   # A_d                 
        16     0.00000000E+00   # A_e                 
        23     1.05000000E+03   # mu(EWSB)            
        25     1.50000000E+00   # tanbeta(in)         
        26     2.00000000E+03   # MA_pole             
        31     5.00000000E+03   # M_eL                
        32     5.00000000E+03   # M_muL               
        33     5.00000000E+03   # M_tauL              
        34     5.00000000E+03   # M_eR                
        35     5.00000000E+03   # M_muR               
        36     5.00000000E+03   # M_tauR              
        41     5.00000000E+03   # M_q1L               
        42     5.00000000E+03   # M_q2L               
        43     5.00000000E+03   # M_q3L               
        44     5.00000000E+03   # M_uR                
        45     5.00000000E+03   # M_cR                
        46     5.00000000E+03   # M_tR                
        47     5.00000000E+03   # M_dR                
        48     5.00000000E+03   # M_sR                
        49     5.00000000E+03   # M_bR                
#
BLOCK MASS  # Mass Spectrum
# PDG code           mass       particle
        24     8.05405918E+01   # W+
        25     1.26000000E+02   # h
        35     2.00408732E+03   # H
        36     2.00000000E+03   # A
        37     2.00156231E+03   # H+
         5     4.87877839E+00   # b-quark pole mass calculated from mb(mb)_Msbar
   1000001     4.96252853E+03   # ~d_L
   2000001     4.96241863E+03   # ~d_R
   1000002     4.96228283E+03   # ~u_L
   2000002     4.96234093E+03   # ~u_R
   1000003     4.96252853E+03   # ~s_L
   2000003     4.96241863E+03   # ~s_R
   1000004     4.96228283E+03   # ~c_L
   2000004     4.96234093E+03   # ~c_R
   1000005     4.96203835E+03   # ~b_1
   2000005     4.96291025E+03   # ~b_2
   1000006     5.08661101E+03   # ~t_1
   2000006     5.38416724E+03   # ~t_2
   1000011     5.00008223E+03   # ~e_L
   2000011     5.00007607E+03   # ~e_R
   1000012     4.99984170E+03   # ~nu_eL
   1000013     5.00008223E+03   # ~mu_L
   2000013     5.00007607E+03   # ~mu_R
   1000014     4.99984170E+03   # ~nu_muL
   1000015     4.99979938E+03   # ~tau_1
   2000015     5.00035953E+03   # ~tau_2
   1000016     4.99984170E+03   # ~nu_tauL
   1000021     1.88524209E+03   # ~g
   1000022     1.07294372E+03   # ~chi_10
   1000023    -1.12046645E+03   # ~chi_20
   1000025     1.16010740E+03   # ~chi_30
   1000035     3.12881486E+03   # ~chi_40
   1000024     1.11743830E+03   # ~chi_1+
   1000037     3.12881353E+03   # ~chi_2+
   1000039     1.39821429E-07   # ~gravitino
#
BLOCK NMIX  # Neutralino Mixing Matrix
  1  1     7.14013464E-01   # N_11
  1  2    -2.64053638E-02   # N_12
  1  3     4.96850906E-01   # N_13
  1  4    -4.92571525E-01   # N_14
  2  1     3.90430002E-03   # N_21
  2  2    -3.65604570E-03   # N_22
  2  3    -7.06953463E-01   # N_23
  2  4    -7.07239840E-01   # N_24
  3  1     7.00120564E-01   # N_31
  3  2     2.81656322E-02   # N_32
  3  3    -5.02737731E-01   # N_33
  3  4     5.06253559E-01   # N_34
  4  1     8.51919617E-04   # N_41
  4  2    -9.99247761E-01   # N_42
  4  3    -2.47133912E-02   # N_43
  4  4     2.98736552E-02   # N_44
#
BLOCK UMIX  # Chargino Mixing Matrix U
  1  1    -3.49318408E-02   # U_11
  1  2     9.99389697E-01   # U_12
  2  1     9.99389697E-01   # U_21
  2  2     3.49318408E-02   # U_22
#
BLOCK VMIX  # Chargino Mixing Matrix V
  1  1    -4.22312119E-02   # V_11
  1  2     9.99107864E-01   # V_12
  2  1     9.99107864E-01   # V_21
  2  2     4.22312119E-02   # V_22
#
BLOCK STOPMIX  # Stop Mixing Matrix
  1  1     9.99997919E-01   # cos(theta_t)
  1  2    -2.04009698E-03   # sin(theta_t)
  2  1     2.04009698E-03   # -sin(theta_t)
  2  2     9.99997919E-01   # cos(theta_t)
#
BLOCK SBOTMIX  # Sbottom Mixing Matrix
  1  1     6.61042318E-01   # cos(theta_b)
  1  2     7.50348622E-01   # sin(theta_b)
  2  1    -7.50348622E-01   # -sin(theta_b)
  2  2     6.61042318E-01   # cos(theta_b)
#
BLOCK STAUMIX  # Stau Mixing Matrix
  1  1     7.03207360E-01   # cos(theta_tau)
  1  2     7.10984816E-01   # sin(theta_tau)
  2  1    -7.10984816E-01   # -sin(theta_tau)
  2  2     7.03207360E-01   # cos(theta_tau)
#
BLOCK ALPHA  # Higgs mixing
          -5.90206630E-01   # Mixing angle in the neutral Higgs boson sector
#
BLOCK HMIX Q=  9.11876000E+01  # DRbar Higgs Parameters
         1     1.05000000E+03   # mu(Q)               
         2     1.49999979E+00   # tanbeta(Q)          
         3     2.52099881E+02   # vev(Q)              
         4     3.50269985E+06   # MA^2(Q)             
#
BLOCK GAUGE Q=  9.11876000E+01  # The gauge couplings
     1     3.52814074E-01   # gprime(Q) DRbar
     2     6.27373172E-01   # g(Q) DRbar
     3     1.08213374E+00   # g3(Q) DRbar
#
BLOCK AU Q=  9.11876000E+01  # The trilinear couplings
  1  1     0.00000000E+00   # A_u(Q) DRbar
  2  2     0.00000000E+00   # A_c(Q) DRbar
  3  3     0.00000000E+00   # A_t(Q) DRbar
#
BLOCK AD Q=  9.11876000E+01  # The trilinear couplings
  1  1     0.00000000E+00   # A_d(Q) DRbar
  2  2     0.00000000E+00   # A_s(Q) DRbar
  3  3     0.00000000E+00   # A_b(Q) DRbar
#
BLOCK AE Q=  9.11876000E+01  # The trilinear couplings
  1  1     0.00000000E+00   # A_e(Q) DRbar
  2  2     0.00000000E+00   # A_mu(Q) DRbar
  3  3     0.00000000E+00   # A_tau(Q) DRbar
#
BLOCK Yu Q=  9.11876000E+01  # The Yukawa couplings
  1  1     0.00000000E+00   # y_u(Q) DRbar
  2  2     0.00000000E+00   # y_c(Q) DRbar
  3  3     1.02578329E+00   # y_t(Q) DRbar
#
BLOCK Yd Q=  9.11876000E+01  # The Yukawa couplings
  1  1     0.00000000E+00   # y_d(Q) DRbar
  2  2     0.00000000E+00   # y_s(Q) DRbar
  3  3     2.71844033E-02   # y_b(Q) DRbar
#
BLOCK Ye Q=  9.11876000E+01  # The Yukawa couplings
  1  1     0.00000000E+00   # y_e(Q) DRbar
  2  2     0.00000000E+00   # y_mu(Q) DRbar
  3  3     1.79827077E-02   # y_tau(Q) DRbar
#
BLOCK MSOFT Q=  9.11876000E+01  # The soft SUSY breaking masses at the scale Q
         1     1.05200000E+03   # M_1                 
         2     3.00000000E+03   # M_2                 
         3     1.80000000E+03   # M_3                 
        14     0.00000000E+00   # A_u                 
        15     0.00000000E+00   # A_d                 
        16     0.00000000E+00   # A_e                 
        21     1.81553749E+06   # M^2_Hd              
        22    -6.45701642E+06   # M^2_Hu              
        31     5.00000000E+03   # M_eL                
        32     5.00000000E+03   # M_muL               
        33     5.00000000E+03   # M_tauL              
        34     5.00000000E+03   # M_eR                
        35     5.00000000E+03   # M_muR               
        36     5.00000000E+03   # M_tauR              
        41     5.00000000E+03   # M_q1L               
        42     5.00000000E+03   # M_q2L               
        43     5.00000000E+03   # M_q3L               
        44     5.00000000E+03   # M_uR                
        45     5.00000000E+03   # M_cR                
        46     5.00000000E+03   # M_tR                
        47     5.00000000E+03   # M_dR                
        48     5.00000000E+03   # M_sR                
        49     5.00000000E+03   # M_bR                
#
#
#
#                             =================
#                             |The decay table|
#                             =================
#
# - The QCD corrections to the decays gluino -> squark  + quark
#                                     squark -> gaugino + quark_prime
#                                     squark -> squark_prime + Higgs
#                                     squark -> gluino  + quark
#   are included.
#
# - The multi-body decays for the inos, stops and sbottoms are included.
#
# - The loop induced decays for the gluino, neutralinos and stops
#   are included.
#
# - The SUSY decays of the top quark are included.
#
# - Possible decays of the NLSP in GMSB models are included.
#
#
#         PDG            Width
DECAY         6     1.37137149E+00   # top decays
#          BR         NDA      ID1       ID2
     1.00000000E+00    2           5        24   # BR(t ->  b    W+)
#
#         PDG            Width
DECAY   1000021     1.79645629E-04   # gluino decays
#          BR         NDA      ID1       ID2
     2.03167254E-02    2     1000022        21   # BR(~g -> ~chi_10 g)
     3.64281963E-02    2     1000023        21   # BR(~g -> ~chi_20 g)
     1.62204796E-02    2     1000025        21   # BR(~g -> ~chi_30 g)
#          BR         NDA      ID1       ID2
     7.80652795E-06    2     1000039        21   # BR(~g -> ~G      g)
#           BR         NDA      ID1       ID2       ID3
     8.12254937E-03    3     1000022         1        -1   # BR(~g -> ~chi_10 d  db)
     5.08982511E-07    3     1000023         1        -1   # BR(~g -> ~chi_20 d  db)
     4.20602448E-03    3     1000025         1        -1   # BR(~g -> ~chi_30 d  db)
     2.48841593E-02    3     1000022         2        -2   # BR(~g -> ~chi_10 u  ub)
     4.07354891E-07    3     1000023         2        -2   # BR(~g -> ~chi_20 u  ub)
     1.59216757E-02    3     1000025         2        -2   # BR(~g -> ~chi_30 u  ub)
     8.12254937E-03    3     1000022         3        -3   # BR(~g -> ~chi_10 s  sb)
     5.08982511E-07    3     1000023         3        -3   # BR(~g -> ~chi_20 s  sb)
     4.20602448E-03    3     1000025         3        -3   # BR(~g -> ~chi_30 s  sb)
     2.48841593E-02    3     1000022         4        -4   # BR(~g -> ~chi_10 c  cb)
     4.07354891E-07    3     1000023         4        -4   # BR(~g -> ~chi_20 c  cb)
     1.59216757E-02    3     1000025         4        -4   # BR(~g -> ~chi_30 c  cb)
     8.22656231E-03    3     1000022         5        -5   # BR(~g -> ~chi_10 b  bb)
     2.52450182E-04    3     1000023         5        -5   # BR(~g -> ~chi_20 b  bb)
     4.33791731E-03    3     1000025         5        -5   # BR(~g -> ~chi_30 b  bb)
     1.04668823E-01    3     1000022         6        -6   # BR(~g -> ~chi_10 t  tb)
     1.40835797E-01    3     1000023         6        -6   # BR(~g -> ~chi_20 t  tb)
     9.20646945E-02    3     1000025         6        -6   # BR(~g -> ~chi_30 t  tb)
     1.99203035E-04    3     1000024         1        -2   # BR(~g -> ~chi_1+ d  ub)
     1.99203035E-04    3    -1000024         2        -1   # BR(~g -> ~chi_1- u  db)
     1.99203035E-04    3     1000024         3        -4   # BR(~g -> ~chi_1+ s  cb)
     1.99203035E-04    3    -1000024         4        -3   # BR(~g -> ~chi_1- c  sb)
     2.34786543E-01    3     1000024         5        -6   # BR(~g -> ~chi_1+ b  tb)
     2.34786543E-01    3    -1000024         6        -5   # BR(~g -> ~chi_1- t  bb)
#
#         PDG            Width
DECAY   1000006     2.91054707E+02   # stop1 decays
#          BR         NDA      ID1       ID2
     5.50372072E-02    2     1000022         6   # BR(~t_1 -> ~chi_10 t )
     1.13563073E-01    2     1000023         6   # BR(~t_1 -> ~chi_20 t )
     6.04442494E-02    2     1000025         6   # BR(~t_1 -> ~chi_30 t )
     2.58246412E-02    2     1000035         6   # BR(~t_1 -> ~chi_40 t )
    -1.08951050E-05    2     1000024         5   # BR(~t_1 -> ~chi_1+ b )
     5.13357334E-02    2     1000037         5   # BR(~t_1 -> ~chi_2+ b )
     6.78870330E-01    2     1000021         6   # BR(~t_1 -> ~g      t )
     6.65930656E-03    2     1000005        24   # BR(~t_1 -> ~b_1    W+)
     8.27635464E-03    2     2000005        24   # BR(~t_1 -> ~b_2    W+)
#
#         PDG            Width
DECAY   2000006     3.66326433E+02   # stop2 decays
#          BR         NDA      ID1       ID2
     6.27657750E-02    2     1000022         6   # BR(~t_2 -> ~chi_10 t )
     9.71388952E-02    2     1000023         6   # BR(~t_2 -> ~chi_20 t )
     6.27287456E-02    2     1000025         6   # BR(~t_2 -> ~chi_30 t )
    -2.49036110E-06    2     1000035         6   # BR(~t_2 -> ~chi_40 t )
     1.94591441E-01    2     1000024         5   # BR(~t_2 -> ~chi_1+ b )
    -4.41411763E-06    2     1000037         5   # BR(~t_2 -> ~chi_2+ b )
     5.82868346E-01    2     1000021         6   # BR(~t_2 -> ~g      t )
    -8.83257425E-05    2     1000006        25   # BR(~t_2 -> ~t_1    h )
     4.83607950E-07    2     1000006        23   # BR(~t_2 -> ~t_1    Z )
     6.71170020E-07    2     1000005        24   # BR(~t_2 -> ~b_1    W+)
     8.73408121E-07    2     2000005        24   # BR(~t_2 -> ~b_2    W+)
#
#         PDG            Width
DECAY   1000005     2.25975547E+02   # sbottom1 decays
#          BR         NDA      ID1       ID2
     4.90396593E-03    2     1000022         5   # BR(~b_1 -> ~chi_10 b )
     8.53486222E-05    2     1000023         5   # BR(~b_1 -> ~chi_20 b )
     2.74357667E-03    2     1000025         5   # BR(~b_1 -> ~chi_30 b )
     1.19506956E-02    2     1000035         5   # BR(~b_1 -> ~chi_40 b )
     1.08134675E-01    2    -1000024         6   # BR(~b_1 -> ~chi_1- t )
     2.40447436E-02    2    -1000037         6   # BR(~b_1 -> ~chi_2- t )
     8.48136995E-01    2     1000021         5   # BR(~b_1 -> ~g      b )
#
#         PDG            Width
DECAY   2000005     2.45102116E+02   # sbottom2 decays
#          BR         NDA      ID1       ID2
     2.33733863E-03    2     1000022         5   # BR(~b_2 -> ~chi_10 b )
     1.08174848E-04    2     1000023         5   # BR(~b_2 -> ~chi_20 b )
     3.00126952E-03    2     1000025         5   # BR(~b_2 -> ~chi_30 b )
     1.68607309E-02    2     1000035         5   # BR(~b_2 -> ~chi_40 b )
     1.62240570E-01    2    -1000024         6   # BR(~b_2 -> ~chi_1- t )
     3.39327644E-02    2    -1000037         6   # BR(~b_2 -> ~chi_2- t )
     7.81519151E-01    2     1000021         5   # BR(~b_2 -> ~g      b )
#
#         PDG            Width
DECAY   1000002     2.12758664E+02   # sup_L decays
#          BR         NDA      ID1       ID2
     9.24420502E-04    2     1000022         2   # BR(~u_L -> ~chi_10 u)
     6.78720387E-07    2     1000023         2   # BR(~u_L -> ~chi_20 u)
     2.00149214E-03    2     1000025         2   # BR(~u_L -> ~chi_30 u)
     3.20896153E-02    2     1000035         2   # BR(~u_L -> ~chi_40 u)
     2.83292832E-04    2     1000024         1   # BR(~u_L -> ~chi_1+ d)
     6.41818458E-02    2     1000037         1   # BR(~u_L -> ~chi_2+ d)
     9.00518655E-01    2     1000021         2   # BR(~u_L -> ~g      u)
#
#         PDG            Width
DECAY   2000002     2.01099268E+02   # sup_R decays
#          BR         NDA      ID1       ID2
     2.42854543E-02    2     1000022         2   # BR(~u_R -> ~chi_10 u)
     7.19738405E-07    2     1000023         2   # BR(~u_R -> ~chi_20 u)
     2.29659245E-02    2     1000025         2   # BR(~u_R -> ~chi_30 u)
     1.38792740E-08    2     1000035         2   # BR(~u_R -> ~chi_40 u)
     9.52747888E-01    2     1000021         2   # BR(~u_R -> ~g      u)
#
#         PDG            Width
DECAY   1000001     2.12764558E+02   # sdown_L decays
#          BR         NDA      ID1       ID2
     2.05660074E-03    2     1000022         1   # BR(~d_L -> ~chi_10 d)
     1.52834497E-06    2     1000023         1   # BR(~d_L -> ~chi_20 d)
     8.36887937E-04    2     1000025         1   # BR(~d_L -> ~chi_30 d)
     3.21149953E-02    2     1000035         1   # BR(~d_L -> ~chi_40 d)
     1.93832085E-04    2    -1000024         2   # BR(~d_L -> ~chi_1- u)
     6.42277791E-02    2    -1000037         2   # BR(~d_L -> ~chi_2- u)
     9.00568376E-01    2     1000021         1   # BR(~d_L -> ~g      d)
#
#         PDG            Width
DECAY   2000001     1.93977563E+02   # sdown_R decays
#          BR         NDA      ID1       ID2
     6.29438664E-03    2     1000022         1   # BR(~d_R -> ~chi_10 d)
     1.86544302E-07    2     1000023         1   # BR(~d_R -> ~chi_20 d)
     5.95238965E-03    2     1000025         1   # BR(~d_R -> ~chi_30 d)
     3.59741329E-09    2     1000035         1   # BR(~d_R -> ~chi_40 d)
     9.87753034E-01    2     1000021         1   # BR(~d_R -> ~g      d)
#
#         PDG            Width
DECAY   1000004     2.12758664E+02   # scharm_L decays
#          BR         NDA      ID1       ID2
     9.24420502E-04    2     1000022         4   # BR(~c_L -> ~chi_10 c)
     6.78720387E-07    2     1000023         4   # BR(~c_L -> ~chi_20 c)
     2.00149214E-03    2     1000025         4   # BR(~c_L -> ~chi_30 c)
     3.20896153E-02    2     1000035         4   # BR(~c_L -> ~chi_40 c)
     2.83292832E-04    2     1000024         3   # BR(~c_L -> ~chi_1+ s)
     6.41818458E-02    2     1000037         3   # BR(~c_L -> ~chi_2+ s)
     9.00518655E-01    2     1000021         4   # BR(~c_L -> ~g      c)
#
#         PDG            Width
DECAY   2000004     2.01099268E+02   # scharm_R decays
#          BR         NDA      ID1       ID2
     2.42854543E-02    2     1000022         4   # BR(~c_R -> ~chi_10 c)
     7.19738405E-07    2     1000023         4   # BR(~c_R -> ~chi_20 c)
     2.29659245E-02    2     1000025         4   # BR(~c_R -> ~chi_30 c)
     1.38792740E-08    2     1000035         4   # BR(~c_R -> ~chi_40 c)
     9.52747888E-01    2     1000021         4   # BR(~c_R -> ~g      c)
#
#         PDG            Width
DECAY   1000003     2.12764558E+02   # sstrange_L decays
#          BR         NDA      ID1       ID2
     2.05660074E-03    2     1000022         3   # BR(~s_L -> ~chi_10 s)
     1.52834497E-06    2     1000023         3   # BR(~s_L -> ~chi_20 s)
     8.36887937E-04    2     1000025         3   # BR(~s_L -> ~chi_30 s)
     3.21149953E-02    2     1000035         3   # BR(~s_L -> ~chi_40 s)
     1.93832085E-04    2    -1000024         4   # BR(~s_L -> ~chi_1- c)
     6.42277791E-02    2    -1000037         4   # BR(~s_L -> ~chi_2- c)
     9.00568376E-01    2     1000021         3   # BR(~s_L -> ~g      s)
#
#         PDG            Width
DECAY   2000003     1.93977563E+02   # sstrange_R decays
#          BR         NDA      ID1       ID2
     6.29438664E-03    2     1000022         3   # BR(~s_R -> ~chi_10 s)
     1.86544302E-07    2     1000023         3   # BR(~s_R -> ~chi_20 s)
     5.95238965E-03    2     1000025         3   # BR(~s_R -> ~chi_30 s)
     3.59741329E-09    2     1000035         3   # BR(~s_R -> ~chi_40 s)
     9.87753034E-01    2     1000021         3   # BR(~s_R -> ~g      s)
#
#         PDG            Width
DECAY   1000011     2.73748618E+01   # selectron_L decays
#          BR         NDA      ID1       ID2
     9.15799588E-02    2     1000022        11   # BR(~e_L -> ~chi_10 e-)
     1.37583962E-06    2     1000023        11   # BR(~e_L -> ~chi_20 e-)
     1.13949643E-01    2     1000025        11   # BR(~e_L -> ~chi_30 e-)
     2.64078729E-01    2     1000035        11   # BR(~e_L -> ~chi_40 e-)
     1.57524315E-03    2    -1000024        12   # BR(~e_L -> ~chi_1- nu_e)
     5.28815050E-01    2    -1000037        12   # BR(~e_L -> ~chi_2- nu_e)
#
#         PDG            Width
DECAY   2000011     2.23567142E+01   # selectron_R decays
#          BR         NDA      ID1       ID2
     5.13910397E-01    2     1000022        11   # BR(~e_R -> ~chi_10 e-)
     1.52319811E-05    2     1000023        11   # BR(~e_R -> ~chi_20 e-)
     4.86074074E-01    2     1000025        11   # BR(~e_R -> ~chi_30 e-)
     2.97606761E-07    2     1000035        11   # BR(~e_R -> ~chi_40 e-)
#
#         PDG            Width
DECAY   1000013     2.73748618E+01   # smuon_L decays
#          BR         NDA      ID1       ID2
     9.15799588E-02    2     1000022        13   # BR(~mu_L -> ~chi_10 mu-)
     1.37583962E-06    2     1000023        13   # BR(~mu_L -> ~chi_20 mu-)
     1.13949643E-01    2     1000025        13   # BR(~mu_L -> ~chi_30 mu-)
     2.64078729E-01    2     1000035        13   # BR(~mu_L -> ~chi_40 mu-)
     1.57524315E-03    2    -1000024        14   # BR(~mu_L -> ~chi_1- nu_mu)
     5.28815050E-01    2    -1000037        14   # BR(~mu_L -> ~chi_2- nu_mu)
#
#         PDG            Width
DECAY   2000013     2.23567142E+01   # smuon_R decays
#          BR         NDA      ID1       ID2
     5.13910397E-01    2     1000022        13   # BR(~mu_R -> ~chi_10 mu-)
     1.52319811E-05    2     1000023        13   # BR(~mu_R -> ~chi_20 mu-)
     4.86074074E-01    2     1000025        13   # BR(~mu_R -> ~chi_30 mu-)
     2.97606761E-07    2     1000035        13   # BR(~mu_R -> ~chi_40 mu-)
#
#         PDG            Width
DECAY   1000015     2.49142402E+01   # stau_1 decays
#          BR         NDA      ID1       ID2
     2.89339794E-01    2     1000022        15   # BR(~tau_1 -> ~chi_10  tau-)
     4.70951321E-04    2     1000023        15   # BR(~tau_1 -> ~chi_20  tau-)
     2.77475254E-01    2     1000025        15   # BR(~tau_1 -> ~chi_30  tau-)
     1.43164431E-01    2     1000035        15   # BR(~tau_1 -> ~chi_40  tau-)
     2.86335527E-03    2    -1000024        16   # BR(~tau_1 -> ~chi_1-  nu_tau)
     2.86686207E-01    2    -1000037        16   # BR(~tau_1 -> ~chi_2-  nu_tau)
     7.38506259E-09    2     1000039        15   # BR(~tau_1 -> ~G       tau-)
#
#         PDG            Width
DECAY   2000015     2.49043812E+01   # stau_2 decays
#          BR         NDA      ID1       ID2
     2.73126075E-01    2     1000022        15   # BR(~tau_2 -> ~chi_10  tau-)
     7.08693565E-04    2     1000023        15   # BR(~tau_2 -> ~chi_20  tau-)
     2.84604831E-01    2     1000025        15   # BR(~tau_2 -> ~chi_30  tau-)
     1.47055132E-01    2     1000035        15   # BR(~tau_2 -> ~chi_40  tau-)
     3.12401358E-05    2    -1000024        16   # BR(~tau_2 -> ~chi_1-  nu_tau)
     2.94474028E-01    2    -1000037        16   # BR(~tau_2 -> ~chi_2-  nu_tau)
#
#         PDG            Width
DECAY   1000012     2.73751445E+01   # snu_eL decays
#          BR         NDA      ID1       ID2
     1.19171938E-01    2     1000022        12   # BR(~nu_eL -> ~chi_10 nu_e)
     2.20882089E-05    2     1000023        12   # BR(~nu_eL -> ~chi_20 nu_e)
     8.55458311E-02    2     1000025        12   # BR(~nu_eL -> ~chi_30 nu_e)
     2.64537443E-01    2     1000035        12   # BR(~nu_eL -> ~chi_40 nu_e)
     2.30219429E-03    2     1000024        11   # BR(~nu_eL -> ~chi_1+ e-)
     5.28420505E-01    2     1000037        11   # BR(~nu_eL -> ~chi_2+ e-)
#
#         PDG            Width
DECAY   1000014     2.73751445E+01   # snu_muL decays
#          BR         NDA      ID1       ID2
     1.19171938E-01    2     1000022        14   # BR(~nu_muL -> ~chi_10 nu_mu)
     2.20882089E-05    2     1000023        14   # BR(~nu_muL -> ~chi_20 nu_mu)
     8.55458311E-02    2     1000025        14   # BR(~nu_muL -> ~chi_30 nu_mu)
     2.64537443E-01    2     1000035        14   # BR(~nu_muL -> ~chi_40 nu_mu)
     2.30219429E-03    2     1000024        13   # BR(~nu_muL -> ~chi_1+ mu-)
     5.28420505E-01    2     1000037        13   # BR(~nu_muL -> ~chi_2+ mu-)
#
#         PDG            Width
DECAY   1000016     2.74041535E+01   # snu_tauL decays
#          BR         NDA      ID1       ID2
     1.19045788E-01    2     1000022        16   # BR(~nu_tauL -> ~chi_10 nu_tau)
     2.20648272E-05    2     1000023        16   # BR(~nu_tauL -> ~chi_20 nu_tau)
     8.54552757E-02    2     1000025        16   # BR(~nu_tauL -> ~chi_30 nu_tau)
     2.64257414E-01    2     1000035        16   # BR(~nu_tauL -> ~chi_40 nu_tau)
     3.35737415E-03    2     1000024        15   # BR(~nu_tauL -> ~chi_1+ tau-)
     5.27862084E-01    2     1000037        15   # BR(~nu_tauL -> ~chi_2+ tau-)
#
#         PDG            Width
DECAY   1000024     1.09566736E-04   # chargino1+ decays
#          BR         NDA      ID1       ID2
     4.59547706E-07    2     1000039        24   # BR(~chi_1+ -> ~G       W+)
#           BR         NDA      ID1       ID2       ID3
     3.33624608E-01    3     1000022         2        -1   # BR(~chi_1+ -> ~chi_10 u    db)
     3.33624608E-01    3     1000022         4        -3   # BR(~chi_1+ -> ~chi_10 c    sb)
     1.11208333E-01    3     1000022       -11        12   # BR(~chi_1+ -> ~chi_10 e+   nu_e)
     1.11208333E-01    3     1000022       -13        14   # BR(~chi_1+ -> ~chi_10 mu+  nu_mu)
     1.10333658E-01    3     1000022       -15        16   # BR(~chi_1+ -> ~chi_10 tau+ nu_tau)
#
#         PDG            Width
DECAY   1000037     3.73841634E+01   # chargino2+ decays
#          BR         NDA      ID1       ID2
     2.52230190E-01    2     1000024        23   # BR(~chi_2+ -> ~chi_1+  Z )
     1.13805619E-01    2     1000022        24   # BR(~chi_2+ -> ~chi_10  W+)
     2.45573625E-01    2     1000023        24   # BR(~chi_2+ -> ~chi_20  W+)
     1.32073786E-01    2     1000025        24   # BR(~chi_2+ -> ~chi_30  W+)
     2.53243798E-01    2     1000024        25   # BR(~chi_2+ -> ~chi_1+  h )
     6.04593624E-04    2     1000024        35   # BR(~chi_2+ -> ~chi_1+  H )
     7.97806946E-04    2     1000024        36   # BR(~chi_2+ -> ~chi_1+  A )
     1.07332865E-03    2     1000022        37   # BR(~chi_2+ -> ~chi_10  H+)
     5.97252525E-04    2     1000023        37   # BR(~chi_2+ -> ~chi_20  H+)
     4.70800450E-10    2     1000039        24   # BR(~chi_2+ -> ~G       W+)
     4.00849038E-14    2     1000039        37   # BR(~chi_2+ -> ~G       H+)
#
#         PDG            Width
DECAY   1000022     6.22236445E-11   # neutralino1 decays
#          BR         NDA      ID1       ID2
     4.99787769E-01    2     1000039        22   # BR(~chi_10 -> ~G        gam)
     4.88998889E-01    2     1000039        23   # BR(~chi_10 -> ~G        Z)
     1.12133419E-02    2     1000039        25   # BR(~chi_10 -> ~G        h)
#
#         PDG            Width
DECAY   1000023     1.23346368E-04   # neutralino2 decays
#          BR         NDA      ID1       ID2
     1.24842982E-03    2     1000022        22   # BR(~chi_20 -> ~chi_10 gam)
#          BR         NDA      ID1       ID2
     2.18822675E-12    2     1000039        22   # BR(~chi_20 -> ~G        gam)
     1.58420646E-08    2     1000039        23   # BR(~chi_20 -> ~G        Z)
     3.85601396E-07    2     1000039        25   # BR(~chi_20 -> ~G        h)
#           BR         NDA      ID1       ID2       ID3
     1.18593526E-01    3     1000022        -2         2   # BR(~chi_20 -> ~chi_10 ub      u)
     1.53552109E-01    3     1000022        -1         1   # BR(~chi_20 -> ~chi_10 db      d)
     1.18593526E-01    3     1000022        -4         4   # BR(~chi_20 -> ~chi_10 cb      c)
     1.53552109E-01    3     1000022        -3         3   # BR(~chi_20 -> ~chi_10 sb      s)
     1.39549531E-01    3     1000022        -5         5   # BR(~chi_20 -> ~chi_10 bb      b)
     3.50647267E-02    3     1000022       -11        11   # BR(~chi_20 -> ~chi_10 e+      e-)
     3.50647267E-02    3     1000022       -13        13   # BR(~chi_20 -> ~chi_10 mu+     mu-)
     3.47058430E-02    3     1000022       -15        15   # BR(~chi_20 -> ~chi_10 tau+    tau-)
     7.00236396E-02    3     1000022       -12        12   # BR(~chi_20 -> ~chi_10 nu_eb   nu_e)
     7.00236396E-02    3     1000022       -14        14   # BR(~chi_20 -> ~chi_10 nu_mub  nu_mu)
     7.00236396E-02    3     1000022       -16        16   # BR(~chi_20 -> ~chi_10 nu_taub nu_tau)
     7.62347840E-07    3     1000024        -2         1   # BR(~chi_20 -> ~chi_1+ ub      d)
     7.62347840E-07    3    -1000024        -1         2   # BR(~chi_20 -> ~chi_1- db      u)
     7.62347840E-07    3     1000024        -4         3   # BR(~chi_20 -> ~chi_1+ cb      s)
     7.62347840E-07    3    -1000024        -3         4   # BR(~chi_20 -> ~chi_1- sb      c)
     2.54115963E-07    3     1000024       -12        11   # BR(~chi_20 -> ~chi_1+ nu_eb   e-)
     2.54115963E-07    3    -1000024        12       -11   # BR(~chi_20 -> ~chi_1- nu_e    e+)
     2.54115963E-07    3     1000024       -14        13   # BR(~chi_20 -> ~chi_1+ nu_mub  mu-)
     2.54115963E-07    3    -1000024        14       -13   # BR(~chi_20 -> ~chi_1- nu_mu   mu+)
     4.38263351E-08    3     1000024       -16        15   # BR(~chi_20 -> ~chi_1+ nu_taub tau-)
     4.38263351E-08    3    -1000024        16       -15   # BR(~chi_20 -> ~chi_1- nu_tau  tau+)
#
#         PDG            Width
DECAY   1000025     2.31654394E-04   # neutralino3 decays
#          BR         NDA      ID1       ID2
     3.62170279E-04    2     1000022        22   # BR(~chi_30 -> ~chi_10 gam)
     7.99837586E-06    2     1000023        22   # BR(~chi_30 -> ~chi_20 gam)
#          BR         NDA      ID1       ID2
     2.08030134E-07    2     1000039        22   # BR(~chi_30 -> ~G        gam)
     1.80610746E-07    2     1000039        23   # BR(~chi_30 -> ~G        Z)
     5.05085177E-09    2     1000039        25   # BR(~chi_30 -> ~G        h)
#           BR         NDA      ID1       ID2       ID3
     9.51579374E-06    3     1000022        -2         2   # BR(~chi_30 -> ~chi_10 ub      u)
     1.13018368E-05    3     1000022        -1         1   # BR(~chi_30 -> ~chi_10 db      d)
     9.51579374E-06    3     1000022        -4         4   # BR(~chi_30 -> ~chi_10 cb      c)
     1.13018368E-05    3     1000022        -3         3   # BR(~chi_30 -> ~chi_10 sb      s)
     1.76556566E-05    3     1000022        -5         5   # BR(~chi_30 -> ~chi_10 bb      b)
     1.96992902E-06    3     1000022       -11        11   # BR(~chi_30 -> ~chi_10 e+      e-)
     1.96992902E-06    3     1000022       -13        13   # BR(~chi_30 -> ~chi_10 mu+     mu-)
     2.95427640E-06    3     1000022       -15        15   # BR(~chi_30 -> ~chi_10 tau+    tau-)
     5.53421758E-06    3     1000022       -12        12   # BR(~chi_30 -> ~chi_10 nu_eb   nu_e)
     5.53421758E-06    3     1000022       -14        14   # BR(~chi_30 -> ~chi_10 nu_mub  nu_mu)
     5.53421758E-06    3     1000022       -16        16   # BR(~chi_30 -> ~chi_10 nu_taub nu_tau)
     2.53526607E-02    3     1000023        -2         2   # BR(~chi_30 -> ~chi_20 ub      u)
     3.28260830E-02    3     1000023        -1         1   # BR(~chi_30 -> ~chi_20 db      d)
     2.53526607E-02    3     1000023        -4         4   # BR(~chi_30 -> ~chi_20 cb      c)
     3.28260830E-02    3     1000023        -3         3   # BR(~chi_30 -> ~chi_20 sb      s)
     2.86777835E-02    3     1000023        -5         5   # BR(~chi_30 -> ~chi_20 bb      b)
     7.49609260E-03    3     1000023       -11        11   # BR(~chi_30 -> ~chi_20 e+      e-)
     7.49609260E-03    3     1000023       -13        13   # BR(~chi_30 -> ~chi_20 mu+     mu-)
     7.39561184E-03    3     1000023       -15        15   # BR(~chi_30 -> ~chi_20 tau+    tau-)
     1.49694584E-02    3     1000023       -12        12   # BR(~chi_30 -> ~chi_20 nu_eb   nu_e)
     1.49694584E-02    3     1000023       -14        14   # BR(~chi_30 -> ~chi_20 nu_mub  nu_mu)
     1.49694584E-02    3     1000023       -16        16   # BR(~chi_30 -> ~chi_20 nu_taub nu_tau)
     1.31327533E-01    3     1000024        -2         1   # BR(~chi_30 -> ~chi_1+ ub      d)
     1.31327533E-01    3    -1000024        -1         2   # BR(~chi_30 -> ~chi_1- db      u)
     1.31327533E-01    3     1000024        -4         3   # BR(~chi_30 -> ~chi_1+ cb      s)
     1.31327533E-01    3    -1000024        -3         4   # BR(~chi_30 -> ~chi_1- sb      c)
     4.37757779E-02    3     1000024       -12        11   # BR(~chi_30 -> ~chi_1+ nu_eb   e-)
     4.37757779E-02    3    -1000024        12       -11   # BR(~chi_30 -> ~chi_1- nu_e    e+)
     4.37757779E-02    3     1000024       -14        13   # BR(~chi_30 -> ~chi_1+ nu_mub  mu-)
     4.37757779E-02    3    -1000024        14       -13   # BR(~chi_30 -> ~chi_1- nu_mu   mu+)
     4.34009811E-02    3     1000024       -16        15   # BR(~chi_30 -> ~chi_1+ nu_taub tau-)
     4.34009811E-02    3    -1000024        16       -15   # BR(~chi_30 -> ~chi_1- nu_tau  tau+)
#
#         PDG            Width
DECAY   1000035     3.73876848E+01   # neutralino4 decays
#          BR         NDA      ID1       ID2
     1.03740839E-03    2     1000022        23   # BR(~chi_40 -> ~chi_10   Z )
     2.49977599E-01    2     1000023        23   # BR(~chi_40 -> ~chi_20   Z )
     1.18991080E-03    2     1000025        23   # BR(~chi_40 -> ~chi_30   Z )
     2.45547953E-01    2     1000024       -24   # BR(~chi_40 -> ~chi_1+   W-)
     2.45547953E-01    2    -1000024        24   # BR(~chi_40 -> ~chi_1-   W+)
     1.16324243E-01    2     1000022        25   # BR(~chi_40 -> ~chi_10   h )
     7.40474680E-04    2     1000022        35   # BR(~chi_40 -> ~chi_10   H )
     3.06389251E-04    2     1000022        36   # BR(~chi_40 -> ~chi_10   A )
     2.19762978E-03    2     1000023        25   # BR(~chi_40 -> ~chi_20   h )
     1.37725420E-05    2     1000023        35   # BR(~chi_40 -> ~chi_20   H )
     6.33591164E-04    2     1000023        36   # BR(~chi_40 -> ~chi_20   A )
     1.35019635E-01    2     1000025        25   # BR(~chi_40 -> ~chi_30   h )
     7.31719276E-04    2     1000024       -37   # BR(~chi_40 -> ~chi_1+   H-)
     7.31719276E-04    2    -1000024        37   # BR(~chi_40 -> ~chi_1-   H+)
     1.12963343E-10    2     1000039        22   # BR(~chi_40 -> ~G        gam)
     3.57750885E-10    2     1000039        23   # BR(~chi_40 -> ~G        Z)
     2.87303358E-14    2     1000039        25   # BR(~chi_40 -> ~G        h)
     3.94358374E-14    2     1000039        35   # BR(~chi_40 -> ~G        H)
     4.60309812E-16    2     1000039        36   # BR(~chi_40 -> ~G        A)
#
#         PDG            Width
DECAY        25     4.21913364E-03   # h decays
#          BR         NDA      ID1       ID2
     6.01934611E-01    2           5        -5   # BR(h -> b       bb     )
     6.22281968E-02    2         -15        15   # BR(h -> tau+    tau-   )
     2.20260687E-04    2         -13        13   # BR(h -> mu+     mu-    )
     4.66028914E-04    2           3        -3   # BR(h -> s       sb     )
     2.01050236E-02    2           4        -4   # BR(h -> c       cb     )
     6.63964634E-02    2          21        21   # BR(h -> g       g      )
     2.30738000E-03    2          22        22   # BR(h -> gam     gam    )
     1.62630994E-03    2          22        23   # BR(h -> Z       gam    )
     2.16639932E-01    2          24       -24   # BR(h -> W+      W-     )
     2.80757932E-02    2          23        23   # BR(h -> Z       Z      )
#
#         PDG            Width
DECAY        35     3.78121028E+01   # H decays
#          BR         NDA      ID1       ID2
     1.47084311E-03    2           5        -5   # BR(H -> b       bb     )
     2.46422673E-04    2         -15        15   # BR(H -> tau+    tau-   )
     8.71195894E-07    2         -13        13   # BR(H -> mu+     mu-    )
     1.11544295E-06    2           3        -3   # BR(H -> s       sb     )
     1.00667612E-05    2           4        -4   # BR(H -> c       cb     )
     9.96061589E-01    2           6        -6   # BR(H -> t       tb     )
     7.97736130E-04    2          21        21   # BR(H -> g       g      )
     2.70804236E-06    2          22        22   # BR(H -> gam     gam    )
     1.15983629E-06    2          23        22   # BR(H -> Z       gam    )
     3.36052355E-04    2          24       -24   # BR(H -> W+      W-     )
     1.67567895E-04    2          23        23   # BR(H -> Z       Z      )
     9.03867543E-04    2          25        25   # BR(H -> h       h      )
     8.18085327E-24    2          36        36   # BR(H -> A       A      )
     3.25529585E-11    2          23        36   # BR(H -> Z       A      )
     7.13665630E-12    2          24       -37   # BR(H -> W+      H-     )
     7.13665630E-12    2         -24        37   # BR(H -> W-      H+     )
#
#         PDG            Width
DECAY        36     3.82382780E+01   # A decays
#          BR         NDA      ID1       ID2
     1.47377784E-03    2           5        -5   # BR(A -> b       bb     )
     2.43897395E-04    2         -15        15   # BR(A -> tau+    tau-   )
     8.62265398E-07    2         -13        13   # BR(A -> mu+     mu-    )
     1.13677244E-06    2           3        -3   # BR(A -> s       sb     )
     9.96175155E-06    2           4        -4   # BR(A -> c       cb     )
     9.96994662E-01    2           6        -6   # BR(A -> t       tb     )
     9.43674389E-04    2          21        21   # BR(A -> g       g      )
     3.21131355E-06    2          22        22   # BR(A -> gam     gam    )
     1.35242910E-06    2          23        22   # BR(A -> Z       gam    )
     3.27463430E-04    2          23        25   # BR(A -> Z       h      )
#
#         PDG            Width
DECAY        37     3.74481954E+01   # H+ decays
#          BR         NDA      ID1       ID2
     2.36381709E-06    2           4        -5   # BR(H+ -> c       bb     )
     2.49237688E-04    2         -15        16   # BR(H+ -> tau+    nu_tau )
     8.81145261E-07    2         -13        14   # BR(H+ -> mu+     nu_mu  )
     1.50285435E-08    2           2        -5   # BR(H+ -> u       bb     )
     5.45692566E-08    2           2        -3   # BR(H+ -> u       sb     )
     1.08731312E-05    2           4        -3   # BR(H+ -> c       sb     )
     9.99400943E-01    2           6        -5   # BR(H+ -> t       bb     )
     3.35631625E-04    2          24        25   # BR(H+ -> W+      h      )
     3.26850574E-13    2          24        36   # BR(H+ -> W+      A      )
