#
#                              ======================
#                              | THE SUSYHIT OUTPUT |
#                              ======================
#
#
#              ------------------------------------------------------
#              |     This is the output of the SUSY-HIT package     |
#              |  created by A.Djouadi, M.Muehlleitner and M.Spira. |
#              |  In case of problems with SUSY-HIT email to        |
#              |           margarete.muehlleitner@kit.edu           |
#              |           michael.spira@psi.ch                     |
#              |           abdelhak.djouadi@cern.ch                 |
#              ------------------------------------------------------
#
#              ------------------------------------------------------
#              |  SUSY Les Houches Accord - MSSM Spectrum + Decays  |
#              |              based on the decay programs           |
#              |                                                    |
#              |                     SDECAY 1.5                     |
#              |                                                    |
#              |  Authors: M.Muhlleitner, A.Djouadi and Y.Mambrini  |
#              |  Ref.:    Comput.Phys.Commun.168(2005)46           |
#              |           [hep-ph/0311167]                         |
#              |                                                    |
#              |                     HDECAY 3.4                     |
#              |                                                    |
#              |  By: A.Djouadi,J.Kalinowski,M.Muhlleitner,M.Spira  |
#              |  Ref.:    Comput.Phys.Commun.108(1998)56           |
#              |           [hep-ph/9704448]                         |
#              |                                                    |
#              |                                                    |
#              |  If not stated otherwise all DRbar couplings and   |
#              |  soft SUSY breaking masses are given at the scale  |
#              |  Q=  0.91187600E+02
#              |                                                    |
#              ------------------------------------------------------
#
#
BLOCK DCINFO  # Decay Program information
     1   SDECAY/HDECAY # decay calculator
     2   1.5  /3.4    # version number
#
BLOCK SPINFO  # Spectrum calculator information
     1   SuSpect     # RGE +Spectrum calculator            
     2   2.43         # version number                     
#
BLOCK MODSEL  # Model selection
     1     2   # GMSB                                              
#
BLOCK SMINPUTS  # Standard Model inputs
         1     1.27932904E+02   # alpha_em^-1(M_Z)^MSbar
         2     1.16639000E-05   # G_F [GeV^-2]
         3     1.17200000E-01   # alpha_S(M_Z)^MSbar
         4     9.11870000E+01   # M_Z pole mass
         5     4.25000000E+00   # mb(mb)^MSbar
         6     1.72900000E+02   # mt pole mass
         7     1.77700000E+00   # mtau pole mass
#
BLOCK MINPAR  # Input parameters - minimal models
#
BLOCK EXTPAR  # Input parameters - non-minimal models
         0     9.11876000E+01   # EWSB                
         1     6.57000000E+02   # M_1                 
         2     3.00000000E+03   # M_2                 
         3     1.10000000E+03   # M_3                 
        11     0.00000000E+00   # A_t                 
        12     0.00000000E+00   # A_b                 
        13     0.00000000E+00   # A_tau               
        14     0.00000000E+00   # A_u                 
        15     0.00000000E+00   # A_d                 
        16     0.00000000E+00   # A_e                 
        23     6.50000000E+02   # mu(EWSB)            
        25     1.50000000E+00   # tanbeta(in)         
        26     2.00000000E+03   # MA_pole             
        31     5.00000000E+03   # M_eL                
        32     5.00000000E+03   # M_muL               
        33     5.00000000E+03   # M_tauL              
        34     5.00000000E+03   # M_eR                
        35     5.00000000E+03   # M_muR               
        36     5.00000000E+03   # M_tauR              
        41     5.00000000E+03   # M_q1L               
        42     5.00000000E+03   # M_q2L               
        43     5.00000000E+03   # M_q3L               
        44     5.00000000E+03   # M_uR                
        45     5.00000000E+03   # M_cR                
        46     5.00000000E+03   # M_tR                
        47     5.00000000E+03   # M_dR                
        48     5.00000000E+03   # M_sR                
        49     5.00000000E+03   # M_bR                
#
BLOCK MASS  # Mass Spectrum
# PDG code           mass       particle
        24     8.05394413E+01   # W+
        25     1.26000000E+02   # h
        35     2.00451995E+03   # H
        36     2.00000000E+03   # A
        37     2.00208214E+03   # H+
         5     4.87877839E+00   # b-quark pole mass calculated from mb(mb)_Msbar
   1000001     5.01677088E+03   # ~d_L
   2000001     5.01666165E+03   # ~d_R
   1000002     5.01652670E+03   # ~u_L
   2000002     5.01658452E+03   # ~u_R
   1000003     5.01677088E+03   # ~s_L
   2000003     5.01666165E+03   # ~s_R
   1000004     5.01652670E+03   # ~c_L
   2000004     5.01658452E+03   # ~c_R
   1000005     5.01644551E+03   # ~b_1
   2000005     5.01698848E+03   # ~b_2
   1000006     5.14356163E+03   # ~t_1
   2000006     5.43999105E+03   # ~t_2
   1000011     5.00008232E+03   # ~e_L
   2000011     5.00007602E+03   # ~e_R
   1000012     4.99984165E+03   # ~nu_eL
   1000013     5.00008232E+03   # ~mu_L
   2000013     5.00007602E+03   # ~mu_R
   1000014     4.99984165E+03   # ~nu_muL
   1000015     4.99990613E+03   # ~tau_1
   2000015     5.00025284E+03   # ~tau_2
   1000016     4.99984165E+03   # ~nu_tauL
   1000021     1.24136137E+03   # ~g
   1000022     6.51737178E+02   # ~chi_10
   1000023    -6.96882355E+02   # ~chi_20
   1000025     7.38899795E+02   # ~chi_30
   1000035     3.12900840E+03   # ~chi_40
   1000024     6.94353729E+02   # ~chi_1+
   1000037     3.12900767E+03   # ~chi_2+
   1000039     7.20714286E-08   # ~gravitino
#
BLOCK NMIX  # Neutralino Mixing Matrix
  1  1     6.98706921E-01   # N_11
  1  2    -2.23822478E-02   # N_12
  1  3     5.08987492E-01   # N_13
  1  4    -5.02234414E-01   # N_14
  2  1     6.27145684E-03   # N_21
  2  2    -4.06603286E-03   # N_22
  2  3    -7.06788223E-01   # N_23
  2  4    -7.07385711E-01   # N_24
  3  1     7.15380293E-01   # N_31
  3  2     2.27148558E-02   # N_32
  3  3    -4.90912266E-01   # N_33
  3  4     4.96709390E-01   # N_34
  4  1     5.85931641E-04   # N_41
  4  2    -9.99483135E-01   # N_42
  4  3    -1.96796331E-02   # N_43
  4  4     2.54132061E-02   # N_44
#
BLOCK UMIX  # Chargino Mixing Matrix U
  1  1    -2.78202616E-02   # U_11
  1  2     9.99612942E-01   # U_12
  2  1     9.99612942E-01   # U_21
  2  2     2.78202616E-02   # U_22
#
BLOCK VMIX  # Chargino Mixing Matrix V
  1  1    -3.59313376E-02   # V_11
  1  2     9.99354261E-01   # V_12
  2  1     9.99354261E-01   # V_21
  2  2     3.59313376E-02   # V_22
#
BLOCK STOPMIX  # Stop Mixing Matrix
  1  1     9.99987544E-01   # cos(theta_t)
  1  2    -4.99117670E-03   # sin(theta_t)
  2  1     4.99117670E-03   # -sin(theta_t)
  2  2     9.99987544E-01   # cos(theta_t)
#
BLOCK SBOTMIX  # Sbottom Mixing Matrix
  1  1     6.31990752E-01   # cos(theta_b)
  1  2     7.74975928E-01   # sin(theta_b)
  2  1    -7.74975928E-01   # -sin(theta_b)
  2  2     6.31990752E-01   # cos(theta_b)
#
BLOCK STAUMIX  # Stau Mixing Matrix
  1  1     7.00651132E-01   # cos(theta_tau)
  1  2     7.13504023E-01   # sin(theta_tau)
  2  1    -7.13504023E-01   # -sin(theta_tau)
  2  2     7.00651132E-01   # cos(theta_tau)
#
BLOCK ALPHA  # Higgs mixing
          -5.90199730E-01   # Mixing angle in the neutral Higgs boson sector
#
BLOCK HMIX Q=  9.11876000E+01  # DRbar Higgs Parameters
         1     6.50000000E+02   # mu(Q)               
         2     1.49999979E+00   # tanbeta(Q)          
         3     2.51964219E+02   # vev(Q)              
         4     3.69666460E+06   # MA^2(Q)             
#
BLOCK GAUGE Q=  9.11876000E+01  # The gauge couplings
     1     3.52896678E-01   # gprime(Q) DRbar
     2     6.27897766E-01   # g(Q) DRbar
     3     1.09012991E+00   # g3(Q) DRbar
#
BLOCK AU Q=  9.11876000E+01  # The trilinear couplings
  1  1     0.00000000E+00   # A_u(Q) DRbar
  2  2     0.00000000E+00   # A_c(Q) DRbar
  3  3     0.00000000E+00   # A_t(Q) DRbar
#
BLOCK AD Q=  9.11876000E+01  # The trilinear couplings
  1  1     0.00000000E+00   # A_d(Q) DRbar
  2  2     0.00000000E+00   # A_s(Q) DRbar
  3  3     0.00000000E+00   # A_b(Q) DRbar
#
BLOCK AE Q=  9.11876000E+01  # The trilinear couplings
  1  1     0.00000000E+00   # A_e(Q) DRbar
  2  2     0.00000000E+00   # A_mu(Q) DRbar
  3  3     0.00000000E+00   # A_tau(Q) DRbar
#
BLOCK Yu Q=  9.11876000E+01  # The Yukawa couplings
  1  1     0.00000000E+00   # y_u(Q) DRbar
  2  2     0.00000000E+00   # y_c(Q) DRbar
  3  3     1.02545285E+00   # y_t(Q) DRbar
#
BLOCK Yd Q=  9.11876000E+01  # The Yukawa couplings
  1  1     0.00000000E+00   # y_d(Q) DRbar
  2  2     0.00000000E+00   # y_s(Q) DRbar
  3  3     2.72026190E-02   # y_b(Q) DRbar
#
BLOCK Ye Q=  9.11876000E+01  # The Yukawa couplings
  1  1     0.00000000E+00   # y_e(Q) DRbar
  2  2     0.00000000E+00   # y_mu(Q) DRbar
  3  3     1.79884370E-02   # y_tau(Q) DRbar
#
BLOCK MSOFT Q=  9.11876000E+01  # The soft SUSY breaking masses at the scale Q
         1     6.57000000E+02   # M_1                 
         2     3.00000000E+03   # M_2                 
         3     1.10000000E+03   # M_3                 
        14     0.00000000E+00   # A_u                 
        15     0.00000000E+00   # A_d                 
        16     0.00000000E+00   # A_e                 
        21     2.58423834E+06   # M^2_Hd              
        22    -5.88563742E+06   # M^2_Hu              
        31     5.00000000E+03   # M_eL                
        32     5.00000000E+03   # M_muL               
        33     5.00000000E+03   # M_tauL              
        34     5.00000000E+03   # M_eR                
        35     5.00000000E+03   # M_muR               
        36     5.00000000E+03   # M_tauR              
        41     5.00000000E+03   # M_q1L               
        42     5.00000000E+03   # M_q2L               
        43     5.00000000E+03   # M_q3L               
        44     5.00000000E+03   # M_uR                
        45     5.00000000E+03   # M_cR                
        46     5.00000000E+03   # M_tR                
        47     5.00000000E+03   # M_dR                
        48     5.00000000E+03   # M_sR                
        49     5.00000000E+03   # M_bR                
#
#
#
#                             =================
#                             |The decay table|
#                             =================
#
# - The QCD corrections to the decays gluino -> squark  + quark
#                                     squark -> gaugino + quark_prime
#                                     squark -> squark_prime + Higgs
#                                     squark -> gluino  + quark
#   are included.
#
# - The multi-body decays for the inos, stops and sbottoms are included.
#
# - The loop induced decays for the gluino, neutralinos and stops
#   are included.
#
# - The SUSY decays of the top quark are included.
#
# - Possible decays of the NLSP in GMSB models are included.
#
#
#         PDG            Width
DECAY         6     1.37371498E+00   # top decays
#          BR         NDA      ID1       ID2
     1.00000000E+00    2           5        24   # BR(t ->  b    W+)
#
#         PDG            Width
DECAY   1000021     2.16892834E-05   # gluino decays
#          BR         NDA      ID1       ID2
     5.58805137E-02    2     1000022        21   # BR(~g -> ~chi_10 g)
     9.35647534E-02    2     1000023        21   # BR(~g -> ~chi_20 g)
     3.80559099E-02    2     1000025        21   # BR(~g -> ~chi_30 g)
#          BR         NDA      ID1       ID2
     3.01235447E-05    2     1000039        21   # BR(~g -> ~G      g)
#           BR         NDA      ID1       ID2       ID3
     1.00335357E-02    3     1000022         1        -1   # BR(~g -> ~chi_10 d  db)
     9.65026345E-07    3     1000023         1        -1   # BR(~g -> ~chi_20 d  db)
     4.87005883E-03    3     1000025         1        -1   # BR(~g -> ~chi_30 d  db)
     3.11748792E-02    3     1000022         2        -2   # BR(~g -> ~chi_10 u  ub)
     8.90746608E-07    3     1000023         2        -2   # BR(~g -> ~chi_20 u  ub)
     1.80368974E-02    3     1000025         2        -2   # BR(~g -> ~chi_30 u  ub)
     1.00335357E-02    3     1000022         3        -3   # BR(~g -> ~chi_10 s  sb)
     9.65026345E-07    3     1000023         3        -3   # BR(~g -> ~chi_20 s  sb)
     4.87005883E-03    3     1000025         3        -3   # BR(~g -> ~chi_30 s  sb)
     3.11748792E-02    3     1000022         4        -4   # BR(~g -> ~chi_10 c  cb)
     8.90746608E-07    3     1000023         4        -4   # BR(~g -> ~chi_20 c  cb)
     1.80368974E-02    3     1000025         4        -4   # BR(~g -> ~chi_30 c  cb)
     1.01517378E-02    3     1000022         5        -5   # BR(~g -> ~chi_10 b  bb)
     3.08512488E-04    3     1000023         5        -5   # BR(~g -> ~chi_20 b  bb)
     5.02296915E-03    3     1000025         5        -5   # BR(~g -> ~chi_30 b  bb)
     8.82921232E-02    3     1000022         6        -6   # BR(~g -> ~chi_10 t  tb)
     7.68136939E-02    3     1000023         6        -6   # BR(~g -> ~chi_20 t  tb)
     4.84502264E-02    3     1000025         6        -6   # BR(~g -> ~chi_30 t  tb)
     1.66341595E-04    3     1000024         1        -2   # BR(~g -> ~chi_1+ d  ub)
     1.66341595E-04    3    -1000024         2        -1   # BR(~g -> ~chi_1- u  db)
     1.66341595E-04    3     1000024         3        -4   # BR(~g -> ~chi_1+ s  cb)
     1.66341595E-04    3    -1000024         4        -3   # BR(~g -> ~chi_1- c  sb)
     2.27264808E-01    3     1000024         5        -6   # BR(~g -> ~chi_1+ b  tb)
     2.27264808E-01    3    -1000024         6        -5   # BR(~g -> ~chi_1- t  bb)
#
#         PDG            Width
DECAY   1000006     3.34288871E+02   # stop1 decays
#          BR         NDA      ID1       ID2
     5.35862940E-02    2     1000022         6   # BR(~t_1 -> ~chi_10 t )
     1.06340199E-01    2     1000023         6   # BR(~t_1 -> ~chi_20 t )
     5.44565152E-02    2     1000025         6   # BR(~t_1 -> ~chi_30 t )
     2.32977015E-02    2     1000035         6   # BR(~t_1 -> ~chi_40 t )
     8.60514490E-05    2     1000024         5   # BR(~t_1 -> ~chi_1+ b )
     4.63920275E-02    2     1000037         5   # BR(~t_1 -> ~chi_2+ b )
     7.01509210E-01    2     1000021         6   # BR(~t_1 -> ~g      t )
     5.79778554E-03    2     1000005        24   # BR(~t_1 -> ~b_1    W+)
     8.53421525E-03    2     2000005        24   # BR(~t_1 -> ~b_2    W+)
#
#         PDG            Width
DECAY   2000006     4.10877542E+02   # stop2 decays
#          BR         NDA      ID1       ID2
     6.06081997E-02    2     1000022         6   # BR(~t_2 -> ~chi_10 t )
     9.21917934E-02    2     1000023         6   # BR(~t_2 -> ~chi_20 t )
     5.85933181E-02    2     1000025         6   # BR(~t_2 -> ~chi_30 t )
     5.53648880E-06    2     1000035         6   # BR(~t_2 -> ~chi_40 t )
     1.84582496E-01    2     1000024         5   # BR(~t_2 -> ~chi_1+ b )
     1.13699876E-05    2     1000037         5   # BR(~t_2 -> ~chi_2+ b )
     6.04024255E-01    2     1000021         6   # BR(~t_2 -> ~g      t )
    -3.75753746E-05    2     1000006        25   # BR(~t_2 -> ~t_1    h )
     3.16089302E-06    2     1000006        23   # BR(~t_2 -> ~t_1    Z )
     6.97198733E-06    2     1000005        24   # BR(~t_2 -> ~b_1    W+)
     1.04739502E-05    2     2000005        24   # BR(~t_2 -> ~b_2    W+)
#
#         PDG            Width
DECAY   1000005     2.59204211E+02   # sbottom1 decays
#          BR         NDA      ID1       ID2
     4.59791410E-03    2     1000022         5   # BR(~b_1 -> ~chi_10 b )
     7.67171959E-05    2     1000023         5   # BR(~b_1 -> ~chi_20 b )
     3.05929288E-03    2     1000025         5   # BR(~b_1 -> ~chi_30 b )
     9.04703812E-03    2     1000035         5   # BR(~b_1 -> ~chi_40 b )
     8.10817065E-02    2    -1000024         6   # BR(~b_1 -> ~chi_1- t )
     1.81697548E-02    2    -1000037         6   # BR(~b_1 -> ~chi_2- t )
     8.83967576E-01    2     1000021         5   # BR(~b_1 -> ~g      b )
#
#         PDG            Width
DECAY   2000005     2.92959993E+02   # sbottom2 decays
#          BR         NDA      ID1       ID2
     1.79372829E-03    2     1000022         5   # BR(~b_2 -> ~chi_10 b )
     1.01598538E-04    2     1000023         5   # BR(~b_2 -> ~chi_20 b )
     2.60791385E-03    2     1000025         5   # BR(~b_2 -> ~chi_30 b )
     1.62644292E-02    2     1000035         5   # BR(~b_2 -> ~chi_40 b )
     1.64630005E-01    2    -1000024         6   # BR(~b_2 -> ~chi_1- t )
     3.26735721E-02    2    -1000037         6   # BR(~b_2 -> ~chi_2- t )
     7.81928753E-01    2     1000021         5   # BR(~b_2 -> ~g      b )
#
#         PDG            Width
DECAY   1000002     2.51117244E+02   # sup_L decays
#          BR         NDA      ID1       ID2
     8.61995611E-04    2     1000022         2   # BR(~u_L -> ~chi_10 u)
     6.08860281E-07    2     1000023         2   # BR(~u_L -> ~chi_20 u)
     1.78074675E-03    2     1000025         2   # BR(~u_L -> ~chi_30 u)
     2.82947463E-02    2     1000035         2   # BR(~u_L -> ~chi_40 u)
     1.88142052E-04    2     1000024         1   # BR(~u_L -> ~chi_1+ d)
     5.65873625E-02    2     1000037         1   # BR(~u_L -> ~chi_2+ d)
     9.12286398E-01    2     1000021         2   # BR(~u_L -> ~g      u)
#
#         PDG            Width
DECAY   2000002     2.39365431E+02   # sup_R decays
#          BR         NDA      ID1       ID2
     2.10535921E-02    2     1000022         2   # BR(~u_R -> ~chi_10 u)
     1.68786487E-06    2     1000023         2   # BR(~u_R -> ~chi_20 u)
     2.18550668E-02    2     1000025         2   # BR(~u_R -> ~chi_30 u)
     5.73022487E-09    2     1000035         2   # BR(~u_R -> ~chi_40 u)
     9.57089647E-01    2     1000021         2   # BR(~u_R -> ~g      u)
#
#         PDG            Width
DECAY   1000001     2.51120674E+02   # sdown_L decays
#          BR         NDA      ID1       ID2
     1.71992305E-03    2     1000022         1   # BR(~d_L -> ~chi_10 d)
     2.00088382E-06    2     1000023         1   # BR(~d_L -> ~chi_20 d)
     8.98094242E-04    2     1000025         1   # BR(~d_L -> ~chi_30 d)
     2.83116523E-02    2     1000035         1   # BR(~d_L -> ~chi_40 d)
     1.12792040E-04    2    -1000024         2   # BR(~d_L -> ~chi_1- u)
     5.66256081E-02    2    -1000037         2   # BR(~d_L -> ~chi_2- u)
     9.12329929E-01    2     1000021         1   # BR(~d_L -> ~g      d)
#
#         PDG            Width
DECAY   2000001     2.31666473E+02   # sdown_R decays
#          BR         NDA      ID1       ID2
     5.43840584E-03    2     1000022         1   # BR(~d_R -> ~chi_10 d)
     4.35996646E-07    2     1000023         1   # BR(~d_R -> ~chi_20 d)
     5.64543848E-03    2     1000025         1   # BR(~d_R -> ~chi_30 d)
     1.48024453E-09    2     1000035         1   # BR(~d_R -> ~chi_40 d)
     9.88915718E-01    2     1000021         1   # BR(~d_R -> ~g      d)
#
#         PDG            Width
DECAY   1000004     2.51117244E+02   # scharm_L decays
#          BR         NDA      ID1       ID2
     8.61995611E-04    2     1000022         4   # BR(~c_L -> ~chi_10 c)
     6.08860281E-07    2     1000023         4   # BR(~c_L -> ~chi_20 c)
     1.78074675E-03    2     1000025         4   # BR(~c_L -> ~chi_30 c)
     2.82947463E-02    2     1000035         4   # BR(~c_L -> ~chi_40 c)
     1.88142052E-04    2     1000024         3   # BR(~c_L -> ~chi_1+ s)
     5.65873625E-02    2     1000037         3   # BR(~c_L -> ~chi_2+ s)
     9.12286398E-01    2     1000021         4   # BR(~c_L -> ~g      c)
#
#         PDG            Width
DECAY   2000004     2.39365431E+02   # scharm_R decays
#          BR         NDA      ID1       ID2
     2.10535921E-02    2     1000022         4   # BR(~c_R -> ~chi_10 c)
     1.68786487E-06    2     1000023         4   # BR(~c_R -> ~chi_20 c)
     2.18550668E-02    2     1000025         4   # BR(~c_R -> ~chi_30 c)
     5.73022487E-09    2     1000035         4   # BR(~c_R -> ~chi_40 c)
     9.57089647E-01    2     1000021         4   # BR(~c_R -> ~g      c)
#
#         PDG            Width
DECAY   1000003     2.51120674E+02   # sstrange_L decays
#          BR         NDA      ID1       ID2
     1.71992305E-03    2     1000022         3   # BR(~s_L -> ~chi_10 s)
     2.00088382E-06    2     1000023         3   # BR(~s_L -> ~chi_20 s)
     8.98094242E-04    2     1000025         3   # BR(~s_L -> ~chi_30 s)
     2.83116523E-02    2     1000035         3   # BR(~s_L -> ~chi_40 s)
     1.12792040E-04    2    -1000024         4   # BR(~s_L -> ~chi_1- c)
     5.66256081E-02    2    -1000037         4   # BR(~s_L -> ~chi_2- c)
     9.12329929E-01    2     1000021         3   # BR(~s_L -> ~g      s)
#
#         PDG            Width
DECAY   2000003     2.31666473E+02   # sstrange_R decays
#          BR         NDA      ID1       ID2
     5.43840584E-03    2     1000022         3   # BR(~s_R -> ~chi_10 s)
     4.35996646E-07    2     1000023         3   # BR(~s_R -> ~chi_20 s)
     5.64543848E-03    2     1000025         3   # BR(~s_R -> ~chi_30 s)
     1.48024453E-09    2     1000035         3   # BR(~s_R -> ~chi_40 s)
     9.88915718E-01    2     1000021         3   # BR(~s_R -> ~g      s)
#
#         PDG            Width
DECAY   1000011     2.77632065E+01   # selectron_L decays
#          BR         NDA      ID1       ID2
     9.35912534E-02    2     1000022        11   # BR(~e_L -> ~chi_10 e-)
     1.98981117E-07    2     1000023        11   # BR(~e_L -> ~chi_20 e-)
     1.21936443E-01    2     1000025        11   # BR(~e_L -> ~chi_30 e-)
     2.60980152E-01    2     1000035        11   # BR(~e_L -> ~chi_40 e-)
     1.05153588E-03    2    -1000024        12   # BR(~e_L -> ~chi_1- nu_e)
     5.22440416E-01    2    -1000037        12   # BR(~e_L -> ~chi_2- nu_e)
#
#         PDG            Width
DECAY   2000011     2.38207325E+01   # selectron_R decays
#          BR         NDA      ID1       ID2
     4.90662416E-01    2     1000022        11   # BR(~e_R -> ~chi_10 e-)
     3.93346326E-05    2     1000023        11   # BR(~e_R -> ~chi_20 e-)
     5.09298117E-01    2     1000025        11   # BR(~e_R -> ~chi_30 e-)
     1.32168050E-07    2     1000035        11   # BR(~e_R -> ~chi_40 e-)
#
#         PDG            Width
DECAY   1000013     2.77632065E+01   # smuon_L decays
#          BR         NDA      ID1       ID2
     9.35912534E-02    2     1000022        13   # BR(~mu_L -> ~chi_10 mu-)
     1.98981117E-07    2     1000023        13   # BR(~mu_L -> ~chi_20 mu-)
     1.21936443E-01    2     1000025        13   # BR(~mu_L -> ~chi_30 mu-)
     2.60980152E-01    2     1000035        13   # BR(~mu_L -> ~chi_40 mu-)
     1.05153588E-03    2    -1000024        14   # BR(~mu_L -> ~chi_1- nu_mu)
     5.22440416E-01    2    -1000037        14   # BR(~mu_L -> ~chi_2- nu_mu)
#
#         PDG            Width
DECAY   2000013     2.38207325E+01   # smuon_R decays
#          BR         NDA      ID1       ID2
     4.90662416E-01    2     1000022        13   # BR(~mu_R -> ~chi_10 mu-)
     3.93346326E-05    2     1000023        13   # BR(~mu_R -> ~chi_20 mu-)
     5.09298117E-01    2     1000025        13   # BR(~mu_R -> ~chi_30 mu-)
     1.32168050E-07    2     1000035        13   # BR(~mu_R -> ~chi_40 mu-)
#
#         PDG            Width
DECAY   1000015     2.58313660E+01   # stau_1 decays
#          BR         NDA      ID1       ID2
     2.86327208E-01    2     1000022        15   # BR(~tau_1 -> ~chi_10  tau-)
     4.58496807E-04    2     1000023        15   # BR(~tau_1 -> ~chi_20  tau-)
     2.98257107E-01    2     1000025        15   # BR(~tau_1 -> ~chi_30  tau-)
     1.37458731E-01    2     1000035        15   # BR(~tau_1 -> ~chi_40  tau-)
     2.32757892E-03    2    -1000024        16   # BR(~tau_1 -> ~chi_1-  nu_tau)
     2.75170851E-01    2    -1000037        16   # BR(~tau_1 -> ~chi_2-  nu_tau)
     2.68115565E-08    2     1000039        15   # BR(~tau_1 -> ~G       tau-)
#
#         PDG            Width
DECAY   2000015     2.58454111E+01   # stau_2 decays
#          BR         NDA      ID1       ID2
     2.67211037E-01    2     1000022        15   # BR(~tau_2 -> ~chi_10  tau-)
     7.74610243E-04    2     1000023        15   # BR(~tau_2 -> ~chi_20  tau-)
     3.02865933E-01    2     1000025        15   # BR(~tau_2 -> ~chi_30  tau-)
     1.42962247E-01    2     1000035        15   # BR(~tau_2 -> ~chi_40  tau-)
     6.75195885E-08    2    -1000024        16   # BR(~tau_2 -> ~chi_1-  nu_tau)
     2.86186106E-01    2    -1000037        16   # BR(~tau_2 -> ~chi_2-  nu_tau)
#
#         PDG            Width
DECAY   1000012     2.77625649E+01   # snu_eL decays
#          BR         NDA      ID1       ID2
     1.17582816E-01    2     1000022        12   # BR(~nu_eL -> ~chi_10 nu_e)
     3.91296982E-05    2     1000023        12   # BR(~nu_eL -> ~chi_20 nu_e)
     9.72463518E-02    2     1000025        12   # BR(~nu_eL -> ~chi_30 nu_e)
     2.61285404E-01    2     1000035        12   # BR(~nu_eL -> ~chi_40 nu_e)
     1.75402562E-03    2     1000024        11   # BR(~nu_eL -> ~chi_1+ e-)
     5.22092273E-01    2     1000037        11   # BR(~nu_eL -> ~chi_2+ e-)
#
#         PDG            Width
DECAY   1000014     2.77625649E+01   # snu_muL decays
#          BR         NDA      ID1       ID2
     1.17582816E-01    2     1000022        14   # BR(~nu_muL -> ~chi_10 nu_mu)
     3.91296982E-05    2     1000023        14   # BR(~nu_muL -> ~chi_20 nu_mu)
     9.72463518E-02    2     1000025        14   # BR(~nu_muL -> ~chi_30 nu_mu)
     2.61285404E-01    2     1000035        14   # BR(~nu_muL -> ~chi_40 nu_mu)
     1.75402562E-03    2     1000024        13   # BR(~nu_muL -> ~chi_1+ mu-)
     5.22092273E-01    2     1000037        13   # BR(~nu_muL -> ~chi_2+ mu-)
#
#         PDG            Width
DECAY   1000016     2.77935063E+01   # snu_tauL decays
#          BR         NDA      ID1       ID2
     1.17451916E-01    2     1000022        16   # BR(~nu_tauL -> ~chi_10 nu_tau)
     3.90861367E-05    2     1000023        16   # BR(~nu_tauL -> ~chi_20 nu_tau)
     9.71380915E-02    2     1000025        16   # BR(~nu_tauL -> ~chi_30 nu_tau)
     2.60994525E-01    2     1000035        16   # BR(~nu_tauL -> ~chi_40 nu_tau)
     2.86474742E-03    2     1000024        15   # BR(~nu_tauL -> ~chi_1+ tau-)
     5.21511633E-01    2     1000037        15   # BR(~nu_tauL -> ~chi_2+ tau-)
#
#         PDG            Width
DECAY   1000024     8.77911211E-05   # chargino1+ decays
#          BR         NDA      ID1       ID2
     1.93550547E-07    2     1000039        24   # BR(~chi_1+ -> ~G       W+)
#           BR         NDA      ID1       ID2       ID3
     3.33651445E-01    3     1000022         2        -1   # BR(~chi_1+ -> ~chi_10 u    db)
     3.33651445E-01    3     1000022         4        -3   # BR(~chi_1+ -> ~chi_10 c    sb)
     1.11217281E-01    3     1000022       -11        12   # BR(~chi_1+ -> ~chi_10 e+   nu_e)
     1.11217281E-01    3     1000022       -13        14   # BR(~chi_1+ -> ~chi_10 mu+  nu_mu)
     1.10262353E-01    3     1000022       -15        16   # BR(~chi_1+ -> ~chi_10 tau+ nu_tau)
#
#         PDG            Width
DECAY   1000037     3.58712302E+01   # chargino2+ decays
#          BR         NDA      ID1       ID2
     2.34623280E-01    2     1000024        23   # BR(~chi_2+ -> ~chi_1+  Z )
     1.10686531E-01    2     1000022        24   # BR(~chi_2+ -> ~chi_10  W+)
     2.28646802E-01    2     1000023        24   # BR(~chi_2+ -> ~chi_20  W+)
     1.18063103E-01    2     1000025        24   # BR(~chi_2+ -> ~chi_30  W+)
     2.35716871E-01    2     1000024        25   # BR(~chi_2+ -> ~chi_1+  h )
     1.79389241E-02    2     1000024        35   # BR(~chi_2+ -> ~chi_1+  H )
     1.81972962E-02    2     1000024        36   # BR(~chi_2+ -> ~chi_1+  A )
     1.02553262E-02    2     1000022        37   # BR(~chi_2+ -> ~chi_10  H+)
     1.79821059E-02    2     1000023        37   # BR(~chi_2+ -> ~chi_20  H+)
     7.88975833E-03    2     1000025        37   # BR(~chi_2+ -> ~chi_30  H+)
     1.84770966E-09    2     1000039        24   # BR(~chi_2+ -> ~G       W+)
     1.05195917E-13    2     1000039        37   # BR(~chi_2+ -> ~G       H+)
#
#         PDG            Width
DECAY   1000022     1.85818219E-11   # neutralino1 decays
#          BR         NDA      ID1       ID2
     5.01797857E-01    2     1000039        22   # BR(~chi_10 -> ~G        gam)
     4.87388338E-01    2     1000039        23   # BR(~chi_10 -> ~G        Z)
     1.08138047E-02    2     1000039        25   # BR(~chi_10 -> ~G        h)
#
#         PDG            Width
DECAY   1000023     9.45941795E-05   # neutralino2 decays
#          BR         NDA      ID1       ID2
     4.65610746E-04    2     1000022        22   # BR(~chi_20 -> ~chi_10 gam)
#          BR         NDA      ID1       ID2
     4.65052980E-12    2     1000039        22   # BR(~chi_20 -> ~G        gam)
     6.95633854E-09    2     1000039        23   # BR(~chi_20 -> ~G        Z)
     1.62262882E-07    2     1000039        25   # BR(~chi_20 -> ~G        h)
#           BR         NDA      ID1       ID2       ID3
     1.18871026E-01    3     1000022        -2         2   # BR(~chi_20 -> ~chi_10 ub      u)
     1.53895860E-01    3     1000022        -1         1   # BR(~chi_20 -> ~chi_10 db      d)
     1.18871026E-01    3     1000022        -4         4   # BR(~chi_20 -> ~chi_10 cb      c)
     1.53895860E-01    3     1000022        -3         3   # BR(~chi_20 -> ~chi_10 sb      s)
     1.38494186E-01    3     1000022        -5         5   # BR(~chi_20 -> ~chi_10 bb      b)
     3.51360350E-02    3     1000022       -11        11   # BR(~chi_20 -> ~chi_10 e+      e-)
     3.51360350E-02    3     1000022       -13        13   # BR(~chi_20 -> ~chi_10 mu+     mu-)
     3.47480506E-02    3     1000022       -15        15   # BR(~chi_20 -> ~chi_10 tau+    tau-)
     7.01613226E-02    3     1000022       -12        12   # BR(~chi_20 -> ~chi_10 nu_eb   nu_e)
     7.01613226E-02    3     1000022       -14        14   # BR(~chi_20 -> ~chi_10 nu_mub  nu_mu)
     7.01613226E-02    3     1000022       -16        16   # BR(~chi_20 -> ~chi_10 nu_taub nu_tau)
     4.04497403E-07    3     1000024        -2         1   # BR(~chi_20 -> ~chi_1+ ub      d)
     4.04497403E-07    3    -1000024        -1         2   # BR(~chi_20 -> ~chi_1- db      u)
     4.04497403E-07    3     1000024        -4         3   # BR(~chi_20 -> ~chi_1+ cb      s)
     4.04497403E-07    3    -1000024        -3         4   # BR(~chi_20 -> ~chi_1- sb      c)
     1.34832478E-07    3     1000024       -12        11   # BR(~chi_20 -> ~chi_1+ nu_eb   e-)
     1.34832478E-07    3    -1000024        12       -11   # BR(~chi_20 -> ~chi_1- nu_e    e+)
     1.34832478E-07    3     1000024       -14        13   # BR(~chi_20 -> ~chi_1+ nu_mub  mu-)
     1.34832478E-07    3    -1000024        14       -13   # BR(~chi_20 -> ~chi_1- nu_mu   mu+)
     8.68970046E-09    3     1000024       -16        15   # BR(~chi_20 -> ~chi_1+ nu_taub tau-)
     8.68970046E-09    3    -1000024        16       -15   # BR(~chi_20 -> ~chi_1- nu_tau  tau+)
#
#         PDG            Width
DECAY   1000025     2.75860275E-04   # neutralino3 decays
#          BR         NDA      ID1       ID2
     3.02607514E-04    2     1000022        22   # BR(~chi_30 -> ~chi_10 gam)
     4.77464558E-04    2     1000023        22   # BR(~chi_30 -> ~chi_20 gam)
#          BR         NDA      ID1       ID2
     7.13052262E-08    2     1000039        22   # BR(~chi_30 -> ~G        gam)
     5.73164653E-08    2     1000039        23   # BR(~chi_30 -> ~G        Z)
     1.52966962E-09    2     1000039        25   # BR(~chi_30 -> ~G        h)
#           BR         NDA      ID1       ID2       ID3
     6.90352383E-06    3     1000022        -2         2   # BR(~chi_30 -> ~chi_10 ub      u)
     8.20909944E-06    3     1000022        -1         1   # BR(~chi_30 -> ~chi_10 db      d)
     6.90352383E-06    3     1000022        -4         4   # BR(~chi_30 -> ~chi_10 cb      c)
     8.20909944E-06    3     1000022        -3         3   # BR(~chi_30 -> ~chi_10 sb      s)
     8.82072551E-06    3     1000022        -5         5   # BR(~chi_30 -> ~chi_10 bb      b)
     1.42885354E-06    3     1000022       -11        11   # BR(~chi_30 -> ~chi_10 e+      e-)
     1.42885354E-06    3     1000022       -13        13   # BR(~chi_30 -> ~chi_10 mu+     mu-)
     1.54011674E-06    3     1000022       -15        15   # BR(~chi_30 -> ~chi_10 tau+    tau-)
     4.02227203E-06    3     1000022       -12        12   # BR(~chi_30 -> ~chi_10 nu_eb   nu_e)
     4.02227203E-06    3     1000022       -14        14   # BR(~chi_30 -> ~chi_10 nu_mub  nu_mu)
     4.02227203E-06    3     1000022       -16        16   # BR(~chi_30 -> ~chi_10 nu_taub nu_tau)
     2.68659630E-02    3     1000023        -2         2   # BR(~chi_30 -> ~chi_20 ub      u)
     3.47819909E-02    3     1000023        -1         1   # BR(~chi_30 -> ~chi_20 db      d)
     2.68659630E-02    3     1000023        -4         4   # BR(~chi_30 -> ~chi_20 cb      c)
     3.47819909E-02    3     1000023        -3         3   # BR(~chi_30 -> ~chi_20 sb      s)
     3.08218059E-02    3     1000023        -5         5   # BR(~chi_30 -> ~chi_20 bb      b)
     7.94113793E-03    3     1000023       -11        11   # BR(~chi_30 -> ~chi_20 e+      e-)
     7.94113793E-03    3     1000023       -13        13   # BR(~chi_30 -> ~chi_20 mu+     mu-)
     7.84361798E-03    3     1000023       -15        15   # BR(~chi_30 -> ~chi_20 tau+    tau-)
     1.58570702E-02    3     1000023       -12        12   # BR(~chi_30 -> ~chi_20 nu_eb   nu_e)
     1.58570702E-02    3     1000023       -14        14   # BR(~chi_30 -> ~chi_20 nu_mub  nu_mu)
     1.58570702E-02    3     1000023       -16        16   # BR(~chi_30 -> ~chi_20 nu_taub nu_tau)
     1.29070887E-01    3     1000024        -2         1   # BR(~chi_30 -> ~chi_1+ ub      d)
     1.29070887E-01    3    -1000024        -1         2   # BR(~chi_30 -> ~chi_1- db      u)
     1.29070887E-01    3     1000024        -4         3   # BR(~chi_30 -> ~chi_1+ cb      s)
     1.29070887E-01    3    -1000024        -3         4   # BR(~chi_30 -> ~chi_1- sb      c)
     4.30235556E-02    3     1000024       -12        11   # BR(~chi_30 -> ~chi_1+ nu_eb   e-)
     4.30235556E-02    3    -1000024        12       -11   # BR(~chi_30 -> ~chi_1- nu_e    e+)
     4.30235556E-02    3     1000024       -14        13   # BR(~chi_30 -> ~chi_1+ nu_mub  mu-)
     4.30235556E-02    3    -1000024        14       -13   # BR(~chi_30 -> ~chi_1- nu_mu   mu+)
     4.26858494E-02    3     1000024       -16        15   # BR(~chi_30 -> ~chi_1+ nu_taub tau-)
     4.26858494E-02    3    -1000024        16       -15   # BR(~chi_30 -> ~chi_1- nu_tau  tau+)
#
#         PDG            Width
DECAY   1000035     3.58716340E+01   # neutralino4 decays
#          BR         NDA      ID1       ID2
     1.75227838E-03    2     1000022        23   # BR(~chi_40 -> ~chi_10   Z )
     2.31016357E-01    2     1000023        23   # BR(~chi_40 -> ~chi_20   Z )
     1.96003047E-03    2     1000025        23   # BR(~chi_40 -> ~chi_30   Z )
     2.28516305E-01    2     1000024       -24   # BR(~chi_40 -> ~chi_1+   W-)
     2.28516305E-01    2    -1000024        24   # BR(~chi_40 -> ~chi_1-   W+)
     1.12442350E-01    2     1000022        25   # BR(~chi_40 -> ~chi_10   h )
     1.73566013E-03    2     1000022        35   # BR(~chi_40 -> ~chi_10   H )
     8.49710001E-03    2     1000022        36   # BR(~chi_40 -> ~chi_10   A )
     3.68289252E-03    2     1000023        25   # BR(~chi_40 -> ~chi_20   h )
     1.46141855E-02    2     1000023        35   # BR(~chi_40 -> ~chi_20   H )
     3.28754811E-03    2     1000023        36   # BR(~chi_40 -> ~chi_20   A )
     1.19850856E-01    2     1000025        25   # BR(~chi_40 -> ~chi_30   h )
     1.47041350E-03    2     1000025        35   # BR(~chi_40 -> ~chi_30   H )
     6.40296221E-03    2     1000025        36   # BR(~chi_40 -> ~chi_30   A )
     1.81273770E-02    2     1000024       -37   # BR(~chi_40 -> ~chi_1+   H-)
     1.81273770E-02    2    -1000024        37   # BR(~chi_40 -> ~chi_1-   H+)
     4.43495529E-10    2     1000039        22   # BR(~chi_40 -> ~G        gam)
     1.40404923E-09    2     1000039        23   # BR(~chi_40 -> ~G        Z)
     9.50680005E-14    2     1000039        25   # BR(~chi_40 -> ~G        h)
     1.04125903E-13    2     1000039        35   # BR(~chi_40 -> ~G        H)
     5.88283130E-16    2     1000039        36   # BR(~chi_40 -> ~G        A)
#
#         PDG            Width
DECAY        25     4.21739675E-03   # h decays
#          BR         NDA      ID1       ID2
     6.01734729E-01    2           5        -5   # BR(h -> b       bb     )
     6.22525423E-02    2         -15        15   # BR(h -> tau+    tau-   )
     2.20346860E-04    2         -13        13   # BR(h -> mu+     mu-    )
     4.66211418E-04    2           3        -3   # BR(h -> s       sb     )
     2.01134896E-02    2           4        -4   # BR(h -> c       cb     )
     6.64229004E-02    2          21        21   # BR(h -> g       g      )
     2.31029617E-03    2          22        22   # BR(h -> gam     gam    )
     1.62691283E-03    2          22        23   # BR(h -> Z       gam    )
     2.16765215E-01    2          24       -24   # BR(h -> W+      W-     )
     2.80873568E-02    2          23        23   # BR(h -> Z       Z      )
#
#         PDG            Width
DECAY        35     3.95241344E+01   # H decays
#          BR         NDA      ID1       ID2
     1.41009523E-03    2           5        -5   # BR(H -> b       bb     )
     2.35801675E-04    2         -15        15   # BR(H -> tau+    tau-   )
     8.33646709E-07    2         -13        13   # BR(H -> mu+     mu-    )
     1.06733469E-06    2           3        -3   # BR(H -> s       sb     )
     9.63230102E-06    2           4        -4   # BR(H -> c       cb     )
     9.53085080E-01    2           6        -6   # BR(H -> t       tb     )
     7.63185608E-04    2          21        21   # BR(H -> g       g      )
     2.62659666E-06    2          22        22   # BR(H -> gam     gam    )
     1.10934995E-06    2          23        22   # BR(H -> Z       gam    )
     3.19694375E-04    2          24       -24   # BR(H -> W+      W-     )
     1.59411357E-04    2          23        23   # BR(H -> Z       Z      )
     8.65255300E-04    2          25        25   # BR(H -> h       h      )
     1.28666739E-23    2          36        36   # BR(H -> A       A      )
     5.14984165E-11    2          23        36   # BR(H -> Z       A      )
     5.72741872E-12    2          24       -37   # BR(H -> W+      H-     )
     5.72741872E-12    2         -24        37   # BR(H -> W-      H+     )
     3.34349060E-05    2     1000024  -1000024   # BR(H -> ~chi_1+ ~chi_1-)
     6.02202047E-04    2     1000022   1000022   # BR(H -> ~chi_10 ~chi_10)
     8.43691422E-06    2     1000023   1000023   # BR(H -> ~chi_20 ~chi_20)
     2.93386177E-04    2     1000025   1000025   # BR(H -> ~chi_30 ~chi_30)
     2.36316302E-02    2     1000022   1000023   # BR(H -> ~chi_10 ~chi_20)
     2.00679829E-08    2     1000022   1000025   # BR(H -> ~chi_10 ~chi_30)
     1.85770972E-02    2     1000023   1000025   # BR(H -> ~chi_20 ~chi_30)
#
#         PDG            Width
DECAY        36     3.99689269E+01   # A decays
#          BR         NDA      ID1       ID2
     1.41262955E-03    2           5        -5   # BR(A -> b       bb     )
     2.33336672E-04    2         -15        15   # BR(A -> tau+    tau-   )
     8.24929428E-07    2         -13        13   # BR(A -> mu+     mu-    )
     1.08755036E-06    2           3        -3   # BR(A -> s       sb     )
     9.53040910E-06    2           4        -4   # BR(A -> c       cb     )
     9.53824934E-01    2           6        -6   # BR(A -> t       tb     )
     9.02813420E-04    2          21        21   # BR(A -> g       g      )
     2.76233365E-06    2          22        22   # BR(A -> gam     gam    )
     1.29349828E-06    2          23        22   # BR(A -> Z       gam    )
     3.11325769E-04    2          23        25   # BR(A -> Z       h      )
     6.29385568E-04    2     1000024  -1000024   # BR(A -> ~chi_1+ ~chi_1-)
     2.46452598E-02    2     1000022   1000022   # BR(A -> ~chi_10 ~chi_10)
     6.40075570E-07    2     1000023   1000023   # BR(A -> ~chi_20 ~chi_20)
     1.71274173E-02    2     1000025   1000025   # BR(A -> ~chi_30 ~chi_30)
     4.41921033E-04    2     1000022   1000023   # BR(A -> ~chi_10 ~chi_20)
     5.12729283E-05    2     1000022   1000025   # BR(A -> ~chi_10 ~chi_30)
     4.03565450E-04    2     1000023   1000025   # BR(A -> ~chi_20 ~chi_30)
#
#         PDG            Width
DECAY        37     3.91583716E+01   # H+ decays
#          BR         NDA      ID1       ID2
     2.26698559E-06    2           4        -5   # BR(H+ -> c       bb     )
     2.38414553E-04    2         -15        16   # BR(H+ -> tau+    nu_tau )
     8.42881568E-07    2         -13        14   # BR(H+ -> mu+     nu_mu  )
     1.44131627E-08    2           2        -5   # BR(H+ -> u       bb     )
     5.21977543E-08    2           2        -3   # BR(H+ -> u       sb     )
     1.04005993E-05    2           4        -3   # BR(H+ -> c       sb     )
     9.55976403E-01    2           6        -5   # BR(H+ -> t       bb     )
     3.19218298E-04    2          24        25   # BR(H+ -> W+      h      )
     1.31393063E-12    2          24        36   # BR(H+ -> W+      A      )
     2.17021527E-02    2     1000024   1000022   # BR(H+ -> ~chi_1+ ~chi_10)
     1.47324649E-04    2     1000024   1000023   # BR(H+ -> ~chi_1+ ~chi_20)
     2.16029095E-02    2     1000024   1000025   # BR(H+ -> ~chi_1+ ~chi_30)
