#
#                              ======================
#                              | THE SUSYHIT OUTPUT |
#                              ======================
#
#
#              ------------------------------------------------------
#              |     This is the output of the SUSY-HIT package     |
#              |  created by A.Djouadi, M.Muehlleitner and M.Spira. |
#              |  In case of problems with SUSY-HIT email to        |
#              |           margarete.muehlleitner@kit.edu           |
#              |           michael.spira@psi.ch                     |
#              |           abdelhak.djouadi@cern.ch                 |
#              ------------------------------------------------------
#
#              ------------------------------------------------------
#              |  SUSY Les Houches Accord - MSSM Spectrum + Decays  |
#              |              based on the decay programs           |
#              |                                                    |
#              |                     SDECAY 1.5                     |
#              |                                                    |
#              |  Authors: M.Muhlleitner, A.Djouadi and Y.Mambrini  |
#              |  Ref.:    Comput.Phys.Commun.168(2005)46           |
#              |           [hep-ph/0311167]                         |
#              |                                                    |
#              |                     HDECAY 3.4                     |
#              |                                                    |
#              |  By: A.Djouadi,J.Kalinowski,M.Muhlleitner,M.Spira  |
#              |  Ref.:    Comput.Phys.Commun.108(1998)56           |
#              |           [hep-ph/9704448]                         |
#              |                                                    |
#              |                                                    |
#              |  If not stated otherwise all DRbar couplings and   |
#              |  soft SUSY breaking masses are given at the scale  |
#              |  Q=  0.91187600E+02
#              |                                                    |
#              ------------------------------------------------------
#
#
BLOCK DCINFO  # Decay Program information
     1   SDECAY/HDECAY # decay calculator
     2   1.5  /3.4    # version number
#
BLOCK SPINFO  # Spectrum calculator information
     1   SuSpect     # RGE +Spectrum calculator            
     2   2.43         # version number                     
#
BLOCK MODSEL  # Model selection
     1     2   # GMSB                                              
#
BLOCK SMINPUTS  # Standard Model inputs
         1     1.27932904E+02   # alpha_em^-1(M_Z)^MSbar
         2     1.16639000E-05   # G_F [GeV^-2]
         3     1.17200000E-01   # alpha_S(M_Z)^MSbar
         4     9.11870000E+01   # M_Z pole mass
         5     4.25000000E+00   # mb(mb)^MSbar
         6     1.72900000E+02   # mt pole mass
         7     1.77700000E+00   # mtau pole mass
#
BLOCK MINPAR  # Input parameters - minimal models
#
BLOCK EXTPAR  # Input parameters - non-minimal models
         0     9.11876000E+01   # EWSB                
         1     8.54000000E+02   # M_1                 
         2     3.00000000E+03   # M_2                 
         3     2.00000000E+03   # M_3                 
        11     0.00000000E+00   # A_t                 
        12     0.00000000E+00   # A_b                 
        13     0.00000000E+00   # A_tau               
        14     0.00000000E+00   # A_u                 
        15     0.00000000E+00   # A_d                 
        16     0.00000000E+00   # A_e                 
        23     8.50000000E+02   # mu(EWSB)            
        25     1.50000000E+00   # tanbeta(in)         
        26     2.00000000E+03   # MA_pole             
        31     5.00000000E+03   # M_eL                
        32     5.00000000E+03   # M_muL               
        33     5.00000000E+03   # M_tauL              
        34     5.00000000E+03   # M_eR                
        35     5.00000000E+03   # M_muR               
        36     5.00000000E+03   # M_tauR              
        41     5.00000000E+03   # M_q1L               
        42     5.00000000E+03   # M_q2L               
        43     5.00000000E+03   # M_q3L               
        44     5.00000000E+03   # M_uR                
        45     5.00000000E+03   # M_cR                
        46     5.00000000E+03   # M_tR                
        47     5.00000000E+03   # M_dR                
        48     5.00000000E+03   # M_sR                
        49     5.00000000E+03   # M_bR                
#
BLOCK MASS  # Mass Spectrum
# PDG code           mass       particle
        24     8.05400808E+01   # W+
        25     1.26000000E+02   # h
        35     2.00404270E+03   # H
        36     2.00000000E+03   # A
        37     2.00148292E+03   # H+
         5     4.87877839E+00   # b-quark pole mass calculated from mb(mb)_Msbar
   1000001     4.94269508E+03   # ~d_L
   2000001     4.94258488E+03   # ~d_R
   1000002     4.94244871E+03   # ~u_L
   2000002     4.94250700E+03   # ~u_R
   1000003     4.94269508E+03   # ~s_L
   2000003     4.94258488E+03   # ~s_R
   1000004     4.94244871E+03   # ~c_L
   2000004     4.94250700E+03   # ~c_R
   1000005     4.94228542E+03   # ~b_1
   2000005     4.94299600E+03   # ~b_2
   1000006     5.06970159E+03   # ~t_1
   2000006     5.36954847E+03   # ~t_2
   1000011     5.00008227E+03   # ~e_L
   2000011     5.00007605E+03   # ~e_R
   1000012     4.99984168E+03   # ~nu_eL
   1000013     5.00008227E+03   # ~mu_L
   2000013     5.00007605E+03   # ~mu_R
   1000014     4.99984168E+03   # ~nu_muL
   1000015     4.99985276E+03   # ~tau_1
   2000015     5.00030618E+03   # ~tau_2
   1000016     4.99984168E+03   # ~nu_tauL
   1000021     2.06307172E+03   # ~g
   1000022     8.62251184E+02   # ~chi_10
   1000023    -9.09016236E+02   # ~chi_20
   1000025     9.49400160E+02   # ~chi_30
   1000035     3.12892896E+03   # ~chi_40
   1000024     9.06264803E+02   # ~chi_1+
   1000037     3.12892798E+03   # ~chi_2+
   1000039     8.50937500E-08   # ~gravitino
#
BLOCK NMIX  # Neutralino Mixing Matrix
  1  1     7.10172056E-01   # N_11
  1  2    -2.40779814E-02   # N_12
  1  3     5.00146524E-01   # N_13
  1  4    -4.94903381E-01   # N_14
  2  1     4.81284629E-03   # N_21
  2  2    -3.84922134E-03   # N_22
  2  3    -7.06895586E-01   # N_23
  2  4    -7.07291065E-01   # N_24
  3  1     7.04011362E-01   # N_31
  3  2     2.53086249E-02   # N_32
  3  3    -4.99668810E-01   # N_33
  3  4     5.04042217E-01   # N_34
  4  1     6.99956631E-04   # N_41
  4  2    -9.99382263E-01   # N_42
  4  3    -2.19810301E-02   # N_43
  4  4     2.74123433E-02   # N_44
#
BLOCK UMIX  # Chargino Mixing Matrix U
  1  1    -3.10720304E-02   # U_11
  1  2     9.99517148E-01   # U_12
  2  1     9.99517148E-01   # U_21
  2  2     3.10720304E-02   # U_22
#
BLOCK VMIX  # Chargino Mixing Matrix V
  1  1    -3.87552063E-02   # V_11
  1  2     9.99248735E-01   # V_12
  2  1     9.99248735E-01   # V_21
  2  2     3.87552063E-02   # V_22
#
BLOCK STOPMIX  # Stop Mixing Matrix
  1  1     9.99960275E-01   # cos(theta_t)
  1  2    -8.91338443E-03   # sin(theta_t)
  2  1     8.91338443E-03   # -sin(theta_t)
  2  2     9.99960275E-01   # cos(theta_t)
#
BLOCK SBOTMIX  # Sbottom Mixing Matrix
  1  1     6.49963711E-01   # cos(theta_b)
  1  2     7.59965246E-01   # sin(theta_b)
  2  1    -7.59965246E-01   # -sin(theta_b)
  2  2     6.49963711E-01   # cos(theta_b)
#
BLOCK STAUMIX  # Stau Mixing Matrix
  1  1     7.02237649E-01   # cos(theta_tau)
  1  2     7.11942613E-01   # sin(theta_tau)
  2  1    -7.11942613E-01   # -sin(theta_tau)
  2  2     7.02237649E-01   # cos(theta_tau)
#
BLOCK ALPHA  # Higgs mixing
          -5.90208637E-01   # Mixing angle in the neutral Higgs boson sector
#
BLOCK HMIX Q=  9.11876000E+01  # DRbar Higgs Parameters
         1     8.50000000E+02   # mu(Q)               
         2     1.49999979E+00   # tanbeta(Q)          
         3     2.52038948E+02   # vev(Q)              
         4     3.58239947E+06   # MA^2(Q)             
#
BLOCK GAUGE Q=  9.11876000E+01  # The gauge couplings
     1     3.52850483E-01   # gprime(Q) DRbar
     2     6.27604235E-01   # g(Q) DRbar
     3     1.08044625E+00   # g3(Q) DRbar
#
BLOCK AU Q=  9.11876000E+01  # The trilinear couplings
  1  1     0.00000000E+00   # A_u(Q) DRbar
  2  2     0.00000000E+00   # A_c(Q) DRbar
  3  3     0.00000000E+00   # A_t(Q) DRbar
#
BLOCK AD Q=  9.11876000E+01  # The trilinear couplings
  1  1     0.00000000E+00   # A_d(Q) DRbar
  2  2     0.00000000E+00   # A_s(Q) DRbar
  3  3     0.00000000E+00   # A_b(Q) DRbar
#
BLOCK AE Q=  9.11876000E+01  # The trilinear couplings
  1  1     0.00000000E+00   # A_e(Q) DRbar
  2  2     0.00000000E+00   # A_mu(Q) DRbar
  3  3     0.00000000E+00   # A_tau(Q) DRbar
#
BLOCK Yu Q=  9.11876000E+01  # The Yukawa couplings
  1  1     0.00000000E+00   # y_u(Q) DRbar
  2  2     0.00000000E+00   # y_c(Q) DRbar
  3  3     1.02612346E+00   # y_t(Q) DRbar
#
BLOCK Yd Q=  9.11876000E+01  # The Yukawa couplings
  1  1     0.00000000E+00   # y_d(Q) DRbar
  2  2     0.00000000E+00   # y_s(Q) DRbar
  3  3     2.71929373E-02   # y_b(Q) DRbar
#
BLOCK Ye Q=  9.11876000E+01  # The Yukawa couplings
  1  1     0.00000000E+00   # y_e(Q) DRbar
  2  2     0.00000000E+00   # y_mu(Q) DRbar
  3  3     1.79851766E-02   # y_tau(Q) DRbar
#
BLOCK MSOFT Q=  9.11876000E+01  # The soft SUSY breaking masses at the scale Q
         1     8.54000000E+02   # M_1                 
         2     3.00000000E+03   # M_2                 
         3     2.00000000E+03   # M_3                 
        14     0.00000000E+00   # A_u                 
        15     0.00000000E+00   # A_d                 
        16     0.00000000E+00   # A_e                 
        21     2.24378299E+06   # M^2_Hd              
        22    -6.07926890E+06   # M^2_Hu              
        31     5.00000000E+03   # M_eL                
        32     5.00000000E+03   # M_muL               
        33     5.00000000E+03   # M_tauL              
        34     5.00000000E+03   # M_eR                
        35     5.00000000E+03   # M_muR               
        36     5.00000000E+03   # M_tauR              
        41     5.00000000E+03   # M_q1L               
        42     5.00000000E+03   # M_q2L               
        43     5.00000000E+03   # M_q3L               
        44     5.00000000E+03   # M_uR                
        45     5.00000000E+03   # M_cR                
        46     5.00000000E+03   # M_tR                
        47     5.00000000E+03   # M_dR                
        48     5.00000000E+03   # M_sR                
        49     5.00000000E+03   # M_bR                
#
#
#
#                             =================
#                             |The decay table|
#                             =================
#
# - The QCD corrections to the decays gluino -> squark  + quark
#                                     squark -> gaugino + quark_prime
#                                     squark -> squark_prime + Higgs
#                                     squark -> gluino  + quark
#   are included.
#
# - The multi-body decays for the inos, stops and sbottoms are included.
#
# - The loop induced decays for the gluino, neutralinos and stops
#   are included.
#
# - The SUSY decays of the top quark are included.
#
# - Possible decays of the NLSP in GMSB models are included.
#
#
#         PDG            Width
DECAY         6     1.37240363E+00   # top decays
#          BR         NDA      ID1       ID2
     1.00000000E+00    2           5        24   # BR(t ->  b    W+)
#
#         PDG            Width
DECAY   1000021     1.16322386E-03   # gluino decays
#          BR         NDA      ID1       ID2
     7.73558168E-03    2     1000022        21   # BR(~g -> ~chi_10 g)
     1.44926974E-02    2     1000023        21   # BR(~g -> ~chi_20 g)
     6.68630902E-03    2     1000025        21   # BR(~g -> ~chi_30 g)
#          BR         NDA      ID1       ID2
     5.10857071E-06    2     1000039        21   # BR(~g -> ~G      g)
#           BR         NDA      ID1       ID2       ID3
     6.08755491E-03    3     1000022         1        -1   # BR(~g -> ~chi_10 d  db)
     5.81533689E-07    3     1000023         1        -1   # BR(~g -> ~chi_20 d  db)
     4.00089045E-03    3     1000025         1        -1   # BR(~g -> ~chi_30 d  db)
     1.88143070E-02    3     1000022         2        -2   # BR(~g -> ~chi_10 u  ub)
     4.88743014E-07    3     1000023         2        -2   # BR(~g -> ~chi_20 u  ub)
     1.49798490E-02    3     1000025         2        -2   # BR(~g -> ~chi_30 u  ub)
     6.08755491E-03    3     1000022         3        -3   # BR(~g -> ~chi_10 s  sb)
     5.81533689E-07    3     1000023         3        -3   # BR(~g -> ~chi_20 s  sb)
     4.00089045E-03    3     1000025         3        -3   # BR(~g -> ~chi_30 s  sb)
     1.88143070E-02    3     1000022         4        -4   # BR(~g -> ~chi_10 c  cb)
     4.88743014E-07    3     1000023         4        -4   # BR(~g -> ~chi_20 c  cb)
     1.49798490E-02    3     1000025         4        -4   # BR(~g -> ~chi_30 c  cb)
     6.18529544E-03    3     1000022         5        -5   # BR(~g -> ~chi_10 b  bb)
     2.21153463E-04    3     1000023         5        -5   # BR(~g -> ~chi_20 b  bb)
     4.11718425E-03    3     1000025         5        -5   # BR(~g -> ~chi_30 b  bb)
     1.08097902E-01    3     1000022         6        -6   # BR(~g -> ~chi_10 t  tb)
     1.83099080E-01    3     1000023         6        -6   # BR(~g -> ~chi_20 t  tb)
     1.12394156E-01    3     1000025         6        -6   # BR(~g -> ~chi_30 t  tb)
     1.37854178E-04    3     1000024         1        -2   # BR(~g -> ~chi_1+ d  ub)
     1.37854178E-04    3    -1000024         2        -1   # BR(~g -> ~chi_1- u  db)
     1.37854178E-04    3     1000024         3        -4   # BR(~g -> ~chi_1+ s  cb)
     1.37854178E-04    3    -1000024         4        -3   # BR(~g -> ~chi_1- c  sb)
     2.34323386E-01    3     1000024         5        -6   # BR(~g -> ~chi_1+ b  tb)
     2.34323386E-01    3    -1000024         6        -5   # BR(~g -> ~chi_1- t  bb)
#
#         PDG            Width
DECAY   1000006     2.81161764E+02   # stop1 decays
#          BR         NDA      ID1       ID2
     5.88133986E-02    2     1000022         6   # BR(~t_1 -> ~chi_10 t )
     1.21259262E-01    2     1000023         6   # BR(~t_1 -> ~chi_20 t )
     6.44691523E-02    2     1000025         6   # BR(~t_1 -> ~chi_30 t )
     2.64310106E-02    2     1000035         6   # BR(~t_1 -> ~chi_40 t )
     1.54879219E-05    2     1000024         5   # BR(~t_1 -> ~chi_1+ b )
     5.25978954E-02    2     1000037         5   # BR(~t_1 -> ~chi_2+ b )
     6.58888918E-01    2     1000021         6   # BR(~t_1 -> ~g      t )
     7.52231370E-03    2     1000005        24   # BR(~t_1 -> ~b_1    W+)
     1.00025607E-02    2     2000005        24   # BR(~t_1 -> ~b_2    W+)
#
#         PDG            Width
DECAY   2000006     3.59311118E+02   # stop2 decays
#          BR         NDA      ID1       ID2
     6.64659717E-02    2     1000022         6   # BR(~t_2 -> ~chi_10 t )
     1.01895131E-01    2     1000023         6   # BR(~t_2 -> ~chi_20 t )
     6.51136112E-02    2     1000025         6   # BR(~t_2 -> ~chi_30 t )
    -1.87732250E-05    2     1000035         6   # BR(~t_2 -> ~chi_40 t )
     2.04057629E-01    2     1000024         5   # BR(~t_2 -> ~chi_1+ b )
    -3.72175686E-05    2     1000037         5   # BR(~t_2 -> ~chi_2+ b )
     5.62554173E-01    2     1000021         6   # BR(~t_2 -> ~g      t )
    -1.08558366E-04    2     1000006        25   # BR(~t_2 -> ~t_1    h )
     1.21114440E-05    2     1000006        23   # BR(~t_2 -> ~t_1    Z )
     2.78984712E-05    2     1000005        24   # BR(~t_2 -> ~b_1    W+)
     3.80233009E-05    2     2000005        24   # BR(~t_2 -> ~b_2    W+)
#
#         PDG            Width
DECAY   1000005     2.10422149E+02   # sbottom1 decays
#          BR         NDA      ID1       ID2
     5.47341658E-03    2     1000022         5   # BR(~b_1 -> ~chi_10 b )
     9.28932813E-05    2     1000023         5   # BR(~b_1 -> ~chi_20 b )
     3.28313079E-03    2     1000025         5   # BR(~b_1 -> ~chi_30 b )
     1.15213519E-02    2     1000035         5   # BR(~b_1 -> ~chi_40 b )
     1.05911093E-01    2    -1000024         6   # BR(~b_1 -> ~chi_1- t )
     2.31530971E-02    2    -1000037         6   # BR(~b_1 -> ~chi_2- t )
     8.50565018E-01    2     1000021         5   # BR(~b_1 -> ~g      b )
#
#         PDG            Width
DECAY   2000005     2.37159273E+02   # sbottom2 decays
#          BR         NDA      ID1       ID2
     2.31386567E-03    2     1000022         5   # BR(~b_2 -> ~chi_10 b )
     1.17245305E-04    2     1000023         5   # BR(~b_2 -> ~chi_20 b )
     3.10044907E-03    2     1000025         5   # BR(~b_2 -> ~chi_30 b )
     1.81992822E-02    2     1000035         5   # BR(~b_2 -> ~chi_40 b )
     1.85541949E-01    2    -1000024         6   # BR(~b_2 -> ~chi_1- t )
     3.65859548E-02    2    -1000037         6   # BR(~b_2 -> ~chi_2- t )
     7.54141254E-01    2     1000021         5   # BR(~b_2 -> ~g      b )
#
#         PDG            Width
DECAY   1000002     1.99798305E+02   # sup_L decays
#          BR         NDA      ID1       ID2
     1.04378684E-03    2     1000022         2   # BR(~u_L -> ~chi_10 u)
     7.57680791E-07    2     1000023         2   # BR(~u_L -> ~chi_20 u)
     2.14318702E-03    2     1000025         2   # BR(~u_L -> ~chi_30 u)
     3.37112959E-02    2     1000035         2   # BR(~u_L -> ~chi_40 u)
     2.62131960E-04    2     1000024         1   # BR(~u_L -> ~chi_1+ d)
     6.74223305E-02    2     1000037         1   # BR(~u_L -> ~chi_2+ d)
     8.95416510E-01    2     1000021         2   # BR(~u_L -> ~g      u)
#
#         PDG            Width
DECAY   2000002     1.88703814E+02   # sup_R decays
#          BR         NDA      ID1       ID2
     2.63566406E-02    2     1000022         2   # BR(~u_R -> ~chi_10 u)
     1.20214297E-06    2     1000023         2   # BR(~u_R -> ~chi_20 u)
     2.55606638E-02    2     1000025         2   # BR(~u_R -> ~chi_30 u)
     9.84204739E-09    2     1000035         2   # BR(~u_R -> ~chi_40 u)
     9.48081484E-01    2     1000021         2   # BR(~u_R -> ~g      u)
#
#         PDG            Width
DECAY   1000001     1.99804414E+02   # sdown_L decays
#          BR         NDA      ID1       ID2
     2.16970762E-03    2     1000022         1   # BR(~d_L -> ~chi_10 d)
     1.96907450E-06    2     1000023         1   # BR(~d_L -> ~chi_20 d)
     9.85502569E-04    2     1000025         1   # BR(~d_L -> ~chi_30 d)
     3.37341075E-02    2     1000035         1   # BR(~d_L -> ~chi_40 d)
     1.68504206E-04    2    -1000024         2   # BR(~d_L -> ~chi_1- u)
     6.74687717E-02    2    -1000037         2   # BR(~d_L -> ~chi_2- u)
     8.95471437E-01    2     1000021         1   # BR(~d_L -> ~g      d)
#
#         PDG            Width
DECAY   2000001     1.81361140E+02   # sdown_R decays
#          BR         NDA      ID1       ID2
     6.85605478E-03    2     1000022         1   # BR(~d_R -> ~chi_10 d)
     3.12709045E-07    2     1000023         1   # BR(~d_R -> ~chi_20 d)
     6.64900317E-03    2     1000025         1   # BR(~d_R -> ~chi_30 d)
     2.56027660E-09    2     1000035         1   # BR(~d_R -> ~chi_40 d)
     9.86494627E-01    2     1000021         1   # BR(~d_R -> ~g      d)
#
#         PDG            Width
DECAY   1000004     1.99798305E+02   # scharm_L decays
#          BR         NDA      ID1       ID2
     1.04378684E-03    2     1000022         4   # BR(~c_L -> ~chi_10 c)
     7.57680791E-07    2     1000023         4   # BR(~c_L -> ~chi_20 c)
     2.14318702E-03    2     1000025         4   # BR(~c_L -> ~chi_30 c)
     3.37112959E-02    2     1000035         4   # BR(~c_L -> ~chi_40 c)
     2.62131960E-04    2     1000024         3   # BR(~c_L -> ~chi_1+ s)
     6.74223305E-02    2     1000037         3   # BR(~c_L -> ~chi_2+ s)
     8.95416510E-01    2     1000021         4   # BR(~c_L -> ~g      c)
#
#         PDG            Width
DECAY   2000004     1.88703814E+02   # scharm_R decays
#          BR         NDA      ID1       ID2
     2.63566406E-02    2     1000022         4   # BR(~c_R -> ~chi_10 c)
     1.20214297E-06    2     1000023         4   # BR(~c_R -> ~chi_20 c)
     2.55606638E-02    2     1000025         4   # BR(~c_R -> ~chi_30 c)
     9.84204739E-09    2     1000035         4   # BR(~c_R -> ~chi_40 c)
     9.48081484E-01    2     1000021         4   # BR(~c_R -> ~g      c)
#
#         PDG            Width
DECAY   1000003     1.99804414E+02   # sstrange_L decays
#          BR         NDA      ID1       ID2
     2.16970762E-03    2     1000022         3   # BR(~s_L -> ~chi_10 s)
     1.96907450E-06    2     1000023         3   # BR(~s_L -> ~chi_20 s)
     9.85502569E-04    2     1000025         3   # BR(~s_L -> ~chi_30 s)
     3.37341075E-02    2     1000035         3   # BR(~s_L -> ~chi_40 s)
     1.68504206E-04    2    -1000024         4   # BR(~s_L -> ~chi_1- c)
     6.74687717E-02    2    -1000037         4   # BR(~s_L -> ~chi_2- c)
     8.95471437E-01    2     1000021         3   # BR(~s_L -> ~g      s)
#
#         PDG            Width
DECAY   2000003     1.81361140E+02   # sstrange_R decays
#          BR         NDA      ID1       ID2
     6.85605478E-03    2     1000022         3   # BR(~s_R -> ~chi_10 s)
     3.12709045E-07    2     1000023         3   # BR(~s_R -> ~chi_20 s)
     6.64900317E-03    2     1000025         3   # BR(~s_R -> ~chi_30 s)
     2.56027660E-09    2     1000035         3   # BR(~s_R -> ~chi_40 s)
     9.86494627E-01    2     1000021         3   # BR(~s_R -> ~g      s)
#
#         PDG            Width
DECAY   1000011     2.75859907E+01   # selectron_L decays
#          BR         NDA      ID1       ID2
     9.41129319E-02    2     1000022        11   # BR(~e_L -> ~chi_10 e-)
     8.68014732E-07    2     1000023        11   # BR(~e_L -> ~chi_20 e-)
     1.17022999E-01    2     1000025        11   # BR(~e_L -> ~chi_30 e-)
     2.62341633E-01    2     1000035        11   # BR(~e_L -> ~chi_40 e-)
     1.28267309E-03    2    -1000024        12   # BR(~e_L -> ~chi_1- nu_e)
     5.25238896E-01    2    -1000037        12   # BR(~e_L -> ~chi_2- nu_e)
#
#         PDG            Width
DECAY   2000011     2.31682893E+01   # selectron_R decays
#          BR         NDA      ID1       ID2
     5.07608937E-01    2     1000022        11   # BR(~e_R -> ~chi_10 e-)
     2.31544763E-05    2     1000023        11   # BR(~e_R -> ~chi_20 e-)
     4.92367714E-01    2     1000025        11   # BR(~e_R -> ~chi_30 e-)
     1.93887888E-07    2     1000035        11   # BR(~e_R -> ~chi_40 e-)
#
#         PDG            Width
DECAY   1000013     2.75859907E+01   # smuon_L decays
#          BR         NDA      ID1       ID2
     9.41129319E-02    2     1000022        13   # BR(~mu_L -> ~chi_10 mu-)
     8.68014732E-07    2     1000023        13   # BR(~mu_L -> ~chi_20 mu-)
     1.17022999E-01    2     1000025        13   # BR(~mu_L -> ~chi_30 mu-)
     2.62341633E-01    2     1000035        13   # BR(~mu_L -> ~chi_40 mu-)
     1.28267309E-03    2    -1000024        14   # BR(~mu_L -> ~chi_1- nu_mu)
     5.25238896E-01    2    -1000037        14   # BR(~mu_L -> ~chi_2- nu_mu)
#
#         PDG            Width
DECAY   2000013     2.31682893E+01   # smuon_R decays
#          BR         NDA      ID1       ID2
     5.07608937E-01    2     1000022        13   # BR(~mu_R -> ~chi_10 mu-)
     2.31544763E-05    2     1000023        13   # BR(~mu_R -> ~chi_20 mu-)
     4.92367714E-01    2     1000025        13   # BR(~mu_R -> ~chi_30 mu-)
     1.93887888E-07    2     1000035        13   # BR(~mu_R -> ~chi_40 mu-)
#
#         PDG            Width
DECAY   1000015     2.54226793E+01   # stau_1 decays
#          BR         NDA      ID1       ID2
     2.91366770E-01    2     1000022        15   # BR(~tau_1 -> ~chi_10  tau-)
     4.67238862E-04    2     1000023        15   # BR(~tau_1 -> ~chi_20  tau-)
     2.84992768E-01    2     1000025        15   # BR(~tau_1 -> ~chi_30  tau-)
     1.40102409E-01    2     1000035        15   # BR(~tau_1 -> ~chi_40  tau-)
     2.56859878E-03    2    -1000024        16   # BR(~tau_1 -> ~chi_1-  nu_tau)
     2.80502195E-01    2    -1000037        16   # BR(~tau_1 -> ~chi_2-  nu_tau)
     1.95414073E-08    2     1000039        15   # BR(~tau_1 -> ~G       tau-)
#
#         PDG            Width
DECAY   2000015     2.54218446E+01   # stau_2 decays
#          BR         NDA      ID1       ID2
     2.73953397E-01    2     1000022        15   # BR(~tau_2 -> ~chi_10  tau-)
     7.37472934E-04    2     1000023        15   # BR(~tau_2 -> ~chi_20  tau-)
     2.91293262E-01    2     1000025        15   # BR(~tau_2 -> ~chi_30  tau-)
     1.44568559E-01    2     1000035        15   # BR(~tau_2 -> ~chi_40  tau-)
     5.80894485E-06    2    -1000024        16   # BR(~tau_2 -> ~chi_1-  nu_tau)
     2.89441501E-01    2    -1000037        16   # BR(~tau_2 -> ~chi_2-  nu_tau)
#
#         PDG            Width
DECAY   1000012     2.75857926E+01   # snu_eL decays
#          BR         NDA      ID1       ID2
     1.19816421E-01    2     1000022        12   # BR(~nu_eL -> ~chi_10 nu_e)
     2.85301511E-05    2     1000023        12   # BR(~nu_eL -> ~chi_20 nu_e)
     9.05775337E-02    2     1000025        12   # BR(~nu_eL -> ~chi_30 nu_e)
     2.62711863E-01    2     1000035        12   # BR(~nu_eL -> ~chi_40 nu_e)
     1.99533677E-03    2     1000024        11   # BR(~nu_eL -> ~chi_1+ e-)
     5.24870315E-01    2     1000037        11   # BR(~nu_eL -> ~chi_2+ e-)
#
#         PDG            Width
DECAY   1000014     2.75857926E+01   # snu_muL decays
#          BR         NDA      ID1       ID2
     1.19816421E-01    2     1000022        14   # BR(~nu_muL -> ~chi_10 nu_mu)
     2.85301511E-05    2     1000023        14   # BR(~nu_muL -> ~chi_20 nu_mu)
     9.05775337E-02    2     1000025        14   # BR(~nu_muL -> ~chi_30 nu_mu)
     2.62711863E-01    2     1000035        14   # BR(~nu_muL -> ~chi_40 nu_mu)
     1.99533677E-03    2     1000024        13   # BR(~nu_muL -> ~chi_1+ mu-)
     5.24870315E-01    2     1000037        13   # BR(~nu_muL -> ~chi_2+ mu-)
#
#         PDG            Width
DECAY   1000016     2.76158685E+01   # snu_tauL decays
#          BR         NDA      ID1       ID2
     1.19685932E-01    2     1000022        16   # BR(~nu_tauL -> ~chi_10 nu_tau)
     2.84990795E-05    2     1000023        16   # BR(~nu_tauL -> ~chi_20 nu_tau)
     9.04788875E-02    2     1000025        16   # BR(~nu_tauL -> ~chi_30 nu_tau)
     2.62425749E-01    2     1000035        16   # BR(~nu_tauL -> ~chi_40 nu_tau)
     3.08150249E-03    2     1000024        15   # BR(~nu_tauL -> ~chi_1+ tau-)
     5.24299431E-01    2     1000037        15   # BR(~nu_tauL -> ~chi_2+ tau-)
#
#         PDG            Width
DECAY   1000024     1.03135273E-04   # chargino1+ decays
#          BR         NDA      ID1       ID2
     4.57550308E-07    2     1000039        24   # BR(~chi_1+ -> ~G       W+)
#           BR         NDA      ID1       ID2       ID3
     3.33631152E-01    3     1000022         2        -1   # BR(~chi_1+ -> ~chi_10 u    db)
     3.33631152E-01    3     1000022         4        -3   # BR(~chi_1+ -> ~chi_10 c    sb)
     1.11210516E-01    3     1000022       -11        12   # BR(~chi_1+ -> ~chi_10 e+   nu_e)
     1.11210516E-01    3     1000022       -13        14   # BR(~chi_1+ -> ~chi_10 mu+  nu_mu)
     1.10316207E-01    3     1000022       -15        16   # BR(~chi_1+ -> ~chi_10 tau+ nu_tau)
#
#         PDG            Width
DECAY   1000037     3.66902066E+01   # chargino2+ decays
#          BR         NDA      ID1       ID2
     2.44819612E-01    2     1000024        23   # BR(~chi_2+ -> ~chi_1+  Z )
     1.11759387E-01    2     1000022        24   # BR(~chi_2+ -> ~chi_10  W+)
     2.38472365E-01    2     1000023        24   # BR(~chi_2+ -> ~chi_20  W+)
     1.26910488E-01    2     1000025        24   # BR(~chi_2+ -> ~chi_30  W+)
     2.45922318E-01    2     1000024        25   # BR(~chi_2+ -> ~chi_1+  h )
     7.91297566E-03    2     1000024        35   # BR(~chi_2+ -> ~chi_1+  H )
     8.12721085E-03    2     1000024        36   # BR(~chi_2+ -> ~chi_1+  A )
     4.83545029E-03    2     1000022        37   # BR(~chi_2+ -> ~chi_10  H+)
     7.96528528E-03    2     1000023        37   # BR(~chi_2+ -> ~chi_20  H+)
     3.27490681E-03    2     1000025        37   # BR(~chi_2+ -> ~chi_30  H+)
     1.29557601E-09    2     1000039        24   # BR(~chi_2+ -> ~G       W+)
     8.95164387E-14    2     1000039        37   # BR(~chi_2+ -> ~G       H+)
#
#         PDG            Width
DECAY   1000022     5.56297696E-11   # neutralino1 decays
#          BR         NDA      ID1       ID2
     5.02317182E-01    2     1000039        22   # BR(~chi_10 -> ~G        gam)
     4.86659491E-01    2     1000039        23   # BR(~chi_10 -> ~G        Z)
     1.10233269E-02    2     1000039        25   # BR(~chi_10 -> ~G        h)
#
#         PDG            Width
DECAY   1000023     1.12837725E-04   # neutralino2 decays
#          BR         NDA      ID1       ID2
     3.11954460E-04    2     1000022        22   # BR(~chi_20 -> ~chi_10 gam)
#          BR         NDA      ID1       ID2
     4.66218686E-12    2     1000039        22   # BR(~chi_20 -> ~G        gam)
     1.62238369E-08    2     1000039        23   # BR(~chi_20 -> ~G        Z)
     3.89441963E-07    2     1000039        25   # BR(~chi_20 -> ~G        h)
#           BR         NDA      ID1       ID2       ID3
     1.18763283E-01    3     1000022        -2         2   # BR(~chi_20 -> ~chi_10 ub      u)
     1.53765069E-01    3     1000022        -1         1   # BR(~chi_20 -> ~chi_10 db      d)
     1.18763283E-01    3     1000022        -4         4   # BR(~chi_20 -> ~chi_10 cb      c)
     1.53765069E-01    3     1000022        -3         3   # BR(~chi_20 -> ~chi_10 sb      s)
     1.39328446E-01    3     1000022        -5         5   # BR(~chi_20 -> ~chi_10 bb      b)
     3.51101892E-02    3     1000022       -11        11   # BR(~chi_20 -> ~chi_10 e+      e-)
     3.51101892E-02    3     1000022       -13        13   # BR(~chi_20 -> ~chi_10 mu+     mu-)
     3.47422439E-02    3     1000022       -15        15   # BR(~chi_20 -> ~chi_10 tau+    tau-)
     7.01123581E-02    3     1000022       -12        12   # BR(~chi_20 -> ~chi_10 nu_eb   nu_e)
     7.01123581E-02    3     1000022       -14        14   # BR(~chi_20 -> ~chi_10 nu_mub  nu_mu)
     7.01123581E-02    3     1000022       -16        16   # BR(~chi_20 -> ~chi_10 nu_taub nu_tau)
     5.16685324E-07    3     1000024        -2         1   # BR(~chi_20 -> ~chi_1+ ub      d)
     5.16685324E-07    3    -1000024        -1         2   # BR(~chi_20 -> ~chi_1- db      u)
     5.16685324E-07    3     1000024        -4         3   # BR(~chi_20 -> ~chi_1+ cb      s)
     5.16685324E-07    3    -1000024        -3         4   # BR(~chi_20 -> ~chi_1- sb      c)
     1.72228453E-07    3     1000024       -12        11   # BR(~chi_20 -> ~chi_1+ nu_eb   e-)
     1.72228453E-07    3    -1000024        12       -11   # BR(~chi_20 -> ~chi_1- nu_e    e+)
     1.72228453E-07    3     1000024       -14        13   # BR(~chi_20 -> ~chi_1+ nu_mub  mu-)
     1.72228453E-07    3    -1000024        14       -13   # BR(~chi_20 -> ~chi_1- nu_mu   mu+)
     1.89111893E-08    3     1000024       -16        15   # BR(~chi_20 -> ~chi_1+ nu_taub tau-)
     1.89111893E-08    3    -1000024        16       -15   # BR(~chi_20 -> ~chi_1- nu_tau  tau+)
#
#         PDG            Width
DECAY   1000025     2.42319383E-04   # neutralino3 decays
#          BR         NDA      ID1       ID2
     3.46039148E-04    2     1000022        22   # BR(~chi_30 -> ~chi_10 gam)
     3.78514288E-04    2     1000023        22   # BR(~chi_30 -> ~chi_20 gam)
#          BR         NDA      ID1       ID2
     1.98382641E-07    2     1000039        22   # BR(~chi_30 -> ~G        gam)
     1.69179735E-07    2     1000039        23   # BR(~chi_30 -> ~G        Z)
     4.66511178E-09    2     1000039        25   # BR(~chi_30 -> ~G        h)
#           BR         NDA      ID1       ID2       ID3
     1.03397837E-05    3     1000022        -2         2   # BR(~chi_30 -> ~chi_10 ub      u)
     1.23745161E-05    3     1000022        -1         1   # BR(~chi_30 -> ~chi_10 db      d)
     1.03397837E-05    3     1000022        -4         4   # BR(~chi_30 -> ~chi_10 cb      c)
     1.23745161E-05    3     1000022        -3         3   # BR(~chi_30 -> ~chi_10 sb      s)
     1.61111911E-05    3     1000022        -5         5   # BR(~chi_30 -> ~chi_10 bb      b)
     2.21010352E-06    3     1000022       -11        11   # BR(~chi_30 -> ~chi_10 e+      e-)
     2.21010352E-06    3     1000022       -13        13   # BR(~chi_30 -> ~chi_10 mu+     mu-)
     2.80199948E-06    3     1000022       -15        15   # BR(~chi_30 -> ~chi_10 tau+    tau-)
     6.02112066E-06    3     1000022       -12        12   # BR(~chi_30 -> ~chi_10 nu_eb   nu_e)
     6.02112066E-06    3     1000022       -14        14   # BR(~chi_30 -> ~chi_10 nu_mub  nu_mu)
     6.02112066E-06    3     1000022       -16        16   # BR(~chi_30 -> ~chi_10 nu_taub nu_tau)
     2.61457017E-02    3     1000023        -2         2   # BR(~chi_30 -> ~chi_20 ub      u)
     3.38514031E-02    3     1000023        -1         1   # BR(~chi_30 -> ~chi_20 db      d)
     2.61457017E-02    3     1000023        -4         4   # BR(~chi_30 -> ~chi_20 cb      c)
     3.38514031E-02    3     1000023        -3         3   # BR(~chi_30 -> ~chi_20 sb      s)
     2.97134998E-02    3     1000023        -5         5   # BR(~chi_30 -> ~chi_20 bb      b)
     7.72954326E-03    3     1000023       -11        11   # BR(~chi_30 -> ~chi_20 e+      e-)
     7.72954326E-03    3     1000023       -13        13   # BR(~chi_30 -> ~chi_20 mu+     mu-)
     7.62881171E-03    3     1000023       -15        15   # BR(~chi_30 -> ~chi_20 tau+    tau-)
     1.54351731E-02    3     1000023       -12        12   # BR(~chi_30 -> ~chi_20 nu_eb   nu_e)
     1.54351731E-02    3     1000023       -14        14   # BR(~chi_30 -> ~chi_20 nu_mub  nu_mu)
     1.54351731E-02    3     1000023       -16        16   # BR(~chi_30 -> ~chi_20 nu_taub nu_tau)
     1.30135711E-01    3     1000024        -2         1   # BR(~chi_30 -> ~chi_1+ ub      d)
     1.30135711E-01    3    -1000024        -1         2   # BR(~chi_30 -> ~chi_1- db      u)
     1.30135711E-01    3     1000024        -4         3   # BR(~chi_30 -> ~chi_1+ cb      s)
     1.30135711E-01    3    -1000024        -3         4   # BR(~chi_30 -> ~chi_1- sb      c)
     4.33785008E-02    3     1000024       -12        11   # BR(~chi_30 -> ~chi_1+ nu_eb   e-)
     4.33785008E-02    3    -1000024        12       -11   # BR(~chi_30 -> ~chi_1- nu_e    e+)
     4.33785008E-02    3     1000024       -14        13   # BR(~chi_30 -> ~chi_1+ nu_mub  mu-)
     4.33785008E-02    3    -1000024        14       -13   # BR(~chi_30 -> ~chi_1- nu_mu   mu+)
     4.30151381E-02    3     1000024       -16        15   # BR(~chi_30 -> ~chi_1+ nu_taub tau-)
     4.30151381E-02    3    -1000024        16       -15   # BR(~chi_30 -> ~chi_1- nu_tau  tau+)
#
#         PDG            Width
DECAY   1000035     3.66906002E+01   # neutralino4 decays
#          BR         NDA      ID1       ID2
     1.35422655E-03    2     1000022        23   # BR(~chi_40 -> ~chi_10   Z )
     2.41967932E-01    2     1000023        23   # BR(~chi_40 -> ~chi_20   Z )
     1.55878638E-03    2     1000025        23   # BR(~chi_40 -> ~chi_30   Z )
     2.38397333E-01    2     1000024       -24   # BR(~chi_40 -> ~chi_1+   W-)
     2.38397333E-01    2    -1000024        24   # BR(~chi_40 -> ~chi_1-   W+)
     1.13946821E-01    2     1000022        25   # BR(~chi_40 -> ~chi_10   h )
     1.46234535E-03    2     1000022        35   # BR(~chi_40 -> ~chi_10   H )
     3.34233779E-03    2     1000022        36   # BR(~chi_40 -> ~chi_10   A )
     2.88094139E-03    2     1000023        25   # BR(~chi_40 -> ~chi_20   h )
     5.11715147E-03    2     1000023        35   # BR(~chi_40 -> ~chi_20   H )
     2.78466255E-03    2     1000023        36   # BR(~chi_40 -> ~chi_20   A )
     1.29380995E-01    2     1000025        25   # BR(~chi_40 -> ~chi_30   h )
     1.23251692E-03    2     1000025        35   # BR(~chi_40 -> ~chi_30   H )
     2.01609954E-03    2     1000025        36   # BR(~chi_40 -> ~chi_30   A )
     8.08025841E-03    2     1000024       -37   # BR(~chi_40 -> ~chi_1+   H-)
     8.08025841E-03    2    -1000024        37   # BR(~chi_40 -> ~chi_1-   H+)
     3.10970856E-10    2     1000039        22   # BR(~chi_40 -> ~G        gam)
     9.84484192E-10    2     1000039        23   # BR(~chi_40 -> ~G        Z)
     7.17435102E-14    2     1000039        25   # BR(~chi_40 -> ~G        h)
     8.83268660E-14    2     1000039        35   # BR(~chi_40 -> ~G        H)
     7.56019919E-16    2     1000039        36   # BR(~chi_40 -> ~G        A)
#
#         PDG            Width
DECAY        25     4.21879373E-03   # h decays
#          BR         NDA      ID1       ID2
     6.01885131E-01    2           5        -5   # BR(h -> b       bb     )
     6.22335834E-02    2         -15        15   # BR(h -> tau+    tau-   )
     2.20279753E-04    2         -13        13   # BR(h -> mu+     mu-    )
     4.66069202E-04    2           3        -3   # BR(h -> s       sb     )
     2.01065894E-02    2           4        -4   # BR(h -> c       cb     )
     6.64021751E-02    2          21        21   # BR(h -> g       g      )
     2.30831215E-03    2          22        22   # BR(h -> gam     gam    )
     1.62641190E-03    2          22        23   # BR(h -> Z       gam    )
     2.16673393E-01    2          24       -24   # BR(h -> W+      W-     )
     2.80780550E-02    2          23        23   # BR(h -> Z       Z      )
#
#         PDG            Width
DECAY        35     3.88096269E+01   # H decays
#          BR         NDA      ID1       ID2
     1.43362958E-03    2           5        -5   # BR(H -> b       bb     )
     2.40082879E-04    2         -15        15   # BR(H -> tau+    tau-   )
     8.48782360E-07    2         -13        13   # BR(H -> mu+     mu-    )
     1.08674890E-06    2           3        -3   # BR(H -> s       sb     )
     9.80788581E-06    2           4        -4   # BR(H -> c       cb     )
     9.70445812E-01    2           6        -6   # BR(H -> t       tb     )
     7.77233443E-04    2          21        21   # BR(H -> g       g      )
     2.63844808E-06    2          22        22   # BR(H -> gam     gam    )
     1.12987182E-06    2          23        22   # BR(H -> Z       gam    )
     3.27989369E-04    2          24       -24   # BR(H -> W+      W-     )
     1.63547358E-04    2          23        23   # BR(H -> Z       Z      )
     8.81057270E-04    2          25        25   # BR(H -> h       h      )
     7.55861254E-24    2          36        36   # BR(H -> A       A      )
     3.00223729E-11    2          23        36   # BR(H -> Z       A      )
     7.44524721E-12    2          24       -37   # BR(H -> W+      H-     )
     7.44524721E-12    2         -24        37   # BR(H -> W-      H+     )
     7.58242569E-06    2     1000024  -1000024   # BR(H -> ~chi_1+ ~chi_1-)
     1.83581032E-04    2     1000022   1000022   # BR(H -> ~chi_10 ~chi_10)
     1.29245005E-06    2     1000023   1000023   # BR(H -> ~chi_20 ~chi_20)
     3.16443372E-05    2     1000025   1000025   # BR(H -> ~chi_30 ~chi_30)
     1.58354112E-02    2     1000022   1000023   # BR(H -> ~chi_10 ~chi_20)
     4.60225127E-07    2     1000022   1000025   # BR(H -> ~chi_10 ~chi_30)
     9.65516418E-03    2     1000023   1000025   # BR(H -> ~chi_20 ~chi_30)
#
#         PDG            Width
DECAY        36     3.92441241E+01   # A decays
#          BR         NDA      ID1       ID2
     1.43662193E-03    2           5        -5   # BR(A -> b       bb     )
     2.37646185E-04    2         -15        15   # BR(A -> tau+    tau-   )
     8.40165113E-07    2         -13        13   # BR(A -> mu+     mu-    )
     1.10763641E-06    2           3        -3   # BR(A -> s       sb     )
     9.70642697E-06    2           4        -4   # BR(A -> c       cb     )
     9.71441200E-01    2           6        -6   # BR(A -> t       tb     )
     9.19487551E-04    2          21        21   # BR(A -> g       g      )
     2.99657455E-06    2          22        22   # BR(A -> gam     gam    )
     1.31759792E-06    2          23        22   # BR(A -> Z       gam    )
     3.19651758E-04    2          23        25   # BR(A -> Z       h      )
     4.48604978E-04    2     1000024  -1000024   # BR(A -> ~chi_1+ ~chi_1-)
     1.68681898E-02    2     1000022   1000022   # BR(A -> ~chi_10 ~chi_10)
     2.84489711E-07    2     1000023   1000023   # BR(A -> ~chi_20 ~chi_20)
     8.00106603E-03    2     1000025   1000025   # BR(A -> ~chi_30 ~chi_30)
     1.19371817E-04    2     1000022   1000023   # BR(A -> ~chi_10 ~chi_20)
     1.34050262E-04    2     1000022   1000025   # BR(A -> ~chi_10 ~chi_30)
     5.78567802E-05    2     1000023   1000025   # BR(A -> ~chi_20 ~chi_30)
#
#         PDG            Width
DECAY        37     3.84329062E+01   # H+ decays
#          BR         NDA      ID1       ID2
     2.30454939E-06    2           4        -5   # BR(H+ -> c       bb     )
     2.42842198E-04    2         -15        16   # BR(H+ -> tau+    nu_tau )
     8.58534894E-07    2         -13        14   # BR(H+ -> mu+     nu_mu  )
     1.46517927E-08    2           2        -5   # BR(H+ -> u       bb     )
     5.31692838E-08    2           2        -3   # BR(H+ -> u       sb     )
     1.05941815E-05    2           4        -3   # BR(H+ -> c       sb     )
     9.73761521E-01    2           6        -5   # BR(H+ -> t       bb     )
     3.27588700E-04    2          24        25   # BR(H+ -> W+      h      )
     2.45384001E-13    2          24        36   # BR(H+ -> W+      A      )
     1.42775569E-02    2     1000024   1000022   # BR(H+ -> ~chi_1+ ~chi_10)
     1.06585976E-04    2     1000024   1000023   # BR(H+ -> ~chi_1+ ~chi_20)
     1.12700799E-02    2     1000024   1000025   # BR(H+ -> ~chi_1+ ~chi_30)
