#  ISAJET SUSY parameters in SUSY Les Houches Accord 2 format
#  Created by ISALHA 2.0 Last revision: C. Balazs 21 Apr 2009
Block SPINFO   # Program information
     1   ISASUGRA from ISAJET          # Spectrum Calculator
     2   7.80   29-OCT-2009 12:50:36   # Version number
Block MODSEL   # Model selection
     1     3   # Minimal anomaly mediated (AMSB) model             
Block SMINPUTS   # Standard Model inputs
     1     1.27841370E+02   # alpha_em^(-1)
     2     1.16570000E-05   # G_Fermi
     3     1.17200002E-01   # alpha_s(M_Z)
     4     9.11699982E+01   # m_{Z}(pole)
     5     4.19999981E+00   # m_{b}(m_{b})
     6     1.72500000E+02   # m_{top}(pole)
     7     1.77699995E+00   # m_{tau}(pole)
Block MINPAR   # SUSY breaking input parameters
     1     5.00000000E+03   # m_0
     2     5.34000000E+05   # m_{3/2}
     3     5.00000000E+00   # tan(beta)
     4     1.00000000E+00   # sign(mu)
Block EXTPAR   # Non-universal SUSY breaking parameters
     0     7.61494910E+15   # Input scale
Block MASS   # Scalar and gaugino mass spectrum
#  PDG code   mass                 particle
         5     4.80000000E+00   # b-quark pole mass calculated from mb(mb)_Msbar
         6     1.72500000E+02   # t-quark pole mass (not read by ME)
        15     1.77682000E+00   # tau pole mass (not read by ME)
        23     9.11876000E+01   # Z pole mass (not read by ME)
        24     8.04229965E+01   #  W^+
        25     1.18844437E+02   #  h^0            
        35     9.37096582E+03   #  H^0            
        36     9.30963867E+03   #  A^0            
        37     9.37121875E+03   #  H^+            
   1000001     1.03150498E+04   #  dnl            
   1000002     1.03147510E+04   #  upl            
   1000003     1.03150498E+04   #  stl            
   1000004     1.03147510E+04   #  chl            
   1000005     8.93568262E+03   #  b1             
   1000006     7.30536035E+03   #  t1             
   1000011     4.53987256E+03   #  el-            
   1000012     4.52775635E+03   #  nuel           
   1000013     4.53987256E+03   #  mul-           
   1000014     4.52775635E+03   #  numl           
   1000015     4.39567139E+03   #  tau1           
   1000016     4.51275439E+03   #  nutl           
   1000021     9.73026563E+03   #  glss           
   1000022     1.49988281E+03   #  z1ss           
   1000023     4.96989990E+03   #  z2ss           
   1000024     1.50005725E+03   #  w1ss           
   1000025    -7.93849463E+03   #  z3ss           
   1000035     7.93912891E+03   #  z4ss           
   1000037     7.94809229E+03   #  w2ss           
   2000001     1.04679297E+04   #  dnr            
   2000002     1.03747666E+04   #  upr            
   2000003     1.04679297E+04   #  str            
   2000004     1.03747666E+04   #  chr            
   2000005     1.03877178E+04   #  b2             
   2000006     9.00353809E+03   #  t2             
   2000011     4.41407275E+03   #  er-            
   2000013     4.41407275E+03   #  mur-           
   2000015     4.52229248E+03   #  tau2           
Block ALPHA   # Effective Higgs mixing parameter
         -1.97448343E-01   # alpha
Block STOPMIX   # stop mixing matrix
  1  1     3.21629159E-02   # O_{11}
  1  2    -9.99482632E-01   # O_{12}
  2  1     9.99482632E-01   # O_{21}
  2  2     3.21629159E-02   # O_{22}
Block SBOTMIX   # sbottom mixing matrix
  1  1     9.99996364E-01   # O_{11}
  1  2     2.69863359E-03   # O_{12}
  2  1    -2.69863359E-03   # O_{21}
  2  2     9.99996364E-01   # O_{22}
Block STAUMIX   # stau mixing matrix
  1  1     6.22715279E-02   # O_{11}
  1  2     9.98059273E-01   # O_{12}
  2  1    -9.98059273E-01   # O_{21}
  2  2     6.22715279E-02   # O_{22}
Block NMIX   # neutralino mixing matrix
  1  1    -6.02428801E-04   #
  1  2     9.99953270E-01   #
  1  3    -9.47809592E-03   #
  1  4     1.78475189E-03   #
  2  1     9.99958873E-01   #
  2  2     6.83666090E-04   #
  2  3     7.66384602E-03   #
  2  4    -4.81390953E-03   #
  3  1    -2.01863050E-03   #
  3  2     5.43864537E-03   #
  3  3     7.07070053E-01   #
  3  4     7.07119763E-01   #
  4  1     8.82821064E-03   #
  4  2    -7.95842800E-03   #
  4  3    -7.07038462E-01   #
  4  4     7.07075179E-01   #
Block UMIX   # chargino U mixing matrix
  1  1    -9.99895811E-01   # U_{11}
  1  2     1.44330459E-02   # U_{12}
  2  1    -1.44330459E-02   # U_{21}
  2  2    -9.99895811E-01   # U_{22}
Block VMIX   # chargino V mixing matrix
  1  1    -9.99984086E-01   # V_{11}
  1  2     5.64397778E-03   # V_{12}
  2  1    -5.64397778E-03   # V_{21}
  2  2    -9.99984086E-01   # V_{22}
Block GAUGE Q=  7.74126270E+03   #
     1     3.57502460E-01   # g`
     2     6.52458966E-01   # g_2
     3     1.22045183E+00   # g_3
Block YU Q=  7.74126270E+03   #
  3  3     8.13625574E-01   # y_t
Block YD Q=  7.74126270E+03   #
  3  3     6.24483526E-02   # y_b
Block YE Q=  7.74126270E+03   #
  3  3     5.15539274E-02   # y_tau
Block HMIX Q=  7.74126270E+03   # Higgs mixing parameters
     1     7.93227197E+03   # mu(Q)
     2     5.00000000E+00   # tan(beta)(M_GUT)
     3     2.52546524E+02   # Higgs vev at Q
     4     8.66693760E+07   # m_A^2(Q)
Block MSOFT Q=  7.74126270E+03   # DRbar SUSY breaking parameters
     1     5.02458203E+03   # M_1(Q)          
     2     1.41176697E+03   # M_2(Q)          
     3    -9.18909277E+03   # M_3(Q)          
    21     3.23374943E+04   # mH1^2(Q)            
    22    -1.28800134E+05   # mH2^2(Q)            
    31     4.51559521E+03   # MeL(Q)          
    32     4.51559521E+03   # MmuL(Q)         
    33     4.50105225E+03   # MtauL(Q)        
    34     4.40021826E+03   # MeR(Q)          
    35     4.40021826E+03   # MmuR(Q)         
    36     4.36662207E+03   # MtauR(Q)        
    41     9.83936426E+03   # MqL1(Q)         
    42     9.83936426E+03   # MqL2(Q)         
    43     8.54307617E+03   # MqL3(Q)         
    44     9.89955762E+03   # MuR(Q)          
    45     9.89955762E+03   # McR(Q)          
    46     7.01470361E+03   # MtR(Q)          
    47     9.99320117E+03   # MdR(Q)          
    48     9.99320117E+03   # MsR(Q)          
    49     1.00304951E+04   # MbR(Q)          
Block AU Q=  7.74126270E+03   #
  1  1     8.01261816E+03   # A_u
  2  2     8.01261816E+03   # A_c
  3  3     8.01261816E+03   # A_t
Block AD Q=  7.74126270E+03   #
  1  1     1.89240410E+04   # A_d
  2  2     1.89240410E+04   # A_s
  3  3     1.89240410E+04   # A_b
Block AE Q=  7.74126270E+03   #
  1  1     5.52471387E+03   # A_e
  2  2     5.52471387E+03   # A_mu
  3  3     5.52471387E+03   # A_tau
#
#  ISAJET decay tables in SUSY Les Houches accord format
#  Created by ISALHD. Last revision: C. Balazs, 2005 May 25
Block DCINFO                           # Program information
     1   ISASUGRA from ISAJET          # Spectrum Calculator
     2   7.80   29-OCT-2009 12:50:36   # Version number
#         PDG         Width
DECAY        23     2.49520000E+00   # Z width (SM calculation)
DECAY        24     2.08500000E+00   # W width (SM calculation)
#
#         PDG            Width  
DECAY         6  1.14680779E+00   # TP    decays
#          BR          NDA       ID1       ID2       ID3       ID4
      3.33333343E-01    3            2        -1         5             # TP     -->  UP     DB     BT          
      3.33333343E-01    3            4        -3         5             # TP     -->  CH     SB     BT          
      1.11111112E-01    3          -11        12         5             # TP     -->  E+     NUE    BT          
      1.11111112E-01    3          -13        14         5             # TP     -->  MU+    NUM    BT          
      1.11111112E-01    3          -15        16         5             # TP     -->  TAU+   NUT    BT          
#         PDG         Width
DECAY   1000021  4.30202789E+01   # GLSS  decays
#          BR          NDA       ID1       ID2       ID3       ID4
      1.92654110E-03    3      1000024         1        -2             # GLSS   -->  W1SS+  DN     UB          
      1.92654110E-03    3     -1000024         2        -1             # GLSS   -->  W1SS-  UP     DB          
      1.92654110E-03    3      1000024         3        -4             # GLSS   -->  W1SS+  ST     CB          
      1.92654110E-03    3     -1000024         4        -3             # GLSS   -->  W1SS-  CH     SB          
      1.69764014E-09    3      1000024         5        -6             # GLSS   -->  W1SS+  BT     TB          
      1.69764014E-09    3     -1000024         6        -5             # GLSS   -->  W1SS-  TP     BB          
      2.12227946E-09    3      1000037         1        -2             # GLSS   -->  W2SS+  DN     UB          
      2.12227946E-09    3     -1000037         2        -1             # GLSS   -->  W2SS-  UP     DB          
      2.12227946E-09    3      1000037         3        -4             # GLSS   -->  W2SS+  ST     CB          
      2.12227946E-09    3     -1000037         4        -3             # GLSS   -->  W2SS-  CH     SB          
      1.06432175E-07    3      1000037         5        -6             # GLSS   -->  W2SS+  BT     TB          
      1.06432175E-07    3     -1000037         6        -5             # GLSS   -->  W2SS-  TP     BB          
      2.83984702E-14    2      1000022        21                       # GLSS   -->  Z1SS   GL                 
      9.63268336E-04    3      1000022         2        -2             # GLSS   -->  Z1SS   UP     UB          
      9.63407278E-04    3      1000022         1        -1             # GLSS   -->  Z1SS   DN     DB          
      9.63407278E-04    3      1000022         3        -3             # GLSS   -->  Z1SS   ST     SB          
      9.63268336E-04    3      1000022         4        -4             # GLSS   -->  Z1SS   CH     CB          
      2.02851691E-09    3      1000022         5        -5             # GLSS   -->  Z1SS   BT     BB          
      6.78857475E-07    2      1000023        21                       # GLSS   -->  Z2SS   GL                 
      1.20147182E-04    3      1000023         2        -2             # GLSS   -->  Z2SS   UP     UB          
      3.26851332E-05    3      1000023         1        -1             # GLSS   -->  Z2SS   DN     DB          
      3.26851332E-05    3      1000023         3        -3             # GLSS   -->  Z2SS   ST     SB          
      1.20147182E-04    3      1000023         4        -4             # GLSS   -->  Z2SS   CH     CB          
      2.76783758E-05    3      1000023         5        -5             # GLSS   -->  Z2SS   BT     BB          
      2.06333770E-14    2      1000025        21                       # GLSS   -->  Z3SS   GL                 
      5.04807918E-10    3      1000025         2        -2             # GLSS   -->  Z3SS   UP     UB          
      6.22901231E-10    3      1000025         1        -1             # GLSS   -->  Z3SS   DN     DB          
      6.22901231E-10    3      1000025         3        -3             # GLSS   -->  Z3SS   ST     SB          
      5.04807918E-10    3      1000025         4        -4             # GLSS   -->  Z3SS   CH     CB          
      1.10371268E-07    3      1000025         5        -5             # GLSS   -->  Z3SS   BT     BB          
      1.02478989E-11    2      1000035        21                       # GLSS   -->  Z4SS   GL                 
      5.63003033E-10    3      1000035         2        -2             # GLSS   -->  Z4SS   UP     UB          
      7.22115034E-10    3      1000035         1        -1             # GLSS   -->  Z4SS   DN     DB          
      7.22115034E-10    3      1000035         3        -3             # GLSS   -->  Z4SS   ST     SB          
      5.63003033E-10    3      1000035         4        -4             # GLSS   -->  Z4SS   CH     CB          
      1.10337545E-07    3      1000035         5        -5             # GLSS   -->  Z4SS   BT     BB          
      5.18104248E-02    2     -1000005         5                       # GLSS   -->  BB1    BT                 
      5.18104248E-02    2      1000005        -5                       # GLSS   -->  BT1    BB                 
      3.99072886E-01    2     -1000006         6                       # GLSS   -->  TB1    TP                 
      3.99072886E-01    2      1000006        -6                       # GLSS   -->  TP1    TB                 
      4.31697145E-02    2     -2000006         6                       # GLSS   -->  TB2    TP                 
      4.31697145E-02    2      2000006        -6                       # GLSS   -->  TP2    TB                 
#         PDG         Width
DECAY   1000002  1.31850845E+02   # UPL   decays
#          BR          NDA       ID1       ID2       ID3       ID4
      3.15419585E-01    2      1000022         2                       # UPL    -->  Z1SS   UP                 
      6.56476337E-03    2      1000023         2                       # UPL    -->  Z2SS   UP                 
      1.40615487E-06    2      1000025         2                       # UPL    -->  Z3SS   UP                 
      2.19957496E-06    2      1000035         2                       # UPL    -->  Z4SS   UP                 
      4.69975397E-02    2      1000021         2                       # UPL    -->  GLSS   UP                 
      6.31011009E-01    2      1000024         1                       # UPL    -->  W1SS+  DN                 
      3.46227444E-06    2      1000037         1                       # UPL    -->  W2SS+  DN                 
#         PDG         Width
DECAY   1000001  1.31854599E+02   # DNL   decays
#          BR          NDA       ID1       ID2       ID3       ID4
      3.15559775E-01    2      1000022         1                       # DNL    -->  Z1SS   DN                 
      6.46772562E-03    2      1000023         1                       # DNL    -->  Z2SS   DN                 
      1.84678765E-06    2      1000025         1                       # DNL    -->  Z3SS   DN                 
      5.01698923E-06    2      1000035         1                       # DNL    -->  Z4SS   DN                 
      4.70415205E-02    2      1000021         1                       # DNL    -->  GLSS   DN                 
      6.30901456E-01    2     -1000024         2                       # DNL    -->  W1SS-  UP                 
      2.26454431E-05    2     -1000037         2                       # DNL    -->  W2SS-  UP                 
#         PDG         Width
DECAY   1000003  1.31854584E+02   # STL   decays
#          BR          NDA       ID1       ID2       ID3       ID4
      3.15559834E-01    2      1000022         3                       # STL    -->  Z1SS   ST                 
      6.46772608E-03    2      1000023         3                       # STL    -->  Z2SS   ST                 
      1.84678788E-06    2      1000025         3                       # STL    -->  Z3SS   ST                 
      5.01699014E-06    2      1000035         3                       # STL    -->  Z4SS   ST                 
      4.70415279E-02    2      1000021         3                       # STL    -->  GLSS   ST                 
      6.30901456E-01    2     -1000024         4                       # STL    -->  W1SS-  CH                 
      2.26454358E-05    2     -1000037         4                       # STL    -->  W2SS-  CH                 
#         PDG         Width
DECAY   1000004  1.31850830E+02   # CHL   decays
#          BR          NDA       ID1       ID2       ID3       ID4
      3.15419644E-01    2      1000022         4                       # CHL    -->  Z1SS   CH                 
      6.56476384E-03    2      1000023         4                       # CHL    -->  Z2SS   CH                 
      1.40615452E-06    2      1000025         4                       # CHL    -->  Z3SS   CH                 
      2.19957474E-06    2      1000035         4                       # CHL    -->  Z4SS   CH                 
      4.69974130E-02    2      1000021         4                       # CHL    -->  GLSS   CH                 
      6.31011069E-01    2      1000024         3                       # CHL    -->  W1SS+  ST                 
      3.46227466E-06    2      1000037         3                       # CHL    -->  W2SS+  ST                 
#         PDG         Width
DECAY   1000005  1.29333923E+02   # BT1   decays
#          BR          NDA       ID1       ID2       ID3       ID4
      2.74700373E-01    2      1000022         5                       # BT1    -->  Z1SS   BT                 
      4.62178979E-03    2      1000023         5                       # BT1    -->  Z2SS   BT                 
      1.26755840E-04    2      1000025         5                       # BT1    -->  Z3SS   BT                 
      1.27476334E-04    2      1000035         5                       # BT1    -->  Z4SS   BT                 
      5.48751175E-01    2     -1000024         6                       # BT1    -->  W1SS-  TP                 
      3.67379189E-02    2     -1000037         6                       # BT1    -->  W2SS-  TP                 
      1.34934485E-01    2          -24   1000006                       # BT1    -->  W-     TP1                
#         PDG         Width
DECAY   1000006  4.78910065E+00   # TP1   decays
#          BR          NDA       ID1       ID2       ID3       ID4
      4.98490455E-03    2      1000022         6                       # TP1    -->  Z1SS   TP                 
      9.87456918E-01    2      1000023         6                       # TP1    -->  Z2SS   TP                 
      7.55809946E-03    2      1000024         5                       # TP1    -->  W1SS+  BT                 
#         PDG         Width
DECAY   2000002  2.13686562E+01   # UPR   decays
#          BR          NDA       ID1       ID2       ID3       ID4
      3.81840948E-07    2      1000022         2                       # UPR    -->  Z1SS   UP                 
      6.51558220E-01    2      1000023         2                       # UPR    -->  Z2SS   UP                 
      7.68423774E-07    2      1000025         2                       # UPR    -->  Z3SS   UP                 
      1.46904904E-05    2      1000035         2                       # UPR    -->  Z4SS   UP                 
      3.48425895E-01    2      1000021         2                       # UPR    -->  GLSS   UP                 
#         PDG         Width
DECAY   2000001  1.31256943E+01   # DNR   decays
#          BR          NDA       ID1       ID2       ID3       ID4
      1.56923619E-07    2      1000022         1                       # DNR    -->  Z1SS   DN                 
      2.70397425E-01    2      1000023         1                       # DNR    -->  Z2SS   DN                 
      3.31551661E-07    2      1000025         1                       # DNR    -->  Z3SS   DN                 
      6.33862419E-06    2      1000035         1                       # DNR    -->  Z4SS   DN                 
      7.29595780E-01    2      1000021         1                       # DNR    -->  GLSS   DN                 
#         PDG         Width
DECAY   2000003  1.31256943E+01   # STR   decays
#          BR          NDA       ID1       ID2       ID3       ID4
      1.56923619E-07    2      1000022         3                       # STR    -->  Z1SS   ST                 
      2.70397425E-01    2      1000023         3                       # STR    -->  Z2SS   ST                 
      3.31551661E-07    2      1000025         3                       # STR    -->  Z3SS   ST                 
      6.33862419E-06    2      1000035         3                       # STR    -->  Z4SS   ST                 
      7.29595780E-01    2      1000021         3                       # STR    -->  GLSS   ST                 
#         PDG         Width
DECAY   2000004  2.13686390E+01   # CHR   decays
#          BR          NDA       ID1       ID2       ID3       ID4
      3.81841261E-07    2      1000022         4                       # CHR    -->  Z1SS   CH                 
      6.51558757E-01    2      1000023         4                       # CHR    -->  Z2SS   CH                 
      7.68424115E-07    2      1000025         4                       # CHR    -->  Z3SS   CH                 
      1.46904986E-05    2      1000035         4                       # CHR    -->  Z4SS   CH                 
      3.48425359E-01    2      1000021         4                       # CHR    -->  GLSS   CH                 
#         PDG         Width
DECAY   2000005  1.17303066E+01   # BT2   decays
#          BR          NDA       ID1       ID2       ID3       ID4
      6.90125626E-06    2      1000022         5                       # BT2    -->  Z1SS   BT                 
      2.97534436E-01    2      1000023         5                       # BT2    -->  Z2SS   BT                 
      6.31618220E-03    2      1000025         5                       # BT2    -->  Z3SS   BT                 
      6.32235361E-03    2      1000035         5                       # BT2    -->  Z4SS   BT                 
      6.58797681E-01    2      1000021         5                       # BT2    -->  GLSS   BT                 
      1.15271378E-05    2     -1000024         6                       # BT2    -->  W1SS-  TP                 
      1.25745265E-02    2     -1000037         6                       # BT2    -->  W2SS-  TP                 
      6.04202687E-05    2          -24   1000006                       # BT2    -->  W-     TP1                
      6.92790095E-03    2          -24   2000006                       # BT2    -->  W-     TP2                
      4.00983216E-03    2           23   1000005                       # BT2    -->  Z0     BT1                
      7.43827457E-03    2           25   1000005                       # BT2    -->  HL0    BT1                
#         PDG         Width
DECAY   2000006  1.38419449E+02   # TP2   decays
#          BR          NDA       ID1       ID2       ID3       ID4
      5.17291129E-01    2      1000024         5                       # TP2    -->  W1SS+  BT                 
      2.89667340E-04    2      1000037         5                       # TP2    -->  W2SS+  BT                 
      7.13286772E-02    2           23   1000006                       # TP2    -->  Z0     TP1                
      1.08894162E-01    2           25   1000006                       # TP2    -->  HL0    TP1                
      2.58304179E-01    2      1000022         6                       # TP2    -->  Z1SS   TP                 
      4.63211769E-03    2      1000023         6                       # TP2    -->  Z2SS   TP                 
      1.98409539E-02    2      1000025         6                       # TP2    -->  Z3SS   TP                 
      1.94191933E-02    2      1000035         6                       # TP2    -->  Z4SS   TP                 
#         PDG         Width
DECAY   1000011  4.54777603E+01   # EL-   decays
#          BR          NDA       ID1       ID2       ID3       ID4
      3.33224386E-01    2      1000022        11                       # EL-    -->  Z1SS   E-                 
      6.66775584E-01    2     -1000024        12                       # EL-    -->  W1SS-  NUE                
      7.94185967E-11    3      1000015        11       -15             # EL-    -->  TAU1-  E-     TAU+        
      6.42625397E-11    3     -1000015        11        15             # EL-    -->  TAU1+  E-     TAU-        
#         PDG         Width
DECAY   1000013  4.54777603E+01   # MUL-  decays
#          BR          NDA       ID1       ID2       ID3       ID4
      3.33224386E-01    2      1000022        13                       # MUL-   -->  Z1SS   MU-                
      6.66775584E-01    2     -1000024        14                       # MUL-   -->  W1SS-  NUM                
      7.94185967E-11    3      1000015        13       -15             # MUL-   -->  TAU1-  MU-    TAU+        
      6.42625397E-11    3     -1000015        13        15             # MUL-   -->  TAU1+  MU-    TAU-        
#         PDG         Width
DECAY   1000015  1.74232870E-01   # TAU1- decays
#          BR          NDA       ID1       ID2       ID3       ID4
      3.32667440E-01    2      1000022        15                       # TAU1-  -->  Z1SS   TAU-               
      6.67332590E-01    2     -1000024        16                       # TAU1-  -->  W1SS-  NUT                
#         PDG         Width
DECAY   1000012  4.53221703E+01   # NUEL  decays
#          BR          NDA       ID1       ID2       ID3       ID4
      3.33479553E-01    2      1000022        12                       # NUEL   -->  Z1SS   NUE                
      6.66520417E-01    2      1000024        11                       # NUEL   -->  W1SS+  E-                 
      5.02340738E-11    3      1000015        12       -15             # NUEL   -->  TAU1-  NUE    TAU+        
      4.05257043E-11    3     -1000015        12        15             # NUEL   -->  TAU1+  NUE    TAU-        
      2.34404655E-17    3     -1000015        11        16             # NUEL   -->  TAU1+  E-     NUT         
#         PDG         Width
DECAY   1000014  4.53221703E+01   # NUML  decays
#          BR          NDA       ID1       ID2       ID3       ID4
      3.33479553E-01    2      1000022        14                       # NUML   -->  Z1SS   NUM                
      6.66520417E-01    2      1000024        13                       # NUML   -->  W1SS+  MU-                
      5.02340738E-11    3      1000015        14       -15             # NUML   -->  TAU1-  NUM    TAU+        
      4.05257043E-11    3     -1000015        14        15             # NUML   -->  TAU1+  NUM    TAU-        
      2.41933604E-17    3     -1000015        13        16             # NUML   -->  TAU1+  MU-    NUT         
#         PDG         Width
DECAY   1000016  4.51098175E+01   # NUTL  decays
#          BR          NDA       ID1       ID2       ID3       ID4
      3.33391249E-01    2      1000022        16                       # NUTL   -->  Z1SS   NUT                
      6.66343629E-01    2      1000024        15                       # NUTL   -->  W1SS+  TAU-               
      2.65121751E-04    2           24   1000015                       # NUTL   -->  W+     TAU1-              
      2.70364009E-11    3     -1000015        16        15             # NUTL   -->  TAU1+  NUT    TAU-        
      2.17317154E-11    3      1000015        16       -15             # NUTL   -->  TAU1-  NUT    TAU+        
#         PDG         Width
DECAY   2000011  6.37505173E-06   # ER-   decays
#          BR          NDA       ID1       ID2       ID3       ID4
      9.99999881E-01    2      1000022        11                       # ER-    -->  Z1SS   E-                 
      4.83267044E-08    3      1000015        11       -15             # ER-    -->  TAU1-  E-     TAU+        
      6.16910469E-08    3     -1000015        11        15             # ER-    -->  TAU1+  E-     TAU-        
      6.56594241E-21    3      1000015        12       -16             # ER-    -->  TAU1-  NUE    ANUT        
#         PDG         Width
DECAY   2000013  6.37505173E-06   # MUR-  decays
#          BR          NDA       ID1       ID2       ID3       ID4
      9.99999881E-01    2      1000022        13                       # MUR-   -->  Z1SS   MU-                
      4.83267044E-08    3      1000015        13       -15             # MUR-   -->  TAU1-  MU-    TAU+        
      6.16910469E-08    3     -1000015        13        15             # MUR-   -->  TAU1+  MU-    TAU-        
      2.79502847E-16    3      1000015        14       -16             # MUR-   -->  TAU1-  NUM    ANUT        
#         PDG         Width
DECAY   2000015  4.50449905E+01   # TAU2- decays
#          BR          NDA       ID1       ID2       ID3       ID4
      3.33141118E-01    2      1000022        15                       # TAU2-  -->  Z1SS   TAU-               
      6.66601717E-01    2     -1000024        16                       # TAU2-  -->  W1SS-  NUT                
      1.47069921E-04    2           23   1000015                       # TAU2-  -->  Z0     TAU1-              
      1.10110210E-04    2           25   1000015                       # TAU2-  -->  HL0    TAU1-              
#         PDG         Width
DECAY   1000023  4.64263725E+00   # Z2SS  decays
#          BR          NDA       ID1       ID2       ID3       ID4
      1.65197520E-07    2      1000022        22                       # Z2SS   -->  Z1SS   GM                 
      1.04333628E-02    2      1000024       -24                       # Z2SS   -->  W1SS+  W-                 
      1.04333628E-02    2     -1000024        24                       # Z2SS   -->  W1SS-  W+                 
      2.68714502E-05    2      1000022        23                       # Z2SS   -->  Z1SS   Z0                 
      2.45029764E-06    3      1000022         2        -2             # Z2SS   -->  Z1SS   UP     UB          
      2.41473617E-06    3      1000022         1        -1             # Z2SS   -->  Z1SS   DN     DB          
      2.41473617E-06    3      1000022         3        -3             # Z2SS   -->  Z1SS   ST     SB          
      2.45029764E-06    3      1000022         4        -4             # Z2SS   -->  Z1SS   CH     CB          
      4.67749214E-06    3      1000022         5        -5             # Z2SS   -->  Z1SS   BT     BB          
      4.29805150E-11    3      1000022        15       -15             # Z2SS   -->  Z1SS   TAU-   TAU+        
      2.33478306E-04    2      1000022        25                       # Z2SS   -->  Z1SS   HL0                
      1.87015627E-02    2      1000011       -11                       # Z2SS   -->  EL-    E+                 
      1.87015627E-02    2     -1000011        11                       # Z2SS   -->  EL+    E-                 
      1.87015627E-02    2      1000013       -13                       # Z2SS   -->  MUL-   MU+                
      1.87015627E-02    2     -1000013        13                       # Z2SS   -->  MUL+   MU-                
      1.21388778E-01    2      2000011       -11                       # Z2SS   -->  ER-    E+                 
      1.21388778E-01    2     -2000011        11                       # Z2SS   -->  ER+    E-                 
      1.21388778E-01    2      2000013       -13                       # Z2SS   -->  MUR-   MU+                
      1.21388778E-01    2     -2000013        13                       # Z2SS   -->  MUR+   MU-                
      1.28656983E-01    2      1000015       -15                       # Z2SS   -->  TAU1-  TAU+               
      1.28656983E-01    2     -1000015        15                       # Z2SS   -->  TAU1+  TAU-               
      2.04375554E-02    2      2000015       -15                       # Z2SS   -->  TAU2-  TAU+               
      2.04375554E-02    2     -2000015        15                       # Z2SS   -->  TAU2+  TAU-               
      1.96220241E-02    2      1000012       -12                       # Z2SS   -->  NUEL   ANUE               
      1.96220241E-02    2     -1000012        12                       # Z2SS   -->  ANUEL  NUE                
      1.96220241E-02    2      1000014       -14                       # Z2SS   -->  NUML   ANUM               
      1.96220241E-02    2     -1000014        14                       # Z2SS   -->  ANUML  NUM                
      2.09099613E-02    2      1000016       -16                       # Z2SS   -->  NUTL   ANUT               
      2.09099613E-02    2     -1000016        16                       # Z2SS   -->  ANUTL  NUT                
#         PDG         Width
DECAY   1000025  6.09403572E+01   # Z3SS  decays
#          BR          NDA       ID1       ID2       ID3       ID4
      9.73638725E-10    2      1000022        22                       # Z3SS   -->  Z1SS   GM                 
      6.14665208E-09    2      1000023        22                       # Z3SS   -->  Z2SS   GM                 
      3.42026442E-01    2      1000024       -24                       # Z3SS   -->  W1SS+  W-                 
      3.42026442E-01    2     -1000024        24                       # Z3SS   -->  W1SS-  W+                 
      1.53896049E-01    2      1000022        23                       # Z3SS   -->  Z1SS   Z0                 
      4.73048799E-02    2      1000023        23                       # Z3SS   -->  Z2SS   Z0                 
      1.91446969E-09    3      1000022         2        -2             # Z3SS   -->  Z1SS   UP     UB          
      2.51463317E-09    3      1000022         1        -1             # Z3SS   -->  Z1SS   DN     DB          
      2.51463317E-09    3      1000022         3        -3             # Z3SS   -->  Z1SS   ST     SB          
      1.91446969E-09    3      1000022         4        -4             # Z3SS   -->  Z1SS   CH     CB          
      4.86078397E-06    3      1000022         5        -5             # Z3SS   -->  Z1SS   BT     BB          
      2.22956075E-07    3      1000022        15       -15             # Z3SS   -->  Z1SS   TAU-   TAU+        
      1.01543912E-11    3      1000023         2        -2             # Z3SS   -->  Z2SS   UP     UB          
      6.05306387E-12    3      1000023         1        -1             # Z3SS   -->  Z2SS   DN     DB          
      6.05306387E-12    3      1000023         3        -3             # Z3SS   -->  Z2SS   ST     SB          
      1.01543912E-11    3      1000023         4        -4             # Z3SS   -->  Z2SS   CH     CB          
      4.07014262E-08    3      1000023         5        -5             # Z3SS   -->  Z2SS   BT     BB          
      2.19043450E-09    3      1000023        15       -15             # Z3SS   -->  Z2SS   TAU-   TAU+        
      5.35110421E-02    2      1000022        25                       # Z3SS   -->  Z1SS   HL0                
      2.15639896E-03    2      1000023        25                       # Z3SS   -->  Z2SS   HL0                
      2.77981684E-02    2      1000006        -6                       # Z3SS   -->  TP1    TB                 
      2.77981684E-02    2     -1000006         6                       # Z3SS   -->  TB1    TP                 
      2.32697630E-06    2      1000011       -11                       # Z3SS   -->  EL-    E+                 
      2.32697630E-06    2     -1000011        11                       # Z3SS   -->  EL+    E-                 
      2.32697630E-06    2      1000013       -13                       # Z3SS   -->  MUL-   MU+                
      2.32697630E-06    2     -1000013        13                       # Z3SS   -->  MUL+   MU-                
      6.44248246E-07    2      2000011       -11                       # Z3SS   -->  ER-    E+                 
      6.44248246E-07    2     -2000011        11                       # Z3SS   -->  ER+    E-                 
      6.44248246E-07    2      2000013       -13                       # Z3SS   -->  MUR-   MU+                
      6.44248246E-07    2     -2000013        13                       # Z3SS   -->  MUR+   MU-                
      8.71301163E-04    2      1000015       -15                       # Z3SS   -->  TAU1-  TAU+               
      8.71301163E-04    2     -1000015        15                       # Z3SS   -->  TAU1+  TAU-               
      8.45365576E-04    2      2000015       -15                       # Z3SS   -->  TAU2-  TAU+               
      8.45365576E-04    2     -2000015        15                       # Z3SS   -->  TAU2+  TAU-               
      5.35137497E-06    2      1000012       -12                       # Z3SS   -->  NUEL   ANUE               
      5.35137497E-06    2     -1000012        12                       # Z3SS   -->  ANUEL  NUE                
      5.35137497E-06    2      1000014       -14                       # Z3SS   -->  NUML   ANUM               
      5.35137497E-06    2     -1000014        14                       # Z3SS   -->  ANUML  NUM                
      5.38556742E-06    2      1000016       -16                       # Z3SS   -->  NUTL   ANUT               
      5.38556742E-06    2     -1000016        16                       # Z3SS   -->  ANUTL  NUT                
#         PDG         Width
DECAY   1000035  4.51129761E+01   # Z4SS  decays
#          BR          NDA       ID1       ID2       ID3       ID4
      9.83230848E-08    2      1000022        22                       # Z4SS   -->  Z1SS   GM                 
      1.69832548E-09    2      1000023        22                       # Z4SS   -->  Z2SS   GM                 
      4.97493843E-16    2      1000025        22                       # Z4SS   -->  Z3SS   GM                 
      1.74332410E-01    2      1000024       -24                       # Z4SS   -->  W1SS+  W-                 
      1.74332410E-01    2     -1000024        24                       # Z4SS   -->  W1SS-  W+                 
      9.70414504E-02    2      1000022        23                       # Z4SS   -->  Z1SS   Z0                 
      3.34325712E-03    2      1000023        23                       # Z4SS   -->  Z2SS   Z0                 
      6.46854836E-09    3      1000022         2        -2             # Z4SS   -->  Z1SS   UP     UB          
      1.47556225E-08    3      1000022         1        -1             # Z4SS   -->  Z1SS   DN     DB          
      1.47556225E-08    3      1000022         3        -3             # Z4SS   -->  Z1SS   ST     SB          
      6.46854836E-09    3      1000022         4        -4             # Z4SS   -->  Z1SS   CH     CB          
      6.56750399E-06    3      1000022         5        -5             # Z4SS   -->  Z1SS   BT     BB          
      2.97760806E-07    3      1000022        15       -15             # Z4SS   -->  Z1SS   TAU-   TAU+        
      4.12622547E-10    3      1000023         2        -2             # Z4SS   -->  Z2SS   UP     UB          
      7.77189493E-11    3      1000023         1        -1             # Z4SS   -->  Z2SS   DN     DB          
      7.77189493E-11    3      1000023         3        -3             # Z4SS   -->  Z2SS   ST     SB          
      4.12622547E-10    3      1000023         4        -4             # Z4SS   -->  Z2SS   CH     CB          
      5.45064083E-08    3      1000023         5        -5             # Z4SS   -->  Z2SS   BT     BB          
      2.88696778E-09    3      1000023        15       -15             # Z4SS   -->  Z2SS   TAU-   TAU+        
      3.49527538E-01    2      1000022        25                       # Z4SS   -->  Z1SS   HL0                
      1.24057971E-01    2      1000023        25                       # Z4SS   -->  Z2SS   HL0                
      3.62266377E-02    2      1000006        -6                       # Z4SS   -->  TP1    TB                 
      3.62266377E-02    2     -1000006         6                       # Z4SS   -->  TB1    TP                 
      1.61869343E-06    2      1000011       -11                       # Z4SS   -->  EL-    E+                 
      1.61869343E-06    2     -1000011        11                       # Z4SS   -->  EL+    E-                 
      1.61869343E-06    2      1000013       -13                       # Z4SS   -->  MUL-   MU+                
      1.61869343E-06    2     -1000013        13                       # Z4SS   -->  MUL+   MU-                
      1.66488880E-05    2      2000011       -11                       # Z4SS   -->  ER-    E+                 
      1.66488880E-05    2     -2000011        11                       # Z4SS   -->  ER+    E-                 
      1.66488880E-05    2      2000013       -13                       # Z4SS   -->  MUR-   MU+                
      1.66488880E-05    2     -2000013        13                       # Z4SS   -->  MUR+   MU-                
      1.18161389E-03    2      1000015       -15                       # Z4SS   -->  TAU1-  TAU+               
      1.18161389E-03    2     -1000015        15                       # Z4SS   -->  TAU1+  TAU-               
      1.15106907E-03    2      2000015       -15                       # Z4SS   -->  TAU2-  TAU+               
      1.15106907E-03    2     -2000015        15                       # Z4SS   -->  TAU2+  TAU-               
      2.76742048E-05    2      1000012       -12                       # Z4SS   -->  NUEL   ANUE               
      2.76742048E-05    2     -1000012        12                       # Z4SS   -->  ANUEL  NUE                
      2.76742048E-05    2      1000014       -14                       # Z4SS   -->  NUML   ANUM               
      2.76742048E-05    2     -1000014        14                       # Z4SS   -->  ANUML  NUM                
      2.78509924E-05    2      1000016       -16                       # Z4SS   -->  NUTL   ANUT               
      2.78509924E-05    2     -1000016        16                       # Z4SS   -->  ANUTL  NUT                
#         PDG         Width
DECAY   1000024  4.66023001E-15   # W1SS+ decays
#          BR          NDA       ID1       ID2       ID3       ID4
      1.00000000E+00    2      1000022         0                       # W1SS+  -->  Z1SS   PI+                
#         PDG         Width
DECAY   1000037  6.67963409E+01   # W2SS+ decays
#          BR          NDA       ID1       ID2       ID3       ID4
      1.80635844E-08    3      1000022         2        -1             # W2SS+  -->  Z1SS   UP     DB          
      1.80635844E-08    3      1000022         4        -3             # W2SS+  -->  Z1SS   CH     SB          
      2.00162745E-07    3      1000022       -15        16             # W2SS+  -->  Z1SS   TAU+   NUT         
      3.46458733E-01    2      1000022        24                       # W2SS+  -->  Z1SS   W+                 
      8.91371491E-11    3      1000023         2        -1             # W2SS+  -->  Z2SS   UP     DB          
      8.91371491E-11    3      1000023         4        -3             # W2SS+  -->  Z2SS   CH     SB          
      1.98531480E-09    3      1000023       -15        16             # W2SS+  -->  Z2SS   TAU+   NUT         
      4.53512073E-02    2      1000023        24                       # W2SS+  -->  Z2SS   W+                 
      5.43930678E-10    3      1000025         2        -1             # W2SS+  -->  Z3SS   UP     DB          
      5.43930678E-10    3      1000025         4        -3             # W2SS+  -->  Z3SS   CH     SB          
      1.81310231E-10    3      1000025       -11        12             # W2SS+  -->  Z3SS   E+     NUE         
      1.81310231E-10    3      1000025       -13        14             # W2SS+  -->  Z3SS   MU+    NUM         
      1.81310217E-10    3      1000025       -15        16             # W2SS+  -->  Z3SS   TAU+   NUT         
      3.48777729E-10    3      1000035         2        -1             # W2SS+  -->  Z4SS   UP     DB          
      3.48777729E-10    3      1000035         4        -3             # W2SS+  -->  Z4SS   CH     SB          
      1.16259245E-10    3      1000035       -11        12             # W2SS+  -->  Z4SS   E+     NUE         
      1.16259245E-10    3      1000035       -13        14             # W2SS+  -->  Z4SS   MU+    NUM         
      1.16259231E-10    3      1000035       -15        16             # W2SS+  -->  Z4SS   TAU+   NUT         
      5.30783385E-02    2      1000006        -5                       # W2SS+  -->  TP1    BB                 
      7.27979159E-06    2      1000012       -11                       # W2SS+  -->  NUEL   E+                 
      7.27979159E-06    2      1000014       -13                       # W2SS+  -->  NUML   MU+                
      1.54140953E-03    2      1000016       -15                       # W2SS+  -->  NUTL   TAU+               
      4.73614709E-05    2     -1000011        12                       # W2SS+  -->  EL+    NUE                
      4.73614709E-05    2     -1000013        14                       # W2SS+  -->  MUL+   NUM                
      1.56848913E-03    2     -1000015        16                       # W2SS+  -->  TAU1+  NUT                
      8.70215372E-05    2     -2000015        16                       # W2SS+  -->  TAU2+  NUT                
      2.66842067E-01    2      1000024        23                       # W2SS+  -->  W1SS+  Z0                 
      5.67556313E-09    3      1000024         1        -1             # W2SS+  -->  W1SS+  DN     DB          
      5.67556313E-09    3      1000024         3        -3             # W2SS+  -->  W1SS+  ST     SB          
      3.71025735E-08    3      1000024         2        -2             # W2SS+  -->  W1SS+  UP     UB          
      3.71025735E-08    3      1000024         4        -4             # W2SS+  -->  W1SS+  CH     CB          
      2.84963042E-01    2      1000024        25                       # W2SS+  -->  W1SS+  HL0                
#         PDG         Width
DECAY        25  4.33419971E-03   # HL0   decays
#          BR          NDA       ID1       ID2       ID3       ID4
      4.66221861E-09    2           11       -11                       # HL0    -->  E-     E+                 
      1.96846362E-04    2           13       -13                       # HL0    -->  MU-    MU+                
      5.63044660E-02    2           15       -15                       # HL0    -->  TAU-   TAU+               
      5.84868940E-06    2            1        -1                       # HL0    -->  DN     DB                 
      2.36316375E-03    2            3        -3                       # HL0    -->  ST     SB                 
      7.71092653E-01    2            5        -5                       # HL0    -->  BT     BB                 
      1.87036198E-06    2            2        -2                       # HL0    -->  UP     UB                 
      3.50324772E-02    2            4        -4                       # HL0    -->  CH     CB                 
      1.95165677E-03    2           22        22                       # HL0    -->  GM     GM                 
      4.13652100E-02    2           21        21                       # HL0    -->  GL     GL                 
      4.67323000E-03    3           24        11       -12             # HL0    -->  W+     E-     ANUE        
      4.67323000E-03    3           24        13       -14             # HL0    -->  W+     MU-    ANUM        
      4.67323000E-03    3           24        15       -16             # HL0    -->  W+     TAU-   ANUT        
      1.40196905E-02    3           24        -2         1             # HL0    -->  W+     UB     DN          
      1.40196905E-02    3           24        -4         3             # HL0    -->  W+     CB     ST          
      4.67323000E-03    3          -24       -11        12             # HL0    -->  W-     E+     NUE         
      4.67323000E-03    3          -24       -13        14             # HL0    -->  W-     MU+    NUM         
      4.67323000E-03    3          -24       -15        16             # HL0    -->  W-     TAU+   NUT         
      1.40196905E-02    3          -24         2        -1             # HL0    -->  W-     UP     DB          
      1.40196905E-02    3          -24         4        -3             # HL0    -->  W-     CH     SB          
      5.17540902E-04    3           23        12       -12             # HL0    -->  Z0     NUE    ANUE        
      5.17540902E-04    3           23        14       -14             # HL0    -->  Z0     NUM    ANUM        
      5.17540902E-04    3           23        16       -16             # HL0    -->  Z0     NUT    ANUT        
      2.60473142E-04    3           23        11       -11             # HL0    -->  Z0     E-     E+          
      2.60473142E-04    3           23        13       -13             # HL0    -->  Z0     MU-    MU+         
      2.60473142E-04    3           23        15       -15             # HL0    -->  Z0     TAU-   TAU+        
      8.92358890E-04    3           23         2        -2             # HL0    -->  Z0     UP     UB          
      8.92358890E-04    3           23         4        -4             # HL0    -->  Z0     CH     CB          
      1.14957814E-03    3           23         1        -1             # HL0    -->  Z0     DN     DB          
      1.14957814E-03    3           23         3        -3             # HL0    -->  Z0     ST     SB          
      1.14957814E-03    3           23         5        -5             # HL0    -->  Z0     BT     BB          
#         PDG         Width
DECAY        35  1.73008118E+01   # HH0   decays
#          BR          NDA       ID1       ID2       ID3       ID4
      2.30113573E-09    2           11       -11                       # HH0    -->  E-     E+                 
      9.71581030E-05    2           13       -13                       # HH0    -->  MU-    MU+                
      2.78275628E-02    2           15       -15                       # HH0    -->  TAU-   TAU+               
      2.77649860E-06    2            1        -1                       # HH0    -->  DN     DB                 
      1.12184556E-03    2            3        -3                       # HH0    -->  ST     SB                 
      1.33224264E-01    2            5        -5                       # HH0    -->  BT     BB                 
      1.42219936E-09    2            2        -2                       # HH0    -->  UP     UB                 
      1.58041839E-05    2            4        -4                       # HH0    -->  CH     CB                 
      8.31390500E-01    2            6        -6                       # HH0    -->  TP     TB                 
      5.18158402E-07    2           22        22                       # HH0    -->  GM     GM                 
      4.48114115E-05    2           21        21                       # HH0    -->  GL     GL                 
      4.31690605E-05    2           24       -24                       # HH0    -->  W+     W-                 
      2.21553528E-05    2           23        23                       # HH0    -->  Z0     Z0                 
      3.10331408E-04    2      1000022   1000022                       # HH0    -->  Z1SS   Z1SS               
      1.05707157E-04    2      1000022   1000023                       # HH0    -->  Z1SS   Z2SS               
      6.59819634E-04    2      1000024  -1000024                       # HH0    -->  W1SS+  W1SS-              
      1.90647101E-04    2           25        25                       # HH0    -->  HL0    HL0                
      1.49691050E-06    2      1000011  -1000011                       # HH0    -->  EL-    EL+                
      1.52102803E-06    2      2000011  -2000011                       # HH0    -->  ER-    ER+                
      1.49672042E-06    2      1000013  -1000013                       # HH0    -->  MUL-   MUL+               
      1.52080497E-06    2      2000013  -2000013                       # HH0    -->  MUR-   MUR+               
      2.83014269E-05    2      1000015  -1000015                       # HH0    -->  TAU1-  TAU1+              
      4.79706105E-05    2      2000015  -2000015                       # HH0    -->  TAU2-  TAU2+              
      2.42196885E-03    2      1000015  -2000015                       # HH0    -->  TAU1-  TAU2+              
      2.42196885E-03    2      2000015  -1000015                       # HH0    -->  TAU2-  TAU1+              
      5.41922145E-06    2      1000012  -1000012                       # HH0    -->  NUEL   ANUEL              
      5.41922145E-06    2      1000014  -1000014                       # HH0    -->  NUML   ANUML              
      5.66646941E-06    2      1000016  -1000016                       # HH0    -->  NUTL   ANUTL              
#         PDG         Width
DECAY        36  1.72041092E+01   # HA0   decays
#          BR          NDA       ID1       ID2       ID3       ID4
      2.29897457E-09    2           11       -11                       # HA0    -->  E-     E+                 
      9.70668552E-05    2           13       -13                       # HA0    -->  MU-    MU+                
      2.78014336E-02    2           15       -15                       # HA0    -->  TAU-   TAU+               
      2.77399408E-06    2            1        -1                       # HA0    -->  DN     DB                 
      1.12083298E-03    2            3        -3                       # HA0    -->  ST     SB                 
      1.33104071E-01    2            5        -5                       # HA0    -->  BT     BB                 
      1.42013512E-09    2            2        -2                       # HA0    -->  UP     UB                 
      1.57911945E-05    2            4        -4                       # HA0    -->  CH     CB                 
      8.31454992E-01    2            6        -6                       # HA0    -->  TP     TB                 
      4.08697360E-07    2           22        22                       # HA0    -->  GM     GM                 
      5.05869684E-05    2           21        21                       # HA0    -->  GL     GL                 
      4.01333265E-04    2      1000022   1000022                       # HA0    -->  Z1SS   Z1SS               
      2.47610733E-04    2      1000022   1000023                       # HA0    -->  Z1SS   Z2SS               
      1.00415805E-03    2      1000024  -1000024                       # HA0    -->  W1SS+  W1SS-              
      4.31124063E-05    2           25        23                       # HA0    -->  HL0    Z0                 
      9.13802020E-12    2      1000011  -2000011                       # HA0    -->  EL-    ER+                
      9.13802020E-12    2      2000011  -1000011                       # HA0    -->  ER-    EL+                
      3.85823625E-07    2      1000013  -2000013                       # HA0    -->  MUL-   MUR+               
      3.85823625E-07    2      2000013  -1000013                       # HA0    -->  MUR-   MUL+               
      2.32759863E-03    2      1000015  -2000015                       # HA0    -->  TAU1-  TAU2+              
      2.32759863E-03    2      2000015  -1000015                       # HA0    -->  TAU2-  TAU1+              
#         PDG         Width
DECAY        37  1.61685238E+01   # H+    decays
#          BR          NDA       ID1       ID2       ID3       ID4
      2.46240361E-09    2           12       -11                       # H+     -->  NUE    E+                 
      1.03967126E-04    2           14       -13                       # H+     -->  NUM    MU+                
      2.97777764E-02    2           16       -15                       # H+     -->  NUT    TAU+               
      2.77415916E-06    2            2        -1                       # H+     -->  UP     DB                 
      1.13610132E-03    2            4        -3                       # H+     -->  CH     SB                 
      9.63185370E-01    2            6        -5                       # H+     -->  TP     BB                 
      3.18047455E-06    2      1000024   1000022                       # H+     -->  W1SS+  Z1SS               
      4.09572502E-04    2      1000024   1000023                       # H+     -->  W1SS+  Z2SS               
      4.61838645E-05    2           25        24                       # H+     -->  HL0    W+                 
      6.71079033E-06    2     -1000011   1000012                       # H+     -->  EL+    NUEL               
      6.71049384E-06    2     -1000013   1000014                       # H+     -->  MUL+   NUML               
      5.27496031E-03    2     -1000015   1000016                       # H+     -->  TAU1+  NUTL               
      4.67219616E-05    2     -2000015   1000016                       # H+     -->  TAU2+  NUTL               
