#
#                              ======================
#                              | THE SUSYHIT OUTPUT |
#                              ======================
#
#
#              ------------------------------------------------------
#              |     This is the output of the SUSY-HIT package     |
#              |  created by A.Djouadi, M.Muehlleitner and M.Spira. |
#              |  In case of problems with SUSY-HIT email to        |
#              |           margarete.muehlleitner@cern.ch           |
#              |           michael.spira@psi.ch                     |
#              |           abdelhak.djouadi@cern.ch                 |
#              ------------------------------------------------------
#
#              ------------------------------------------------------
#              |  SUSY Les Houches Accord - MSSM Spectrum + Decays  |
#              |              based on the decay programs           |
#              |                                                    |
#              |                     SDECAY 1.3b                    |
#              |                                                    |
#              |  Authors: M.Muhlleitner, A.Djouadi and Y.Mambrini  |
#              |  Ref.:    Comput.Phys.Commun.168(2005)46           |
#              |           [hep-ph/0311167]                         |
#              |                                                    |
#              |                     HDECAY 3.4                     |
#              |                                                    |
#              |  By: A.Djouadi,J.Kalinowski,M.Muhlleitner,M.Spira  |
#              |  Ref.:    Comput.Phys.Commun.108(1998)56           |
#              |           [hep-ph/9704448]                         |
#              |                                                    |
#              |                                                    |
#              |  If not stated otherwise all DRbar couplings and   |
#              |  soft SUSY breaking masses are given at the scale  |
#              |  Q=  0.91187600E+02
#              |                                                    |
#              ------------------------------------------------------
#
#
BLOCK DCINFO  # Decay Program information
     1   SDECAY/HDECAY # decay calculator
     2   1.3b  /3.4    # version number
#
BLOCK SPINFO  # Spectrum calculator information
     1   SuSpect     # RGE +Spectrum calculator            
     2   2.41         # version number                     
#
BLOCK MODSEL  # Model selection
     1     0   # #general MSSM low scale                           
#
BLOCK SMINPUTS  # Standard Model inputs
         1     1.27934000E+02   # alpha_em^-1(M_Z)^MSbar
         2     1.16639000E-05   # G_F [GeV^-2]
         3     1.17200000E-01   # alpha_S(M_Z)^MSbar
         4     9.11870000E+01   # M_Z pole mass
         5     4.25000000E+00   # mb(mb)^MSbar
         6     1.72500000E+02   # mt pole mass
         7     1.77700000E+00   # mtau pole mass
#
BLOCK MINPAR  # Input parameters - minimal models
#
BLOCK EXTPAR  # Input parameters - non-minimal models
         0     9.11876000E+01   # EWSB                
         1     1.49000000E+03   # M_1                 
         2     1.00000000E+05   # M_2                 
         3     1.00000000E+05   # M_3                 
        11     0.00000000E+00   # A_t                 
        12     0.00000000E+00   # A_b                 
        13     0.00000000E+00   # A_tau               
        14     0.00000000E+00   # A_u                 
        15     0.00000000E+00   # A_d                 
        16     0.00000000E+00   # A_e                 
        23     3.50000000E+03   # mu(EWSB)            
        25     1.50000000E+00   # tanbeta(in)         
        26     2.00000000E+03   # MA_pole             
        31     1.00000000E+05   # M_eL                
        32     1.00000000E+05   # M_muL               
        33     1.00000000E+05   # M_tauL              
        34     1.00000000E+05   # M_eR                
        35     1.00000000E+05   # M_muR               
        36     1.00000000E+05   # M_tauR              
        41     1.50000000E+03   # M_q1L               
        42     1.50000000E+03   # M_q2L               
        43     1.50000000E+03   # M_q3L               
        44     1.00000000E+05   # M_uR                
        45     1.00000000E+05   # M_cR                
        46     1.00000000E+05   # M_tR                
        47     1.50000000E+03   # M_dR                
        48     1.50000000E+03   # M_sR                
        49     1.50000000E+03   # M_bR                
#
BLOCK MASS  # Mass Spectrum
# PDG code           mass       particle
        24     8.05825913E+01   # W+
        25     1.25000000E+02   # h
        35     2.00400576E+03   # H
        36     2.00000000E+03   # A
        37     2.02369511E+03   # H+
         5     4.87877839E+00   # b-quark pole mass calculated from mb(mb)_Msbar
   1000001     1.50044290E+03   # ~d_L
   2000001     1.50008531E+03   # ~d_R
   1000002     1.49964230E+03   # ~u_L
   2000002     9.99999974E+04   # ~u_R
   1000003     1.50044290E+03   # ~s_L
   2000003     1.50008531E+03   # ~s_R
   1000004     1.49964230E+03   # ~c_L
   2000004     9.99999974E+04   # ~c_R
   1000005     1.49573445E+03   # ~b_1
   2000005     1.50478458E+03   # ~b_2
   1000006     1.50687393E+03   # ~t_1
   2000006     1.00000106E+05   # ~t_2
   1000011     1.00000004E+05   # ~e_L
   2000011     1.00000004E+05   # ~e_R
   1000012     9.99999921E+04   # ~nu_eL
   1000013     1.00000004E+05   # ~mu_L
   2000013     1.00000004E+05   # ~mu_R
   1000014     9.99999921E+04   # ~nu_muL
   1000015     9.99999574E+04   # ~tau_1
   2000015     1.00000051E+05   # ~tau_2
   1000016     9.99999921E+04   # ~nu_tauL
   1000021     1.00000000E+05   # ~g
   1000022     1.48906084E+03   # ~chi_10
   1000023    -3.50001771E+03   # ~chi_20
   1000025     3.50089232E+03   # ~chi_30
   1000035     1.00000065E+05   # ~chi_40
   1000024     3.49994010E+03   # ~chi_1+
   1000037     1.00000065E+05   # ~chi_2+
   1000039     1.00000000E-09   # ~gravitino
#
BLOCK NMIX  # Neutralino Mixing Matrix
  1  1     9.99761196E-01   # N_11
  1  2    -1.68578478E-05   # N_12
  1  3     1.66440258E-02   # N_13
  1  4    -1.41607336E-02   # N_14
  2  1     1.75609132E-03   # N_21
  2  2    -1.49747332E-04   # N_22
  2  3    -7.07096739E-01   # N_23
  2  4    -7.07114627E-01   # N_24
  3  1     2.17822495E-02   # N_31
  3  2     8.02820736E-04   # N_32
  3  3    -7.06920763E-01   # N_33
  3  4     7.06956805E-01   # N_34
  4  1     3.70449715E-07   # N_41
  4  2    -9.99999666E-01   # N_42
  4  3    -4.61925533E-04   # N_43
  4  4     6.73687056E-04   # N_44
#
BLOCK UMIX  # Chargino Mixing Matrix U
  1  1    -6.53261146E-04   # U_11
  1  2     9.99999787E-01   # U_12
  2  1     9.99999787E-01   # U_21
  2  2     6.53261146E-04   # U_22
#
BLOCK VMIX  # Chargino Mixing Matrix V
  1  1    -9.52737281E-04   # V_11
  1  2     9.99999546E-01   # V_12
  2  1     9.99999546E-01   # V_21
  2  2     9.52737281E-04   # V_22
#
BLOCK STOPMIX  # Stop Mixing Matrix
  1  1     9.99999999E-01   # cos(theta_t)
  1  2     4.47213589E-05   # sin(theta_t)
  2  1    -4.47213589E-05   # -sin(theta_t)
  2  2     9.99999999E-01   # cos(theta_t)
#
BLOCK SBOTMIX  # Sbottom Mixing Matrix
  1  1     6.92996317E-01   # cos(theta_b)
  1  2     7.20941124E-01   # sin(theta_b)
  2  1    -7.20941124E-01   # -sin(theta_b)
  2  2     6.92996317E-01   # cos(theta_b)
#
BLOCK STAUMIX  # Stau Mixing Matrix
  1  1     7.06171379E-01   # cos(theta_tau)
  1  2     7.08040948E-01   # sin(theta_tau)
  2  1    -7.08040948E-01   # -sin(theta_tau)
  2  2     7.06171379E-01   # cos(theta_tau)
#
BLOCK ALPHA  # Higgs mixing
          -5.90293015E-01   # Mixing angle in the neutral Higgs boson sector
#
BLOCK HMIX Q=  9.11876000E+01  # DRbar Higgs Parameters
         1     3.50000000E+03   # mu(Q)               
         2     1.49999982E+00   # tanbeta(Q)          
         3     2.54881596E+02   # vev(Q)              
         4    -6.82776820E+07   # MA^2(Q)             
#
BLOCK GAUGE Q=  9.11876000E+01  # The gauge couplings
     1     3.50590984E-01   # gprime(Q) DRbar
     2     6.20084789E-01   # g(Q) DRbar
     3     1.02511124E+00   # g3(Q) DRbar
#
BLOCK AU Q=  9.11876000E+01  # The trilinear couplings
  1  1     0.00000000E+00   # A_u(Q) DRbar
  2  2     0.00000000E+00   # A_c(Q) DRbar
  3  3     0.00000000E+00   # A_t(Q) DRbar
#
BLOCK AD Q=  9.11876000E+01  # The trilinear couplings
  1  1     0.00000000E+00   # A_d(Q) DRbar
  2  2     0.00000000E+00   # A_s(Q) DRbar
  3  3     0.00000000E+00   # A_b(Q) DRbar
#
BLOCK AE Q=  9.11876000E+01  # The trilinear couplings
  1  1     0.00000000E+00   # A_e(Q) DRbar
  2  2     0.00000000E+00   # A_mu(Q) DRbar
  3  3     0.00000000E+00   # A_tau(Q) DRbar
#
BLOCK Yu Q=  9.11876000E+01  # The Yukawa couplings
  1  1     0.00000000E+00   # y_u(Q) DRbar
  2  2     0.00000000E+00   # y_c(Q) DRbar
  3  3     9.83546811E-01   # y_t(Q) DRbar
#
BLOCK Yd Q=  9.11876000E+01  # The Yukawa couplings
  1  1     0.00000000E+00   # y_d(Q) DRbar
  2  2     0.00000000E+00   # y_s(Q) DRbar
  3  3     2.58488518E-02   # y_b(Q) DRbar
#
BLOCK Ye Q=  9.11876000E+01  # The Yukawa couplings
  1  1     0.00000000E+00   # y_e(Q) DRbar
  2  2     0.00000000E+00   # y_mu(Q) DRbar
  3  3     1.77388099E-02   # y_tau(Q) DRbar
#
BLOCK MSOFT Q=  9.11876000E+01  # The soft SUSY breaking masses at the scale Q
         1     1.49000000E+03   # M_1                 
         2     1.00000000E+05   # M_2                 
         3     1.00000000E+05   # M_3                 
        14     0.00000000E+00   # A_u                 
        15     0.00000000E+00   # A_d                 
        16     0.00000000E+00   # A_e                 
        21     6.32065995E+08   # M^2_Hd              
        22    -1.14810565E+09   # M^2_Hu              
        31     1.00000000E+05   # M_eL                
        32     1.00000000E+05   # M_muL               
        33     1.00000000E+05   # M_tauL              
        34     1.00000000E+05   # M_eR                
        35     1.00000000E+05   # M_muR               
        36     1.00000000E+05   # M_tauR              
        41     1.50000000E+03   # M_q1L               
        42     1.50000000E+03   # M_q2L               
        43     1.50000000E+03   # M_q3L               
        44     1.00000000E+05   # M_uR                
        45     1.00000000E+05   # M_cR                
        46     1.00000000E+05   # M_tR                
        47     1.50000000E+03   # M_dR                
        48     1.50000000E+03   # M_sR                
        49     1.50000000E+03   # M_bR                
#
#
#
#                             =================
#                             |The decay table|
#                             =================
#
# - The QCD corrections to the decays gluino -> squark  + quark
#                                     squark -> gaugino + quark_prime
#                                     squark -> squark_prime + Higgs
#                                     squark -> gluino  + quark
#   are included.
#
# - The multi-body decays for the inos, stops and sbottoms are included.
#
# - The loop induced decays for the gluino, neutralinos and stops
#   are included.
#
# - The SUSY decays of the top quark are included.
#
# - Possible decays of the NLSP in GMSB models are included.
#
#
#         PDG            Width
DECAY         6     1.32712332E+00   # top decays
#          BR         NDA      ID1       ID2
     1.00000000E+00    2           5        24   # BR(t ->  b    W+)
#
#         PDG            Width
DECAY   1000021     1.E-04   # gluino decays (OJ Mods)
#          BR         NDA      ID1       ID2
     1.99599135E-04    2     1000001        -1   # BR(~g -> ~d_L  db)
     1.99599135E-04    2    -1000001         1   # BR(~g -> ~d_L* d )
     1.99599178E-04    2     2000001        -1   # BR(~g -> ~d_R  db)
     1.99599178E-04    2    -2000001         1   # BR(~g -> ~d_R* d )
     1.99599231E-04    2     1000002        -2   # BR(~g -> ~u_L  ub)
     1.99599231E-04    2    -1000002         2   # BR(~g -> ~u_L* u )
     5.39959147E-19    2     2000002        -2   # BR(~g -> ~u_R  ub)
     5.39959147E-19    2    -2000002         2   # BR(~g -> ~u_R* u )
     1.99599135E-04    2     1000003        -3   # BR(~g -> ~s_L  sb)
     1.99599135E-04    2    -1000003         3   # BR(~g -> ~s_L* s )
     1.99599178E-04    2     2000003        -3   # BR(~g -> ~s_R  sb)
     1.99599178E-04    2    -2000003         3   # BR(~g -> ~s_R* s )
     1.99599231E-04    2     1000004        -4   # BR(~g -> ~c_L  cb)
     1.99599231E-04    2    -1000004         4   # BR(~g -> ~c_L* c )
     5.39959147E-19    2     2000004        -4   # BR(~g -> ~c_R  cb)
     5.39959147E-19    2    -2000004         4   # BR(~g -> ~c_R* c )
     2.47667662E-01    2     1000005        -5   # BR(~g -> ~b_1  bb)
     2.47667662E-01    2    -1000005         5   # BR(~g -> ~b_1* b )
     2.48142174E-01    2     2000005        -5   # BR(~g -> ~b_2  bb)
     2.48142174E-01    2    -2000005         5   # BR(~g -> ~b_2* b )
     1.96432523E-04    2     1000006        -6   # BR(~g -> ~t_1  tb)
     1.96432523E-04    2    -1000006         6   # BR(~g -> ~t_1* t )
     5.59227124E-03    2     1000039        21   # BR(~g -> ~G g)
#
#         PDG            Width
DECAY   1000006     1.30598494E-05   # stop1 decays
#          BR         NDA      ID1       ID2
     9.79248247E-01    2     1000022         4   # BR(~t_1 -> ~chi_10 c )
     7.54970689E-03    2     1000022         2   # BR(~t_1 -> ~chi_10 u )
#           BR         NDA      ID1       ID2       ID3
     4.45726106E-03    3     1000005        -1         2   # BR(~t_1 -> ~b_1     db u)
     1.11802222E-06    3     2000005        -1         2   # BR(~t_1 -> ~b_2     db u)
     4.45726106E-03    3     1000005        -3         4   # BR(~t_1 -> ~b_1     sb c)
     1.11802222E-06    3     2000005        -3         4   # BR(~t_1 -> ~b_2     sb c)
     1.31303298E-03    3     1000005       -15        16   # BR(~t_1 -> ~b_1     tau+ nu_tau)
     2.62190564E-09    3     2000005       -15        16   # BR(~t_1 -> ~b_2     tau+ nu_tau)
     1.48575369E-03    3     1000005       -11        12   # BR(~t_1 -> ~b_1     e+   nu_e)
     3.72674072E-07    3     2000005       -11        12   # BR(~t_1 -> ~b_2     e+   nu_e)
     1.48575369E-03    3     1000005       -13        14   # BR(~t_1 -> ~b_1     mu+  nu_mu)
     3.72674072E-07    3     2000005       -13        14   # BR(~t_1 -> ~b_2     mu+  nu_mu)
#
#         PDG            Width
DECAY   2000006     9.59672372E+05   # stop2 decays
#          BR         NDA      ID1       ID2
     2.17221680E-04    2     1000022         6   # BR(~t_2 -> ~chi_10 t )
     5.20170710E-04    2     1000023         6   # BR(~t_2 -> ~chi_20 t )
     5.20028976E-04    2     1000025         6   # BR(~t_2 -> ~chi_30 t )
     9.98760578E-01    2     1000024         5   # BR(~t_2 -> ~chi_1+ b )
    -1.41871545E-05    2     1000006        25   # BR(~t_2 -> ~t_1    h )
     1.48550369E-05    2     1000006        35   # BR(~t_2 -> ~t_1    H )
     1.48291152E-05    2     1000006        36   # BR(~t_2 -> ~t_1    A )
     1.39680174E-05    2     1000005        37   # BR(~t_2 -> ~b_1    H+)
     1.56899511E-05    2     2000005        37   # BR(~t_2 -> ~b_2    H+)
    -1.01321579E-05    2     1000006        23   # BR(~t_2 -> ~t_1    Z )
    -2.54640284E-05    2     1000005        24   # BR(~t_2 -> ~b_1    W+)
    -2.75579832E-05    2     2000005        24   # BR(~t_2 -> ~b_2    W+)
#
#         PDG            Width
DECAY   1000005     5.75200866E-03   # sbottom1 decays
#          BR         NDA      ID1       ID2
     1.00000000E+00    2     1000022         5   # BR(~b_1 -> ~chi_10 b )
#
#         PDG            Width
DECAY   2000005     1.23404727E-01   # sbottom2 decays
#          BR         NDA      ID1       ID2
     1.00000000E+00    2     1000022         5   # BR(~b_2 -> ~chi_10 b )
#
#         PDG            Width
DECAY   1000002     2.55819483E-04   # sup_L decays
#          BR         NDA      ID1       ID2
     1.00000000E+00    2     1000022         2   # BR(~u_L -> ~chi_10 u)
#
#         PDG            Width
DECAY   2000002     2.08382583E+02   # sup_R decays
#          BR         NDA      ID1       ID2
     9.99522968E-01    2     1000022         2   # BR(~u_R -> ~chi_10 u)
     3.08051515E-06    2     1000023         2   # BR(~u_R -> ~chi_20 u)
     4.73951909E-04    2     1000025         2   # BR(~u_R -> ~chi_30 u)
#
#         PDG            Width
DECAY   1000001     2.79260632E-04   # sdown_L decays
#          BR         NDA      ID1       ID2
     1.00000000E+00    2     1000022         1   # BR(~d_L -> ~chi_10 d)
#
#         PDG            Width
DECAY   2000001     1.07486601E-03   # sdown_R decays
#          BR         NDA      ID1       ID2
     1.00000000E+00    2     1000022         1   # BR(~d_R -> ~chi_10 d)
#
#         PDG            Width
DECAY   1000004     2.55819483E-04   # scharm_L decays
#          BR         NDA      ID1       ID2
     1.00000000E+00    2     1000022         4   # BR(~c_L -> ~chi_10 c)
#
#         PDG            Width
DECAY   2000004     2.08382583E+02   # scharm_R decays
#          BR         NDA      ID1       ID2
     9.99522968E-01    2     1000022         4   # BR(~c_R -> ~chi_10 c)
     3.08051515E-06    2     1000023         4   # BR(~c_R -> ~chi_20 c)
     4.73951909E-04    2     1000025         4   # BR(~c_R -> ~chi_30 c)
#
#         PDG            Width
DECAY   1000003     2.79260632E-04   # sstrange_L decays
#          BR         NDA      ID1       ID2
     1.00000000E+00    2     1000022         3   # BR(~s_L -> ~chi_10 s)
#
#         PDG            Width
DECAY   2000003     1.07486601E-03   # sstrange_R decays
#          BR         NDA      ID1       ID2
     1.00000000E+00    2     1000022         3   # BR(~s_R -> ~chi_10 s)
#
#         PDG            Width
DECAY   1000011     1.22211254E+02   # selectron_L decays
#          BR         NDA      ID1       ID2
     9.99457858E-01    2     1000022        11   # BR(~e_L -> ~chi_10 e-)
     2.21931153E-06    2     1000023        11   # BR(~e_L -> ~chi_20 e-)
     5.37258188E-04    2     1000025        11   # BR(~e_L -> ~chi_30 e-)
     2.66458843E-06    2    -1000024        12   # BR(~e_L -> ~chi_1- nu_e)
#
#         PDG            Width
DECAY   2000011     4.88842115E+02   # selectron_R decays
#          BR         NDA      ID1       ID2
     9.99523408E-01    2     1000022        11   # BR(~e_R -> ~chi_10 e-)
     3.07767345E-06    2     1000023        11   # BR(~e_R -> ~chi_20 e-)
     4.73514486E-04    2     1000025        11   # BR(~e_R -> ~chi_30 e-)
#
#         PDG            Width
DECAY   1000013     1.22211254E+02   # smuon_L decays
#          BR         NDA      ID1       ID2
     9.99457858E-01    2     1000022        13   # BR(~mu_L -> ~chi_10 mu-)
     2.21931153E-06    2     1000023        13   # BR(~mu_L -> ~chi_20 mu-)
     5.37258188E-04    2     1000025        13   # BR(~mu_L -> ~chi_30 mu-)
     2.66458843E-06    2    -1000024        14   # BR(~mu_L -> ~chi_1- nu_mu)
#
#         PDG            Width
DECAY   2000013     4.88842115E+02   # smuon_R decays
#          BR         NDA      ID1       ID2
     9.99523408E-01    2     1000022        13   # BR(~mu_R -> ~chi_10 mu-)
     3.07767345E-06    2     1000023        13   # BR(~mu_R -> ~chi_20 mu-)
     4.73514486E-04    2     1000025        13   # BR(~mu_R -> ~chi_30 mu-)
#
#         PDG            Width
DECAY   1000015     1.18198904E+04   # stau_1 decays
#          BR         NDA      ID1       ID2
     2.58891743E-02    2     1000022        15   # BR(~tau_1 -> ~chi_10  tau-)
     2.54356602E-05    2     1000023        15   # BR(~tau_1 -> ~chi_20  tau-)
     2.83618633E-05    2     1000025        15   # BR(~tau_1 -> ~chi_30  tau-)
     2.77062602E-05    2    -1000024        16   # BR(~tau_1 -> ~chi_1-  nu_tau)
     9.74029322E-01    2     1000039        15   # BR(~tau_1 -> ~G       tau-)
#
#         PDG            Width
DECAY   2000015     3.05956222E+02   # stau_2 decays
#          BR         NDA      ID1       ID2
     9.96048638E-01    2     1000022        15   # BR(~tau_2 -> ~chi_10  tau-)
     1.06415668E-03    2     1000023        15   # BR(~tau_2 -> ~chi_20  tau-)
     1.91545038E-03    2     1000025        15   # BR(~tau_2 -> ~chi_30  tau-)
     9.71755303E-04    2    -1000024        16   # BR(~tau_2 -> ~chi_1-  nu_tau)
#
#         PDG            Width
DECAY   1000012     1.22211316E+02   # snu_eL decays
#          BR         NDA      ID1       ID2
     9.99576467E-01    2     1000022        12   # BR(~nu_eL -> ~chi_10 nu_e)
     4.07601130E-06    2     1000023        12   # BR(~nu_eL -> ~chi_20 nu_e)
     4.13789229E-04    2     1000025        12   # BR(~nu_eL -> ~chi_30 nu_e)
     5.66764353E-06    2     1000024        11   # BR(~nu_eL -> ~chi_1+ e-)
#
#         PDG            Width
DECAY   1000014     1.22211316E+02   # snu_muL decays
#          BR         NDA      ID1       ID2
     9.99576467E-01    2     1000022        14   # BR(~nu_muL -> ~chi_10 nu_mu)
     4.07601130E-06    2     1000023        14   # BR(~nu_muL -> ~chi_20 nu_mu)
     4.13789229E-04    2     1000025        14   # BR(~nu_muL -> ~chi_30 nu_mu)
     5.66764353E-06    2     1000024        13   # BR(~nu_muL -> ~chi_1+ mu-)
#
#         PDG            Width
DECAY   1000016     1.22835790E+02   # snu_tauL decays
#          BR         NDA      ID1       ID2
     9.94494811E-01    2     1000022        16   # BR(~nu_tauL -> ~chi_10 nu_tau)
     4.05528964E-06    2     1000023        16   # BR(~nu_tauL -> ~chi_20 nu_tau)
     4.11685604E-04    2     1000025        16   # BR(~nu_tauL -> ~chi_30 nu_tau)
     5.08944856E-03    2     1000024        15   # BR(~nu_tauL -> ~chi_1+ tau-)
#
#         PDG            Width
DECAY   1000024     8.17580850E+01   # chargino1+ decays
#          BR         NDA      ID1       ID2
     3.51471867E-07    2     1000002        -1   # BR(~chi_1+ -> ~u_L     db)
     1.65165881E-07    2    -1000001         2   # BR(~chi_1+ -> ~d_L*    u )
     3.51471867E-07    2     1000004        -3   # BR(~chi_1+ -> ~c_L     sb)
     1.65165881E-07    2    -1000003         4   # BR(~chi_1+ -> ~s_L*    c )
     2.71134853E-01    2     1000006        -5   # BR(~chi_1+ -> ~t_1     bb)
     6.26849306E-02    2    -1000005         6   # BR(~chi_1+ -> ~b_1*    t )
     6.25742510E-01    2    -2000005         6   # BR(~chi_1+ -> ~b_2*    t )
     4.04322564E-02    2     1000022        24   # BR(~chi_1+ -> ~chi_10  W+)
     3.69012651E-06    2     1000039        24   # BR(~chi_1+ -> ~G       W+)
     7.26064833E-07    2     1000039        37   # BR(~chi_1+ -> ~G       H+)
#
#         PDG            Width
DECAY   1000037     5.80490983E+05   # chargino2+ decays
#          BR         NDA      ID1       ID2
     1.85814741E-03    2     1000002        -1   # BR(~chi_2+ -> ~u_L     db)
     1.85814800E-03    2    -1000001         2   # BR(~chi_2+ -> ~d_L*    u )
     1.85814741E-03    2     1000004        -3   # BR(~chi_2+ -> ~c_L     sb)
     1.85814800E-03    2    -1000003         4   # BR(~chi_2+ -> ~s_L*    c )
     9.68394945E-01    2     1000006        -5   # BR(~chi_2+ -> ~t_1     bb)
     4.04826379E-04    2    -1000005         6   # BR(~chi_2+ -> ~b_1*    t )
     1.76636788E-03    2    -2000005         6   # BR(~chi_2+ -> ~b_2*    t )
     1.37338331E-15    2     1000012       -11   # BR(~chi_2+ -> ~nu_eL   e+  )
     1.37338331E-15    2     1000014       -13   # BR(~chi_2+ -> ~nu_muL  mu+ )
     9.61604838E-16    2    -1000011        12   # BR(~chi_2+ -> ~e_L+    nu_e)
     9.61604838E-16    2    -1000013        14   # BR(~chi_2+ -> ~mu_L+   nu_mu)
     1.49198775E-15    2    -1000015        16   # BR(~chi_2+ -> ~tau_1+  nu_tau)
     2.53937116E-17    2    -2000015        16   # BR(~chi_2+ -> ~tau_2+  nu_tau)
     3.40820054E-04    2     1000024        23   # BR(~chi_2+ -> ~chi_1+  Z )
     1.36845048E-07    2     1000022        24   # BR(~chi_2+ -> ~chi_10  W+)
     3.30709337E-04    2     1000023        24   # BR(~chi_2+ -> ~chi_20  W+)
     3.30568983E-04    2     1000025        24   # BR(~chi_2+ -> ~chi_30  W+)
     3.43918023E-04    2     1000024        25   # BR(~chi_2+ -> ~chi_1+  h )
     3.01895381E-04    2     1000024        35   # BR(~chi_2+ -> ~chi_1+  H )
     3.01935253E-04    2     1000024        36   # BR(~chi_2+ -> ~chi_1+  A )
     1.53660656E-07    2     1000022        37   # BR(~chi_2+ -> ~chi_10  H+)
     3.01925414E-04    2     1000023        37   # BR(~chi_2+ -> ~chi_20  H+)
     3.01780304E-04    2     1000025        37   # BR(~chi_2+ -> ~chi_30  H+)
     1.94474209E-02    2     1000039        24   # BR(~chi_2+ -> ~G       W+)
     5.57944530E-09    2     1000039        37   # BR(~chi_2+ -> ~G       H+)
#
#         PDG            Width
DECAY   1000022     1.E-08   # neutralino1 decays (OJ Mods)
#          BR         NDA      ID1       ID2
     7.60331444E-01    2     1000039        22   # BR(~chi_10 -> ~G        gam)
     2.39665506E-01    2     1000039        23   # BR(~chi_10 -> ~G        Z)
     3.05032548E-06    2     1000039        25   # BR(~chi_10 -> ~G        h)
#
#         PDG            Width
DECAY   1000023     1.E-08   # neutralino2 decays (OJ Mods)
#          BR         NDA      ID1       ID2
     3.21980106E-02    2     1000022        23   # BR(~chi_20 -> ~chi_10   Z )
     2.05699586E-04    2     1000022        25   # BR(~chi_20 -> ~chi_10   h )
     2.78075010E-06    2     1000022        35   # BR(~chi_20 -> ~chi_10   H )
     1.04370440E-04    2     1000022        36   # BR(~chi_20 -> ~chi_10   A )
     5.71147197E-09    2     1000002        -2   # BR(~chi_20 -> ~u_L      ub)
     5.71147197E-09    2    -1000002         2   # BR(~chi_20 -> ~u_L*     u )
     4.01738066E-08    2     1000001        -1   # BR(~chi_20 -> ~d_L      db)
     4.01738066E-08    2    -1000001         1   # BR(~chi_20 -> ~d_L*     d )
     7.61863444E-08    2     2000001        -1   # BR(~chi_20 -> ~d_R      db)
     7.61863444E-08    2    -2000001         1   # BR(~chi_20 -> ~d_R*     d )
     5.71147197E-09    2     1000004        -4   # BR(~chi_20 -> ~c_L      cb)
     5.71147197E-09    2    -1000004         4   # BR(~chi_20 -> ~c_L*     c )
     4.01738066E-08    2     1000003        -3   # BR(~chi_20 -> ~s_L      sb)
     4.01738066E-08    2    -1000003         3   # BR(~chi_20 -> ~s_L*     s )
     7.61863444E-08    2     2000003        -3   # BR(~chi_20 -> ~s_R      sb)
     7.61863444E-08    2    -2000003         3   # BR(~chi_20 -> ~s_R*     s )
     2.67326833E-01    2     1000006        -6   # BR(~chi_20 -> ~t_1      tb)
     2.67326833E-01    2    -1000006         6   # BR(~chi_20 -> ~t_1*     t )
     1.05272128E-01    2     1000005        -5   # BR(~chi_20 -> ~b_1      bb)
     1.05272128E-01    2    -1000005         5   # BR(~chi_20 -> ~b_1*     b )
     1.11143669E-01    2     2000005        -5   # BR(~chi_20 -> ~b_2      bb)
     1.11143669E-01    2    -2000005         5   # BR(~chi_20 -> ~b_2*     b )
     1.21833325E-11    2     1000039        22   # BR(~chi_20 -> ~G        gam)
     1.10395057E-07    2     1000039        23   # BR(~chi_20 -> ~G        Z)
     2.75532394E-06    2     1000039        25   # BR(~chi_20 -> ~G        h)
     2.20744125E-08    2     1000039        35   # BR(~chi_20 -> ~G        H)
     5.69206608E-07    2     1000039        36   # BR(~chi_20 -> ~G        A)
#
#         PDG            Width
DECAY   1000025     1.06057202E+02   # neutralino3 decays
#          BR         NDA      ID1       ID2
     2.08362064E-04    2     1000022        23   # BR(~chi_30 -> ~chi_10   Z )
     3.21680818E-02    2     1000022        25   # BR(~chi_30 -> ~chi_10   h )
     8.52174899E-05    2     1000022        35   # BR(~chi_30 -> ~chi_10   H )
     6.09562539E-06    2     1000022        36   # BR(~chi_30 -> ~chi_10   A )
     4.15246910E-06    2     1000002        -2   # BR(~chi_30 -> ~u_L      ub)
     4.15246910E-06    2    -1000002         2   # BR(~chi_30 -> ~u_L*     u )
     1.87912472E-06    2     1000001        -1   # BR(~chi_30 -> ~d_L      db)
     1.87912472E-06    2    -1000001         1   # BR(~chi_30 -> ~d_L*     d )
     1.16176014E-05    2     2000001        -1   # BR(~chi_30 -> ~d_R      db)
     1.16176014E-05    2    -2000001         1   # BR(~chi_30 -> ~d_R*     d )
     4.15246910E-06    2     1000004        -4   # BR(~chi_30 -> ~c_L      cb)
     4.15246910E-06    2    -1000004         4   # BR(~chi_30 -> ~c_L*     c )
     1.87912472E-06    2     1000003        -3   # BR(~chi_30 -> ~s_L      sb)
     1.87912472E-06    2    -1000003         3   # BR(~chi_30 -> ~s_L*     s )
     1.16176014E-05    2     2000003        -3   # BR(~chi_30 -> ~s_R      sb)
     1.16176014E-05    2    -2000003         3   # BR(~chi_30 -> ~s_R*     s )
     2.64979950E-01    2     1000006        -6   # BR(~chi_30 -> ~t_1      tb)
     2.64979950E-01    2    -1000006         6   # BR(~chi_30 -> ~t_1*     t )
     8.08832543E-02    2     1000005        -5   # BR(~chi_30 -> ~b_1      bb)
     8.08832543E-02    2    -1000005         5   # BR(~chi_30 -> ~b_1*     b )
     1.37870628E-01    2     2000005        -5   # BR(~chi_30 -> ~b_2      bb)
     1.37870628E-01    2    -2000005         5   # BR(~chi_30 -> ~b_2*     b )
     2.13891384E-09    2     1000039        22   # BR(~chi_30 -> ~G        gam)
     2.73643433E-06    2     1000039        23   # BR(~chi_30 -> ~G        Z)
     1.06713147E-07    2     1000039        25   # BR(~chi_30 -> ~G        h)
     5.61025497E-07    2     1000039        35   # BR(~chi_30 -> ~G        H)
     2.25901192E-08    2     1000039        36   # BR(~chi_30 -> ~G        A)
#
#         PDG            Width
DECAY   1000035     5.80493491E+05   # neutralino4 decays
#          BR         NDA      ID1       ID2
     1.75651634E-09    2     1000022        23   # BR(~chi_40 -> ~chi_10   Z )
     3.29366627E-04    2     1000023        23   # BR(~chi_40 -> ~chi_20   Z )
     1.14504959E-05    2     1000025        23   # BR(~chi_40 -> ~chi_30   Z )
     3.30705881E-04    2     1000024       -24   # BR(~chi_40 -> ~chi_1+   W-)
     3.30705881E-04    2    -1000024        24   # BR(~chi_40 -> ~chi_1-   W+)
     1.40709144E-07    2     1000022        25   # BR(~chi_40 -> ~chi_10   h )
     1.17301591E-08    2     1000022        35   # BR(~chi_40 -> ~chi_10   H )
     1.41745779E-07    2     1000022        36   # BR(~chi_40 -> ~chi_10   A )
     1.12937112E-05    2     1000023        25   # BR(~chi_40 -> ~chi_20   h )
     2.88911237E-04    2     1000023        35   # BR(~chi_40 -> ~chi_20   H )
     1.32810347E-05    2     1000023        36   # BR(~chi_40 -> ~chi_20   A )
     3.32482498E-04    2     1000025        25   # BR(~chi_40 -> ~chi_30   h )
     1.29707628E-05    2     1000025        35   # BR(~chi_40 -> ~chi_30   H )
     2.88511189E-04    2     1000025        36   # BR(~chi_40 -> ~chi_30   A )
     3.01928598E-04    2     1000024       -37   # BR(~chi_40 -> ~chi_1+   H-)
     3.01928598E-04    2    -1000024        37   # BR(~chi_40 -> ~chi_1-   H+)
     8.89478983E-04    2     1000002        -2   # BR(~chi_40 -> ~u_L      ub)
     8.89478983E-04    2    -1000002         2   # BR(~chi_40 -> ~u_L*     u )
     1.45067133E-23    2     2000002        -2   # BR(~chi_40 -> ~u_R      ub)
     1.45067133E-23    2    -2000002         2   # BR(~chi_40 -> ~u_R*     u )
     8.89479391E-04    2     1000001        -1   # BR(~chi_40 -> ~d_L      db)
     8.89479391E-04    2    -1000001         1   # BR(~chi_40 -> ~d_L*     d )
     1.73424890E-17    2     2000001        -1   # BR(~chi_40 -> ~d_R      db)
     1.73424890E-17    2    -2000001         1   # BR(~chi_40 -> ~d_R*     d )
     8.89478983E-04    2     1000004        -4   # BR(~chi_40 -> ~c_L      cb)
     8.89478983E-04    2    -1000004         4   # BR(~chi_40 -> ~c_L*     c )
     1.45067133E-23    2     2000004        -4   # BR(~chi_40 -> ~c_R      cb)
     1.45067133E-23    2    -2000004         4   # BR(~chi_40 -> ~c_R*     c )
     8.89479391E-04    2     1000003        -3   # BR(~chi_40 -> ~s_L      sb)
     8.89479391E-04    2    -1000003         3   # BR(~chi_40 -> ~s_L*     s )
     1.73424890E-17    2     2000003        -3   # BR(~chi_40 -> ~s_R      sb)
     1.73424890E-17    2    -2000003         3   # BR(~chi_40 -> ~s_R*     s )
     1.08559129E-03    2     1000006        -6   # BR(~chi_40 -> ~t_1      tb)
     1.08559129E-03    2    -1000006         6   # BR(~chi_40 -> ~t_1*     t )
     2.32201483E-01    2     1000005        -5   # BR(~chi_40 -> ~b_1      bb)
     2.32201483E-01    2    -1000005         5   # BR(~chi_40 -> ~b_1*     b )
     2.51996058E-01    2     2000005        -5   # BR(~chi_40 -> ~b_2      bb)
     2.51996058E-01    2    -2000005         5   # BR(~chi_40 -> ~b_2*     b )
     4.80800064E-16    2     1000011       -11   # BR(~chi_40 -> ~e_L-     e+)
     4.80800064E-16    2    -1000011        11   # BR(~chi_40 -> ~e_L+     e-)
     8.43689883E-29    2     2000011       -11   # BR(~chi_40 -> ~e_R-     e+)
     8.43689883E-29    2    -2000011        11   # BR(~chi_40 -> ~e_R+     e-)
     4.80800064E-16    2     1000013       -13   # BR(~chi_40 -> ~mu_L-    mu+)
     4.80800064E-16    2    -1000013        13   # BR(~chi_40 -> ~mu_L+    mu-)
     8.43689883E-29    2     2000013       -13   # BR(~chi_40 -> ~mu_R-    mu+)
     8.43689883E-29    2    -2000013        13   # BR(~chi_40 -> ~mu_R+    mu-)
     6.86689198E-16    2     1000012       -12   # BR(~chi_40 -> ~nu_eL    nu_eb)
     6.86689198E-16    2    -1000012        12   # BR(~chi_40 -> ~nu_eL*   nu_e )
     6.86689198E-16    2     1000014       -14   # BR(~chi_40 -> ~nu_muL   nu_mub)
     6.86689198E-16    2    -1000014        14   # BR(~chi_40 -> ~nu_muL*  nu_mu )
     6.86689198E-16    2     1000016       -16   # BR(~chi_40 -> ~nu_tau1  nu_taub)
     6.86689198E-16    2    -1000016        16   # BR(~chi_40 -> ~nu_tau1* nu_tau )
     4.71080502E-03    2     1000039        22   # BR(~chi_40 -> ~G        gam)
     1.47365322E-02    2     1000039        23   # BR(~chi_40 -> ~G        Z)
     8.90210633E-10    2     1000039        25   # BR(~chi_40 -> ~G        h)
     5.58873350E-09    2     1000039        35   # BR(~chi_40 -> ~G        H)
     1.10130609E-12    2     1000039        36   # BR(~chi_40 -> ~G        A)
#
#
#
#
