#
#                              ======================
#                              | THE SUSYHIT OUTPUT |
#                              ======================
#
#
#              ------------------------------------------------------
#              |     This is the output of the SUSY-HIT package     |
#              |  created by A.Djouadi, M.Muehlleitner and M.Spira. |
#              |  In case of problems with SUSY-HIT email to        |
#              |           margarete.muehlleitner@cern.ch           |
#              |           michael.spira@psi.ch                     |
#              |           abdelhak.djouadi@cern.ch                 |
#              ------------------------------------------------------
#
#              ------------------------------------------------------
#              |  SUSY Les Houches Accord - MSSM Spectrum + Decays  |
#              |              based on the decay programs           |
#              |                                                    |
#              |                     SDECAY 1.3b                    |
#              |                                                    |
#              |  Authors: M.Muhlleitner, A.Djouadi and Y.Mambrini  |
#              |  Ref.:    Comput.Phys.Commun.168(2005)46           |
#              |           [hep-ph/0311167]                         |
#              |                                                    |
#              |                     HDECAY 3.4                     |
#              |                                                    |
#              |  By: A.Djouadi,J.Kalinowski,M.Muhlleitner,M.Spira  |
#              |  Ref.:    Comput.Phys.Commun.108(1998)56           |
#              |           [hep-ph/9704448]                         |
#              |                                                    |
#              |                                                    |
#              |  If not stated otherwise all DRbar couplings and   |
#              |  soft SUSY breaking masses are given at the scale  |
#              |  Q=  0.91187600E+02
#              |                                                    |
#              ------------------------------------------------------
#
#
BLOCK DCINFO  # Decay Program information
     1   SDECAY/HDECAY # decay calculator
     2   1.3b  /3.4    # version number
#
BLOCK SPINFO  # Spectrum calculator information
     1   SuSpect     # RGE +Spectrum calculator            
     2   2.41         # version number                     
#
BLOCK MODSEL  # Model selection
     1     0   # #general MSSM low scale                           
#
BLOCK SMINPUTS  # Standard Model inputs
         1     1.27934000E+02   # alpha_em^-1(M_Z)^MSbar
         2     1.16639000E-05   # G_F [GeV^-2]
         3     1.17200000E-01   # alpha_S(M_Z)^MSbar
         4     9.11870000E+01   # M_Z pole mass
         5     4.25000000E+00   # mb(mb)^MSbar
         6     1.72500000E+02   # mt pole mass
         7     1.77700000E+00   # mtau pole mass
#
BLOCK MINPAR  # Input parameters - minimal models
#
BLOCK EXTPAR  # Input parameters - non-minimal models
         0     9.11876000E+01   # EWSB                
         1     2.00000000E+03   # M_1                 
         2     1.00000000E+05   # M_2                 
         3     2.40000000E+03   # M_3                 
        11     0.00000000E+00   # A_t                 
        12     0.00000000E+00   # A_b                 
        13     0.00000000E+00   # A_tau               
        14     0.00000000E+00   # A_u                 
        15     0.00000000E+00   # A_d                 
        16     0.00000000E+00   # A_e                 
        23     1.00000000E+05   # mu(EWSB)            
        25     1.50000000E+00   # tanbeta(in)         
        26     2.00000000E+03   # MA_pole             
        31     1.00000000E+05   # M_eL                
        32     1.00000000E+05   # M_muL               
        33     1.00000000E+05   # M_tauL              
        34     1.00000000E+05   # M_eR                
        35     1.00000000E+05   # M_muR               
        36     1.00000000E+05   # M_tauR              
        41     3.00000000E+03   # M_q1L               
        42     3.00000000E+03   # M_q2L               
        43     3.00000000E+03   # M_q3L               
        44     1.00000000E+05   # M_uR                
        45     1.00000000E+05   # M_cR                
        46     1.00000000E+05   # M_tR                
        47     3.00000000E+03   # M_dR                
        48     3.00000000E+03   # M_sR                
        49     3.00000000E+03   # M_bR                
#
BLOCK MASS  # Mass Spectrum
# PDG code           mass       particle
        24     8.06124789E+01   # W+
        25     1.25000000E+02   # h
        35     2.02032347E+03   # H
        36     2.00000000E+03   # A
        37     2.02302508E+03   # H+
         5     4.87877839E+00   # b-quark pole mass calculated from mb(mb)_Msbar
   1000001     3.00021880E+03   # ~d_L
   2000001     3.00004258E+03   # ~d_R
   1000002     2.99982377E+03   # ~u_L
   2000002     9.99999974E+04   # ~u_R
   1000003     3.00021880E+03   # ~s_L
   2000003     3.00004258E+03   # ~s_R
   1000004     2.99982377E+03   # ~c_L
   2000004     9.99999974E+04   # ~c_R
   1000005     2.95175595E+03   # ~b_1
   2000005     3.04773891E+03   # ~b_2
   1000006     3.00183163E+03   # ~t_1
   2000006     1.00000154E+05   # ~t_2
   1000011     1.00000004E+05   # ~e_L
   2000011     1.00000004E+05   # ~e_R
   1000012     9.99999922E+04   # ~nu_eL
   1000013     1.00000004E+05   # ~mu_L
   2000013     1.00000004E+05   # ~mu_R
   1000014     9.99999922E+04   # ~nu_muL
   1000015     9.99986729E+04   # ~tau_1
   2000015     1.00001335E+05   # ~tau_2
   1000016     9.99999922E+04   # ~nu_tauL
   1000021     2.40000000E+03   # ~g
   1000022     1.99998120E+03   # ~chi_10
   1000023     9.99230339E+04   # ~chi_20
   1000025    -1.00000002E+05   # ~chi_30
   1000035     1.00076987E+05   # ~chi_40
   1000024     9.99230247E+04   # ~chi_1+
   1000037     1.00076978E+05   # ~chi_2+
   1000039     2.50000000E-08   # ~gravitino
#
BLOCK NMIX  # Neutralino Mixing Matrix
  1  1     9.99999897E-01   # N_11
  1  2    -3.37370929E-07   # N_12
  1  3     3.76542251E-04   # N_13
  1  4    -2.55156862E-04   # N_14
  2  1     3.16073920E-04   # N_21
  2  2     7.07148963E-01   # N_22
  2  3    -5.00008615E-01   # N_23
  2  4     4.99931624E-01   # N_24
  3  1     8.58323405E-05   # N_31
  3  2    -7.69765139E-05   # N_32
  3  3    -7.07106742E-01   # N_33
  3  4    -7.07106811E-01   # N_34
  4  1     3.15625145E-04   # N_41
  4  2    -7.07064598E-01   # N_42
  4  3    -4.99991294E-01   # N_43
  4  4     5.00068256E-01   # N_44
#
BLOCK UMIX  # Chargino Mixing Matrix U
  1  1    -7.07052348E-01   # U_11
  1  2     7.07161210E-01   # U_12
  2  1     7.07161210E-01   # U_21
  2  2     7.07052348E-01   # U_22
#
BLOCK VMIX  # Chargino Mixing Matrix V
  1  1    -7.07161210E-01   # V_11
  1  2     7.07052348E-01   # V_12
  2  1     7.07052348E-01   # V_21
  2  2     7.07161210E-01   # V_22
#
BLOCK STOPMIX  # Stop Mixing Matrix
  1  1     9.99999517E-01   # cos(theta_t)
  1  2     9.82852871E-04   # sin(theta_t)
  2  1    -9.82852871E-04   # -sin(theta_t)
  2  2     9.99999517E-01   # cos(theta_t)
#
BLOCK SBOTMIX  # Sbottom Mixing Matrix
  1  1     7.06457316E-01   # cos(theta_b)
  1  2     7.07755650E-01   # sin(theta_b)
  2  1    -7.07755650E-01   # -sin(theta_b)
  2  2     7.06457316E-01   # cos(theta_b)
#
BLOCK STAUMIX  # Stau Mixing Matrix
  1  1     7.07083303E-01   # cos(theta_tau)
  1  2     7.07130259E-01   # sin(theta_tau)
  2  1    -7.07130259E-01   # -sin(theta_tau)
  2  2     7.07083303E-01   # cos(theta_tau)
#
BLOCK ALPHA  # Higgs mixing
          -6.77349012E-01   # Mixing angle in the neutral Higgs boson sector
#
BLOCK HMIX Q=  9.11876000E+01  # DRbar Higgs Parameters
         1     1.00000000E+05   # mu(Q)               
         2     1.49999982E+00   # tanbeta(Q)          
         3     2.55138814E+02   # vev(Q)              
         4    -2.18073780E+09   # MA^2(Q)             
#
BLOCK GAUGE Q=  9.11876000E+01  # The gauge couplings
     1     3.49879867E-01   # gprime(Q) DRbar
     2     6.15256281E-01   # g(Q) DRbar
     3     1.07194703E+00   # g3(Q) DRbar
#
BLOCK AU Q=  9.11876000E+01  # The trilinear couplings
  1  1     0.00000000E+00   # A_u(Q) DRbar
  2  2     0.00000000E+00   # A_c(Q) DRbar
  3  3     0.00000000E+00   # A_t(Q) DRbar
#
BLOCK AD Q=  9.11876000E+01  # The trilinear couplings
  1  1     0.00000000E+00   # A_d(Q) DRbar
  2  2     0.00000000E+00   # A_s(Q) DRbar
  3  3     0.00000000E+00   # A_b(Q) DRbar
#
BLOCK AE Q=  9.11876000E+01  # The trilinear couplings
  1  1     0.00000000E+00   # A_e(Q) DRbar
  2  2     0.00000000E+00   # A_mu(Q) DRbar
  3  3     0.00000000E+00   # A_tau(Q) DRbar
#
BLOCK Yu Q=  9.11876000E+01  # The Yukawa couplings
  1  1     0.00000000E+00   # y_u(Q) DRbar
  2  2     0.00000000E+00   # y_c(Q) DRbar
  3  3     9.81320925E-01   # y_t(Q) DRbar
#
BLOCK Yd Q=  9.11876000E+01  # The Yukawa couplings
  1  1     0.00000000E+00   # y_d(Q) DRbar
  2  2     0.00000000E+00   # y_s(Q) DRbar
  3  3     1.91776179E-02   # y_b(Q) DRbar
#
BLOCK Ye Q=  9.11876000E+01  # The Yukawa couplings
  1  1     0.00000000E+00   # y_e(Q) DRbar
  2  2     0.00000000E+00   # y_mu(Q) DRbar
  3  3     1.77303743E-02   # y_tau(Q) DRbar
#
BLOCK MSOFT Q=  9.11876000E+01  # The soft SUSY breaking masses at the scale Q
         1     2.00000000E+03   # M_1                 
         2     1.00000000E+05   # M_2                 
         3     2.40000000E+03   # M_3                 
        14     0.00000000E+00   # A_u                 
        15     0.00000000E+00   # A_d                 
        16     0.00000000E+00   # A_e                 
        21    -1.06382656E+10   # M^2_Hd              
        22    -1.00384482E+10   # M^2_Hu              
        31     1.00000000E+05   # M_eL                
        32     1.00000000E+05   # M_muL               
        33     1.00000000E+05   # M_tauL              
        34     1.00000000E+05   # M_eR                
        35     1.00000000E+05   # M_muR               
        36     1.00000000E+05   # M_tauR              
        41     3.00000000E+03   # M_q1L               
        42     3.00000000E+03   # M_q2L               
        43     3.00000000E+03   # M_q3L               
        44     1.00000000E+05   # M_uR                
        45     1.00000000E+05   # M_cR                
        46     1.00000000E+05   # M_tR                
        47     3.00000000E+03   # M_dR                
        48     3.00000000E+03   # M_sR                
        49     3.00000000E+03   # M_bR                
#
#
#
#                             =================
#                             |The decay table|
#                             =================
#
# - The QCD corrections to the decays gluino -> squark  + quark
#                                     squark -> gaugino + quark_prime
#                                     squark -> squark_prime + Higgs
#                                     squark -> gluino  + quark
#   are included.
#
# - The multi-body decays for the inos, stops and sbottoms are included.
#
# - The loop induced decays for the gluino, neutralinos and stops
#   are included.
#
# - The SUSY decays of the top quark are included.
#
# - Possible decays of the NLSP in GMSB models are included.
#
#
#         PDG            Width
DECAY         6     1.30532041E+00   # top decays
#          BR         NDA      ID1       ID2
     1.00000000E+00    2           5        24   # BR(t ->  b    W+)
#
#         PDG            Width
DECAY   1000021     1.E-04   # gluino decays (OJ Mods)
#          BR         NDA      ID1       ID2
     2.17201019E-02    2     1000022        21   # BR(~g -> ~chi_10 g)
#          BR         NDA      ID1       ID2
     1.14066904E-02    2     1000039        21   # BR(~g -> ~G      g)
#           BR         NDA      ID1       ID2       ID3
     2.83138116E-01    3     1000022         1        -1   # BR(~g -> ~chi_10 d  db)
     5.66698036E-02    3     1000022         2        -2   # BR(~g -> ~chi_10 u  ub)
     2.83138116E-01    3     1000022         3        -3   # BR(~g -> ~chi_10 s  sb)
     5.66698036E-02    3     1000022         4        -4   # BR(~g -> ~chi_10 c  cb)
     2.85111086E-01    3     1000022         5        -5   # BR(~g -> ~chi_10 b  bb)
     2.14628229E-03    3     1000022         6        -6   # BR(~g -> ~chi_10 t  tb)
#
#         PDG            Width
DECAY   1000006     2.60892191E+01   # stop1 decays
#          BR         NDA      ID1       ID2
     4.57510967E-03    2     1000022         6   # BR(~t_1 -> ~chi_10 t )
     9.95424890E-01    2     1000021         6   # BR(~t_1 -> ~g      t )
#
#         PDG            Width
DECAY   2000006     4.75930229E+03   # stop2 decays
#          BR         NDA      ID1       ID2
     4.40547730E-02    2     1000022         6   # BR(~t_2 -> ~chi_10 t )
     3.26621749E-07    2     1000024         5   # BR(~t_2 -> ~chi_1+ b )
     5.54757002E-01    2     1000021         6   # BR(~t_2 -> ~g      t )
     2.68830081E-02    2     1000006        25   # BR(~t_2 -> ~t_1    h )
     4.53379157E-02    2     1000006        35   # BR(~t_2 -> ~t_1    H )
     5.14003021E-02    2     1000006        36   # BR(~t_2 -> ~t_1    A )
     5.11465817E-02    2     1000005        37   # BR(~t_2 -> ~b_1    H+)
     5.17208575E-02    2     2000005        37   # BR(~t_2 -> ~b_2    H+)
     5.76247639E-02    2     1000006        23   # BR(~t_2 -> ~t_1    Z )
     5.83460271E-02    2     1000005        24   # BR(~t_2 -> ~b_1    W+)
     5.87284419E-02    2     2000005        24   # BR(~t_2 -> ~b_2    W+)
#
#         PDG            Width
DECAY   1000005     2.38059849E+01   # sbottom1 decays
#          BR         NDA      ID1       ID2
     1.18533341E-02    2     1000022         5   # BR(~b_1 -> ~chi_10 b )
     9.88146666E-01    2     1000021         5   # BR(~b_1 -> ~g      b )
#
#         PDG            Width
DECAY   2000005     3.00958134E+01   # sbottom2 decays
#          BR         NDA      ID1       ID2
     1.07146628E-02    2     1000022         5   # BR(~b_2 -> ~chi_10 b )
     9.88463533E-01    2     1000021         5   # BR(~b_2 -> ~g      b )
     8.21804662E-04    2     1000005        23   # BR(~b_2 -> ~b_1    Z )
#
#         PDG            Width
DECAY   1000002     1.46514957E+01   # sup_L decays
#          BR         NDA      ID1       ID2
     9.02860726E-03    2     1000022         2   # BR(~u_L -> ~chi_10 u)
     9.90971393E-01    2     1000021         2   # BR(~u_L -> ~g      u)
#
#         PDG            Width
DECAY   2000002     3.94156688E+03   # sup_R decays
#          BR         NDA      ID1       ID2
     5.32083326E-02    2     1000022         2   # BR(~u_R -> ~chi_10 u)
     6.71060726E-13    2     1000023         2   # BR(~u_R -> ~chi_20 u)
     9.46791667E-01    2     1000021         2   # BR(~u_R -> ~g      u)
#
#         PDG            Width
DECAY   1000001     1.46670801E+01   # sdown_L decays
#          BR         NDA      ID1       ID2
     9.02375627E-03    2     1000022         1   # BR(~d_L -> ~chi_10 d)
     9.90976244E-01    2     1000021         1   # BR(~d_L -> ~g      d)
#
#         PDG            Width
DECAY   2000001     1.50570906E+01   # sdown_R decays
#          BR         NDA      ID1       ID2
     3.51518311E-02    2     1000022         1   # BR(~d_R -> ~chi_10 d)
     9.64848169E-01    2     1000021         1   # BR(~d_R -> ~g      d)
#
#         PDG            Width
DECAY   1000004     1.46514957E+01   # scharm_L decays
#          BR         NDA      ID1       ID2
     9.02860726E-03    2     1000022         4   # BR(~c_L -> ~chi_10 c)
     9.90971393E-01    2     1000021         4   # BR(~c_L -> ~g      c)
#
#         PDG            Width
DECAY   2000004     3.94156688E+03   # scharm_R decays
#          BR         NDA      ID1       ID2
     5.32083326E-02    2     1000022         4   # BR(~c_R -> ~chi_10 c)
     6.71060726E-13    2     1000023         4   # BR(~c_R -> ~chi_20 c)
     9.46791667E-01    2     1000021         4   # BR(~c_R -> ~g      c)
#
#         PDG            Width
DECAY   1000003     1.46670801E+01   # sstrange_L decays
#          BR         NDA      ID1       ID2
     9.02375627E-03    2     1000022         3   # BR(~s_L -> ~chi_10 s)
     9.90976244E-01    2     1000021         3   # BR(~s_L -> ~g      s)
#
#         PDG            Width
DECAY   2000003     1.50570906E+01   # sstrange_R decays
#          BR         NDA      ID1       ID2
     3.51518311E-02    2     1000022         3   # BR(~s_R -> ~chi_10 s)
     9.64848169E-01    2     1000021         3   # BR(~s_R -> ~g      s)
#
#         PDG            Width
DECAY   1000011     1.21673148E+02   # selectron_L decays
#          BR         NDA      ID1       ID2
     9.99989005E-01    2     1000022        11   # BR(~e_L -> ~chi_10 e-)
     3.66631536E-06    2     1000023        11   # BR(~e_L -> ~chi_20 e-)
     3.92813308E-24    2     1000025        11   # BR(~e_L -> ~chi_30 e-)
     7.32865299E-06    2    -1000024        12   # BR(~e_L -> ~chi_1- nu_e)
#
#         PDG            Width
DECAY   2000011     4.86687817E+02   # selectron_R decays
#          BR         NDA      ID1       ID2
     1.00000000E+00    2     1000022        11   # BR(~e_R -> ~chi_10 e-)
     2.36752531E-13    2     1000023        11   # BR(~e_R -> ~chi_20 e-)
     1.17969419E-23    2     1000025        11   # BR(~e_R -> ~chi_30 e-)
#
#         PDG            Width
DECAY   1000013     1.21673148E+02   # smuon_L decays
#          BR         NDA      ID1       ID2
     9.99989005E-01    2     1000022        13   # BR(~mu_L -> ~chi_10 mu-)
     3.66631536E-06    2     1000023        13   # BR(~mu_L -> ~chi_20 mu-)
     3.92813308E-24    2     1000025        13   # BR(~mu_L -> ~chi_30 mu-)
     7.32865299E-06    2    -1000024        14   # BR(~mu_L -> ~chi_1- nu_mu)
#
#         PDG            Width
DECAY   2000013     4.86687817E+02   # smuon_R decays
#          BR         NDA      ID1       ID2
     1.00000000E+00    2     1000022        13   # BR(~mu_R -> ~chi_10 mu-)
     2.36752531E-13    2     1000023        13   # BR(~mu_R -> ~chi_20 mu-)
     1.17969419E-23    2     1000025        13   # BR(~mu_R -> ~chi_30 mu-)
#
#         PDG            Width
DECAY   1000015     3.22611506E+02   # stau_1 decays
#          BR         NDA      ID1       ID2
     9.42902928E-01    2     1000022        15   # BR(~tau_1 -> ~chi_10  tau-)
     7.06096022E-07    2     1000023        15   # BR(~tau_1 -> ~chi_20  tau-)
     1.41261370E-06    2    -1000024        16   # BR(~tau_1 -> ~chi_1-  nu_tau)
     5.70949529E-02    2     1000039        15   # BR(~tau_1 -> ~G       tau-)
#
#         PDG            Width
DECAY   2000015     3.04168945E+02   # stau_2 decays
#          BR         NDA      ID1       ID2
     9.99997854E-01    2     1000022        15   # BR(~tau_2 -> ~chi_10  tau-)
     7.15300050E-07    2     1000023        15   # BR(~tau_2 -> ~chi_20  tau-)
     1.43080446E-06    2    -1000024        16   # BR(~tau_2 -> ~chi_1-  nu_tau)
#
#         PDG            Width
DECAY   1000012     1.21673422E+02   # snu_eL decays
#          BR         NDA      ID1       ID2
     9.99989010E-01    2     1000022        12   # BR(~nu_eL -> ~chi_10 nu_e)
     3.66145936E-06    2     1000023        12   # BR(~nu_eL -> ~chi_20 nu_e)
     7.32864782E-06    2     1000024        11   # BR(~nu_eL -> ~chi_1+ e-)
#
#         PDG            Width
DECAY   1000014     1.21673422E+02   # snu_muL decays
#          BR         NDA      ID1       ID2
     9.99989010E-01    2     1000022        14   # BR(~nu_muL -> ~chi_10 nu_mu)
     3.66145936E-06    2     1000023        14   # BR(~nu_muL -> ~chi_20 nu_mu)
     7.32864782E-06    2     1000024        13   # BR(~nu_muL -> ~chi_1+ mu-)
#
#         PDG            Width
DECAY   1000016     1.21673421E+02   # snu_tauL decays
#          BR         NDA      ID1       ID2
     9.99989016E-01    2     1000022        16   # BR(~nu_tauL -> ~chi_10 nu_tau)
     3.66145939E-06    2     1000023        16   # BR(~nu_tauL -> ~chi_20 nu_tau)
     7.32303177E-06    2     1000024        15   # BR(~nu_tauL -> ~chi_1+ tau-)
#
#         PDG            Width
DECAY   1000024     3.90249831E+03   # chargino1+ decays
#          BR         NDA      ID1       ID2
     1.39367532E-01    2     1000002        -1   # BR(~chi_1+ -> ~u_L     db)
     1.39324575E-01    2    -1000001         2   # BR(~chi_1+ -> ~d_L*    u )
     1.39367532E-01    2     1000004        -3   # BR(~chi_1+ -> ~c_L     sb)
     1.39324575E-01    2    -1000003         4   # BR(~chi_1+ -> ~s_L*    c )
     1.23982210E-01    2     1000006        -5   # BR(~chi_1+ -> ~t_1     bb)
     1.51661522E-01    2    -1000005         6   # BR(~chi_1+ -> ~b_1*    t )
     1.47175757E-01    2    -2000005         6   # BR(~chi_1+ -> ~b_2*    t )
     7.63958757E-03    2     1000022        24   # BR(~chi_1+ -> ~chi_10  W+)
     7.47853689E-03    2     1000022        37   # BR(~chi_1+ -> ~chi_10  H+)
     3.50999641E-03    2     1000039        24   # BR(~chi_1+ -> ~G       W+)
     1.16817679E-03    2     1000039        37   # BR(~chi_1+ -> ~G       H+)
#
#         PDG            Width
DECAY   1000037     3.90685682E+03   # chargino2+ decays
#          BR         NDA      ID1       ID2
     1.39379906E-01    2     1000002        -1   # BR(~chi_2+ -> ~u_L     db)
     1.39422778E-01    2    -1000001         2   # BR(~chi_2+ -> ~d_L*    u )
     1.39379906E-01    2     1000004        -3   # BR(~chi_2+ -> ~c_L     sb)
     1.39422778E-01    2    -1000003         4   # BR(~chi_2+ -> ~s_L*    c )
     1.23659756E-01    2     1000006        -5   # BR(~chi_2+ -> ~t_1     bb)
     9.20905864E-07    2     2000006        -5   # BR(~chi_2+ -> ~t_2     bb)
     1.45695180E-01    2    -1000005         6   # BR(~chi_2+ -> ~b_1*    t )
     1.52629590E-01    2    -2000005         6   # BR(~chi_2+ -> ~b_2*    t )
     1.13514391E-07    2     1000012       -11   # BR(~chi_2+ -> ~nu_eL   e+  )
     1.13514391E-07    2     1000014       -13   # BR(~chi_2+ -> ~nu_muL  mu+ )
     1.13427383E-07    2     1000016       -15   # BR(~chi_2+ -> ~nu_tau1 tau+)
     1.13514556E-07    2    -1000011        12   # BR(~chi_2+ -> ~e_L+    nu_e)
     1.13514556E-07    2    -1000013        14   # BR(~chi_2+ -> ~mu_L+   nu_mu)
     5.53965284E-08    2    -1000015        16   # BR(~chi_2+ -> ~tau_1+  nu_tau)
     5.80199285E-08    2    -2000015        16   # BR(~chi_2+ -> ~tau_2+  nu_tau)
     2.90714123E-04    2     1000024        23   # BR(~chi_2+ -> ~chi_1+  Z )
     7.62077086E-03    2     1000022        24   # BR(~chi_2+ -> ~chi_10  W+)
     3.32347076E-04    2     1000023        24   # BR(~chi_2+ -> ~chi_20  W+)
     8.07846015E-13    2     1000024        25   # BR(~chi_2+ -> ~chi_1+  h )
     7.45574702E-03    2     1000022        37   # BR(~chi_2+ -> ~chi_10  H+)
     3.53320375E-03    2     1000039        24   # BR(~chi_2+ -> ~G       W+)
     1.17572078E-03    2     1000039        37   # BR(~chi_2+ -> ~G       H+)
#
#         PDG            Width
DECAY   1000022     1.E-08   # neutralino1 decays (OJ Mods)
#          BR         NDA      ID1       ID2
     7.57168866E-01    2     1000039        22   # BR(~chi_10 -> ~G        gam)
     2.42831133E-01    2     1000039        23   # BR(~chi_10 -> ~G        Z)
     6.81178453E-10    2     1000039        25   # BR(~chi_10 -> ~G        h)
#
#         PDG            Width
DECAY   1000023     1.E-08   # neutralino2 decays (OJ Mods)
#          BR         NDA      ID1       ID2
     2.80624167E-04    2     1000022        23   # BR(~chi_20 -> ~chi_10   Z )
     7.98339734E-03    2     1000022        25   # BR(~chi_20 -> ~chi_10   h )
     9.42574807E-05    2     1000022        35   # BR(~chi_20 -> ~chi_10   H )
     7.16418537E-03    2     1000022        36   # BR(~chi_20 -> ~chi_10   A )
     6.75015516E-02    2     1000002        -2   # BR(~chi_20 -> ~u_L      ub)
     6.75015516E-02    2    -1000002         2   # BR(~chi_20 -> ~u_L*     u )
     6.74786621E-02    2     1000001        -1   # BR(~chi_20 -> ~d_L      db)
     6.74786621E-02    2    -1000001         1   # BR(~chi_20 -> ~d_L*     d )
     1.93793359E-09    2     2000001        -1   # BR(~chi_20 -> ~d_R      db)
     1.93793359E-09    2    -2000001         1   # BR(~chi_20 -> ~d_R*     d )
     6.75015516E-02    2     1000004        -4   # BR(~chi_20 -> ~c_L      cb)
     6.75015516E-02    2    -1000004         4   # BR(~chi_20 -> ~c_L*     c )
     6.74786621E-02    2     1000003        -3   # BR(~chi_20 -> ~s_L      sb)
     6.74786621E-02    2    -1000003         3   # BR(~chi_20 -> ~s_L*     s )
     1.93793359E-09    2     2000003        -3   # BR(~chi_20 -> ~s_R      sb)
     1.93793359E-09    2    -2000003         3   # BR(~chi_20 -> ~s_R*     s )
     1.49343392E-01    2     1000006        -6   # BR(~chi_20 -> ~t_1      tb)
     1.49343392E-01    2    -1000006         6   # BR(~chi_20 -> ~t_1*     t )
     3.22860020E-02    2     1000005        -5   # BR(~chi_20 -> ~b_1      bb)
     3.22860020E-02    2    -1000005         5   # BR(~chi_20 -> ~b_1*     b )
     2.96377869E-02    2     2000005        -5   # BR(~chi_20 -> ~b_2      bb)
     2.96377869E-02    2    -2000005         5   # BR(~chi_20 -> ~b_2*     b )
     5.72603658E-04    2     1000039        22   # BR(~chi_20 -> ~G        gam)
     2.89142734E-03    2     1000039        23   # BR(~chi_20 -> ~G        Z)
     1.35810184E-05    2     1000039        25   # BR(~chi_20 -> ~G        h)
     1.15402884E-03    2     1000039        35   # BR(~chi_20 -> ~G        H)
     4.49432510E-05    2     1000039        36   # BR(~chi_20 -> ~G        A)
#
#         PDG            Width
DECAY   1000025     1.49099977E+03   # neutralino3 decays
#          BR         NDA      ID1       ID2
     3.95609967E-02    2     1000022        23   # BR(~chi_30 -> ~chi_10   Z )
     4.50331914E-04    2     1000022        25   # BR(~chi_30 -> ~chi_10   h )
     3.82418311E-02    2     1000022        35   # BR(~chi_30 -> ~chi_10   H )
     1.61218030E-03    2     1000022        36   # BR(~chi_30 -> ~chi_10   A )
     1.29341498E-09    2     1000002        -2   # BR(~chi_30 -> ~u_L      ub)
     1.29341498E-09    2    -1000002         2   # BR(~chi_30 -> ~u_L*     u )
     2.26309439E-17    2     2000002        -2   # BR(~chi_30 -> ~u_R      ub)
     2.26309439E-17    2    -2000002         2   # BR(~chi_30 -> ~u_R*     u )
     3.05166506E-09    2     1000001        -1   # BR(~chi_30 -> ~d_L      db)
     3.05166506E-09    2    -1000001         1   # BR(~chi_30 -> ~d_L*     d )
     3.71633735E-10    2     2000001        -1   # BR(~chi_30 -> ~d_R      db)
     3.71633735E-10    2    -2000001         1   # BR(~chi_30 -> ~d_R*     d )
     1.29341498E-09    2     1000004        -4   # BR(~chi_30 -> ~c_L      cb)
     1.29341498E-09    2    -1000004         4   # BR(~chi_30 -> ~c_L*     c )
     2.26309439E-17    2     2000004        -4   # BR(~chi_30 -> ~c_R      cb)
     2.26309439E-17    2    -2000004         4   # BR(~chi_30 -> ~c_R*     c )
     3.05166506E-09    2     1000003        -3   # BR(~chi_30 -> ~s_L      sb)
     3.05166506E-09    2    -1000003         3   # BR(~chi_30 -> ~s_L*     s )
     3.71633735E-10    2     2000003        -3   # BR(~chi_30 -> ~s_R      sb)
     3.71633735E-10    2    -2000003         3   # BR(~chi_30 -> ~s_R*     s )
     4.53669702E-01    2     1000006        -6   # BR(~chi_30 -> ~t_1      tb)
     4.53669702E-01    2    -1000006         6   # BR(~chi_30 -> ~t_1*     t )
     1.48872269E-04    2     1000005        -5   # BR(~chi_30 -> ~b_1      bb)
     1.48872269E-04    2    -1000005         5   # BR(~chi_30 -> ~b_1*     b )
     1.51540023E-04    2     2000005        -5   # BR(~chi_30 -> ~b_2      bb)
     1.51540023E-04    2    -2000005         5   # BR(~chi_30 -> ~b_2*     b )
     7.58159069E-23    2     1000012       -12   # BR(~chi_30 -> ~nu_eL    nu_eb)
     7.58159069E-23    2    -1000012        12   # BR(~chi_30 -> ~nu_eL*   nu_e )
     7.58159069E-23    2     1000014       -14   # BR(~chi_30 -> ~nu_muL   nu_mub)
     7.58159069E-23    2    -1000014        14   # BR(~chi_30 -> ~nu_muL*  nu_mu )
     7.58159069E-23    2     1000016       -16   # BR(~chi_30 -> ~nu_tau1  nu_taub)
     7.58159069E-23    2    -1000016        16   # BR(~chi_30 -> ~nu_tau1* nu_tau )
     1.63119822E-11    2     1000039        22   # BR(~chi_30 -> ~G        gam)
     2.34690647E-04    2     1000039        23   # BR(~chi_30 -> ~G        Z)
     6.03097466E-03    2     1000039        25   # BR(~chi_30 -> ~G        h)
     7.08455735E-05    2     1000039        35   # BR(~chi_30 -> ~G        H)
     5.85790041E-03    2     1000039        36   # BR(~chi_30 -> ~G        A)
#
#         PDG            Width
DECAY   1000035     3.90768783E+03   # neutralino4 decays
#          BR         NDA      ID1       ID2
     2.81250729E-04    2     1000022        23   # BR(~chi_40 -> ~chi_10   Z )
     1.11082169E-18    2     1000023        23   # BR(~chi_40 -> ~chi_20   Z )
     3.32201158E-04    2     1000024       -24   # BR(~chi_40 -> ~chi_1+   W-)
     3.32201158E-04    2    -1000024        24   # BR(~chi_40 -> ~chi_1-   W+)
     7.96464021E-03    2     1000022        25   # BR(~chi_40 -> ~chi_10   h )
     9.32400157E-05    2     1000022        35   # BR(~chi_40 -> ~chi_10   H )
     7.14624188E-03    2     1000022        36   # BR(~chi_40 -> ~chi_10   A )
     5.42763694E-12    2     1000023        25   # BR(~chi_40 -> ~chi_20   h )
     6.74972909E-02    2     1000002        -2   # BR(~chi_40 -> ~u_L      ub)
     6.74972909E-02    2    -1000002         2   # BR(~chi_40 -> ~u_L*     u )
     1.99650079E-12    2     2000002        -2   # BR(~chi_40 -> ~u_R      ub)
     1.99650079E-12    2    -2000002         2   # BR(~chi_40 -> ~u_R*     u )
     6.75201236E-02    2     1000001        -1   # BR(~chi_40 -> ~d_L      db)
     6.75201236E-02    2    -1000001         1   # BR(~chi_40 -> ~d_L*     d )
     1.93342826E-09    2     2000001        -1   # BR(~chi_40 -> ~d_R      db)
     1.93342826E-09    2    -2000001         1   # BR(~chi_40 -> ~d_R*     d )
     6.74972909E-02    2     1000004        -4   # BR(~chi_40 -> ~c_L      cb)
     6.74972909E-02    2    -1000004         4   # BR(~chi_40 -> ~c_L*     c )
     1.99650079E-12    2     2000004        -4   # BR(~chi_40 -> ~c_R      cb)
     1.99650079E-12    2    -2000004         4   # BR(~chi_40 -> ~c_R*     c )
     6.75201236E-02    2     1000003        -3   # BR(~chi_40 -> ~s_L      sb)
     6.75201236E-02    2    -1000003         3   # BR(~chi_40 -> ~s_L*     s )
     1.93342826E-09    2     2000003        -3   # BR(~chi_40 -> ~s_R      sb)
     1.93342826E-09    2    -2000003         3   # BR(~chi_40 -> ~s_R*     s )
     1.48894823E-01    2     1000006        -6   # BR(~chi_40 -> ~t_1      tb)
     1.48894823E-01    2    -1000006         6   # BR(~chi_40 -> ~t_1*     t )
     2.94510414E-02    2     1000005        -5   # BR(~chi_40 -> ~b_1      bb)
     2.94510414E-02    2    -1000005         5   # BR(~chi_40 -> ~b_1*     b )
     3.25145052E-02    2     2000005        -5   # BR(~chi_40 -> ~b_2      bb)
     3.25145052E-02    2    -2000005         5   # BR(~chi_40 -> ~b_2*     b )
     5.67142153E-08    2     1000011       -11   # BR(~chi_40 -> ~e_L-     e+)
     5.67142153E-08    2    -1000011        11   # BR(~chi_40 -> ~e_L+     e-)
     1.46259214E-14    2     2000011       -11   # BR(~chi_40 -> ~e_R-     e+)
     1.46259214E-14    2    -2000011        11   # BR(~chi_40 -> ~e_R+     e-)
     5.67142153E-08    2     1000013       -13   # BR(~chi_40 -> ~mu_L-    mu+)
     5.67142153E-08    2    -1000013        13   # BR(~chi_40 -> ~mu_L+    mu-)
     1.46259214E-14    2     2000013       -13   # BR(~chi_40 -> ~mu_R-    mu+)
     1.46259214E-14    2    -2000013        13   # BR(~chi_40 -> ~mu_R+    mu-)
     2.76561769E-08    2     1000015       -15   # BR(~chi_40 -> ~tau_1-   tau+)
     2.76561769E-08    2    -1000015        15   # BR(~chi_40 -> ~tau_1+   tau-)
     2.89655387E-08    2     2000015       -15   # BR(~chi_40 -> ~tau_2-   tau+)
     2.89655387E-08    2    -2000015        15   # BR(~chi_40 -> ~tau_2+   tau-)
     5.67892306E-08    2     1000012       -12   # BR(~chi_40 -> ~nu_eL    nu_eb)
     5.67892306E-08    2    -1000012        12   # BR(~chi_40 -> ~nu_eL*   nu_e )
     5.67892306E-08    2     1000014       -14   # BR(~chi_40 -> ~nu_muL   nu_mub)
     5.67892306E-08    2    -1000014        14   # BR(~chi_40 -> ~nu_muL*  nu_mu )
     5.67892306E-08    2     1000016       -16   # BR(~chi_40 -> ~nu_tau1  nu_taub)
     5.67892306E-08    2    -1000016        16   # BR(~chi_40 -> ~nu_tau1* nu_tau )
     5.74489963E-04    2     1000039        22   # BR(~chi_40 -> ~G        gam)
     2.91249910E-03    2     1000039        23   # BR(~chi_40 -> ~G        Z)
     1.37140342E-05    2     1000039        25   # BR(~chi_40 -> ~G        h)
     1.16199549E-03    2     1000039        35   # BR(~chi_40 -> ~G        H)
     4.51853984E-05    2     1000039        36   # BR(~chi_40 -> ~G        A)
#
#
#
#
