# SUSY Les Houches Accord 2 - MSSM spectrum + Decays
# SPheno v3.1.12 
# W. Porod, Comput. Phys. Commun. 153 (2003) 275-315, hep-ph/0301101
# in case of problems send email to porod@physik.uni-wuerzburg.de
# Created: 12.11.2012,  11:43
Block SPINFO         # Program information
     1   SPheno      # spectrum calculator
     2   v3.1.12     # version number
#
Block SPhenoINFO     # SPheno specific information
    1      2         # using 2-loop RGEs
    2      1         # using running masses for boundary conditions at mZ
Block MODSEL  # Model selection
    1    2    # mGMSB model
Block MINPAR  # Input parameters
    1    9.00000000E+04  # Lambda, scale of SUSY breaking
    2    2.50000000E+05  # M_M, messenger mass scale
    3    1.00000000E+01  # tanb at m_Z   
    4    1.00000000E+00  # Sign(mu)
    5    3.00000000E+00  # N_5 number of effective five-plets
    6    1.00000000E+00  # c_grav, Gravitino mass factor
Block gauge Q=  2.50000000E+05  # (GMSB scale)
   1    4.93861181E-01  # g'(Q)^DRbar
   2    6.50082462E-01  # g(Q)^DRbar
   3    9.42790879E-01  # g3(Q)^DRbar
Block SMINPUTS  # SM parameters
         1     1.27932475E+02  # alpha_em^-1(MZ)^MSbar
         2     1.16639000E-05  # G_mu [GeV^-2]
         3     1.17200000E-01  # alpha_s(MZ)^MSbar
         4     9.11876000E+01  # m_Z(pole)
         5     4.20000000E+00  # m_b(m_b), MSbar
         6     1.72500000E+02  # m_t(pole)
         7     1.77700000E+00  # m_tau(pole)
         8     0.00000000E+00  # m_nu_3
        11     5.10998910E-04  # m_e(pole)
        12     0.00000000E+00  # m_nu_1
        13     1.05658000E-01  # m_muon(pole)
        14     0.00000000E+00  # m_nu_2
        21     5.00000000E-03  # m_d(2 GeV), MSbar
        22     3.00000000E-03  # m_u(2 GeV), MSbar
        23     1.05000000E-01  # m_s(2 GeV), MSbar
        24     1.27000000E+00  # m_c(m_c), MSbar
Block gauge Q=  1.74358918E+03  # (SUSY scale)
   1    3.64253046E-01  # g'(Q)^DRbar
   2    6.40040062E-01  # g(Q)^DRbar
   3    1.03010904E+00  # g3(Q)^DRbar
Block Yu Q=  1.74358918E+03  # (SUSY scale)
  1  1     8.46812140E-06   # Y_u(Q)^DRbar
  2  2     3.58483835E-03   # Y_c(Q)^DRbar
  3  3     8.49534938E-01   # Y_t(Q)^DRbar
Block Yd Q=  1.74358918E+03  # (SUSY scale)
  1  1     1.31177102E-04   # Y_d(Q)^DRbar
  2  2     2.75471854E-03   # Y_s(Q)^DRbar
  3  3     1.29898354E-01   # Y_b(Q)^DRbar
Block Ye Q=  1.74358918E+03  # (SUSY scale)
  1  1     2.86564818E-05   # Y_e(Q)^DRbar
  2  2     5.92523371E-03   # Y_mu(Q)^DRbar
  3  3     9.96663427E-02   # Y_tau(Q)^DRbar
Block Au Q=  1.74358918E+03  # (SUSY scale)
  1  1    -5.69885693E+02   # A_u(Q)^DRbar
  2  2    -5.69884969E+02   # A_c(Q)^DRbar
  3  3    -5.36078648E+02   # A_t(Q)^DRbar
Block Ad Q=  1.74358918E+03  # (SUSY scale)
  1  1    -6.08429070E+02   # A_d(Q)^DRbar
  2  2    -6.08428504E+02   # A_s(Q)^DRbar
  3  3    -5.96689878E+02   # A_b(Q)^DRbar
Block Ae Q=  1.74358918E+03  # (SUSY scale)
  1  1    -6.54242428E+01   # A_e(Q)^DRbar
  2  2    -6.54240042E+01   # A_mu(Q)^DRbar
  3  3    -6.53567554E+01   # A_tau(Q)^DRbar
Block MSOFT Q=  1.74358918E+03  # soft SUSY breaking masses at Q
   1    3.84041131E+02  # M_1
   2    7.08877338E+02  # M_2
   3    1.84502853E+03  # M_3
  21    3.02508396E+05  # M^2_(H,d)
  22   -3.51733622E+05  # M^2_(H,u)
  31    5.64639849E+02  # M_(L,11)
  32    5.64638609E+02  # M_(L,22)
  33    5.64289102E+02  # M_(L,33)
  34    2.72258434E+02  # M_(E,11)
  35    2.72253206E+02  # M_(E,22)
  36    2.70775292E+02  # M_(E,33)
  41    1.81069082E+03  # M_(Q,11)
  42    1.81068918E+03  # M_(Q,22)
  43    1.75217221E+03  # M_(Q,33)
  44    1.73804481E+03  # M_(U,11)
  45    1.73804267E+03  # M_(U,22)
  46    1.61448579E+03  # M_(U,33)
  47    1.73103775E+03  # M_(D,11)
  48    1.73103645E+03  # M_(D,22)
  49    1.72815525E+03  # M_(D,33)
Block MASS  # Mass spectrum
#   PDG code      mass          particle
         6     1.72500000E+02  # m_t(pole)
        23     9.11876000E+01  # m_Z(pole)
        24     8.03138778E+01  # W+
        15     1.77700000E+00  # m_tau(pole)
        25     1.16524392E+02  # h0
        35     8.64557277E+02  # H0
        36     8.64252276E+02  # A0
        37     8.68373612E+02  # H+
   1000001     1.88650771E+03  # ~d_L
   2000001     1.80290719E+03  # ~d_R
   1000002     1.88478846E+03  # ~u_L
   2000002     1.80903408E+03  # ~u_R
   1000003     1.88650580E+03  # ~s_L
   2000003     1.80290550E+03  # ~s_R
   1000004     1.88478683E+03  # ~c_L
   2000004     1.80903143E+03  # ~c_R
   1000005     1.79820862E+03  # ~b_1
   2000005     1.81696065E+03  # ~b_2
   1000006     1.66416938E+03  # ~t_1
   2000006     1.82679734E+03  # ~t_2
   1000011     5.77587728E+02  # ~e_L-
   2000011     2.85331190E+02  # ~e_R-
   1000012     5.71798309E+02  # ~nu_eL
   1000013     5.77587618E+02  # ~mu_L-
   2000013     2.85321527E+02  # ~mu_R-
   1000014     5.71796567E+02  # ~nu_muL
   1000015     2.82589264E+02  # ~tau_1-
   2000015     5.77555021E+02  # ~tau_2-
   1000016     5.71305843E+02  # ~nu_tauL
   1000021     1.94811384E+03  # ~g
   1000022     3.72074032E+02  # ~chi_10
   1000023     6.24424022E+02  # ~chi_20
   1000025    -6.58946260E+02  # ~chi_30
   1000035     7.61317271E+02  # ~chi_40
   1000024     6.22510739E+02  # ~chi_1+
   1000037     7.61167194E+02  # ~chi_2+
   1000039     5.40000000E-09  # ~G
# Higgs mixing
Block alpha # Effective Higgs mixing angle
          -1.07128065E-01   # alpha
Block Hmix Q=  1.74358918E+03  # Higgs mixing parameters
   1    6.49182169E+02  # mu
   2    9.57549683E+00  # tan[beta](Q)
   3    2.43746817E+02  # v(Q)
   4    6.60614772E+05  # m^2_A(Q)
Block stopmix # stop mixing matrix
   1  1     1.88669295E-01   # Re[R_st(1,1)]
   1  2     9.82040680E-01   # Re[R_st(1,2)]
   2  1    -9.82040680E-01   # Re[R_st(2,1)]
   2  2     1.88669295E-01   # Re[R_st(2,2)]
Block sbotmix # sbottom mixing matrix
   1  1     2.55930835E-01   # Re[R_sb(1,1)]
   1  2     9.66695096E-01   # Re[R_sb(1,2)]
   2  1    -9.66695096E-01   # Re[R_sb(2,1)]
   2  2     2.55930835E-01   # Re[R_sb(2,2)]
Block staumix # stau mixing matrix
   1  1     4.52550707E-02   # Re[R_sta(1,1)]
   1  2     9.98975464E-01   # Re[R_sta(1,2)]
   2  1    -9.98975464E-01   # Re[R_sta(2,1)]
   2  2     4.52550707E-02   # Re[R_sta(2,2)]
Block Nmix # neutralino mixing matrix
   1  1    -9.91662031E-01   # Re[N(1,1)]
   1  2     1.75621741E-02   # Re[N(1,2)]
   1  3    -1.07726535E-01   # Re[N(1,3)]
   1  4     6.85053224E-02   # Re[N(1,4)]
   2  1     1.16555707E-01   # Re[N(2,1)]
   2  2     5.10606555E-01   # Re[N(2,2)]
   2  3    -6.14534524E-01   # Re[N(2,3)]
   2  4     5.89951720E-01   # Re[N(2,4)]
   3  1     2.69976557E-02   # Re[N(3,1)]
   3  2    -3.61957288E-02   # Re[N(3,2)]
   3  3    -7.04698272E-01   # Re[N(3,3)]
   3  4    -7.08068741E-01   # Re[N(3,4)]
   4  1    -4.78780673E-02   # Re[N(4,1)]
   4  2     8.58872741E-01   # Re[N(4,2)]
   4  3     3.37850053E-01   # Re[N(4,3)]
   4  4    -3.81972051E-01   # Re[N(4,4)]
Block Umix # chargino mixing matrix
   1  1    -4.75070763E-01   # Re[U(1,1)]
   1  2     8.79947595E-01   # Re[U(1,2)]
   2  1     8.79947595E-01   # Re[U(2,1)]
   2  2     4.75070763E-01   # Re[U(2,2)]
Block Vmix # chargino mixing matrix
   1  1    -5.37325192E-01   # Re[V(1,1)]
   1  2     8.43375147E-01   # Re[V(1,2)]
   2  1     8.43375147E-01   # Re[V(2,1)]
   2  2     5.37325192E-01   # Re[V(2,2)]
DECAY   2000011     7.44018611E-11   # ~e^-_R
#    BR                NDA      ID1      ID2
     9.98912724E-01    2     1000039        11   # BR(~e^-_R -> ~G e^-)
#    BR                NDA      ID1      ID2       ID3
     2.76342766E-04    3     1000015        11       -15   # BR(~e^-_R -> ~tau^-_1 e^- tau^+)
     8.10933601E-04    3    -1000015        11        15   # BR(~e^-_R -> ~tau^+_1 e^- tau^-)
DECAY   1000011     2.40846769E-01   # ~e^-_L
#    BR                NDA      ID1      ID2
     9.99999956E-01    2     1000022        11   # BR(~e^-_L -> chi^0_1 e^-)
     1.61751911E-08    2     2000011        23   # BR(~e^-_L -> ~e^-_R Z)
     1.71466737E-08    2     2000011        25   # BR(~e^-_L -> ~e^-_R h^0)
     1.04885166E-08    2     1000039        11   # BR(~e^-_L -> ~G e^-)
DECAY   2000013     7.43936993E-11   # ~mu^-_R
#    BR                NDA      ID1      ID2
     9.98852622E-01    2     1000039        13   # BR(~mu^-_R -> ~G mu^-)
#    BR                NDA      ID1      ID2       ID3
     2.91526356E-04    3     1000015        13       -15   # BR(~mu^-_R -> ~tau^-_1 mu^- tau^+)
     8.55852027E-04    3    -1000015        13        15   # BR(~mu^-_R -> ~tau^+_1 mu^- tau^-)
DECAY   1000013     2.41192842E-01   # ~mu^-_L
#    BR                NDA      ID1      ID2
     9.98577408E-01    2     1000022        13   # BR(~mu^-_L -> chi^0_1 mu^-)
     6.90564550E-04    2     2000013        23   # BR(~mu^-_L -> ~mu^-_R Z)
     7.32016556E-04    2     2000013        25   # BR(~mu^-_L -> ~mu^-_R h^0)
     1.04734559E-08    2     1000039        13   # BR(~mu^-_L -> ~G mu^-)
DECAY   1000015     7.08067569E-11   # ~tau^-_1
#    BR                NDA      ID1      ID2
     1.00000000E+00    2     1000039        15   # BR(~tau^-_1 -> ~G tau^-)
DECAY   2000015     3.39137113E-01   # ~tau^-_2
#    BR                NDA      ID1      ID2
     7.12613405E-01    2     1000022        15   # BR(~tau^-_2 -> chi^0_1 tau^-)
     1.40145532E-01    2     1000015        23   # BR(~tau^-_2 -> ~tau^-_1 Z)
     1.47241056E-01    2     1000015        25   # BR(~tau^-_2 -> ~tau^-_1 h^0)
     7.44629373E-09    2     1000039        15   # BR(~tau^-_2 -> ~G tau^-)
DECAY   1000012     2.62307498E-01   # ~nu_e
#    BR                NDA      ID1      ID2
     9.99999962E-01    2     1000022        12   # BR(~nu_e -> chi^0_1 nu_e)
     2.84773448E-08    2     2000011        24   # BR(~nu_e -> ~e^-_R W^+)
     9.15732725E-09    2     1000039        12   # BR(~nu_e -> ~G nu_e)
DECAY   1000014     2.62623708E-01   # ~nu_mu
#    BR                NDA      ID1      ID2
     9.98783942E-01    2     1000022        14   # BR(~nu_mu -> chi^0_1 nu_mu)
     1.21604871E-03    2     2000013        24   # BR(~nu_mu -> ~mu^-_R W^+)
     9.14616216E-09    2     1000039        14   # BR(~nu_mu -> ~G nu_mu)
DECAY   1000016     3.52332989E-01   # ~nu_tau
#    BR                NDA      ID1      ID2
     7.41963137E-01    2     1000022        16   # BR(~nu_tau -> chi^0_1 nu_tau)
     2.58036856E-01    2     1000015        24   # BR(~nu_tau -> ~tau^-_1 W^+)
     6.78820780E-09    2     1000039        16   # BR(~nu_tau -> ~G nu_tau)
DECAY   2000001     9.66623651E-01   # ~d_R
#    BR                NDA      ID1      ID2
     9.86195191E-01    2     1000022         1   # BR(~d_R -> chi^0_1 d)
     1.15113853E-02    2     1000023         1   # BR(~d_R -> chi^0_2 d)
     5.98843252E-04    2     1000025         1   # BR(~d_R -> chi^0_3 d)
     1.69327819E-03    2     1000035         1   # BR(~d_R -> chi^0_4 d)
     5.04113177E-07    2    -1000024         2   # BR(~d_R -> chi^-_1 u)
     2.40879506E-08    2    -1000037         2   # BR(~d_R -> chi^-_2 u)
     7.74416412E-07    2     1000039         1   # BR(~d_R -> ~G d)
DECAY   1000001     1.69229897E+01   # ~d_L
#    BR                NDA      ID1      ID2
     1.77514346E-02    2     1000022         1   # BR(~d_L -> chi^0_1 d)
     8.59466629E-02    2     1000023         1   # BR(~d_L -> chi^0_2 d)
     5.97795690E-04    2     1000025         1   # BR(~d_L -> chi^0_3 d)
     2.39820903E-01    2     1000035         1   # BR(~d_L -> chi^0_4 d)
     1.62820086E-01    2    -1000024         2   # BR(~d_L -> chi^-_1 u)
     4.93063062E-01    2    -1000037         2   # BR(~d_L -> chi^-_2 u)
     5.54856835E-08    2     1000039         1   # BR(~d_L -> ~G d)
DECAY   2000003     9.67061806E-01   # ~s_R
#    BR                NDA      ID1      ID2
     9.85755390E-01    2     1000022         3   # BR(~s_R -> chi^0_1 s)
     1.16130633E-02    2     1000023         3   # BR(~s_R -> chi^0_2 s)
     7.00303881E-04    2     1000025         3   # BR(~s_R -> chi^0_3 s)
     1.69763805E-03    2     1000035         3   # BR(~s_R -> chi^0_4 s)
     2.22212464E-04    2    -1000024         4   # BR(~s_R -> chi^-_1 c)
     1.06179045E-05    2    -1000037         4   # BR(~s_R -> chi^-_2 c)
     7.74061902E-07    2     1000039         3   # BR(~s_R -> ~G s)
DECAY   1000003     1.69235144E+01   # ~s_L
#    BR                NDA      ID1      ID2
     1.77507260E-02    2     1000022         3   # BR(~s_L -> chi^0_1 s)
     8.59473298E-02    2     1000023         3   # BR(~s_L -> chi^0_2 s)
     6.04378064E-04    2     1000025         3   # BR(~s_L -> chi^0_3 s)
     2.39815464E-01    2     1000035         3   # BR(~s_L -> chi^0_4 s)
     1.62825844E-01    2    -1000024         4   # BR(~s_L -> chi^-_1 c)
     4.93056203E-01    2    -1000037         4   # BR(~s_L -> chi^-_2 c)
     5.54836816E-08    2     1000039         3   # BR(~s_L -> ~G s)
DECAY   1000005     4.02024021E+00   # ~b_1
#    BR                NDA      ID1      ID2
     2.41893376E-01    2     1000022         5   # BR(~b_1 -> chi^0_1 b)
     1.23113846E-01    2     1000023         5   # BR(~b_1 -> chi^0_2 b)
     4.91623651E-02    2     1000025         5   # BR(~b_1 -> chi^0_3 b)
     2.03109622E-02    2     1000035         5   # BR(~b_1 -> chi^0_4 b)
     4.29538471E-01    2    -1000024         6   # BR(~b_1 -> chi^-_1 t)
     1.32751223E-01    2    -1000037         6   # BR(~b_1 -> chi^-_2 t)
     3.22957372E-03    2     1000006       -24   # BR(~b_1 -> ~t_1 W^-)
     1.83782434E-07    2     1000039         5   # BR(~b_1 -> ~G b)
DECAY   2000005     3.36079147E+01   # ~b_2
#    BR                NDA      ID1      ID2
     8.26734770E-03    2     1000022         5   # BR(~b_2 -> chi^0_1 b)
     3.68682507E-02    2     1000023         5   # BR(~b_2 -> chi^0_2 b)
     7.90959840E-03    2     1000025         5   # BR(~b_2 -> chi^0_3 b)
     1.13251159E-01    2     1000035         5   # BR(~b_2 -> chi^0_4 b)
     4.27678052E-01    2    -1000024         6   # BR(~b_2 -> chi^-_1 t)
     3.96376571E-01    2    -1000037         6   # BR(~b_2 -> chi^-_2 t)
     9.64899743E-03    2     1000006       -24   # BR(~b_2 -> ~t_1 W^-)
     2.31548448E-08    2     1000039         5   # BR(~b_2 -> ~G b)
DECAY   2000002     3.88203674E+00   # ~u_R
#    BR                NDA      ID1      ID2
     9.86177890E-01    2     1000022         2   # BR(~u_R -> chi^0_1 u)
     1.15252350E-02    2     1000023         2   # BR(~u_R -> chi^0_2 u)
     5.99489821E-04    2     1000025         2   # BR(~u_R -> chi^0_3 u)
     1.69718878E-03    2     1000035         2   # BR(~u_R -> chi^0_4 u)
     5.29391370E-10    2     1000024         1   # BR(~u_R -> chi^+_1 d)
     3.33844935E-11    2     1000037         1   # BR(~u_R -> chi^+_2 d)
     1.96127821E-07    2     1000039         2   # BR(~u_R -> ~G u)
DECAY   1000002     1.69961079E+01   # ~u_L
#    BR                NDA      ID1      ID2
     1.21409382E-02    2     1000022         2   # BR(~u_L -> chi^0_1 u)
     1.01633836E-01    2     1000023         2   # BR(~u_L -> chi^0_2 u)
     3.36193650E-04    2     1000025         2   # BR(~u_L -> chi^0_3 u)
     2.28527653E-01    2     1000035         2   # BR(~u_L -> chi^0_4 u)
     2.07111279E-01    2     1000024         1   # BR(~u_L -> chi^+_1 d)
     4.50250045E-01    2     1000037         1   # BR(~u_L -> chi^+_2 d)
     3.48579442E-12    2     2000001        24   # BR(~u_L -> ~d_R W^+)
     5.49956951E-08    2     1000039         2   # BR(~u_L -> ~G u)
DECAY   2000004     3.88278056E+00   # ~c_R
#    BR                NDA      ID1      ID2
     9.85985572E-01    2     1000022         4   # BR(~c_R -> chi^0_1 c)
     1.15679825E-02    2     1000023         4   # BR(~c_R -> chi^0_2 c)
     6.45948461E-04    2     1000025         4   # BR(~c_R -> chi^0_3 c)
     1.69946559E-03    2     1000035         4   # BR(~c_R -> chi^0_4 c)
     9.48538335E-05    2     1000024         3   # BR(~c_R -> chi^+_1 s)
     5.98188390E-06    2     1000037         3   # BR(~c_R -> chi^+_2 s)
     1.96088429E-07    2     1000039         4   # BR(~c_R -> ~G c)
DECAY   1000004     1.69966083E+01   # ~c_L
#    BR                NDA      ID1      ID2
     1.21408792E-02    2     1000022         4   # BR(~c_L -> chi^0_1 c)
     1.01634569E-01    2     1000023         4   # BR(~c_L -> chi^0_2 c)
     3.46844255E-04    2     1000025         4   # BR(~c_L -> chi^0_3 c)
     2.28526534E-01    2     1000035         4   # BR(~c_L -> chi^0_4 c)
     2.07108007E-01    2     1000024         3   # BR(~c_L -> chi^+_1 s)
     4.50243110E-01    2     1000037         3   # BR(~c_L -> chi^+_2 s)
     1.53728537E-09    2     2000003        24   # BR(~c_L -> ~s_R W^+)
     5.49937383E-08    2     1000039         4   # BR(~c_L -> ~G c)
DECAY   1000006     3.71637653E+01   # ~t_1
#    BR                NDA      ID1      ID2
     2.92138022E-07    2     1000022         4   # BR(~t_1 -> chi^0_1 c)
     9.39445473E-02    2     1000022         6   # BR(~t_1 -> chi^0_1 t)
     2.33107068E-06    2     1000023         4   # BR(~t_1 -> chi^0_2 c)
     1.83091179E-01    2     1000023         6   # BR(~t_1 -> chi^0_2 t)
     2.34363516E-01    2     1000025         6   # BR(~t_1 -> chi^0_3 t)
     3.22244888E-02    2     1000035         6   # BR(~t_1 -> chi^0_4 t)
     3.89441179E-01    2     1000024         5   # BR(~t_1 -> chi^+_1 b)
     6.69239790E-02    2     1000037         5   # BR(~t_1 -> chi^+_2 b)
     1.29260867E-08    2     1000039         6   # BR(~t_1 -> ~G t)
#    BR                NDA      ID1      ID2       ID3
     8.47441587E-06    3     1000022        24         5   # BR(~t_1 -> chi^0_1 W^+ b)
DECAY   2000006     3.59610955E+01   # ~t_2
#    BR                NDA      ID1      ID2
     6.85851099E-03    2     1000022         6   # BR(~t_2 -> chi^0_1 t)
     1.99869046E-01    2     1000023         6   # BR(~t_2 -> chi^0_2 t)
     2.59540247E-01    2     1000025         6   # BR(~t_2 -> chi^0_3 t)
     2.17344148E-01    2     1000035         6   # BR(~t_2 -> chi^0_4 t)
     4.22780747E-02    2     1000024         5   # BR(~t_2 -> chi^+_1 b)
     2.64728493E-01    2     1000037         5   # BR(~t_2 -> chi^+_2 b)
     5.27115935E-03    2     1000006        23   # BR(~t_2 -> ~t_1 Z)
     4.11030032E-03    2     1000006        25   # BR(~t_2 -> ~t_1 h^0)
     2.14498828E-08    2     1000039         6   # BR(~t_2 -> ~G t)
DECAY   1000024     4.17410056E-01   # chi^+_1
#    BR                NDA      ID1      ID2
     7.88874469E-09    2    -2000011        12   # BR(chi^+_1 -> ~e^+_R nu_e)
     2.65460009E-02    2    -1000011        12   # BR(chi^+_1 -> ~e^+_L nu_e)
     3.37274758E-04    2    -2000013        14   # BR(chi^+_1 -> ~mu^+_R nu_mu)
     2.65434697E-02    2    -1000013        14   # BR(chi^+_1 -> ~mu^+_L nu_mu)
     9.60906193E-02    2    -1000015        16   # BR(chi^+_1 -> ~tau^+_1 nu_tau)
     2.58400410E-02    2    -2000015        16   # BR(chi^+_1 -> ~tau^+_2 nu_tau)
     4.28595611E-02    2     1000012       -11   # BR(chi^+_1 -> ~nu_e e^+)
     4.28749689E-02    2     1000014       -13   # BR(chi^+_1 -> ~nu_mu mu^+)
     4.72790205E-02    2     1000016       -15   # BR(chi^+_1 -> ~nu_tau tau^+)
     6.91297545E-01    2     1000022        24   # BR(chi^+_1 -> chi^0_1 W^+)
#    BR                NDA      ID1      ID2       ID3
     4.79094537E-08    3     1000022        -1         2   # BR(chi^+_1 -> chi^0_1 d_bar u)
     4.80946908E-08    3     1000022        -3         4   # BR(chi^+_1 -> chi^0_1 s_bar c)
     3.23095870E-04    3     1000022        -5         6   # BR(chi^+_1 -> chi^0_1 b_bar t)
     7.03538027E-13    3     1000022       -11        12   # BR(chi^+_1 -> chi^0_1 e^+ nu_e)
     3.00752455E-08    3     1000022       -13        14   # BR(chi^+_1 -> chi^0_1 mu^+ nu_mu)
     8.26893233E-06    3     1000022       -15        16   # BR(chi^+_1 -> chi^0_1 tau^+ nu_tau)
DECAY   1000037     3.85544792E+00   # chi^+_2
#    BR                NDA      ID1      ID2
     5.66167031E-11    2    -2000011        12   # BR(chi^+_2 -> ~e^+_R nu_e)
     1.12089111E-01    2    -1000011        12   # BR(chi^+_2 -> ~e^+_L nu_e)
     2.42064718E-06    2    -2000013        14   # BR(chi^+_2 -> ~mu^+_R nu_mu)
     1.12091437E-01    2    -1000013        14   # BR(chi^+_2 -> ~mu^+_L nu_mu)
     6.94532539E-04    2    -1000015        16   # BR(chi^+_2 -> ~tau^+_1 nu_tau)
     1.12747866E-01    2    -2000015        16   # BR(chi^+_2 -> ~tau^+_2 nu_tau)
     1.08616575E-01    2     1000012       -11   # BR(chi^+_2 -> ~nu_e e^+)
     1.08620508E-01    2     1000014       -13   # BR(chi^+_2 -> ~nu_mu mu^+)
     1.09732820E-01    2     1000016       -15   # BR(chi^+_2 -> ~nu_tau tau^+)
     1.68655507E-02    2     1000022        24   # BR(chi^+_2 -> chi^0_1 W^+)
     1.38221341E-01    2     1000023        24   # BR(chi^+_2 -> chi^0_2 W^+)
     3.54668357E-02    2     1000025        24   # BR(chi^+_2 -> chi^0_3 W^+)
     1.10583903E-01    2     1000024        23   # BR(chi^+_2 -> chi^+_1 Z)
     3.41960044E-02    2     1000024        25   # BR(chi^+_2 -> chi^+_1 h^0)
#    BR                NDA      ID1      ID2       ID3
     6.20305078E-09    3     1000024         2        -2   # BR(chi^+_2 -> chi^+_1 u u_bar)
     6.19421664E-09    3     1000024         4        -4   # BR(chi^+_2 -> chi^+_1 c c_bar)
     7.32022492E-09    3     1000024         1        -1   # BR(chi^+_2 -> chi^+_1 d d_bar)
     7.32728027E-09    3     1000024         3        -3   # BR(chi^+_2 -> chi^+_1 s s_bar)
     2.90159009E-08    3     1000024         5        -5   # BR(chi^+_2 -> chi^+_1 b b_bar)
     1.17872983E-06    3     1000024        11       -11   # BR(chi^+_2 -> chi^+_1 e^- e^+)
     1.17895472E-06    3     1000024        13       -13   # BR(chi^+_2 -> chi^+_1 mu^- mu^+)
     1.21358159E-06    3     1000024        15       -15   # BR(chi^+_2 -> chi^+_1 tau^- tau^+)
     3.32206255E-06    3     1000024        12       -12   # BR(chi^+_2 -> chi^+_1 nu_e nu_bar_e)
     1.13406309E-07    3     1000022        -1         2   # BR(chi^+_2 -> chi^0_1 d_bar u)
     1.13404138E-07    3     1000022        -3         4   # BR(chi^+_2 -> chi^0_1 s_bar c)
     6.18109480E-05    3     1000022        -5         6   # BR(chi^+_2 -> chi^0_1 b_bar t)
     1.27336580E-14    3     1000022       -11        12   # BR(chi^+_2 -> chi^0_1 e^+ nu_e)
     5.44377056E-10    3     1000022       -13        14   # BR(chi^+_2 -> chi^0_1 mu^+ nu_mu)
     1.52141287E-07    3     1000022       -15        16   # BR(chi^+_2 -> chi^0_1 tau^+ nu_tau)
     3.26086666E-09    3     1000023        -1         2   # BR(chi^+_2 -> chi^0_2 d_bar u)
     3.26591028E-09    3     1000023        -3         4   # BR(chi^+_2 -> chi^0_2 s_bar c)
     6.44958528E-07    3     1000023       -11        12   # BR(chi^+_2 -> chi^0_2 e^+ nu_e)
     6.45019821E-07    3     1000023       -13        14   # BR(chi^+_2 -> chi^0_2 mu^+ nu_mu)
     6.45112292E-07    3     1000023       -15        16   # BR(chi^+_2 -> chi^0_2 tau^+ nu_tau)
     1.25991328E-11    3     1000025        -1         2   # BR(chi^+_2 -> chi^0_3 d_bar u)
     1.34578045E-11    3     1000025        -3         4   # BR(chi^+_2 -> chi^0_3 s_bar c)
     1.36798508E-09    3     1000025       -11        12   # BR(chi^+_2 -> chi^0_3 e^+ nu_e)
     1.39729548E-09    3     1000025       -13        14   # BR(chi^+_2 -> chi^0_3 mu^+ nu_mu)
     9.63644624E-09    3     1000025       -15        16   # BR(chi^+_2 -> chi^0_3 tau^+ nu_tau)
DECAY   1000022     1.00133385E+00   # chi^0_1
#    BR                NDA      ID1      ID2
     1.63655466E-01    2     2000011       -11   # BR(chi^0_1 -> ~e^-_R e^+)
     1.63655466E-01    2    -2000011        11   # BR(chi^0_1 -> ~e^+_R e^-)
     1.63686907E-01    2     2000013       -13   # BR(chi^0_1 -> ~mu^-_R mu^+)
     1.63686907E-01    2    -2000013        13   # BR(chi^0_1 -> ~mu^+_R mu^-)
     1.72657627E-01    2     1000015       -15   # BR(chi^0_1 -> ~tau^-_1 tau^+)
     1.72657627E-01    2    -1000015        15   # BR(chi^0_1 -> ~tau^+_1 tau^-)
     2.03709383E-10    2     1000039        22   # BR(chi^0_1 -> ~G photon)
     6.06350968E-11    2     1000039        23   # BR(chi^0_1 -> ~G Z)
     1.75751996E-12    2     1000039        25   # BR(chi^0_1 -> ~G h^0)
DECAY   1000023     5.45800471E-01   # chi^0_2
#    BR                NDA      ID1      ID2
     2.56813159E-02    2     2000011       -11   # BR(chi^0_2 -> ~e^-_R e^+)
     2.56813159E-02    2    -2000011        11   # BR(chi^0_2 -> ~e^+_R e^-)
     1.61753936E-02    2     1000011       -11   # BR(chi^0_2 -> ~e^-_L e^+)
     1.61753936E-02    2    -1000011        11   # BR(chi^0_2 -> ~e^+_L e^-)
     2.58066735E-02    2     2000013       -13   # BR(chi^0_2 -> ~mu^-_R mu^+)
     2.58066735E-02    2    -2000013        13   # BR(chi^0_2 -> ~mu^+_R mu^-)
     1.61786270E-02    2     1000013       -13   # BR(chi^0_2 -> ~mu^-_L mu^+)
     1.61786270E-02    2    -1000013        13   # BR(chi^0_2 -> ~mu^+_L mu^-)
     6.14696027E-02    2     1000015       -15   # BR(chi^0_2 -> ~tau^-_1 tau^+)
     6.14696027E-02    2    -1000015        15   # BR(chi^0_2 -> ~tau^+_1 tau^-)
     1.70896697E-02    2     2000015       -15   # BR(chi^0_2 -> ~tau^-_2 tau^+)
     1.70896697E-02    2    -2000015        15   # BR(chi^0_2 -> ~tau^+_2 tau^-)
     1.19931292E-02    2     1000012       -12   # BR(chi^0_2 -> ~nu_e nu_bar_e)
     1.19931292E-02    2    -1000012        12   # BR(chi^0_2 -> ~nu^*_e nu_e)
     1.19938881E-02    2     1000014       -14   # BR(chi^0_2 -> ~nu_mu nu_bar_mu)
     1.19938881E-02    2    -1000014        14   # BR(chi^0_2 -> ~nu^*_mu nu_mu)
     1.22085818E-02    2     1000016       -16   # BR(chi^0_2 -> ~nu_tau nu_bar_tau)
     1.22085818E-02    2    -1000016        16   # BR(chi^0_2 -> ~nu^*_tau nu_tau)
     2.99731105E-02    2     1000022        23   # BR(chi^0_2 -> chi^0_1 Z)
     5.72803853E-01    2     1000022        25   # BR(chi^0_2 -> chi^0_1 h^0)
     8.55816934E-10    2     1000039        22   # BR(chi^0_2 -> ~G photon)
     2.62920617E-11    2     1000039        23   # BR(chi^0_2 -> ~G Z)
     2.90447295E-09    2     1000039        25   # BR(chi^0_2 -> ~G h^0)
     1.15927260E-06    2     1000022        22   # BR(chi^0_2 -> chi^0_1 photon)
#    BR                NDA      ID1      ID2       ID3
     2.87044396E-08    3     1000022         2        -2   # BR(chi^0_2 -> chi^0_1 u u_bar)
     2.87213477E-08    3     1000022         4        -4   # BR(chi^0_2 -> chi^0_1 c c_bar)
     2.20228969E-08    3     1000022         1        -1   # BR(chi^0_2 -> chi^0_1 d d_bar)
     2.22179311E-08    3     1000022         3        -3   # BR(chi^0_2 -> chi^0_1 s s_bar)
     4.62604830E-07    3     1000022         5        -5   # BR(chi^0_2 -> chi^0_1 b b_bar)
     7.30023554E-06    3     1000022        11       -11   # BR(chi^0_2 -> chi^0_1 e^- e^+)
     7.32157575E-06    3     1000022        13       -13   # BR(chi^0_2 -> chi^0_1 mu^- mu^+)
     1.29239193E-05    3     1000022        15       -15   # BR(chi^0_2 -> chi^0_1 tau^- tau^+)
     2.97869461E-11    3     1000024         1        -2   # BR(chi^0_2 -> chi^+_1 d u_bar)
     2.97869461E-11    3    -1000024        -1         2   # BR(chi^0_2 -> chi^-_1 d_bar u)
     2.61819443E-12    3     1000024         3        -4   # BR(chi^0_2 -> chi^+_1 s c_bar)
     2.61819443E-12    3    -1000024        -3         4   # BR(chi^0_2 -> chi^-_1 s_bar c)
     9.47455856E-12    3     1000024        11       -12   # BR(chi^0_2 -> chi^+_1 e^- nu_bar_e)
     9.47455856E-12    3    -1000024       -11        12   # BR(chi^0_2 -> chi^-_1 e^+ nu_e)
     9.33222814E-12    3     1000024        13       -14   # BR(chi^0_2 -> chi^+_1 mu^- nu_bar_mu)
     9.33222814E-12    3    -1000024       -13        14   # BR(chi^0_2 -> chi^-_1 mu^+ nu_mu)
DECAY   1000025     4.61884138E-01   # chi^0_3
#    BR                NDA      ID1      ID2
     1.81198457E-03    2     2000011       -11   # BR(chi^0_3 -> ~e^-_R e^+)
     1.81198457E-03    2    -2000011        11   # BR(chi^0_3 -> ~e^+_R e^-)
     6.77089702E-05    2     1000011       -11   # BR(chi^0_3 -> ~e^-_L e^+)
     6.77089702E-05    2    -1000011        11   # BR(chi^0_3 -> ~e^+_L e^-)
     1.97086062E-03    2     2000013       -13   # BR(chi^0_3 -> ~mu^-_R mu^+)
     1.97086062E-03    2    -2000013        13   # BR(chi^0_3 -> ~mu^+_R mu^-)
     8.14763907E-05    2     1000013       -13   # BR(chi^0_3 -> ~mu^-_L mu^+)
     8.14763907E-05    2    -1000013        13   # BR(chi^0_3 -> ~mu^+_L mu^-)
     4.71409099E-02    2     1000015       -15   # BR(chi^0_3 -> ~tau^-_1 tau^+)
     4.71409099E-02    2    -1000015        15   # BR(chi^0_3 -> ~tau^+_1 tau^-)
     3.97237501E-03    2     2000015       -15   # BR(chi^0_3 -> ~tau^-_2 tau^+)
     3.97237501E-03    2    -2000015        15   # BR(chi^0_3 -> ~tau^+_2 tau^-)
     4.71501959E-04    2     1000012       -12   # BR(chi^0_3 -> ~nu_e nu_bar_e)
     4.71501959E-04    2    -1000012        12   # BR(chi^0_3 -> ~nu^*_e nu_e)
     4.71519471E-04    2     1000014       -14   # BR(chi^0_3 -> ~nu_mu nu_bar_mu)
     4.71519471E-04    2    -1000014        14   # BR(chi^0_3 -> ~nu^*_mu nu_mu)
     4.76464320E-04    2     1000016       -16   # BR(chi^0_3 -> ~nu_tau nu_bar_tau)
     4.76464320E-04    2    -1000016        16   # BR(chi^0_3 -> ~nu^*_tau nu_tau)
     8.47779843E-01    2     1000022        23   # BR(chi^0_3 -> chi^0_1 Z)
     3.89353374E-02    2     1000022        25   # BR(chi^0_3 -> chi^0_1 h^0)
     3.26860520E-13    2     1000039        22   # BR(chi^0_3 -> ~G photon)
     7.84070507E-10    2     1000039        23   # BR(chi^0_3 -> ~G Z)
     4.17340095E-09    2     1000039        25   # BR(chi^0_3 -> ~G h^0)
     1.14110742E-06    2     1000022        22   # BR(chi^0_3 -> chi^0_1 photon)
     4.92627086E-09    2     1000023        22   # BR(chi^0_3 -> chi^0_2 photon)
#    BR                NDA      ID1      ID2       ID3
     5.15241163E-10    3     1000022         2        -2   # BR(chi^0_3 -> chi^0_1 u u_bar)
     5.86360482E-10    3     1000022         4        -4   # BR(chi^0_3 -> chi^0_1 c c_bar)
     1.49332382E-10    3     1000022         1        -1   # BR(chi^0_3 -> chi^0_1 d d_bar)
     5.65533862E-10    3     1000022         3        -3   # BR(chi^0_3 -> chi^0_1 s s_bar)
     9.32597349E-07    3     1000022         5        -5   # BR(chi^0_3 -> chi^0_1 b b_bar)
     2.70916735E-07    3     1000022        11       -11   # BR(chi^0_3 -> chi^0_1 e^- e^+)
     3.09253827E-07    3     1000022        13       -13   # BR(chi^0_3 -> chi^0_1 mu^- mu^+)
     1.08762579E-05    3     1000022        15       -15   # BR(chi^0_3 -> chi^0_1 tau^- tau^+)
     9.30138413E-06    3     1000023         2        -2   # BR(chi^0_3 -> chi^0_2 u u_bar)
     9.22797861E-06    3     1000023         4        -4   # BR(chi^0_3 -> chi^0_2 c c_bar)
     1.20640660E-05    3     1000023         1        -1   # BR(chi^0_3 -> chi^0_2 d d_bar)
     1.20632162E-05    3     1000023         3        -3   # BR(chi^0_3 -> chi^0_2 s s_bar)
     1.07153644E-05    3     1000023         5        -5   # BR(chi^0_3 -> chi^0_2 b b_bar)
     2.77297606E-06    3     1000023        11       -11   # BR(chi^0_3 -> chi^0_2 e^- e^+)
     2.77280919E-06    3     1000023        13       -13   # BR(chi^0_3 -> chi^0_2 mu^- mu^+)
     2.72431982E-06    3     1000023        15       -15   # BR(chi^0_3 -> chi^0_2 tau^- tau^+)
     1.65323868E-05    3     1000023        12       -12   # BR(chi^0_3 -> chi^0_2 nu_e nu_bar_e)
     4.40771912E-05    3     1000024         1        -2   # BR(chi^0_3 -> chi^+_1 d u_bar)
     4.40771912E-05    3    -1000024        -1         2   # BR(chi^0_3 -> chi^-_1 d_bar u)
     4.38355424E-05    3     1000024         3        -4   # BR(chi^0_3 -> chi^+_1 s c_bar)
     4.38355424E-05    3    -1000024        -3         4   # BR(chi^0_3 -> chi^-_1 s_bar c)
     1.46680308E-05    3     1000024        11       -12   # BR(chi^0_3 -> chi^+_1 e^- nu_bar_e)
     1.46680308E-05    3    -1000024       -11        12   # BR(chi^0_3 -> chi^-_1 e^+ nu_e)
     1.46679732E-05    3     1000024        13       -14   # BR(chi^0_3 -> chi^+_1 mu^- nu_bar_mu)
     1.46679732E-05    3    -1000024       -13        14   # BR(chi^0_3 -> chi^-_1 mu^+ nu_mu)
     1.45018739E-05    3     1000024        15       -16   # BR(chi^0_3 -> chi^+_1 tau^- nu_bar_tau)
     1.45018739E-05    3    -1000024       -15        16   # BR(chi^0_3 -> chi^-_1 tau^+ nu_tau)
DECAY   1000035     3.89747095E+00   # chi^0_4
#    BR                NDA      ID1      ID2
     8.73212638E-04    2     2000011       -11   # BR(chi^0_4 -> ~e^-_R e^+)
     8.73212638E-04    2    -2000011        11   # BR(chi^0_4 -> ~e^+_R e^-)
     4.95811945E-02    2     1000011       -11   # BR(chi^0_4 -> ~e^-_L e^+)
     4.95811945E-02    2    -1000011        11   # BR(chi^0_4 -> ~e^+_L e^-)
     8.74209550E-04    2     2000013       -13   # BR(chi^0_4 -> ~mu^-_R mu^+)
     8.74209550E-04    2    -2000013        13   # BR(chi^0_4 -> ~mu^+_R mu^-)
     4.95834445E-02    2     1000013       -13   # BR(chi^0_4 -> ~mu^-_L mu^+)
     4.95834445E-02    2    -1000013        13   # BR(chi^0_4 -> ~mu^+_L mu^-)
     1.16404821E-03    2     1000015       -15   # BR(chi^0_4 -> ~tau^-_1 tau^+)
     1.16404821E-03    2    -1000015        15   # BR(chi^0_4 -> ~tau^+_1 tau^-)
     5.02169608E-02    2     2000015       -15   # BR(chi^0_4 -> ~tau^-_2 tau^+)
     5.02169608E-02    2    -2000015        15   # BR(chi^0_4 -> ~tau^+_2 tau^-)
     5.93787657E-02    2     1000012       -12   # BR(chi^0_4 -> ~nu_e nu_bar_e)
     5.93787657E-02    2    -1000012        12   # BR(chi^0_4 -> ~nu^*_e nu_e)
     5.93797019E-02    2     1000014       -14   # BR(chi^0_4 -> ~nu_mu nu_bar_mu)
     5.93797019E-02    2    -1000014        14   # BR(chi^0_4 -> ~nu^*_mu nu_mu)
     5.96436682E-02    2     1000016       -16   # BR(chi^0_4 -> ~nu_tau nu_bar_tau)
     5.96436682E-02    2    -1000016        16   # BR(chi^0_4 -> ~nu^*_tau nu_tau)
     1.34436448E-01    2     1000024       -24   # BR(chi^0_4 -> chi^+_1 W^-)
     1.34436448E-01    2    -1000024        24   # BR(chi^0_4 -> chi^-_1 W^+)
     1.81023986E-03    2     1000022        23   # BR(chi^0_4 -> chi^0_1 Z)
     5.65742939E-04    2     1000023        23   # BR(chi^0_4 -> chi^0_2 Z)
     1.41611278E-02    2     1000025        23   # BR(chi^0_4 -> chi^0_3 Z)
     1.85354094E-02    2     1000022        25   # BR(chi^0_4 -> chi^0_1 h^0)
     3.46499485E-02    2     1000023        25   # BR(chi^0_4 -> chi^0_2 h^0)
     3.78677416E-10    2     1000039        22   # BR(chi^0_4 -> ~G photon)
     2.46090781E-09    2     1000039        23   # BR(chi^0_4 -> ~G Z)
     4.45823873E-10    2     1000039        25   # BR(chi^0_4 -> ~G h^0)
     3.41222804E-07    2     1000022        22   # BR(chi^0_4 -> chi^0_1 photon)
     1.35832169E-06    2     1000023        22   # BR(chi^0_4 -> chi^0_2 photon)
     9.51576689E-07    2     1000025        22   # BR(chi^0_4 -> chi^0_3 photon)
#    BR                NDA      ID1      ID2       ID3
     4.65301090E-08    3     1000022         2        -2   # BR(chi^0_4 -> chi^0_1 u u_bar)
     4.65193386E-08    3     1000022         4        -4   # BR(chi^0_4 -> chi^0_1 c c_bar)
     7.69913551E-07    3     1000022         6        -6   # BR(chi^0_4 -> chi^0_1 t t_bar)
     6.75508134E-08    3     1000022         1        -1   # BR(chi^0_4 -> chi^0_1 d d_bar)
     6.75618159E-08    3     1000022         3        -3   # BR(chi^0_4 -> chi^0_1 s s_bar)
     1.02633671E-07    3     1000022         5        -5   # BR(chi^0_4 -> chi^0_1 b b_bar)
     6.19986213E-07    3     1000022        11       -11   # BR(chi^0_4 -> chi^0_1 e^- e^+)
     6.20290589E-07    3     1000022        13       -13   # BR(chi^0_4 -> chi^0_1 mu^- mu^+)
     7.00579480E-07    3     1000022        15       -15   # BR(chi^0_4 -> chi^0_1 tau^- tau^+)
     5.09133153E-09    3     1000023         2        -2   # BR(chi^0_4 -> chi^0_2 u u_bar)
     5.08414377E-09    3     1000023         4        -4   # BR(chi^0_4 -> chi^0_2 c c_bar)
     4.44706521E-09    3     1000023         1        -1   # BR(chi^0_4 -> chi^0_2 d d_bar)
     4.44884927E-09    3     1000023         3        -3   # BR(chi^0_4 -> chi^0_2 s s_bar)
     8.95378589E-09    3     1000023         5        -5   # BR(chi^0_4 -> chi^0_2 b b_bar)
     9.66900525E-07    3     1000023        11       -11   # BR(chi^0_4 -> chi^0_2 e^- e^+)
     9.67009422E-07    3     1000023        13       -13   # BR(chi^0_4 -> chi^0_2 mu^- mu^+)
     9.72056571E-07    3     1000023        15       -15   # BR(chi^0_4 -> chi^0_2 tau^- tau^+)
     1.75547525E-06    3     1000023        12       -12   # BR(chi^0_4 -> chi^0_2 nu_e nu_bar_e)
     1.49390828E-12    3     1000025         2        -2   # BR(chi^0_4 -> chi^0_3 u u_bar)
     3.12361154E-11    3     1000025         4        -4   # BR(chi^0_4 -> chi^0_3 c c_bar)
     2.74373466E-12    3     1000025         1        -1   # BR(chi^0_4 -> chi^0_3 d d_bar)
     4.07305782E-12    3     1000025         3        -3   # BR(chi^0_4 -> chi^0_3 s s_bar)
     2.97067555E-09    3     1000025         5        -5   # BR(chi^0_4 -> chi^0_3 b b_bar)
     7.56558519E-11    3     1000025        11       -11   # BR(chi^0_4 -> chi^0_3 e^- e^+)
     9.89371579E-11    3     1000025        13       -13   # BR(chi^0_4 -> chi^0_3 mu^- mu^+)
     6.64346125E-09    3     1000025        15       -15   # BR(chi^0_4 -> chi^0_3 tau^- tau^+)
     1.44375967E-09    3     1000025        12       -12   # BR(chi^0_4 -> chi^0_3 nu_e nu_bar_e)
     3.40153741E-09    3     1000024         1        -2   # BR(chi^0_4 -> chi^+_1 d u_bar)
     3.40153741E-09    3    -1000024        -1         2   # BR(chi^0_4 -> chi^-_1 d_bar u)
     3.40520584E-09    3     1000024         3        -4   # BR(chi^0_4 -> chi^+_1 s c_bar)
     3.40520584E-09    3    -1000024        -3         4   # BR(chi^0_4 -> chi^-_1 s_bar c)
     6.33747647E-07    3     1000024        11       -12   # BR(chi^0_4 -> chi^+_1 e^- nu_bar_e)
     6.33747647E-07    3    -1000024       -11        12   # BR(chi^0_4 -> chi^-_1 e^+ nu_e)
     6.33799088E-07    3     1000024        13       -14   # BR(chi^0_4 -> chi^+_1 mu^- nu_bar_mu)
     6.33799088E-07    3    -1000024       -13        14   # BR(chi^0_4 -> chi^-_1 mu^+ nu_mu)
     6.39073743E-07    3     1000024        15       -16   # BR(chi^0_4 -> chi^+_1 tau^- nu_bar_tau)
     6.39073743E-07    3    -1000024       -15        16   # BR(chi^0_4 -> chi^-_1 tau^+ nu_tau)
DECAY   1000021     7.56611231E+00   # ~g
#    BR                NDA      ID1      ID2
     5.15222977E-02    2     2000002        -2   # BR(~g -> ~u_R u_bar)
     5.15222977E-02    2    -2000002         2   # BR(~g -> ~u^*_R u)
     1.11163408E-02    2     1000002        -2   # BR(~g -> ~u_L u_bar)
     1.11163408E-02    2    -1000002         2   # BR(~g -> ~u^*_L u)
     5.15204754E-02    2     2000004        -4   # BR(~g -> ~c_R c_bar)
     5.15204754E-02    2    -2000004         4   # BR(~g -> ~c^*_R c)
     1.11155385E-02    2     1000004        -4   # BR(~g -> ~c_L c_bar)
     1.11155385E-02    2    -1000004         4   # BR(~g -> ~c^*_L c)
     1.21048534E-05    2     1000006        -4   # BR(~g -> ~t_1 c_bar)
     1.21048534E-05    2    -1000006         4   # BR(~g -> ~t^*_1 c)
     1.23824042E-01    2     1000006        -6   # BR(~g -> ~t_1 t_bar)
     1.23824042E-01    2    -1000006         6   # BR(~g -> ~t^*_1 t)
     5.59786903E-02    2     2000001        -1   # BR(~g -> ~d_R d_bar)
     5.59786903E-02    2    -2000001         1   # BR(~g -> ~d^*_R d)
     1.05303687E-02    2     1000001        -1   # BR(~g -> ~d_L d_bar)
     1.05303687E-02    2    -1000001         1   # BR(~g -> ~d^*_L d)
     5.59798315E-02    2     2000003        -3   # BR(~g -> ~s_R s_bar)
     5.59798315E-02    2    -2000003         3   # BR(~g -> ~s^*_R s)
     1.05310387E-02    2     1000003        -3   # BR(~g -> ~s_L s_bar)
     1.05310387E-02    2    -1000003         3   # BR(~g -> ~s^*_L s)
     5.86314005E-02    2     1000005        -5   # BR(~g -> ~b_1 b_bar)
     5.86314005E-02    2    -1000005         5   # BR(~g -> ~b^*_1 b)
     4.67424471E-02    2     2000005        -5   # BR(~g -> ~b_2 b_bar)
     4.67424471E-02    2    -2000005         5   # BR(~g -> ~b^*_2 b)
     3.90111000E-06    2     1000022        21   # BR(~g -> chi^0_1 g)
     1.66387857E-04    2     1000023        21   # BR(~g -> chi^0_2 g)
     2.05915978E-04    2     1000025        21   # BR(~g -> chi^0_3 g)
     4.69901747E-05    2     1000035        21   # BR(~g -> chi^0_4 g)
#    BR                NDA      ID1      ID2       ID3
     2.02395241E-04    3     1000022         6        -6   # BR(~g -> chi^0_1 t t_bar)
     4.65558086E-03    3     1000023         6        -6   # BR(~g -> chi^0_2 t t_bar)
     6.20589983E-03    3     1000025         6        -6   # BR(~g -> chi^0_3 t t_bar)
     6.30808521E-03    3     1000035         6        -6   # BR(~g -> chi^0_4 t t_bar)
     5.30933826E-04    3     1000024         5        -6   # BR(~g -> chi^+_1 b t_bar)
     5.30933826E-04    3    -1000024        -5         6   # BR(~g -> chi^-_1 b_bar t)
     3.06691226E-03    3     1000037         5        -6   # BR(~g -> chi^+_2 b t_bar)
     3.06691226E-03    3    -1000037        -5         6   # BR(~g -> chi^-_2 b_bar t)
DECAY        25     2.70404957E-03   # h^0
#    BR                NDA      ID1      ID2
     8.48055395E-09    2          11       -11   # BR(h^0 -> e^- e^+)
     3.62564845E-04    2          13       -13   # BR(h^0 -> mu^- mu^+)
     1.02332132E-01    2          15       -15   # BR(h^0 -> tau^- tau^+)
     7.23099562E-07    2           1        -1   # BR(h^0 -> d d_bar)
     3.18886419E-04    2           3        -3   # BR(h^0 -> s s_bar)
     6.87521509E-01    2           5        -5   # BR(h^0 -> b b_bar)
     2.41863169E-07    2           2        -2   # BR(h^0 -> u u_bar)
     4.33354932E-02    2           4        -4   # BR(h^0 -> c c_bar)
     6.36797171E-02    2          21        21   # BR(h^0 -> g g)
     2.88784562E-03    2          22        22   # BR(h^0 -> photon photon)
# writing decays into V V* as 3-body decays
#    BR                NDA      ID1      ID2       ID3
     4.61142161E-03    3          24        11        12   # BR(h^0 -> W^+ e^- nu_e)
     4.61142161E-03    3          24        13        14   # BR(h^0 -> W^+ mu^- nu_mu)
     4.61142161E-03    3          24        15        16   # BR(h^0 -> W^+ tau^- nu_tau)
     1.61399756E-02    3          24         1        -2   # BR(h^0 -> W^+ d u_bar)
     1.61399756E-02    3          24         3        -4   # BR(h^0 -> W^+ s c_bar)
     4.61142161E-03    3         -24       -11       -12   # BR(h^0 -> W^- e^+ nu_bar_e)
     4.61142161E-03    3         -24       -13       -14   # BR(h^0 -> W^- mu^+ nu_bar_mu)
     4.61142161E-03    3         -24       -15       -16   # BR(h^0 -> W^- tau^+ nu_bar_tau)
     1.61399756E-02    3         -24        -1         2   # BR(h^0 -> W^- d_bar u)
     1.61399756E-02    3         -24        -3         4   # BR(h^0 -> W^- s_bar c)
     2.56635621E-04    3          23        11       -11   # BR(h^0 -> Z e^- e^+)
     2.56635621E-04    3          23        13       -13   # BR(h^0 -> Z mu^- mu^+)
     2.19973390E-04    3          23        15       -15   # BR(h^0 -> Z tau^- tau^+)
     1.46648926E-03    3          23        12       -12   # BR(h^0 -> Z nu_e nu_bar_e)
     1.02654248E-03    3          23         1        -1   # BR(h^0 -> Z u u_bar)
     1.02654248E-03    3          23         3        -3   # BR(h^0 -> Z c c_bar)
     1.02654248E-03    3          23         5        -5   # BR(h^0 -> Z t t_bar)
     1.02654248E-03    3          23         2        -2   # BR(h^0 -> Z u u_bar)
     1.02654248E-03    3          23         4        -4   # BR(h^0 -> Z c c_bar)
DECAY        35     1.58082971E+00   # H^0
#    BR                NDA      ID1      ID2
     8.83264663E-09    2          11       -11   # BR(H^0 -> e^- e^+)
     3.77620921E-04    2          13       -13   # BR(H^0 -> mu^- mu^+)
     1.06839329E-01    2          15       -15   # BR(H^0 -> tau^- tau^+)
     6.30748763E-07    2           1        -1   # BR(H^0 -> d d_bar)
     2.78160099E-04    2           3        -3   # BR(H^0 -> s s_bar)
     6.18506351E-01    2           5        -5   # BR(H^0 -> b b_bar)
     3.03985440E-11    2           2        -2   # BR(H^0 -> u u_bar)
     5.44776635E-06    2           4        -4   # BR(H^0 -> c c_bar)
     2.57704970E-01    2           6        -6   # BR(H^0 -> t t_bar)
     1.30148795E-04    2     2000011  -2000011   # BR(H^0 -> ~e^-_R ~e^+_R)
     1.30078455E-04    2     2000013  -2000013   # BR(H^0 -> ~mu^-_R ~mu^+_R)
     2.70133093E-10    2     2000013  -1000013   # BR(H^0 -> ~mu^-_R ~mu^+_L)
     2.70133093E-10    2    -2000013   1000013   # BR(H^0 -> ~mu^+_R ~mu^-_L)
     1.10910188E-04    2     1000015  -1000015   # BR(H^0 -> ~tau^-_1 ~tau^+_1)
     1.27721062E-07    2     1000015  -2000015   # BR(H^0 -> ~tau^-_1 ~tau^+_2)
     1.27721062E-07    2    -1000015   2000015   # BR(H^0 -> ~tau^+_1 ~tau^-_2)
     1.98260374E-03    2     1000022   1000022   # BR(H^0 -> chi^0_1 chi^0_1)
     3.60971523E-03    2          23        23   # BR(H^0 -> Z Z)
     6.94830037E-03    2          24       -24   # BR(H^0 -> W^+ W^-)
     3.14443691E-03    2          25        25   # BR(H^0 -> h^0 h^0)
     2.29380169E-04    2          21        21   # BR(H^0 -> g g)
     1.65160838E-06    2          22        22   # BR(H^0 -> photon photon)
DECAY        36     1.57837614E+00   # A^0
#    BR                NDA      ID1      ID2
     8.85695699E-09    2          11       -11   # BR(A^0 -> e^- e^+)
     3.78660281E-04    2          13       -13   # BR(A^0 -> mu^- mu^+)
     1.07135196E-01    2          15       -15   # BR(A^0 -> tau^- tau^+)
     6.32482586E-07    2           1        -1   # BR(A^0 -> d d_bar)
     2.78924684E-04    2           3        -3   # BR(A^0 -> s s_bar)
     6.20215240E-01    2           5        -5   # BR(A^0 -> b b_bar)
     2.63576493E-11    2           2        -2   # BR(A^0 -> u u_bar)
     4.72359040E-06    2           4        -4   # BR(A^0 -> c c_bar)
     2.55138591E-01    2           6        -6   # BR(A^0 -> t t_bar)
     3.40085662E-12    2     2000013  -1000013   # BR(A^0 -> ~mu^-_R ~mu^+_L)
     3.40085662E-12    2    -2000013   1000013   # BR(A^0 -> ~mu^+_R ~mu^-_L)
     1.26252680E-09    2     1000015  -2000015   # BR(A^0 -> ~tau^-_1 ~tau^+_2)
     1.26252680E-09    2    -1000015   2000015   # BR(A^0 -> ~tau^+_1 ~tau^-_2)
     9.98897148E-03    2     1000022   1000022   # BR(A^0 -> chi^0_1 chi^0_1)
     6.74305336E-03    2          25        23   # BR(A^0 -> h^0 Z)
     1.15244413E-04    2          21        21   # BR(A^0 -> g g)
     7.51375040E-07    2          22        22   # BR(A^0 -> photon photon)
DECAY        37     1.31991547E+00   # H^+
#    BR                NDA      ID1      ID2
     1.06417980E-08    2         -11        12   # BR(H^+ -> e^+ nu_e)
     4.54967346E-04    2         -13        12   # BR(H^+ -> mu^+ nu_e)
     1.28724934E-01    2         -15        12   # BR(H^+ -> tau^+ nu_e)
     6.68997792E-07    2          -1         2   # BR(H^+ -> d_bar u)
     3.00010368E-04    2          -3         4   # BR(H^+ -> s_bar c)
     8.62484085E-01    2          -5         6   # BR(H^+ -> b_bar t)
     3.14799073E-14    2    -2000011   1000012   # BR(H^+ -> ~e^+_R ~nu_e)
     1.34611722E-09    2    -2000013   1000014   # BR(H^+ -> ~mu^+_R ~nu_mu)
     3.94853631E-07    2    -1000015   1000016   # BR(H^+ -> ~tau^+_1 ~nu_tau)
     8.03492779E-03    2          25        24   # BR(H^+ -> h^0 W^+)
DECAY         6     2.43000000E+00   # top
#    BR                NDA      ID1      ID2
     1.00000000E+00    2           5        24   # BR(t -> b W)
Block HiggsBoundsInputHiggsCouplingsFermions
# ScalarNormEffCoupSq PseudoSNormEffCoupSq NP IP1 IP2 IP2
    1.15469126E+00    0.00000000E+00        3  25   5   5  # h0-b-b eff. coupling^2, normalised to SM
    9.98453087E+01    0.00000000E+00        3  35   5   5  # H0-b-b eff. coupling^2, normalised to SM
    0.00000000E+00    1.00000000E+02        3  36   5   5  # A0-b-b eff. coupling^2, normalised to SM
#
    9.98453087E-01    0.00000000E+00        3  25   6   6  # h0-t-t eff. coupling^2, normalised to SM
    1.15469126E-02    0.00000000E+00        3  35   6   6  # H0-t-t eff. coupling^2, normalised to SM
    0.00000000E+00    1.00000000E-02        3  36   6   6  # A0-t-t eff. coupling^2, normalised to SM
#
    1.15469126E+00    0.00000000E+00        3  25  15  15  # h0-tau-tau eff. coupling^2, normalised to SM
    9.98453087E+01    0.00000000E+00        3  35  15  15  # H0-tau-tau eff. coupling^2, normalised to SM
    0.00000000E+00    1.00000000E+02        3  36  15  15  # A0-tau-tau eff. coupling^2, normalised to SM
#
Block HiggsBoundsInputHiggsCouplingsBosons
    9.99944358E-01        3  25  24  24  # h0-W-W eff. coupling^2, normalised to SM
    5.56418079E-05        3  35  24  24  # H0-W-W eff. coupling^2, normalised to SM
    0.00000000E+00        3  36  24  24  # A0-W-W eff. coupling^2, normalised to SM
#
    9.99944358E-01        3  25  23  23  # h0-Z-Z eff. coupling^2, normalised to SM
    5.56418079E-05        3  35  23  23  # H0-Z-Z eff. coupling^2, normalised to SM
    0.00000000E+00        3  36  23  23  # A0-Z-Z eff. coupling^2, normalised to SM
#
    1.16340843E+00        3  25  21  21  # h0-g-g eff. coupling^2, normalised to SM
    1.02294076E-02        3  35  21  21  # H0-g-g eff. coupling^2, normalised to SM
    1.23863007E-01        3  36  21  21  # A0-g-g eff. coupling^2, normalised to SM
#
    0.00000000E+00        3  25  25  23  # h0-h0-Z eff. coupling^2, normalised to SM
    0.00000000E+00        3  35  25  23  # H0-h0-Z eff. coupling^2, normalised to SM
    5.56418079E-05        3  36  25  23  # A0-h0-Z eff. coupling^2, normalised to SM
    0.00000000E+00        3  35  35  23  # H0-H0-Z eff. coupling^2, normalised to SM
    9.99944358E-01        3  36  35  23  # A0-H0-Z eff. coupling^2, normalised to SM
    0.00000000E+00        3  36  36  23  # A0-A0-Z eff. coupling^2, normalised to SM
#
    0.00000000E+00        4  25  21  21  23  # h0-g-g-Z eff. coupling^2, normalised to SM
    0.00000000E+00        4  35  21  21  23  # H0-g-g-Z eff. coupling^2, normalised to SM
    0.00000000E+00        4  36  21  21  23  # A0-g-g-Z eff. coupling^2, normalised to SM
Block SPhenoLowEnergy  # low energy observables
    1    3.22881823E-04   # BR(b -> s gamma)
    2    1.58927134E-06   # BR(b -> s mu+ mu-)
    3    3.53797892E-05   # BR(b -> s nu nu)
    4    5.17490253E-11   # BR(Bd -> mu+ mu-)
    5    3.38060757E-09   # BR(Bs -> mu+ mu-)
    6    1.10034076E-04   # BR(B_u -> tau nu)
    7    9.94943195E-01   # BR(B_u -> tau nu)/BR(B_u -> tau nu)_SM
    8    2.73448942E-01   # |Delta(M_Bd)| [ps^-1] 
    9    2.02940556E+01   # |Delta(M_Bs)| [ps^-1] 
   20    1.25025442E-14   # Delta(g-2)_electron/2
   21    2.66295261E-10   # Delta(g-2)_muon/2
   22    1.63313726E-08   # Delta(g-2)_tau/2
   23    0.00000000E+00   # electric dipole moment of the electron
   24    0.00000000E+00   # electric dipole moment of the muon
   25    0.00000000E+00   # electric dipole moment of the tau
   26    0.00000000E+00   # Br(mu -> e gamma)
   27    0.00000000E+00   # Br(tau -> e gamma)
   28    0.00000000E+00   # Br(tau -> mu gamma)
   29    0.00000000E+00   # Br(mu -> 3 e)
   30    0.00000000E+00   # Br(tau -> 3 e)
   31    0.00000000E+00   # Br(tau -> 3 mu)
   39    5.93276135E-04   # Delta(rho_parameter)
   40    0.00000000E+00   # BR(Z -> e mu)
   41    0.00000000E+00   # BR(Z -> e tau)
   42    0.00000000E+00   # BR(Z -> mu tau)
Block FWCOEF Q=  9.11876000E+01  # Wilson coefficients at scale Q
#    id        order  M        value         comment
Block FWCOEF Q=  1.60000000E+02  # Wilson coefficients at scale Q
#    id        order  M        value         comment
     0305 4422   00   0    -1.87757024E-01   # C7
     0305 4422   00   1    -2.40639392E-02   # C7
     0305 4322   00   1    -5.26867088E-04   # C7'
     0305 6421   00   0    -9.48892592E-02   # C8
     0305 6421   00   1    -3.16985105E-02   # C8
     0305 6321   00   1    -6.85274361E-04   # C8'
 03051111 4133   00   0    -9.37240897E-01   # C9 e+e-
 03051111 4133   00   1     1.52405397E-03   # C9 e+e-
 03051111 4233   00   1    -5.04339575E-06   # C9' e+e-
 03051111 4137   00   0    -3.96470721E+00   # C10 e+e-
 03051111 4137   00   1     3.75246778E-03   # C10 e+e-
 03051111 4237   00   1     1.15814337E-04   # C10' e+e-
 03051313 4133   00   0    -9.37240897E-01   # C9 mu+mu-
 03051313 4133   00   1     1.52403379E-03   # C9 mu+mu-
 03051313 4233   00   1    -5.04348287E-06   # C9' mu+mu-
 03051313 4137   00   0    -3.96470721E+00   # C10 mu+mu-
 03051313 4137   00   1     3.75244756E-03   # C10 mu+mu-
 03051313 4237   00   1     1.15814424E-04   # C10' mu+mu-
 03051212 4237   00   0     1.49014101E+00   # C11 nu_1 nu_1
 03051212 4237   00   1    -9.02129831E-04   # C11 nu_1 nu_1
 03051212 4137   00   1    -2.77144892E-05   # C11' nu_1 nu_1
 03051414 4237   00   0     1.49014101E+00   # C11 nu_2 nu_2
 03051414 4237   00   1    -9.02129808E-04   # C11 nu_2 nu_2
 03051414 4137   00   1    -2.77144686E-05   # C11' nu_2 nu_2
 03051616 4237   00   0     1.49014101E+00   # C11 nu_3 nu_3
 03051616 4237   00   1    -9.02123025E-04   # C11 nu_3 nu_3
 03051616 4137   00   1    -2.77086799E-05   # C11' nu_3 nu_3
