# SUSY Les Houches Accord 2 - MSSM spectrum + Decays
# SPheno v3.1.12 
# W. Porod, Comput. Phys. Commun. 153 (2003) 275-315, hep-ph/0301101
# in case of problems send email to porod@physik.uni-wuerzburg.de
# Created: 09.12.2016,  15:23
Block SPINFO         # Program information
     1   SPheno      # spectrum calculator
     2   v3.1.12     # version number
#
Block SPhenoINFO     # SPheno specific information
    1      2         # using 2-loop RGEs
    2      2         # using pole masses for boundary conditions at mZ
Block MODSEL  # Model selection
    1    2    # mGMSB model
Block MINPAR  # Input parameters
    1    1.40000000E+05  # Lambda, scale of SUSY breaking
    2    2.50000000E+05  # M_M, messenger mass scale
    3    2.00000000E+00  # tanb at m_Z   
    4    1.00000000E+00  # Sign(mu)
    5    3.00000000E+00  # N_5 number of effective five-plets
    6    1.00000000E+00  # c_grav, Gravitino mass factor
Block gauge Q=  2.50000000E+05  # (GMSB scale)
   1    4.93105601E-01  # g'(Q)^DRbar
   2    6.46723854E-01  # g(Q)^DRbar
   3    9.35126987E-01  # g3(Q)^DRbar
Block SMINPUTS  # SM parameters
         1     1.27932655E+02  # alpha_em^-1(MZ)^MSbar
         2     1.16639000E-05  # G_mu [GeV^-2]
         3     1.17200000E-01  # alpha_s(MZ)^MSbar
         4     9.11876000E+01  # m_Z(pole)
         5     4.20000000E+00  # m_b(m_b), MSbar
         6     1.72500000E+02  # m_t(pole)
         7     1.77700000E+00  # m_tau(pole)
         8     0.00000000E+00  # m_nu_3
        11     5.10998910E-04  # m_e(pole)
        12     0.00000000E+00  # m_nu_1
        13     1.05658000E-01  # m_muon(pole)
        14     0.00000000E+00  # m_nu_2
        21     5.00000000E-03  # m_d(2 GeV), MSbar
        22     3.00000000E-03  # m_u(2 GeV), MSbar
        23     1.05000000E-01  # m_s(2 GeV), MSbar
        24     1.27000000E+00  # m_c(m_c), MSbar
Block gauge Q=  2.61509272E+03  # (SUSY scale)
   1    3.65157860E-01  # g'(Q)^DRbar
   2    6.37705968E-01  # g(Q)^DRbar
   3    1.01251786E+00  # g3(Q)^DRbar
Block Yu Q=  2.61509272E+03  # (SUSY scale)
  1  1     9.38875968E-06   # Y_u(Q)^DRbar
  2  2     3.97457531E-03   # Y_c(Q)^DRbar
  3  3     9.44448276E-01   # Y_t(Q)^DRbar
Block Yd Q=  2.61509272E+03  # (SUSY scale)
  1  1     2.95665857E-05   # Y_d(Q)^DRbar
  2  2     6.20898041E-04   # Y_s(Q)^DRbar
  3  3     2.89934538E-02   # Y_b(Q)^DRbar
Block Ye Q=  2.61509272E+03  # (SUSY scale)
  1  1     6.26029729E-06   # Y_e(Q)^DRbar
  2  2     1.29442645E-03   # Y_mu(Q)^DRbar
  3  3     2.17703505E-02   # Y_tau(Q)^DRbar
Block Au Q=  2.61509272E+03  # (SUSY scale)
  1  1    -7.95376698E+02   # A_u(Q)^DRbar
  2  2    -7.95375716E+02   # A_c(Q)^DRbar
  3  3    -7.41146893E+02   # A_t(Q)^DRbar
Block Ad Q=  2.61509272E+03  # (SUSY scale)
  1  1    -8.60818533E+02   # A_d(Q)^DRbar
  2  2    -8.60818190E+02   # A_s(Q)^DRbar
  3  3    -8.43176113E+02   # A_b(Q)^DRbar
Block Ae Q=  2.61509272E+03  # (SUSY scale)
  1  1    -9.69278190E+01   # A_e(Q)^DRbar
  2  2    -9.69278034E+01   # A_mu(Q)^DRbar
  3  3    -9.69234130E+01   # A_tau(Q)^DRbar
Block MSOFT Q=  2.61509272E+03  # soft SUSY breaking masses at Q
   1    6.22873451E+02  # M_1
   2    1.13619045E+03  # M_2
   3    2.87633681E+03  # M_3
  21    7.54944350E+05  # M^2_(H,d)
  22   -1.03693308E+06  # M^2_(H,u)
  31    8.69889983E+02  # M_(L,11)
  32    8.69889898E+02  # M_(L,22)
  33    8.69865887E+02  # M_(L,33)
  34    4.22645079E+02  # M_(E,11)
  35    4.22644722E+02  # M_(E,22)
  36    4.22544162E+02  # M_(E,33)
  41    2.75370386E+03  # M_(Q,11)
  42    2.75370203E+03  # M_(Q,22)
  43    2.65357729E+03  # M_(Q,33)
  44    2.64031756E+03  # M_(U,11)
  45    2.64031381E+03  # M_(U,22)
  46    2.42220592E+03  # M_(U,33)
  47    2.62914220E+03  # M_(D,11)
  48    2.62914211E+03  # M_(D,22)
  49    2.62893688E+03  # M_(D,33)
Block MASS  # Mass spectrum
#   PDG code      mass          particle
         6     1.72500000E+02  # m_t(pole)
        23     9.11876000E+01  # m_Z(pole)
        24     8.03008672E+01  # W+
        15     1.77700000E+00  # m_tau(pole)
        25     9.81247645E+01  # h0
        35     1.90075155E+03  # H0
        36     1.89864939E+03  # A0
        37     1.90022946E+03  # H+
   1000001     2.86593644E+03  # ~d_L
   2000001     2.73475817E+03  # ~d_R
   1000002     2.86528555E+03  # ~u_L
   2000002     2.74538128E+03  # ~u_R
   1000003     2.86593423E+03  # ~s_L
   2000003     2.73475805E+03  # ~s_R
   1000004     2.86528371E+03  # ~c_L
   2000004     2.74537654E+03  # ~c_R
   1000005     2.73421002E+03  # ~b_1
   2000005     2.74404778E+03  # ~b_2
   1000006     2.48252661E+03  # ~t_1
   2000006     2.75473114E+03  # ~t_2
   1000011     8.88961718E+02  # ~e_L-
   2000011     4.38586209E+02  # ~e_R-
   1000012     8.86530693E+02  # ~nu_eL
   1000013     8.88961687E+02  # ~mu_L-
   2000013     4.38585607E+02  # ~mu_R-
   1000014     8.86530571E+02  # ~nu_muL
   1000015     4.38416050E+02  # ~tau_1-
   2000015     8.88953036E+02  # ~tau_2-
   1000016     8.86496315E+02  # ~nu_tauL
   1000021     3.01403257E+03  # ~g
   1000022     6.06463467E+02  # ~chi_10
   1000023     1.14026312E+03  # ~chi_20
   1000025    -1.42482844E+03  # ~chi_30
   1000035     1.44659616E+03  # ~chi_40
   1000024     1.14025309E+03  # ~chi_1+
   1000037     1.44463256E+03  # ~chi_2+
   1000039     8.40000000E-09  # ~G
# Higgs mixing
Block alpha # Effective Higgs mixing angle
          -4.90808885E-01   # alpha
Block Hmix Q=  2.61509272E+03  # Higgs mixing parameters
   1    1.41971102E+03  # mu
   2    1.88062530E+00  # tan[beta](Q)
   3    2.43853329E+02  # v(Q)
   4    3.19658350E+06  # m^2_A(Q)
Block stopmix # stop mixing matrix
   1  1     1.72047358E-01   # Re[R_st(1,1)]
   1  2     9.85088680E-01   # Re[R_st(1,2)]
   2  1    -9.85088680E-01   # Re[R_st(2,1)]
   2  2     1.72047358E-01   # Re[R_st(2,2)]
Block sbotmix # sbottom mixing matrix
   1  1     1.81567935E-01   # Re[R_sb(1,1)]
   1  2     9.83378404E-01   # Re[R_sb(1,2)]
   2  1    -9.83378404E-01   # Re[R_sb(2,1)]
   2  2     1.81567935E-01   # Re[R_sb(2,2)]
Block staumix # stau mixing matrix
   1  1     8.37790146E-03   # Re[R_sta(1,1)]
   1  2     9.99964905E-01   # Re[R_sta(1,2)]
   2  1    -9.99964905E-01   # Re[R_sta(2,1)]
   2  2     8.37790146E-03   # Re[R_sta(2,2)]
Block Nmix # neutralino mixing matrix
   1  1    -9.98565315E-01   # Re[N(1,1)]
   1  2     6.85040913E-03   # Re[N(1,2)]
   1  3    -4.19209380E-02   # Re[N(1,3)]
   1  4     3.26039625E-02   # Re[N(1,4)]
   2  1    -1.97598031E-02   # Re[N(2,1)]
   2  2    -9.68667944E-01   # Re[N(2,2)]
   2  3     1.81117968E-01   # Re[N(2,3)]
   2  4    -1.68784613E-01   # Re[N(2,4)]
   3  1    -6.51623858E-03   # Re[N(3,1)]
   3  2     9.04412641E-03   # Re[N(3,2)]
   3  3     7.06809988E-01   # Re[N(3,3)]
   3  4     7.07315618E-01   # Re[N(3,4)]
   4  1    -4.93396426E-02   # Re[N(4,1)]
   4  2     2.48100160E-01   # Re[N(4,2)]
   4  3     6.82538319E-01   # Re[N(4,3)]
   4  4    -6.85677295E-01   # Re[N(4,4)]
Block Umix # chargino mixing matrix
   1  1    -9.65748484E-01   # Re[U(1,1)]
   1  2     2.59479990E-01   # Re[U(1,2)]
   2  1     2.59479990E-01   # Re[U(2,1)]
   2  2     9.65748484E-01   # Re[U(2,2)]
Block Vmix # chargino mixing matrix
   1  1    -9.70276382E-01   # Re[V(1,1)]
   1  2     2.41999467E-01   # Re[V(1,2)]
   2  1     2.41999467E-01   # Re[V(2,1)]
   2  2     9.70276382E-01   # Re[V(2,2)]
DECAY   2000011     2.63553576E-10   # ~e^-_R
#    BR                NDA      ID1      ID2
     1.00000000E+00    2     1000039        11   # BR(~e^-_R -> ~G e^-)
DECAY   1000011     3.27987329E-01   # ~e^-_L
#    BR                NDA      ID1      ID2
     9.99999969E-01    2     1000022        11   # BR(~e^-_L -> chi^0_1 e^-)
     1.62226236E-09    2     2000011        23   # BR(~e^-_L -> ~e^-_R Z)
     1.65800988E-09    2     2000011        25   # BR(~e^-_L -> ~e^-_R h^0)
     2.74885787E-08    2     1000039        11   # BR(~e^-_L -> ~G e^-)
DECAY   2000013     2.63551707E-10   # ~mu^-_R
#    BR                NDA      ID1      ID2
     1.00000000E+00    2     1000039        13   # BR(~mu^-_R -> ~G mu^-)
DECAY   1000013     3.28033279E-01   # ~mu^-_L
#    BR                NDA      ID1      ID2
     9.99859751E-01    2     1000022        13   # BR(~mu^-_L -> chi^0_1 mu^-)
     6.93466554E-05    2     2000013        23   # BR(~mu^-_L -> ~mu^-_R Z)
     7.08746770E-05    2     2000013        25   # BR(~mu^-_L -> ~mu^-_R h^0)
     2.74847218E-08    2     1000039        13   # BR(~mu^-_L -> ~G mu^-)
DECAY   1000015     2.63025431E-10   # ~tau^-_1
#    BR                NDA      ID1      ID2
     1.00000000E+00    2     1000039        15   # BR(~tau^-_1 -> ~G tau^-)
DECAY   2000015     3.40986995E-01   # ~tau^-_2
#    BR                NDA      ID1      ID2
     9.61838357E-01    2     1000022        15   # BR(~tau^-_2 -> chi^0_1 tau^-)
     1.88756550E-02    2     1000015        23   # BR(~tau^-_2 -> ~tau^-_1 Z)
     1.92859617E-02    2     1000015        25   # BR(~tau^-_2 -> ~tau^-_1 h^0)
     2.64389002E-08    2     1000039        15   # BR(~tau^-_2 -> ~G tau^-)
DECAY   1000012     3.39874276E-01   # ~nu_e
#    BR                NDA      ID1      ID2
     9.99999971E-01    2     1000022        12   # BR(~nu_e -> chi^0_1 nu_e)
     3.04623007E-09    2     2000011        24   # BR(~nu_e -> ~e^-_R W^+)
     2.61664401E-08    2     1000039        12   # BR(~nu_e -> ~G nu_e)
DECAY   1000014     3.39918328E-01   # ~nu_mu
#    BR                NDA      ID1      ID2
     9.99869756E-01    2     1000022        14   # BR(~nu_mu -> chi^0_1 nu_mu)
     1.30218160E-04    2     2000013        24   # BR(~nu_mu -> ~mu^-_R W^+)
     2.61630311E-08    2     1000039        14   # BR(~nu_mu -> ~G nu_mu)
DECAY   1000016     3.52337668E-01   # ~nu_tau
#    BR                NDA      ID1      ID2
     9.64457525E-01    2     1000022        16   # BR(~nu_tau -> chi^0_1 nu_tau)
     3.55424501E-02    2     1000015        24   # BR(~nu_tau -> ~tau^-_1 W^+)
     2.52359497E-08    2     1000039        16   # BR(~nu_tau -> ~G nu_tau)
DECAY   2000001     1.45578377E+00   # ~d_R
#    BR                NDA      ID1      ID2
     9.98279913E-01    2     1000022         1   # BR(~d_R -> chi^0_1 d)
     2.95113785E-04    2     1000023         1   # BR(~d_R -> chi^0_2 d)
     2.49669329E-05    2     1000025         1   # BR(~d_R -> chi^0_3 d)
     1.39828044E-03    2     1000035         1   # BR(~d_R -> chi^0_4 d)
     6.15041300E-09    2    -1000024         2   # BR(~d_R -> chi^-_1 u)
     1.35828596E-08    2    -1000037         2   # BR(~d_R -> chi^-_2 u)
     1.70644316E-06    2     1000039         1   # BR(~d_R -> ~G d)
DECAY   1000001     2.46764782E+01   # ~d_L
#    BR                NDA      ID1      ID2
     1.67122005E-02    2     1000022         1   # BR(~d_L -> chi^0_1 d)
     3.09885997E-01    2     1000023         1   # BR(~d_L -> chi^0_2 d)
     2.81826470E-05    2     1000025         1   # BR(~d_L -> chi^0_3 d)
     1.73025498E-02    2     1000035         1   # BR(~d_L -> chi^0_4 d)
     6.20871232E-01    2    -1000024         2   # BR(~d_L -> chi^-_1 u)
     3.51997111E-02    2    -1000037         2   # BR(~d_L -> chi^-_2 u)
     2.08091537E-12    2     2000002       -24   # BR(~d_L -> ~u_R W^-)
     1.33244359E-11    2     2000001        23   # BR(~d_L -> ~d_R Z)
     1.98624731E-11    2     2000001        25   # BR(~d_L -> ~d_R h^0)
     1.27245856E-07    2     1000039         1   # BR(~d_L -> ~G d)
DECAY   2000003     1.45580819E+00   # ~s_R
#    BR                NDA      ID1      ID2
     9.98263192E-01    2     1000022         3   # BR(~s_R -> chi^0_1 s)
     2.96439830E-04    2     1000023         3   # BR(~s_R -> chi^0_2 s)
     2.87504251E-05    2     1000025         3   # BR(~s_R -> chi^0_3 s)
     1.40120888E-03    2     1000035         3   # BR(~s_R -> chi^0_4 s)
     2.71232636E-06    2    -1000024         4   # BR(~s_R -> chi^-_1 c)
     5.98991957E-06    2    -1000037         4   # BR(~s_R -> chi^-_2 c)
     1.70641413E-06    2     1000039         3   # BR(~s_R -> ~G s)
DECAY   1000003     2.46769682E+01   # ~s_L
#    BR                NDA      ID1      ID2
     1.67118504E-02    2     1000022         3   # BR(~s_L -> chi^0_1 s)
     3.09879374E-01    2     1000023         3   # BR(~s_L -> chi^0_2 s)
     2.84351759E-05    2     1000025         3   # BR(~s_L -> chi^0_3 s)
     1.73024458E-02    2     1000035         3   # BR(~s_L -> chi^0_4 s)
     6.20858290E-01    2    -1000024         4   # BR(~s_L -> chi^-_1 c)
     3.52190897E-02    2    -1000037         4   # BR(~s_L -> chi^-_2 c)
     3.72939861E-07    2     2000004       -24   # BR(~s_L -> ~c_R W^-)
     5.87560800E-09    2     2000003        23   # BR(~s_L -> ~s_R Z)
     8.75886419E-09    2     2000003        25   # BR(~s_L -> ~s_R h^0)
     1.27242838E-07    2     1000039         3   # BR(~s_L -> ~G s)
DECAY   1000005     3.09007994E+00   # ~b_1
#    BR                NDA      ID1      ID2
     4.60605418E-01    2     1000022         5   # BR(~b_1 -> chi^0_1 b)
     8.51672157E-02    2     1000023         5   # BR(~b_1 -> chi^0_2 b)
     3.54898409E-03    2     1000025         5   # BR(~b_1 -> chi^0_3 b)
     2.30460960E-04    2     1000035         5   # BR(~b_1 -> chi^0_4 b)
     1.81678197E-01    2    -1000024         6   # BR(~b_1 -> chi^-_1 t)
     2.50101765E-01    2    -1000037         6   # BR(~b_1 -> chi^-_2 t)
     1.86671557E-02    2     1000006       -24   # BR(~b_1 -> ~t_1 W^-)
     8.03118433E-07    2     1000039         5   # BR(~b_1 -> ~G b)
DECAY   2000005     4.86684551E+01   # ~b_2
#    BR                NDA      ID1      ID2
     8.65788192E-03    2     1000022         5   # BR(~b_2 -> chi^0_1 b)
     1.39946542E-01    2     1000023         5   # BR(~b_2 -> chi^0_2 b)
     2.88558248E-04    2     1000025         5   # BR(~b_2 -> chi^0_3 b)
     8.37822248E-03    2     1000035         5   # BR(~b_2 -> chi^0_4 b)
     3.02363030E-01    2    -1000024         6   # BR(~b_2 -> chi^-_1 t)
     5.01071971E-01    2    -1000037         6   # BR(~b_2 -> chi^-_2 t)
     3.92937436E-02    2     1000006       -24   # BR(~b_2 -> ~t_1 W^-)
     5.19159458E-08    2     1000039         5   # BR(~b_2 -> ~G b)
DECAY   2000002     5.85046641E+00   # ~u_R
#    BR                NDA      ID1      ID2
     9.98273106E-01    2     1000022         2   # BR(~u_R -> chi^0_1 u)
     2.95832501E-04    2     1000023         2   # BR(~u_R -> chi^0_2 u)
     2.50821973E-05    2     1000025         2   # BR(~u_R -> chi^0_3 u)
     1.40554569E-03    2     1000035         2   # BR(~u_R -> chi^0_4 u)
     1.39347266E-10    2     1000024         1   # BR(~u_R -> chi^+_1 d)
     3.53673419E-10    2     1000037         1   # BR(~u_R -> chi^+_2 d)
     4.32929223E-07    2     1000039         2   # BR(~u_R -> ~G u)
DECAY   1000002     2.47017564E+01   # ~u_L
#    BR                NDA      ID1      ID2
     1.44546453E-02    2     1000022         2   # BR(~u_L -> chi^0_1 u)
     3.14302805E-01    2     1000023         2   # BR(~u_L -> chi^0_2 u)
     1.61763166E-05    2     1000025         2   # BR(~u_L -> chi^0_3 u)
     1.48408803E-02    2     1000035         2   # BR(~u_L -> chi^0_4 u)
     6.25816281E-01    2     1000024         1   # BR(~u_L -> chi^+_1 d)
     3.05690846E-02    2     1000037         1   # BR(~u_L -> chi^+_2 d)
     3.36078606E-11    2     2000001        24   # BR(~u_L -> ~d_R W^+)
     6.94988615E-13    2     2000002        23   # BR(~u_L -> ~u_R Z)
     1.10222723E-12    2     2000002        25   # BR(~u_L -> ~u_R h^0)
     1.26971358E-07    2     1000039         2   # BR(~u_L -> ~G u)
DECAY   2000004     5.85144663E+00   # ~c_R
#    BR                NDA      ID1      ID2
     9.98101890E-01    2     1000022         4   # BR(~c_R -> chi^0_1 c)
     3.08088334E-04    2     1000023         4   # BR(~c_R -> chi^0_2 c)
     6.47653552E-05    2     1000025         4   # BR(~c_R -> chi^0_3 c)
     1.43648413E-03    2     1000035         4   # BR(~c_R -> chi^0_4 c)
     2.49676871E-05    2     1000024         3   # BR(~c_R -> chi^+_1 s)
     6.33713532E-05    2     1000037         3   # BR(~c_R -> chi^+_2 s)
     4.32852597E-07    2     1000039         4   # BR(~c_R -> ~G c)
DECAY   1000004     2.47021770E+01   # ~c_L
#    BR                NDA      ID1      ID2
     1.44547842E-02    2     1000022         4   # BR(~c_L -> chi^0_1 c)
     3.14294854E-01    2     1000023         4   # BR(~c_L -> chi^0_2 c)
     2.64548230E-05    2     1000025         4   # BR(~c_L -> chi^0_3 c)
     1.48519538E-02    2     1000035         4   # BR(~c_L -> chi^0_4 c)
     6.25800077E-01    2     1000024         3   # BR(~c_L -> chi^+_1 s)
     3.05714128E-02    2     1000037         3   # BR(~c_L -> chi^+_2 s)
     1.48203146E-08    2     2000003        24   # BR(~c_L -> ~s_R W^+)
     1.24562604E-07    2     2000004        23   # BR(~c_L -> ~c_R Z)
     1.97540232E-07    2     2000004        25   # BR(~c_L -> ~c_R h^0)
     1.26968689E-07    2     1000039         4   # BR(~c_L -> ~G c)
DECAY   1000006     4.47890203E+01   # ~t_1
#    BR                NDA      ID1      ID2
     1.20694053E-12    2     1000022         4   # BR(~t_1 -> chi^0_1 c)
     1.13950843E-01    2     1000022         6   # BR(~t_1 -> chi^0_1 t)
     2.38014399E-11    2     1000023         4   # BR(~t_1 -> chi^0_2 c)
     3.62870133E-02    2     1000023         6   # BR(~t_1 -> chi^0_2 t)
     2.26143829E-01    2     1000025         6   # BR(~t_1 -> chi^0_3 t)
     1.77861184E-01    2     1000035         6   # BR(~t_1 -> chi^0_4 t)
     7.54873172E-02    2     1000024         5   # BR(~t_1 -> chi^+_1 b)
     3.70254481E-01    2     1000037         5   # BR(~t_1 -> chi^+_2 b)
     3.35339103E-08    2     1000039         6   # BR(~t_1 -> ~G t)
#    BR                NDA      ID1      ID2       ID3
     1.52986825E-05    3     1000022        24         5   # BR(~t_1 -> chi^0_1 W^+ b)
DECAY   2000006     5.03027899E+01   # ~t_2
#    BR                NDA      ID1      ID2
     8.05714647E-03    2     1000022         6   # BR(~t_2 -> chi^0_1 t)
     1.33593095E-01    2     1000023         6   # BR(~t_2 -> chi^0_2 t)
     2.48785472E-01    2     1000025         6   # BR(~t_2 -> chi^0_3 t)
     2.72124506E-01    2     1000035         6   # BR(~t_2 -> chi^0_4 t)
     2.43269187E-01    2     1000024         5   # BR(~t_2 -> chi^+_1 b)
     5.53742990E-02    2     1000037         5   # BR(~t_2 -> chi^+_2 b)
     2.13733725E-02    2     1000006        23   # BR(~t_2 -> ~t_1 Z)
     1.74228705E-02    2     1000006        25   # BR(~t_2 -> ~t_1 h^0)
     5.04165182E-08    2     1000039         6   # BR(~t_2 -> ~G t)
DECAY   1000024     4.14303845E+00   # chi^+_1
#    BR                NDA      ID1      ID2
     1.92042138E-11    2    -2000011        12   # BR(chi^+_1 -> ~e^+_R nu_e)
     1.59719388E-01    2    -1000011        12   # BR(chi^+_1 -> ~e^+_L nu_e)
     8.21034558E-07    2    -2000013        14   # BR(chi^+_1 -> ~mu^+_R nu_mu)
     1.59719296E-01    2    -1000013        14   # BR(chi^+_1 -> ~mu^+_L nu_mu)
     2.32250337E-04    2    -1000015        16   # BR(chi^+_1 -> ~tau^+_1 nu_tau)
     1.59693299E-01    2    -2000015        16   # BR(chi^+_1 -> ~tau^+_2 nu_tau)
     1.63961446E-01    2     1000012       -11   # BR(chi^+_1 -> ~nu_e e^+)
     1.63961704E-01    2     1000014       -13   # BR(chi^+_1 -> ~nu_mu mu^+)
     1.64034504E-01    2     1000016       -15   # BR(chi^+_1 -> ~nu_tau tau^+)
     2.84316786E-02    2     1000022        24   # BR(chi^+_1 -> chi^0_1 W^+)
#    BR                NDA      ID1      ID2       ID3
     1.35596717E-07    3     1000022        -1         2   # BR(chi^+_1 -> chi^0_1 d_bar u)
     1.35602921E-07    3     1000022        -3         4   # BR(chi^+_1 -> chi^0_1 s_bar c)
     2.45307557E-04    3     1000022        -5         6   # BR(chi^+_1 -> chi^0_1 b_bar t)
     1.23093603E-10    3     1000022       -13        14   # BR(chi^+_1 -> chi^0_1 mu^+ nu_mu)
     3.47814909E-08    3     1000022       -15        16   # BR(chi^+_1 -> chi^0_1 tau^+ nu_tau)
DECAY   1000037     9.86907917E+00   # chi^+_2
#    BR                NDA      ID1      ID2
     3.82689797E-11    2    -2000011        12   # BR(chi^+_2 -> ~e^+_R nu_e)
     1.53916771E-02    2    -1000011        12   # BR(chi^+_2 -> ~e^+_L nu_e)
     1.63610771E-06    2    -2000013        14   # BR(chi^+_2 -> ~mu^+_R nu_mu)
     1.53917905E-02    2    -1000013        14   # BR(chi^+_2 -> ~mu^+_L nu_mu)
     4.62845172E-04    2    -1000015        16   # BR(chi^+_2 -> ~tau^+_1 nu_tau)
     1.54237488E-02    2    -2000015        16   # BR(chi^+_2 -> ~tau^+_2 nu_tau)
     1.34770062E-02    2     1000012       -11   # BR(chi^+_2 -> ~nu_e e^+)
     1.34778436E-02    2     1000014       -13   # BR(chi^+_2 -> ~nu_mu mu^+)
     1.37139000E-02    2     1000016       -15   # BR(chi^+_2 -> ~nu_tau tau^+)
     1.21816852E-01    2     1000022        24   # BR(chi^+_2 -> chi^0_1 W^+)
     2.80327838E-01    2     1000023        24   # BR(chi^+_2 -> chi^0_2 W^+)
     2.71331491E-01    2     1000024        23   # BR(chi^+_2 -> chi^+_1 Z)
     2.36595807E-01    2     1000024        25   # BR(chi^+_2 -> chi^+_1 h^0)
#    BR                NDA      ID1      ID2       ID3
     9.25658277E-09    3     1000024         2        -2   # BR(chi^+_2 -> chi^+_1 u u_bar)
     9.25475989E-09    3     1000024         4        -4   # BR(chi^+_2 -> chi^+_1 c c_bar)
     8.13638564E-09    3     1000024         1        -1   # BR(chi^+_2 -> chi^+_1 d d_bar)
     8.13591550E-09    3     1000024         3        -3   # BR(chi^+_2 -> chi^+_1 s s_bar)
     4.75978135E-08    3     1000024         5        -5   # BR(chi^+_2 -> chi^+_1 b b_bar)
     1.57570460E-07    3     1000024        11       -11   # BR(chi^+_2 -> chi^+_1 e^- e^+)
     1.57579914E-07    3     1000024        13       -13   # BR(chi^+_2 -> chi^+_1 mu^- mu^+)
     1.59711490E-07    3     1000024        15       -15   # BR(chi^+_2 -> chi^+_1 tau^- tau^+)
     5.44027332E-07    3     1000024        12       -12   # BR(chi^+_2 -> chi^+_1 nu_e nu_bar_e)
     3.02359018E-08    3     1000022        -1         2   # BR(chi^+_2 -> chi^0_1 d_bar u)
     3.03918191E-08    3     1000022        -3         4   # BR(chi^+_2 -> chi^0_1 s_bar c)
     2.11882962E-03    3     1000022        -5         6   # BR(chi^+_2 -> chi^0_1 b_bar t)
     1.40595760E-14    3     1000022       -11        12   # BR(chi^+_2 -> chi^0_1 e^+ nu_e)
     6.01085258E-10    3     1000022       -13        14   # BR(chi^+_2 -> chi^0_1 mu^+ nu_mu)
     1.69907017E-07    3     1000022       -15        16   # BR(chi^+_2 -> chi^0_1 tau^+ nu_tau)
     4.43437662E-09    3     1000023        -1         2   # BR(chi^+_2 -> chi^0_2 d_bar u)
     4.43383118E-09    3     1000023        -3         4   # BR(chi^+_2 -> chi^0_2 s_bar c)
     4.66775580E-04    3     1000023        -5         6   # BR(chi^+_2 -> chi^0_2 b_bar t)
     8.88131043E-08    3     1000023       -11        12   # BR(chi^+_2 -> chi^0_2 e^+ nu_e)
     8.88176531E-08    3     1000023       -13        14   # BR(chi^+_2 -> chi^0_2 mu^+ nu_mu)
     8.97846038E-08    3     1000023       -15        16   # BR(chi^+_2 -> chi^0_2 tau^+ nu_tau)
     1.17723357E-07    3     1000025        -1         2   # BR(chi^+_2 -> chi^0_3 d_bar u)
     1.15400365E-07    3     1000025        -3         4   # BR(chi^+_2 -> chi^0_3 s_bar c)
     3.92414245E-08    3     1000025       -11        12   # BR(chi^+_2 -> chi^0_3 e^+ nu_e)
     3.92409886E-08    3     1000025       -13        14   # BR(chi^+_2 -> chi^0_3 mu^+ nu_mu)
     3.77159065E-08    3     1000025       -15        16   # BR(chi^+_2 -> chi^0_3 tau^+ nu_tau)
DECAY   1000022     2.19112546E+00   # chi^0_1
#    BR                NDA      ID1      ID2
     1.66579224E-01    2     2000011       -11   # BR(chi^0_1 -> ~e^-_R e^+)
     1.66579224E-01    2    -2000011        11   # BR(chi^0_1 -> ~e^+_R e^-)
     1.66580148E-01    2     2000013       -13   # BR(chi^0_1 -> ~mu^-_R mu^+)
     1.66580148E-01    2    -2000013        13   # BR(chi^0_1 -> ~mu^+_R mu^-)
     1.66840628E-01    2     1000015       -15   # BR(chi^0_1 -> ~tau^-_1 tau^+)
     1.66840628E-01    2    -1000015        15   # BR(chi^0_1 -> ~tau^+_1 tau^-)
     4.53026970E-10    2     1000039        22   # BR(chi^0_1 -> ~G photon)
     1.38972433E-10    2     1000039        23   # BR(chi^0_1 -> ~G Z)
     1.43017300E-12    2     1000039        25   # BR(chi^0_1 -> ~G h^0)
DECAY   1000023     4.16132023E+00   # chi^0_2
#    BR                NDA      ID1      ID2
     2.06046893E-04    2     2000011       -11   # BR(chi^0_2 -> ~e^-_R e^+)
     2.06046893E-04    2    -2000011        11   # BR(chi^0_2 -> ~e^+_R e^-)
     8.18750650E-02    2     1000011       -11   # BR(chi^0_2 -> ~e^-_L e^+)
     8.18750650E-02    2    -1000011        11   # BR(chi^0_2 -> ~e^+_L e^-)
     2.06447290E-04    2     2000013       -13   # BR(chi^0_2 -> ~mu^-_R mu^+)
     2.06447290E-04    2    -2000013        13   # BR(chi^0_2 -> ~mu^+_R mu^-)
     8.18750793E-02    2     1000013       -13   # BR(chi^0_2 -> ~mu^-_L mu^+)
     8.18750793E-02    2    -1000013        13   # BR(chi^0_2 -> ~mu^+_L mu^-)
     3.19317449E-04    2     1000015       -15   # BR(chi^0_2 -> ~tau^-_1 tau^+)
     3.19317449E-04    2    -1000015        15   # BR(chi^0_2 -> ~tau^+_1 tau^-)
     8.18791283E-02    2     2000015       -15   # BR(chi^0_2 -> ~tau^-_2 tau^+)
     8.18791283E-02    2    -2000015        15   # BR(chi^0_2 -> ~tau^+_2 tau^-)
     7.94657987E-02    2     1000012       -12   # BR(chi^0_2 -> ~nu_e nu_bar_e)
     7.94657987E-02    2    -1000012        12   # BR(chi^0_2 -> ~nu^*_e nu_e)
     7.94658653E-02    2     1000014       -14   # BR(chi^0_2 -> ~nu_mu nu_bar_mu)
     7.94658653E-02    2    -1000014        14   # BR(chi^0_2 -> ~nu^*_mu nu_mu)
     7.94846373E-02    2     1000016       -16   # BR(chi^0_2 -> ~nu_tau nu_bar_tau)
     7.94846373E-02    2    -1000016        16   # BR(chi^0_2 -> ~nu^*_tau nu_tau)
     1.92446674E-04    2     1000022        23   # BR(chi^0_2 -> chi^0_1 Z)
     3.02159700E-02    2     1000022        25   # BR(chi^0_2 -> chi^0_1 h^0)
     1.86940276E-09    2     1000039        22   # BR(chi^0_2 -> ~G photon)
     3.84371691E-09    2     1000039        23   # BR(chi^0_2 -> ~G Z)
     4.12707079E-10    2     1000039        25   # BR(chi^0_2 -> ~G h^0)
     3.67674224E-07    2     1000022        22   # BR(chi^0_2 -> chi^0_1 photon)
#    BR                NDA      ID1      ID2       ID3
     6.36505089E-08    3     1000022         2        -2   # BR(chi^0_2 -> chi^0_1 u u_bar)
     6.36567224E-08    3     1000022         4        -4   # BR(chi^0_2 -> chi^0_1 c c_bar)
     3.57752148E-05    3     1000022         6        -6   # BR(chi^0_2 -> chi^0_1 t t_bar)
     7.19476722E-08    3     1000022         1        -1   # BR(chi^0_2 -> chi^0_1 d d_bar)
     7.19480753E-08    3     1000022         3        -3   # BR(chi^0_2 -> chi^0_1 s s_bar)
     8.76014484E-08    3     1000022         5        -5   # BR(chi^0_2 -> chi^0_1 b b_bar)
     9.05062489E-08    3     1000022        11       -11   # BR(chi^0_2 -> chi^0_1 e^- e^+)
     9.06264371E-08    3     1000022        13       -13   # BR(chi^0_2 -> chi^0_1 mu^- mu^+)
     1.23488126E-07    3     1000022        15       -15   # BR(chi^0_2 -> chi^0_1 tau^- tau^+)
DECAY   1000025     8.41707340E+00   # chi^0_3
#    BR                NDA      ID1      ID2
     1.56251255E-05    2     2000011       -11   # BR(chi^0_3 -> ~e^-_R e^+)
     1.56251255E-05    2    -2000011        11   # BR(chi^0_3 -> ~e^+_R e^-)
     3.60479671E-06    2     1000011       -11   # BR(chi^0_3 -> ~e^-_L e^+)
     3.60479671E-06    2    -1000011        11   # BR(chi^0_3 -> ~e^+_L e^-)
     1.67742909E-05    2     2000013       -13   # BR(chi^0_3 -> ~mu^-_R mu^+)
     1.67742909E-05    2    -2000013        13   # BR(chi^0_3 -> ~mu^+_R mu^-)
     4.13449644E-06    2     1000013       -13   # BR(chi^0_3 -> ~mu^-_L mu^+)
     4.13449644E-06    2    -1000013        13   # BR(chi^0_3 -> ~mu^+_L mu^-)
     3.40726917E-04    2     1000015       -15   # BR(chi^0_3 -> ~tau^-_1 tau^+)
     3.40726917E-04    2    -1000015        15   # BR(chi^0_3 -> ~tau^+_1 tau^-)
     1.53453880E-04    2     2000015       -15   # BR(chi^0_3 -> ~tau^-_2 tau^+)
     1.53453880E-04    2    -2000015        15   # BR(chi^0_3 -> ~tau^+_2 tau^-)
     2.09889788E-05    2     1000012       -12   # BR(chi^0_3 -> ~nu_e nu_bar_e)
     2.09889788E-05    2    -1000012        12   # BR(chi^0_3 -> ~nu^*_e nu_e)
     2.09889861E-05    2     1000014       -14   # BR(chi^0_3 -> ~nu_mu nu_bar_mu)
     2.09889861E-05    2    -1000014        14   # BR(chi^0_3 -> ~nu^*_mu nu_mu)
     2.09910354E-05    2     1000016       -16   # BR(chi^0_3 -> ~nu_tau nu_bar_tau)
     2.09910354E-05    2    -1000016        16   # BR(chi^0_3 -> ~nu^*_tau nu_tau)
     2.79065367E-01    2     1000024       -24   # BR(chi^0_3 -> chi^+_1 W^-)
     2.79065367E-01    2    -1000024        24   # BR(chi^0_3 -> chi^-_1 W^+)
     1.66555489E-01    2     1000022        23   # BR(chi^0_3 -> chi^0_1 Z)
     2.68932789E-01    2     1000023        23   # BR(chi^0_3 -> chi^0_2 Z)
     2.57602730E-03    2     1000022        25   # BR(chi^0_3 -> chi^0_1 h^0)
     3.21045413E-04    2     1000023        25   # BR(chi^0_3 -> chi^0_2 h^0)
     1.52634072E-14    2     1000039        22   # BR(chi^0_3 -> ~G photon)
     2.45458619E-10    2     1000039        23   # BR(chi^0_3 -> ~G Z)
     9.57280522E-10    2     1000039        25   # BR(chi^0_3 -> ~G h^0)
     6.15597580E-08    2     1000022        22   # BR(chi^0_3 -> chi^0_1 photon)
     9.07062618E-07    2     1000023        22   # BR(chi^0_3 -> chi^0_2 photon)
#    BR                NDA      ID1      ID2       ID3
     5.63292438E-11    3     1000022         2        -2   # BR(chi^0_3 -> chi^0_1 u u_bar)
     2.25035064E-10    3     1000022         4        -4   # BR(chi^0_3 -> chi^0_1 c c_bar)
     1.61570859E-03    3     1000022         6        -6   # BR(chi^0_3 -> chi^0_1 t t_bar)
     1.50198523E-11    3     1000022         1        -1   # BR(chi^0_3 -> chi^0_1 d d_bar)
     1.91429787E-11    3     1000022         3        -3   # BR(chi^0_3 -> chi^0_1 s s_bar)
     9.16369132E-09    3     1000022         5        -5   # BR(chi^0_3 -> chi^0_1 b b_bar)
     6.87133167E-09    3     1000022        11       -11   # BR(chi^0_3 -> chi^0_1 e^- e^+)
     7.67991987E-09    3     1000022        13       -13   # BR(chi^0_3 -> chi^0_1 mu^- mu^+)
     2.35726086E-07    3     1000022        15       -15   # BR(chi^0_3 -> chi^0_1 tau^- tau^+)
     1.82373098E-12    3     1000023         2        -2   # BR(chi^0_3 -> chi^0_2 u u_bar)
     3.66880360E-12    3     1000023         4        -4   # BR(chi^0_3 -> chi^0_2 c c_bar)
     3.11967254E-12    3     1000023         1        -1   # BR(chi^0_3 -> chi^0_2 d d_bar)
     3.24453115E-12    3     1000023         3        -3   # BR(chi^0_3 -> chi^0_2 s s_bar)
     3.19025647E-10    3     1000023         5        -5   # BR(chi^0_3 -> chi^0_2 b b_bar)
     1.82683610E-11    3     1000023        11       -11   # BR(chi^0_3 -> chi^0_2 e^- e^+)
     2.30716464E-11    3     1000023        13       -13   # BR(chi^0_3 -> chi^0_2 mu^- mu^+)
     1.37832718E-09    3     1000023        15       -15   # BR(chi^0_3 -> chi^0_2 tau^- tau^+)
     2.98932318E-10    3     1000023        12       -12   # BR(chi^0_3 -> chi^0_2 nu_e nu_bar_e)
     1.43610963E-11    3     1000024         1        -2   # BR(chi^0_3 -> chi^+_1 d u_bar)
     1.43610963E-11    3    -1000024        -1         2   # BR(chi^0_3 -> chi^-_1 d_bar u)
     1.61894061E-11    3     1000024         3        -4   # BR(chi^0_3 -> chi^+_1 s c_bar)
     1.61894061E-11    3    -1000024        -3         4   # BR(chi^0_3 -> chi^-_1 s_bar c)
     3.36196974E-04    3     1000024         5        -6   # BR(chi^0_3 -> chi^+_1 b t_bar)
     3.36196974E-04    3    -1000024        -5         6   # BR(chi^0_3 -> chi^-_1 b_bar t)
     3.11062265E-10    3     1000024        11       -12   # BR(chi^0_3 -> chi^+_1 e^- nu_bar_e)
     3.11062265E-10    3    -1000024       -11        12   # BR(chi^0_3 -> chi^-_1 e^+ nu_e)
     3.15615226E-10    3     1000024        13       -14   # BR(chi^0_3 -> chi^+_1 mu^- nu_bar_mu)
     3.15615226E-10    3    -1000024       -13        14   # BR(chi^0_3 -> chi^-_1 mu^+ nu_mu)
     1.61231458E-09    3     1000024        15       -16   # BR(chi^0_3 -> chi^+_1 tau^- nu_bar_tau)
     1.61231458E-09    3    -1000024       -15        16   # BR(chi^0_3 -> chi^-_1 tau^+ nu_tau)
DECAY   1000035     9.78147743E+00   # chi^0_4
#    BR                NDA      ID1      ID2
     7.87541513E-04    2     2000011       -11   # BR(chi^0_4 -> ~e^-_R e^+)
     7.87541513E-04    2    -2000011        11   # BR(chi^0_4 -> ~e^+_R e^-)
     5.60001329E-03    2     1000011       -11   # BR(chi^0_4 -> ~e^-_L e^+)
     5.60001329E-03    2    -1000011        11   # BR(chi^0_4 -> ~e^+_L e^-)
     7.88350205E-04    2     2000013       -13   # BR(chi^0_4 -> ~mu^-_R mu^+)
     7.88350205E-04    2    -2000013        13   # BR(chi^0_4 -> ~mu^+_R mu^-)
     5.60049592E-03    2     1000013       -13   # BR(chi^0_4 -> ~mu^-_L mu^+)
     5.60049592E-03    2    -1000013        13   # BR(chi^0_4 -> ~mu^+_L mu^-)
     1.01635178E-03    2     1000015       -15   # BR(chi^0_4 -> ~tau^-_1 tau^+)
     1.01635178E-03    2    -1000015        15   # BR(chi^0_4 -> ~tau^+_1 tau^-)
     5.73652500E-03    2     2000015       -15   # BR(chi^0_4 -> ~tau^-_2 tau^+)
     5.73652500E-03    2    -2000015        15   # BR(chi^0_4 -> ~tau^+_2 tau^-)
     8.90730203E-03    2     1000012       -12   # BR(chi^0_4 -> ~nu_e nu_bar_e)
     8.90730203E-03    2    -1000012        12   # BR(chi^0_4 -> ~nu^*_e nu_e)
     8.90730497E-03    2     1000014       -14   # BR(chi^0_4 -> ~nu_mu nu_bar_mu)
     8.90730497E-03    2    -1000014        14   # BR(chi^0_4 -> ~nu^*_mu nu_mu)
     8.90813305E-03    2     1000016       -16   # BR(chi^0_4 -> ~nu_tau nu_bar_tau)
     8.90813305E-03    2    -1000016        16   # BR(chi^0_4 -> ~nu^*_tau nu_tau)
     2.68698800E-01    2     1000024       -24   # BR(chi^0_4 -> chi^+_1 W^-)
     2.68698800E-01    2    -1000024        24   # BR(chi^0_4 -> chi^-_1 W^+)
     2.22314286E-03    2     1000022        23   # BR(chi^0_4 -> chi^0_1 Z)
     3.78884100E-04    2     1000023        23   # BR(chi^0_4 -> chi^0_2 Z)
     1.34276343E-01    2     1000022        25   # BR(chi^0_4 -> chi^0_1 h^0)
     2.31466541E-01    2     1000023        25   # BR(chi^0_4 -> chi^0_2 h^0)
     6.81025492E-11    2     1000039        22   # BR(chi^0_4 -> ~G photon)
     5.14016676E-09    2     1000039        23   # BR(chi^0_4 -> ~G Z)
     9.02719962E-09    2     1000039        25   # BR(chi^0_4 -> ~G h^0)
     7.49519870E-09    2     1000022        22   # BR(chi^0_4 -> chi^0_1 photon)
     2.28988653E-07    2     1000023        22   # BR(chi^0_4 -> chi^0_2 photon)
     5.38437329E-10    2     1000025        22   # BR(chi^0_4 -> chi^0_3 photon)
#    BR                NDA      ID1      ID2       ID3
     1.97087872E-08    3     1000022         2        -2   # BR(chi^0_4 -> chi^0_1 u u_bar)
     1.98345616E-08    3     1000022         4        -4   # BR(chi^0_4 -> chi^0_1 c c_bar)
     8.05769513E-04    3     1000022         6        -6   # BR(chi^0_4 -> chi^0_1 t t_bar)
     1.77975141E-08    3     1000022         1        -1   # BR(chi^0_4 -> chi^0_1 d d_bar)
     1.78007797E-08    3     1000022         3        -3   # BR(chi^0_4 -> chi^0_1 s s_bar)
     2.86950544E-08    3     1000022         5        -5   # BR(chi^0_4 -> chi^0_1 b b_bar)
     8.45888599E-07    3     1000022        11       -11   # BR(chi^0_4 -> chi^0_1 e^- e^+)
     8.46480230E-07    3     1000022        13       -13   # BR(chi^0_4 -> chi^0_1 mu^- mu^+)
     1.00903563E-06    3     1000022        15       -15   # BR(chi^0_4 -> chi^0_1 tau^- tau^+)
     6.16993838E-09    3     1000023         2        -2   # BR(chi^0_4 -> chi^0_2 u u_bar)
     6.16692068E-09    3     1000023         4        -4   # BR(chi^0_4 -> chi^0_2 c c_bar)
     7.06300565E-09    3     1000023         1        -1   # BR(chi^0_4 -> chi^0_2 d d_bar)
     7.06314335E-09    3     1000023         3        -3   # BR(chi^0_4 -> chi^0_2 s s_bar)
     8.95938240E-09    3     1000023         5        -5   # BR(chi^0_4 -> chi^0_2 b b_bar)
     1.02610011E-07    3     1000023        11       -11   # BR(chi^0_4 -> chi^0_2 e^- e^+)
     1.02615307E-07    3     1000023        13       -13   # BR(chi^0_4 -> chi^0_2 mu^- mu^+)
     1.03627324E-07    3     1000023        15       -15   # BR(chi^0_4 -> chi^0_2 tau^- tau^+)
     4.59359693E-07    3     1000023        12       -12   # BR(chi^0_4 -> chi^0_2 nu_e nu_bar_e)
     5.60828185E-08    3     1000025         2        -2   # BR(chi^0_4 -> chi^0_3 u u_bar)
     5.49416116E-08    3     1000025         4        -4   # BR(chi^0_4 -> chi^0_3 c c_bar)
     7.28224875E-08    3     1000025         1        -1   # BR(chi^0_4 -> chi^0_3 d d_bar)
     7.28091422E-08    3     1000025         3        -3   # BR(chi^0_4 -> chi^0_3 s s_bar)
     5.29786052E-08    3     1000025         5        -5   # BR(chi^0_4 -> chi^0_3 b b_bar)
     1.67437620E-08    3     1000025        11       -11   # BR(chi^0_4 -> chi^0_3 e^- e^+)
     1.67416615E-08    3     1000025        13       -13   # BR(chi^0_4 -> chi^0_3 mu^- mu^+)
     1.61214321E-08    3     1000025        15       -15   # BR(chi^0_4 -> chi^0_3 tau^- tau^+)
     1.00452362E-07    3     1000025        12       -12   # BR(chi^0_4 -> chi^0_3 nu_e nu_bar_e)
     4.51882498E-09    3     1000024         1        -2   # BR(chi^0_4 -> chi^+_1 d u_bar)
     4.51882498E-09    3    -1000024        -1         2   # BR(chi^0_4 -> chi^-_1 d_bar u)
     4.51970432E-09    3     1000024         3        -4   # BR(chi^0_4 -> chi^+_1 s c_bar)
     4.51970432E-09    3    -1000024        -3         4   # BR(chi^0_4 -> chi^-_1 s_bar c)
     4.71395214E-04    3     1000024         5        -6   # BR(chi^0_4 -> chi^+_1 b t_bar)
     4.71395214E-04    3    -1000024        -5         6   # BR(chi^0_4 -> chi^-_1 b_bar t)
     9.24446708E-08    3     1000024        11       -12   # BR(chi^0_4 -> chi^+_1 e^- nu_bar_e)
     9.24446708E-08    3    -1000024       -11        12   # BR(chi^0_4 -> chi^-_1 e^+ nu_e)
     9.24490267E-08    3     1000024        13       -14   # BR(chi^0_4 -> chi^+_1 mu^- nu_bar_mu)
     9.24490267E-08    3    -1000024       -13        14   # BR(chi^0_4 -> chi^-_1 mu^+ nu_mu)
     9.35645682E-08    3     1000024        15       -16   # BR(chi^0_4 -> chi^+_1 tau^- nu_bar_tau)
     9.35645682E-08    3    -1000024       -15        16   # BR(chi^0_4 -> chi^-_1 tau^+ nu_tau)
     1.34445166E-12    3     1000037         1        -2   # BR(chi^0_4 -> chi^+_2 d u_bar)
     1.34445166E-12    3    -1000037        -1         2   # BR(chi^0_4 -> chi^-_2 d_bar u)
     1.38292056E-13    3     1000037         3        -4   # BR(chi^0_4 -> chi^+_2 s c_bar)
     1.38292056E-13    3    -1000037        -3         4   # BR(chi^0_4 -> chi^-_2 s_bar c)
     4.47855711E-13    3     1000037        11       -12   # BR(chi^0_4 -> chi^+_2 e^- nu_bar_e)
     4.47855711E-13    3    -1000037       -11        12   # BR(chi^0_4 -> chi^-_2 e^+ nu_e)
     4.41467006E-13    3     1000037        13       -14   # BR(chi^0_4 -> chi^+_2 mu^- nu_bar_mu)
     4.41467006E-13    3    -1000037       -13        14   # BR(chi^0_4 -> chi^-_2 mu^+ nu_mu)
DECAY   1000021     2.03151295E+01   # ~g
#    BR                NDA      ID1      ID2
     4.38911095E-02    2     2000002        -2   # BR(~g -> ~u_R u_bar)
     4.38911095E-02    2    -2000002         2   # BR(~g -> ~u^*_R u)
     1.40214395E-02    2     1000002        -2   # BR(~g -> ~u_L u_bar)
     1.40214395E-02    2    -1000002         2   # BR(~g -> ~u^*_L u)
     4.38914261E-02    2     2000004        -4   # BR(~g -> ~c_R c_bar)
     4.38914261E-02    2    -2000004         4   # BR(~g -> ~c^*_R c)
     1.40216945E-02    2     1000004        -4   # BR(~g -> ~c_L c_bar)
     1.40216945E-02    2    -1000004         4   # BR(~g -> ~c^*_L c)
     2.82143571E-11    2     1000006        -4   # BR(~g -> ~t_1 c_bar)
     2.82143571E-11    2    -1000006         4   # BR(~g -> ~t^*_1 c)
     1.31589475E-01    2     1000006        -6   # BR(~g -> ~t_1 t_bar)
     1.31589475E-01    2    -1000006         6   # BR(~g -> ~t^*_1 t)
     3.84369283E-02    2     2000006        -6   # BR(~g -> ~t_2 t_bar)
     3.84369283E-02    2    -2000006         6   # BR(~g -> ~t^*_2 t)
     4.72560440E-02    2     2000001        -1   # BR(~g -> ~d_R d_bar)
     4.72560440E-02    2    -2000001         1   # BR(~g -> ~d^*_R d)
     1.39020748E-02    2     1000001        -1   # BR(~g -> ~d_L d_bar)
     1.39020748E-02    2    -1000001         1   # BR(~g -> ~d^*_L d)
     4.72560714E-02    2     2000003        -3   # BR(~g -> ~s_R s_bar)
     4.72560714E-02    2    -2000003         3   # BR(~g -> ~s^*_R s)
     1.39024815E-02    2     1000003        -3   # BR(~g -> ~s_L s_bar)
     1.39024815E-02    2    -1000003         3   # BR(~g -> ~s^*_L s)
     4.71612691E-02    2     1000005        -5   # BR(~g -> ~b_1 b_bar)
     4.71612691E-02    2    -1000005         5   # BR(~g -> ~b^*_1 b)
     4.45601637E-02    2     2000005        -5   # BR(~g -> ~b_2 b_bar)
     4.45601637E-02    2    -2000005         5   # BR(~g -> ~b^*_2 b)
     3.01845198E-06    2     1000022        21   # BR(~g -> chi^0_1 g)
     6.32374115E-06    2     1000023        21   # BR(~g -> chi^0_2 g)
     1.03541184E-04    2     1000025        21   # BR(~g -> chi^0_3 g)
     1.06762202E-04    2     1000035        21   # BR(~g -> chi^0_4 g)
DECAY        25     1.98821455E-03   # h^0
#    BR                NDA      ID1      ID2
     9.12913849E-09    2          11       -11   # BR(h^0 -> e^- e^+)
     3.90293681E-04    2          13       -13   # BR(h^0 -> mu^- mu^+)
     1.10176483E-01    2          15       -15   # BR(h^0 -> tau^- tau^+)
     8.55299593E-07    2           1        -1   # BR(h^0 -> d d_bar)
     3.77186505E-04    2           3        -3   # BR(h^0 -> s s_bar)
     7.87914745E-01    2           5        -5   # BR(h^0 -> b b_bar)
     2.69483363E-07    2           2        -2   # BR(h^0 -> u u_bar)
     4.82778891E-02    2           4        -4   # BR(h^0 -> c c_bar)
     4.64612757E-02    2          21        21   # BR(h^0 -> g g)
     2.08513461E-03    2          22        22   # BR(h^0 -> photon photon)
# writing decays into V V* as 3-body decays
#    BR                NDA      ID1      ID2       ID3
     2.14787562E-04    3          24        11        12   # BR(h^0 -> W^+ e^- nu_e)
     2.14787562E-04    3          24        13        14   # BR(h^0 -> W^+ mu^- nu_mu)
     2.14787562E-04    3          24        15        16   # BR(h^0 -> W^+ tau^- nu_tau)
     7.51756465E-04    3          24         1        -2   # BR(h^0 -> W^+ d u_bar)
     7.51756465E-04    3          24         3        -4   # BR(h^0 -> W^+ s c_bar)
     2.14787562E-04    3         -24       -11       -12   # BR(h^0 -> W^- e^+ nu_bar_e)
     2.14787562E-04    3         -24       -13       -14   # BR(h^0 -> W^- mu^+ nu_bar_mu)
     2.14787562E-04    3         -24       -15       -16   # BR(h^0 -> W^- tau^+ nu_bar_tau)
     7.51756465E-04    3         -24        -1         2   # BR(h^0 -> W^- d_bar u)
     7.51756465E-04    3         -24        -3         4   # BR(h^0 -> W^- s_bar c)
     7.03729520E-07    3          23        11       -11   # BR(h^0 -> Z e^- e^+)
     7.03729520E-07    3          23        13       -13   # BR(h^0 -> Z mu^- mu^+)
     6.03196731E-07    3          23        15       -15   # BR(h^0 -> Z tau^- tau^+)
     4.02131154E-06    3          23        12       -12   # BR(h^0 -> Z nu_e nu_bar_e)
     2.81491808E-06    3          23         1        -1   # BR(h^0 -> Z u u_bar)
     2.81491808E-06    3          23         3        -3   # BR(h^0 -> Z c c_bar)
     2.81491808E-06    3          23         5        -5   # BR(h^0 -> Z t t_bar)
     2.81491808E-06    3          23         2        -2   # BR(h^0 -> Z u u_bar)
     2.81491808E-06    3          23         4        -4   # BR(h^0 -> Z c c_bar)
DECAY        35     2.75961723E+01   # H^0
#    BR                NDA      ID1      ID2
     4.17721041E-11    2          11       -11   # BR(H^0 -> e^- e^+)
     1.78587552E-06    2          13       -13   # BR(H^0 -> mu^- mu^+)
     5.05155401E-04    2          15       -15   # BR(H^0 -> tau^- tau^+)
     3.18947039E-09    2           1        -1   # BR(H^0 -> d d_bar)
     1.40655512E-06    2           3        -3   # BR(H^0 -> s s_bar)
     3.06702558E-03    2           5        -5   # BR(H^0 -> b b_bar)
     9.18566500E-11    2           2        -2   # BR(H^0 -> u u_bar)
     1.64617407E-05    2           4        -4   # BR(H^0 -> c c_bar)
     9.05877649E-01    2           6        -6   # BR(H^0 -> t t_bar)
     6.44692171E-05    2     2000011  -2000011   # BR(H^0 -> ~e^-_R ~e^+_R)
     1.75936167E-12    2     2000011  -1000011   # BR(H^0 -> ~e^-_R ~e^+_L)
     1.75936167E-12    2    -2000011   1000011   # BR(H^0 -> ~e^+_R ~e^-_L)
     2.69968922E-05    2     1000011  -1000011   # BR(H^0 -> ~e^-_L ~e^+_L)
     6.44627170E-05    2     2000013  -2000013   # BR(H^0 -> ~mu^-_R ~mu^+_R)
     7.52176429E-08    2     2000013  -1000013   # BR(H^0 -> ~mu^-_R ~mu^+_L)
     7.52176429E-08    2    -2000013   1000013   # BR(H^0 -> ~mu^+_R ~mu^-_L)
     2.69982845E-05    2     1000013  -1000013   # BR(H^0 -> ~mu^-_L ~mu^+_L)
     6.26438090E-05    2     1000015  -1000015   # BR(H^0 -> ~tau^-_1 ~tau^+_1)
     2.12728839E-05    2     1000015  -2000015   # BR(H^0 -> ~tau^-_1 ~tau^+_2)
     2.12728839E-05    2    -1000015   2000015   # BR(H^0 -> ~tau^+_1 ~tau^-_2)
     2.73920407E-05    2     2000015  -2000015   # BR(H^0 -> ~tau^-_2 ~tau^+_2)
     1.07371346E-04    2     1000012  -1000012   # BR(H^0 -> ~nu_e ~nu^*_e)
     1.07371445E-04    2     1000014  -1000014   # BR(H^0 -> ~nu_mu ~nu^*_mu)
     1.07399245E-04    2     1000016  -1000016   # BR(H^0 -> ~nu_tau ~nu^*_tau)
     3.97478491E-05    2     1000022   1000022   # BR(H^0 -> chi^0_1 chi^0_1)
     7.37847274E-05    2     1000022   1000023   # BR(H^0 -> chi^0_1 chi^0_2)
     3.07270687E-02    2          23        23   # BR(H^0 -> Z Z)
     5.81352414E-02    2          24       -24   # BR(H^0 -> W^+ W^-)
     4.45365163E-04    2          25        25   # BR(H^0 -> h^0 h^0)
     4.67086448E-04    2          21        21   # BR(H^0 -> g g)
     4.41730976E-06    2          22        22   # BR(H^0 -> photon photon)
DECAY        36     2.47625297E+01   # A^0
#    BR                NDA      ID1      ID2
     4.78255322E-11    2          11       -11   # BR(A^0 -> e^- e^+)
     2.04467670E-06    2          13       -13   # BR(A^0 -> mu^- mu^+)
     5.78362301E-04    2          15       -15   # BR(A^0 -> tau^- tau^+)
     3.65163002E-09    2           1        -1   # BR(A^0 -> d d_bar)
     1.61036751E-06    2           3        -3   # BR(A^0 -> s s_bar)
     3.51144266E-03    2           5        -5   # BR(A^0 -> b b_bar)
     9.20535927E-11    2           2        -2   # BR(A^0 -> u u_bar)
     1.64970419E-05    2           4        -4   # BR(A^0 -> c c_bar)
     9.26637565E-01    2           6        -6   # BR(A^0 -> t t_bar)
     1.73077439E-12    2     2000011  -1000011   # BR(A^0 -> ~e^-_R ~e^+_L)
     1.73077439E-12    2    -2000011   1000011   # BR(A^0 -> ~e^+_R ~e^-_L)
     7.39955304E-08    2     2000013  -1000013   # BR(A^0 -> ~mu^-_R ~mu^+_L)
     7.39955304E-08    2    -2000013   1000013   # BR(A^0 -> ~mu^+_R ~mu^-_L)
     2.09331361E-05    2     1000015  -2000015   # BR(A^0 -> ~tau^-_1 ~tau^+_2)
     2.09331361E-05    2    -1000015   2000015   # BR(A^0 -> ~tau^+_1 ~tau^-_2)
     4.33347361E-04    2     1000022   1000022   # BR(A^0 -> chi^0_1 chi^0_1)
     3.76813604E-03    2     1000022   1000023   # BR(A^0 -> chi^0_1 chi^0_2)
     6.48656714E-02    2          25        23   # BR(A^0 -> h^0 Z)
     1.42086248E-04    2          21        21   # BR(A^0 -> g g)
     1.21887399E-06    2          22        22   # BR(A^0 -> photon photon)
DECAY        37     2.16607642E+01   # H^+
#    BR                NDA      ID1      ID2
     5.47195248E-11    2         -11        12   # BR(H^+ -> e^+ nu_e)
     2.33941437E-06    2         -13        12   # BR(H^+ -> mu^+ nu_e)
     6.61732529E-04    2         -15        12   # BR(H^+ -> tau^+ nu_e)
     3.75394912E-09    2          -1         2   # BR(H^+ -> d_bar u)
     1.81570370E-05    2          -3         4   # BR(H^+ -> s_bar c)
     9.22127152E-01    2          -5         6   # BR(H^+ -> b_bar t)
     3.80415940E-12    2    -2000011   1000012   # BR(H^+ -> ~e^+_R ~nu_e)
     1.47517380E-04    2    -1000011   1000012   # BR(H^+ -> ~e^+_L ~nu_e)
     1.62638643E-07    2    -2000013   1000014   # BR(H^+ -> ~mu^+_R ~nu_mu)
     1.47519779E-04    2    -1000013   1000014   # BR(H^+ -> ~mu^+_L ~nu_mu)
     4.60103380E-05    2    -1000015   1000016   # BR(H^+ -> ~tau^+_1 ~nu_tau)
     1.48196632E-04    2    -2000015   1000016   # BR(H^+ -> ~tau^+_2 ~nu_tau)
     4.39389018E-03    2     1000024   1000022   # BR(H^+ -> chi^+_1 chi^0_1)
     7.23073181E-02    2          25        24   # BR(H^+ -> h^0 W^+)
DECAY         6     2.43000000E+00   # top
#    BR                NDA      ID1      ID2
     1.00000000E+00    2           5        24   # BR(t -> b W)
Block HiggsBoundsInputHiggsCouplingsFermions
# ScalarNormEffCoupSq PseudoSNormEffCoupSq NP IP1 IP2 IP2
    1.11080434E+00    0.00000000E+00        3  25   5   5  # h0-b-b eff. coupling^2, normalised to SM
    3.88919566E+00    0.00000000E+00        3  35   5   5  # H0-b-b eff. coupling^2, normalised to SM
    0.00000000E+00    4.00000000E+00        3  36   5   5  # A0-b-b eff. coupling^2, normalised to SM
#
    9.72298915E-01    0.00000000E+00        3  25   6   6  # h0-t-t eff. coupling^2, normalised to SM
    2.77701085E-01    0.00000000E+00        3  35   6   6  # H0-t-t eff. coupling^2, normalised to SM
    0.00000000E+00    2.50000000E-01        3  36   6   6  # A0-t-t eff. coupling^2, normalised to SM
#
    1.11080434E+00    0.00000000E+00        3  25  15  15  # h0-tau-tau eff. coupling^2, normalised to SM
    3.88919566E+00    0.00000000E+00        3  35  15  15  # H0-tau-tau eff. coupling^2, normalised to SM
    0.00000000E+00    4.00000000E+00        3  36  15  15  # A0-tau-tau eff. coupling^2, normalised to SM
#
Block HiggsBoundsInputHiggsCouplingsBosons
    9.99262446E-01        3  25  24  24  # h0-W-W eff. coupling^2, normalised to SM
    7.37553540E-04        3  35  24  24  # H0-W-W eff. coupling^2, normalised to SM
    0.00000000E+00        3  36  24  24  # A0-W-W eff. coupling^2, normalised to SM
#
    9.99262446E-01        3  25  23  23  # h0-Z-Z eff. coupling^2, normalised to SM
    7.37553540E-04        3  35  23  23  # H0-Z-Z eff. coupling^2, normalised to SM
    0.00000000E+00        3  36  23  23  # A0-Z-Z eff. coupling^2, normalised to SM
#
    1.12561126E+00        3  25  21  21  # h0-g-g eff. coupling^2, normalised to SM
    2.71080062E-01        3  35  21  21  # H0-g-g eff. coupling^2, normalised to SM
    5.03430193E-01        3  36  21  21  # A0-g-g eff. coupling^2, normalised to SM
#
    0.00000000E+00        3  25  25  23  # h0-h0-Z eff. coupling^2, normalised to SM
    0.00000000E+00        3  35  25  23  # H0-h0-Z eff. coupling^2, normalised to SM
    7.37553540E-04        3  36  25  23  # A0-h0-Z eff. coupling^2, normalised to SM
    0.00000000E+00        3  35  35  23  # H0-H0-Z eff. coupling^2, normalised to SM
    9.99262446E-01        3  36  35  23  # A0-H0-Z eff. coupling^2, normalised to SM
    0.00000000E+00        3  36  36  23  # A0-A0-Z eff. coupling^2, normalised to SM
#
    0.00000000E+00        4  25  21  21  23  # h0-g-g-Z eff. coupling^2, normalised to SM
    0.00000000E+00        4  35  21  21  23  # H0-g-g-Z eff. coupling^2, normalised to SM
    0.00000000E+00        4  36  21  21  23  # A0-g-g-Z eff. coupling^2, normalised to SM
Block SPhenoLowEnergy  # low energy observables
    1    3.06888319E-04   # BR(b -> s gamma)
    2    1.60093171E-06   # BR(b -> s mu+ mu-)
    3    3.55960488E-05   # BR(b -> s nu nu)
    4    5.22327703E-11   # BR(Bd -> mu+ mu-)
    5    3.41205133E-09   # BR(Bs -> mu+ mu-)
    6    1.10588614E-04   # BR(B_u -> tau nu)
    7    9.99957409E-01   # BR(B_u -> tau nu)/BR(B_u -> tau nu)_SM
    8    2.72723992E-01   # |Delta(M_Bd)| [ps^-1] 
    9    2.02416136E+01   # |Delta(M_Bs)| [ps^-1] 
   20    1.13114390E-15   # Delta(g-2)_electron/2
   21    1.76124594E-11   # Delta(g-2)_muon/2
   22   -1.59998981E-09   # Delta(g-2)_tau/2
   23    0.00000000E+00   # electric dipole moment of the electron
   24    0.00000000E+00   # electric dipole moment of the muon
   25    0.00000000E+00   # electric dipole moment of the tau
   26    0.00000000E+00   # Br(mu -> e gamma)
   27    0.00000000E+00   # Br(tau -> e gamma)
   28    0.00000000E+00   # Br(tau -> mu gamma)
   29    0.00000000E+00   # Br(mu -> 3 e)
   30    0.00000000E+00   # Br(tau -> 3 e)
   31    0.00000000E+00   # Br(tau -> 3 mu)
   39   -3.09412707E-04   # Delta(rho_parameter)
   40    0.00000000E+00   # BR(Z -> e mu)
   41    0.00000000E+00   # BR(Z -> e tau)
   42    0.00000000E+00   # BR(Z -> mu tau)
Block FWCOEF Q=  9.11876000E+01  # Wilson coefficients at scale Q
#    id        order  M        value         comment
Block FWCOEF Q=  1.60000000E+02  # Wilson coefficients at scale Q
#    id        order  M        value         comment
     0305 4422   00   0    -1.87776141E-01   # C7
     0305 4422   00   1    -8.73001354E-03   # C7
     0305 4322   00   1    -1.91339136E-04   # C7'
     0305 6421   00   0    -9.48953666E-02   # C8
     0305 6421   00   1    -1.14411858E-02   # C8
     0305 6321   00   1    -2.48723208E-04   # C8'
 03051111 4133   00   0    -1.31862967E+00   # C9 e+e-
 03051111 4133   00   1    -2.52456898E-04   # C9 e+e-
 03051111 4233   00   1    -5.74034314E-08   # C9' e+e-
 03051111 4137   00   0    -3.94458221E+00   # C10 e+e-
 03051111 4137   00   1    -1.40223478E-02   # C10 e+e-
 03051111 4237   00   1     1.49647972E-06   # C10' e+e-
 03051313 4133   00   0    -1.31862967E+00   # C9 mu+mu-
 03051313 4133   00   1    -2.52457392E-04   # C9 mu+mu-
 03051313 4233   00   1    -5.74034417E-08   # C9' mu+mu-
 03051313 4137   00   0    -3.94458221E+00   # C10 mu+mu-
 03051313 4137   00   1    -1.40223483E-02   # C10 mu+mu-
 03051313 4237   00   1     1.49647973E-06   # C10' mu+mu-
 03051212 4237   00   0     1.49041294E+00   # C11 nu_1 nu_1
 03051212 4237   00   1     3.37160382E-03   # C11 nu_1 nu_1
 03051212 4137   00   1    -3.60026533E-07   # C11' nu_1 nu_1
 03051414 4237   00   0     1.49041294E+00   # C11 nu_2 nu_2
 03051414 4237   00   1     3.37160382E-03   # C11 nu_2 nu_2
 03051414 4137   00   1    -3.60026531E-07   # C11' nu_2 nu_2
 03051616 4237   00   0     1.49041294E+00   # C11 nu_3 nu_3
 03051616 4237   00   1     3.37160390E-03   # C11 nu_3 nu_3
 03051616 4137   00   1    -3.60025902E-07   # C11' nu_3 nu_3
