# SUSY Les Houches Accord 2 - MSSM spectrum + Decays
# SPheno v3.1.12 
# W. Porod, Comput. Phys. Commun. 153 (2003) 275-315, hep-ph/0301101
# in case of problems send email to porod@physik.uni-wuerzburg.de
# Created: 23.11.2012,  13:29
Block SPINFO         # Program information
     1   SPheno      # spectrum calculator
     2   v3.1.12     # version number
#
Block SPhenoINFO     # SPheno specific information
    1      2         # using 2-loop RGEs
    2      1         # using running masses for boundary conditions at mZ
Block MODSEL  # Model selection
    1    2    # mGMSB model
Block MINPAR  # Input parameters
    1    1.10000000E+05  # Lambda, scale of SUSY breaking
    2    2.50000000E+05  # M_M, messenger mass scale
    3    3.00000000E+01  # tanb at m_Z   
    4    1.00000000E+00  # Sign(mu)
    5    3.00000000E+00  # N_5 number of effective five-plets
    6    1.00000000E+00  # c_grav, Gravitino mass factor
Block gauge Q=  2.50000000E+05  # (GMSB scale)
   1    4.93502071E-01  # g'(Q)^DRbar
   2    6.48571692E-01  # g(Q)^DRbar
   3    9.38511714E-01  # g3(Q)^DRbar
Block SMINPUTS  # SM parameters
         1     1.27932506E+02  # alpha_em^-1(MZ)^MSbar
         2     1.16639000E-05  # G_mu [GeV^-2]
         3     1.17200000E-01  # alpha_s(MZ)^MSbar
         4     9.11876000E+01  # m_Z(pole)
         5     4.20000000E+00  # m_b(m_b), MSbar
         6     1.72500000E+02  # m_t(pole)
         7     1.77700000E+00  # m_tau(pole)
         8     0.00000000E+00  # m_nu_3
        11     5.10998910E-04  # m_e(pole)
        12     0.00000000E+00  # m_nu_1
        13     1.05658000E-01  # m_muon(pole)
        14     0.00000000E+00  # m_nu_2
        21     5.00000000E-03  # m_d(2 GeV), MSbar
        22     3.00000000E-03  # m_u(2 GeV), MSbar
        23     1.05000000E-01  # m_s(2 GeV), MSbar
        24     1.27000000E+00  # m_c(m_c), MSbar
Block gauge Q=  2.09741388E+03  # (SUSY scale)
   1    3.64657953E-01  # g'(Q)^DRbar
   2    6.39015143E-01  # g(Q)^DRbar
   3    1.02101599E+00  # g3(Q)^DRbar
Block Yu Q=  2.09741388E+03  # (SUSY scale)
  1  1     8.37311657E-06   # Y_u(Q)^DRbar
  2  2     3.54462024E-03   # Y_c(Q)^DRbar
  3  3     8.41174381E-01   # Y_t(Q)^DRbar
Block Yd Q=  2.09741388E+03  # (SUSY scale)
  1  1     3.66783488E-04   # Y_d(Q)^DRbar
  2  2     7.70245101E-03   # Y_s(Q)^DRbar
  3  3     3.67959706E-01   # Y_b(Q)^DRbar
Block Ye Q=  2.09741388E+03  # (SUSY scale)
  1  1     8.97460571E-05   # Y_e(Q)^DRbar
  2  2     1.85566523E-02   # Y_mu(Q)^DRbar
  3  3     3.12453883E-01   # Y_tau(Q)^DRbar
Block Au Q=  2.09741388E+03  # (SUSY scale)
  1  1    -6.64157730E+02   # A_u(Q)^DRbar
  2  2    -6.64156003E+02   # A_c(Q)^DRbar
  3  3    -6.24611802E+02   # A_t(Q)^DRbar
Block Ad Q=  2.09741388E+03  # (SUSY scale)
  1  1    -6.98854124E+02   # A_d(Q)^DRbar
  2  2    -6.98850672E+02   # A_s(Q)^DRbar
  3  3    -6.79411200E+02   # A_b(Q)^DRbar
Block Ae Q=  2.09741388E+03  # (SUSY scale)
  1  1    -6.95173314E+01   # A_e(Q)^DRbar
  2  2    -6.95148402E+01   # A_mu(Q)^DRbar
  3  3    -6.88120499E+01   # A_tau(Q)^DRbar
Block MSOFT Q=  2.09741388E+03  # soft SUSY breaking masses at Q
   1    4.76271743E+02  # M_1
   2    8.74557693E+02  # M_2
   3    2.24276764E+03  # M_3
  21    2.85842258E+05  # M^2_(H,d)
  22   -4.59767314E+05  # M^2_(H,u)
  31    6.86786360E+02  # M_(L,11)
  32    6.86773255E+02  # M_(L,22)
  33    6.83070252E+02  # M_(L,33)
  34    3.32602886E+02  # M_(E,11)
  35    3.32547768E+02  # M_(E,22)
  36    3.16611352E+02  # M_(E,33)
  41    2.18394153E+03  # M_(Q,11)
  42    2.18393470E+03  # M_(Q,22)
  43    2.10474399E+03  # M_(Q,33)
  44    2.09473432E+03  # M_(U,11)
  45    2.09473185E+03  # M_(U,22)
  46    1.95245413E+03  # M_(U,33)
  47    2.08608053E+03  # M_(D,11)
  48    2.08606857E+03  # M_(D,22)
  49    2.05883244E+03  # M_(D,33)
Block MASS  # Mass spectrum
#   PDG code      mass          particle
         6     1.72500000E+02  # m_t(pole)
        23     9.11876000E+01  # m_Z(pole)
        24     8.03116369E+01  # W+
        15     1.77700000E+00  # m_tau(pole)
        25     1.19111692E+02  # h0
        35     9.11375583E+02  # H0
        36     9.11310194E+02  # A0
        37     9.15334632E+02  # H+
   1000001     2.27461720E+03  # ~d_L
   2000001     2.17142963E+03  # ~d_R
   1000002     2.27321727E+03  # ~u_L
   2000002     2.17929714E+03  # ~u_R
   1000003     2.27460941E+03  # ~s_L
   2000003     2.17141456E+03  # ~s_R
   1000004     2.27320920E+03  # ~c_L
   2000004     2.17929414E+03  # ~c_R
   1000005     2.13507559E+03  # ~b_1
   2000005     2.18122646E+03  # ~b_2
   1000006     2.01152780E+03  # ~t_1
   2000006     2.18696775E+03  # ~t_2
   1000011     7.02300854E+02  # ~e_L-
   2000011     3.46951084E+02  # ~e_R-
   1000012     6.97385177E+02  # ~nu_eL
   1000013     7.02293782E+02  # ~mu_L-
   2000013     3.46859769E+02  # ~mu_R-
   1000014     6.97366565E+02  # ~nu_muL
   1000015     3.20367554E+02  # ~tau_1-
   2000015     7.00229919E+02  # ~tau_2-
   1000016     6.92141661E+02  # ~nu_tauL
   1000021     2.36116908E+03  # ~g
   1000022     4.62822961E+02  # ~chi_10
   1000023     7.34147824E+02  # ~chi_20
   1000025    -7.53355280E+02  # ~chi_30
   1000035     9.14839583E+02  # ~chi_40
   1000024     7.32313129E+02  # ~chi_1+
   1000037     9.14974938E+02  # ~chi_2+
   1000039     6.60000000E-09  # ~G
# Higgs mixing
Block alpha # Effective Higgs mixing angle
          -3.54533311E-02   # alpha
Block Hmix Q=  2.09741388E+03  # Higgs mixing parameters
   1    7.42764233E+02  # mu
   2    2.89646110E+01  # tan[beta](Q)
   3    2.43580956E+02  # v(Q)
   4    7.39359885E+05  # m^2_A(Q)
Block stopmix # stop mixing matrix
   1  1     1.57514662E-01   # Re[R_st(1,1)]
   1  2     9.87516649E-01   # Re[R_st(1,2)]
   2  1    -9.87516649E-01   # Re[R_st(2,1)]
   2  2     1.57514662E-01   # Re[R_st(2,2)]
Block sbotmix # sbottom mixing matrix
   1  1     2.65469123E-01   # Re[R_sb(1,1)]
   1  2     9.64119362E-01   # Re[R_sb(1,2)]
   2  1    -9.64119362E-01   # Re[R_sb(2,1)]
   2  2     2.65469123E-01   # Re[R_sb(2,2)]
Block staumix # stau mixing matrix
   1  1     1.05943043E-01   # Re[R_sta(1,1)]
   1  2     9.94372200E-01   # Re[R_sta(1,2)]
   2  1    -9.94372200E-01   # Re[R_sta(2,1)]
   2  2     1.05943043E-01   # Re[R_sta(2,2)]
Block Nmix # neutralino mixing matrix
   1  1    -9.92936146E-01   # Re[N(1,1)]
   1  2     1.21340293E-02   # Re[N(1,2)]
   1  3    -9.93648591E-02   # Re[N(1,3)]
   1  4     6.36961537E-02   # Re[N(1,4)]
   2  1     1.13027212E-01   # Re[N(2,1)]
   2  2     3.32652925E-01   # Re[N(2,2)]
   2  3    -6.68919636E-01   # Re[N(2,3)]
   2  4     6.55067479E-01   # Re[N(2,4)]
   3  1     2.47717550E-02   # Re[N(3,1)]
   3  2    -3.28318938E-02   # Re[N(3,2)]
   3  3    -7.05249852E-01   # Re[N(3,3)]
   3  4    -7.07764843E-01   # Re[N(3,4)]
   4  1    -2.62491780E-02   # Re[N(4,1)]
   4  2     9.42399524E-01   # Re[N(4,2)]
   4  3     2.12828080E-01   # Re[N(4,3)]
   4  4    -2.56706692E-01   # Re[N(4,4)]
Block Umix # chargino mixing matrix
   1  1    -3.00364567E-01   # Re[U(1,1)]
   1  2     9.53824474E-01   # Re[U(1,2)]
   2  1     9.53824474E-01   # Re[U(2,1)]
   2  2     3.00364567E-01   # Re[U(2,2)]
Block Vmix # chargino mixing matrix
   1  1    -3.62219272E-01   # Re[V(1,1)]
   1  2     9.32092913E-01   # Re[V(1,2)]
   2  1     9.32092913E-01   # Re[V(2,1)]
   2  2     3.62219272E-01   # Re[V(2,2)]
DECAY   2000011     2.27514383E-08   # ~e^-_R
#    BR                NDA      ID1      ID2
     5.81295748E-03    2     1000039        11   # BR(~e^-_R -> ~G e^-)
#    BR                NDA      ID1      ID2       ID3
     2.24341348E-01    3     1000015        11       -15   # BR(~e^-_R -> ~tau^-_1 e^- tau^+)
     7.69845694E-01    3    -1000015        11        15   # BR(~e^-_R -> ~tau^+_1 e^- tau^-)
DECAY   1000011     2.80683729E-01   # ~e^-_L
#    BR                NDA      ID1      ID2
     9.99999671E-01    2     1000022        11   # BR(~e^-_L -> chi^0_1 e^-)
     1.53199591E-07    2     2000011        23   # BR(~e^-_L -> ~e^-_R Z)
     1.59393965E-07    2     2000011        25   # BR(~e^-_L -> ~e^-_R h^0)
     1.60126608E-08    2     1000039        11   # BR(~e^-_L -> ~G e^-)
DECAY   2000013     2.23702406E-08   # ~mu^-_R
#    BR                NDA      ID1      ID2
     5.90423446E-03    2     1000039        13   # BR(~mu^-_R -> ~G mu^-)
#    BR                NDA      ID1      ID2       ID3
     2.24155079E-01    3     1000015        13       -15   # BR(~mu^-_R -> ~tau^-_1 mu^- tau^+)
     7.69940686E-01    3    -1000015        13        15   # BR(~mu^-_R -> ~tau^+_1 mu^- tau^-)
DECAY   1000013     2.84447509E-01   # ~mu^-_L
#    BR                NDA      ID1      ID2
     9.86810905E-01    2     1000022        13   # BR(~mu^-_L -> chi^0_1 mu^-)
     6.46443342E-03    2     2000013        23   # BR(~mu^-_L -> ~mu^-_R Z)
     6.72464574E-03    2     2000013        25   # BR(~mu^-_L -> ~mu^-_R h^0)
     1.57999859E-08    2     1000039        13   # BR(~mu^-_L -> ~G mu^-)
DECAY   1000015     8.87674892E-11   # ~tau^-_1
#    BR                NDA      ID1      ID2
     1.00000000E+00    2     1000039        15   # BR(~tau^-_1 -> ~G tau^-)
DECAY   2000015     1.38248206E+00   # ~tau^-_2
#    BR                NDA      ID1      ID2
     2.05126674E-01    2     1000022        15   # BR(~tau^-_2 -> chi^0_1 tau^-)
     3.98718591E-01    2     1000015        23   # BR(~tau^-_2 -> ~tau^-_1 Z)
     3.96154731E-01    2     1000015        25   # BR(~tau^-_2 -> ~tau^-_1 h^0)
     3.20329828E-09    2     1000039        15   # BR(~tau^-_2 -> ~G tau^-)
DECAY   1000012     2.97090098E-01   # ~nu_e
#    BR                NDA      ID1      ID2
     9.99999707E-01    2     1000022        12   # BR(~nu_e -> chi^0_1 nu_e)
     2.78413857E-07    2     2000011        24   # BR(~nu_e -> ~e^-_R W^+)
     1.46062975E-08    2     1000039        12   # BR(~nu_e -> ~G nu_e)
DECAY   1000014     3.00593974E-01   # ~nu_mu
#    BR                NDA      ID1      ID2
     9.88233781E-01    2     1000022        14   # BR(~nu_mu -> chi^0_1 nu_mu)
     1.17662050E-02    2     2000013        24   # BR(~nu_mu -> ~mu^-_R W^+)
     1.44341128E-08    2     1000039        14   # BR(~nu_mu -> ~G nu_mu)
DECAY   1000016     1.33621240E+00   # ~nu_tau
#    BR                NDA      ID1      ID2
     2.15414083E-01    2     1000022        16   # BR(~nu_tau -> chi^0_1 nu_tau)
     7.84585914E-01    2     1000015        24   # BR(~nu_tau -> ~tau^-_1 W^+)
     3.12726160E-09    2     1000039        16   # BR(~nu_tau -> ~G nu_tau)
DECAY   2000001     1.16081968E+00   # ~d_R
#    BR                NDA      ID1      ID2
     9.87935714E-01    2     1000022         1   # BR(~d_R -> chi^0_1 d)
     1.10224717E-02    2     1000023         1   # BR(~d_R -> chi^0_2 d)
     5.24030544E-04    2     1000025         1   # BR(~d_R -> chi^0_3 d)
     5.12614383E-04    2     1000035         1   # BR(~d_R -> chi^0_4 d)
     4.03162702E-06    2    -1000024         2   # BR(~d_R -> chi^-_1 u)
     4.39408061E-08    2    -1000037         2   # BR(~d_R -> chi^-_2 u)
     1.09402890E-06    2     1000039         1   # BR(~d_R -> ~G d)
DECAY   1000001     2.00482892E+01   # ~d_L
#    BR                NDA      ID1      ID2
     1.71103360E-02    2     1000022         1   # BR(~d_L -> chi^0_1 d)
     3.58056944E-02    2     1000023         1   # BR(~d_L -> chi^0_2 d)
     5.15008781E-04    2     1000025         1   # BR(~d_L -> chi^0_3 d)
     2.90636001E-01    2     1000035         1   # BR(~d_L -> chi^0_4 d)
     6.68088704E-02    2    -1000024         2   # BR(~d_L -> chi^-_1 u)
     5.89124010E-01    2    -1000037         2   # BR(~d_L -> chi^-_2 u)
     2.96169949E-13    2     2000002       -24   # BR(~d_L -> ~u_R W^-)
     1.70936426E-10    2     2000001        23   # BR(~d_L -> ~d_R Z)
     7.98967359E-08    2     1000039         1   # BR(~d_L -> ~G d)
DECAY   2000003     1.16492431E+00   # ~s_R
#    BR                NDA      ID1      ID2
     9.84493959E-01    2     1000022         3   # BR(~s_R -> chi^0_1 s)
     1.18427272E-02    2     1000023         3   # BR(~s_R -> chi^0_2 s)
     1.35138135E-03    2     1000025         3   # BR(~s_R -> chi^0_3 s)
     5.19889766E-04    2     1000035         3   # BR(~s_R -> chi^0_4 s)
     1.77163952E-03    2    -1000024         4   # BR(~s_R -> chi^-_1 c)
     1.93132431E-05    2    -1000037         4   # BR(~s_R -> chi^-_2 c)
     1.09013623E-06    2     1000039         3   # BR(~s_R -> ~G s)
DECAY   1000003     2.00505914E+01   # ~s_L
#    BR                NDA      ID1      ID2
     1.71078003E-02    2     1000022         3   # BR(~s_L -> chi^0_1 s)
     3.58437760E-02    2     1000023         3   # BR(~s_L -> chi^0_2 s)
     5.68570471E-04    2     1000025         3   # BR(~s_L -> chi^0_3 s)
     2.90608892E-01    2     1000035         3   # BR(~s_L -> chi^0_4 s)
     6.68072927E-02    2    -1000024         4   # BR(~s_L -> chi^-_1 c)
     5.89063460E-01    2    -1000037         4   # BR(~s_L -> chi^-_2 c)
     5.30487510E-08    2     2000004       -24   # BR(~s_L -> ~c_R W^-)
     7.54366549E-08    2     2000003        23   # BR(~s_L -> ~s_R Z)
     7.98861931E-08    2     1000039         3   # BR(~s_L -> ~G s)
DECAY   1000005     1.23187724E+01   # ~b_1
#    BR                NDA      ID1      ID2
     1.06083166E-01    2     1000022         5   # BR(~b_1 -> chi^0_1 b)
     2.07912214E-01    2     1000023         5   # BR(~b_1 -> chi^0_2 b)
     1.70760044E-01    2     1000025         5   # BR(~b_1 -> chi^0_3 b)
     3.97007458E-03    2     1000035         5   # BR(~b_1 -> chi^0_4 b)
     4.87393525E-01    2    -1000024         6   # BR(~b_1 -> chi^-_1 t)
     2.33393443E-02    2    -1000037         6   # BR(~b_1 -> chi^-_2 t)
     5.41536972E-04    2     1000006       -24   # BR(~b_1 -> ~t_1 W^-)
     9.47451260E-08    2     1000039         5   # BR(~b_1 -> ~G b)
DECAY   2000005     4.44162604E+01   # ~b_2
#    BR                NDA      ID1      ID2
     5.49290429E-03    2     1000022         5   # BR(~b_2 -> chi^0_1 b)
     4.89070338E-02    2     1000023         5   # BR(~b_2 -> chi^0_2 b)
     5.33225261E-02    2     1000025         5   # BR(~b_2 -> chi^0_3 b)
     1.28680489E-01    2     1000035         5   # BR(~b_2 -> chi^0_4 b)
     4.32596417E-01    2    -1000024         6   # BR(~b_2 -> chi^-_1 t)
     3.23246481E-01    2    -1000037         6   # BR(~b_2 -> chi^-_2 t)
     7.75411937E-03    2     1000006       -24   # BR(~b_2 -> ~t_1 W^-)
     2.92428777E-08    2     1000039         5   # BR(~b_2 -> ~G b)
DECAY   2000002     4.66332749E+00   # ~u_R
#    BR                NDA      ID1      ID2
     9.87929693E-01    2     1000022         2   # BR(~u_R -> chi^0_1 u)
     1.10333872E-02    2     1000023         2   # BR(~u_R -> chi^0_2 u)
     5.22808123E-04    2     1000025         2   # BR(~u_R -> chi^0_3 u)
     5.13833801E-04    2     1000035         2   # BR(~u_R -> chi^0_4 u)
     5.29807039E-10    2     1000024         1   # BR(~u_R -> chi^+_1 d)
     9.35894582E-12    2     1000037         1   # BR(~u_R -> chi^+_2 d)
     2.77300774E-07    2     1000039         2   # BR(~u_R -> ~G u)
DECAY   1000002     2.01109335E+01   # ~u_L
#    BR                NDA      ID1      ID2
     1.31775124E-02    2     1000022         2   # BR(~u_L -> chi^0_1 u)
     4.61995267E-02    2     1000023         2   # BR(~u_L -> chi^0_2 u)
     2.87676052E-04    2     1000025         2   # BR(~u_L -> chi^0_3 u)
     2.83345577E-01    2     1000035         2   # BR(~u_L -> chi^0_4 u)
     9.67687132E-02    2     1000024         1   # BR(~u_L -> chi^+_1 d)
     5.60220915E-01    2     1000037         1   # BR(~u_L -> chi^+_2 d)
     7.20294440E-10    2     2000001        24   # BR(~u_L -> ~d_R W^+)
     1.27696642E-14    2     2000002        23   # BR(~u_L -> ~u_R Z)
     7.94030642E-08    2     1000039         2   # BR(~u_L -> ~G u)
DECAY   2000004     4.66419989E+00   # ~c_R
#    BR                NDA      ID1      ID2
     9.87742548E-01    2     1000022         4   # BR(~c_R -> chi^0_1 c)
     1.10769091E-02    2     1000023         4   # BR(~c_R -> chi^0_2 c)
     5.69198408E-04    2     1000025         4   # BR(~c_R -> chi^0_3 c)
     5.14459584E-04    2     1000035         4   # BR(~c_R -> chi^0_4 c)
     9.49307296E-05    2     1000024         3   # BR(~c_R -> chi^+_1 s)
     1.67669212E-06    2     1000037         3   # BR(~c_R -> chi^+_2 s)
     2.77246628E-07    2     1000039         4   # BR(~c_R -> ~G c)
DECAY   1000004     2.01133493E+01   # ~c_L
#    BR                NDA      ID1      ID2
     1.31760184E-02    2     1000022         4   # BR(~c_L -> chi^0_1 c)
     4.62014936E-02    2     1000023         4   # BR(~c_L -> chi^0_2 c)
     2.98655396E-04    2     1000025         4   # BR(~c_L -> chi^0_3 c)
     2.83312611E-01    2     1000035         4   # BR(~c_L -> chi^0_4 c)
     9.68499170E-02    2     1000024         3   # BR(~c_L -> chi^+_1 s)
     5.60160905E-01    2     1000037         3   # BR(~c_L -> chi^+_2 s)
     3.17742460E-07    2     2000003        24   # BR(~c_L -> ~s_R W^+)
     2.28196730E-09    2     2000004        23   # BR(~c_L -> ~c_R Z)
     7.93920189E-08    2     1000039         4   # BR(~c_L -> ~G c)
DECAY   1000006     4.59061549E+01   # ~t_1
#    BR                NDA      ID1      ID2
     9.53868890E-05    2     1000022         4   # BR(~t_1 -> chi^0_1 c)
     9.21870741E-02    2     1000022         6   # BR(~t_1 -> chi^0_1 t)
     3.20815001E-04    2     1000023         4   # BR(~t_1 -> chi^0_2 c)
     2.07101531E-01    2     1000023         6   # BR(~t_1 -> chi^0_2 t)
     2.32122763E-01    2     1000025         6   # BR(~t_1 -> chi^0_3 t)
     1.14455063E-02    2     1000035         6   # BR(~t_1 -> chi^0_4 t)
     4.33050164E-01    2     1000024         5   # BR(~t_1 -> chi^+_1 b)
     2.36667567E-02    2     1000037         5   # BR(~t_1 -> chi^+_2 b)
     1.83232095E-08    2     1000039         6   # BR(~t_1 -> ~G t)
#    BR                NDA      ID1      ID2       ID3
     9.98420754E-06    3     1000022        24         5   # BR(~t_1 -> chi^0_1 W^+ b)
DECAY   2000006     4.68932821E+01   # ~t_2
#    BR                NDA      ID1      ID2
     6.36094507E-03    2     1000022         6   # BR(~t_2 -> chi^0_1 t)
     2.17963682E-01    2     1000023         6   # BR(~t_2 -> chi^0_2 t)
     2.44493278E-01    2     1000025         6   # BR(~t_2 -> chi^0_3 t)
     1.65106372E-01    2     1000035         6   # BR(~t_2 -> chi^0_4 t)
     9.58570146E-02    2     1000024         5   # BR(~t_2 -> chi^+_1 b)
     2.63246885E-01    2     1000037         5   # BR(~t_2 -> chi^+_2 b)
     3.97691774E-03    2     1000006        23   # BR(~t_2 -> ~t_1 Z)
     2.99487849E-03    2     1000006        25   # BR(~t_2 -> ~t_1 h^0)
     2.73731293E-08    2     1000039         6   # BR(~t_2 -> ~G t)
DECAY   1000024     8.42406342E-01   # chi^+_1
#    BR                NDA      ID1      ID2
     4.36903760E-08    2    -2000011        12   # BR(chi^+_1 -> ~e^+_R nu_e)
     2.05341008E-03    2    -1000011        12   # BR(chi^+_1 -> ~e^+_L nu_e)
     1.86836574E-03    2    -2000013        14   # BR(chi^+_1 -> ~mu^+_R nu_mu)
     2.05180122E-03    2    -1000013        14   # BR(chi^+_1 -> ~mu^+_L nu_mu)
     5.67037229E-01    2    -1000015        16   # BR(chi^+_1 -> ~tau^+_1 nu_tau)
     1.61139031E-03    2    -2000015        16   # BR(chi^+_1 -> ~tau^+_2 nu_tau)
     4.01687726E-03    2     1000012       -11   # BR(chi^+_1 -> ~nu_e e^+)
     4.04645434E-03    2     1000014       -13   # BR(chi^+_1 -> ~nu_mu mu^+)
     1.46231678E-02    2     1000016       -15   # BR(chi^+_1 -> ~nu_tau tau^+)
     4.02351643E-01    2     1000022        24   # BR(chi^+_1 -> chi^0_1 W^+)
#    BR                NDA      ID1      ID2       ID3
     7.46103354E-09    3     1000022        -1         2   # BR(chi^+_1 -> chi^0_1 d_bar u)
     8.55695702E-09    3     1000022        -3         4   # BR(chi^+_1 -> chi^0_1 s_bar c)
     3.15164711E-04    3     1000022        -5         6   # BR(chi^+_1 -> chi^0_1 b_bar t)
     2.44484830E-12    3     1000022       -11        12   # BR(chi^+_1 -> chi^0_1 e^+ nu_e)
     1.04447802E-07    3     1000022       -13        14   # BR(chi^+_1 -> chi^0_1 mu^+ nu_mu)
     2.43323657E-05    3     1000022       -15        16   # BR(chi^+_1 -> chi^0_1 tau^+ nu_tau)
DECAY   1000037     6.17856820E+00   # chi^+_2
#    BR                NDA      ID1      ID2
     6.46534300E-11    2    -2000011        12   # BR(chi^+_2 -> ~e^+_R nu_e)
     9.23721912E-02    2    -1000011        12   # BR(chi^+_2 -> ~e^+_L nu_e)
     2.76600491E-06    2    -2000013        14   # BR(chi^+_2 -> ~mu^+_R nu_mu)
     9.23846148E-02    2    -1000013        14   # BR(chi^+_2 -> ~mu^+_L nu_mu)
     9.37255056E-04    2    -1000015        16   # BR(chi^+_2 -> ~tau^+_1 nu_tau)
     9.59570660E-02    2    -2000015        16   # BR(chi^+_2 -> ~tau^+_2 nu_tau)
     9.17754289E-02    2     1000012       -11   # BR(chi^+_2 -> ~nu_e e^+)
     9.17960939E-02    2     1000014       -13   # BR(chi^+_2 -> ~nu_mu mu^+)
     9.77251609E-02    2     1000016       -15   # BR(chi^+_2 -> ~nu_tau tau^+)
     3.59802785E-03    2     1000022        24   # BR(chi^+_2 -> chi^0_1 W^+)
     1.30755372E-01    2     1000023        24   # BR(chi^+_2 -> chi^0_2 W^+)
     9.57072545E-02    2     1000025        24   # BR(chi^+_2 -> chi^0_3 W^+)
     1.20182998E-01    2     1000024        23   # BR(chi^+_2 -> chi^+_1 Z)
     8.67754797E-02    2     1000024        25   # BR(chi^+_2 -> chi^+_1 h^0)
#    BR                NDA      ID1      ID2       ID3
     3.26669038E-09    3     1000024         2        -2   # BR(chi^+_2 -> chi^+_1 u u_bar)
     3.26298106E-09    3     1000024         4        -4   # BR(chi^+_2 -> chi^+_1 c c_bar)
     4.54991276E-09    3     1000024         1        -1   # BR(chi^+_2 -> chi^+_1 d d_bar)
     4.71114600E-09    3     1000024         3        -3   # BR(chi^+_2 -> chi^+_1 s s_bar)
     3.82217627E-07    3     1000024         5        -5   # BR(chi^+_2 -> chi^+_1 b b_bar)
     1.09707057E-06    3     1000024        11       -11   # BR(chi^+_2 -> chi^+_1 e^- e^+)
     1.10220703E-06    3     1000024        13       -13   # BR(chi^+_2 -> chi^+_1 mu^- mu^+)
     2.46245444E-06    3     1000024        15       -15   # BR(chi^+_2 -> chi^+_1 tau^- tau^+)
     2.31154493E-06    3     1000024        12       -12   # BR(chi^+_2 -> chi^+_1 nu_e nu_bar_e)
     8.84620901E-08    3     1000022        -1         2   # BR(chi^+_2 -> chi^0_1 d_bar u)
     8.84590821E-08    3     1000022        -3         4   # BR(chi^+_2 -> chi^0_1 s_bar c)
     1.96967028E-05    3     1000022        -5         6   # BR(chi^+_2 -> chi^0_1 b_bar t)
     1.20190007E-14    3     1000022       -11        12   # BR(chi^+_2 -> chi^0_1 e^+ nu_e)
     5.13848360E-10    3     1000022       -13        14   # BR(chi^+_2 -> chi^0_1 mu^+ nu_mu)
     1.45119363E-07    3     1000022       -15        16   # BR(chi^+_2 -> chi^0_1 tau^+ nu_tau)
     1.90941891E-09    3     1000023        -1         2   # BR(chi^+_2 -> chi^0_2 d_bar u)
     2.00622989E-09    3     1000023        -3         4   # BR(chi^+_2 -> chi^0_2 s_bar c)
     4.50489659E-08    3     1000023        -5         6   # BR(chi^+_2 -> chi^0_2 b_bar t)
     6.16079351E-07    3     1000023       -11        12   # BR(chi^+_2 -> chi^0_2 e^+ nu_e)
     6.18301042E-07    3     1000023       -13        14   # BR(chi^+_2 -> chi^0_2 mu^+ nu_mu)
     1.18482381E-06    3     1000023       -15        16   # BR(chi^+_2 -> chi^0_2 tau^+ nu_tau)
     3.29240693E-11    3     1000025        -1         2   # BR(chi^+_2 -> chi^0_3 d_bar u)
     7.91522116E-11    3     1000025        -3         4   # BR(chi^+_2 -> chi^0_3 s_bar c)
     6.11033135E-09    3     1000025       -11        12   # BR(chi^+_2 -> chi^0_3 e^+ nu_e)
     7.60670768E-09    3     1000025       -13        14   # BR(chi^+_2 -> chi^0_3 mu^+ nu_mu)
     4.18425482E-07    3     1000025       -15        16   # BR(chi^+_2 -> chi^0_3 tau^+ nu_tau)
DECAY   1000022     1.58331342E+00   # chi^0_1
#    BR                NDA      ID1      ID2
     1.46290583E-01    2     2000011       -11   # BR(chi^0_1 -> ~e^-_R e^+)
     1.46290583E-01    2    -2000011        11   # BR(chi^0_1 -> ~e^+_R e^-)
     1.46488962E-01    2     2000013       -13   # BR(chi^0_1 -> ~mu^-_R mu^+)
     1.46488962E-01    2    -2000013        13   # BR(chi^0_1 -> ~mu^+_R mu^-)
     2.07220455E-01    2     1000015       -15   # BR(chi^0_1 -> ~tau^-_1 tau^+)
     2.07220455E-01    2    -1000015        15   # BR(chi^0_1 -> ~tau^+_1 tau^-)
     2.58766574E-10    2     1000039        22   # BR(chi^0_1 -> ~G photon)
     7.75543597E-11    2     1000039        23   # BR(chi^0_1 -> ~G Z)
     1.58533018E-12    2     1000039        25   # BR(chi^0_1 -> ~G h^0)
DECAY   1000023     9.63763950E-01   # chi^0_2
#    BR                NDA      ID1      ID2
     1.55289143E-02    2     2000011       -11   # BR(chi^0_2 -> ~e^-_R e^+)
     1.55289143E-02    2    -2000011        11   # BR(chi^0_2 -> ~e^+_R e^-)
     1.75793402E-03    2     1000011       -11   # BR(chi^0_2 -> ~e^-_L e^+)
     1.75793402E-03    2    -1000011        11   # BR(chi^0_2 -> ~e^+_L e^-)
     1.63306185E-02    2     2000013       -13   # BR(chi^0_2 -> ~mu^-_R mu^+)
     1.63306185E-02    2    -2000013        13   # BR(chi^0_2 -> ~mu^+_R mu^-)
     1.76681462E-03    2     1000013       -13   # BR(chi^0_2 -> ~mu^-_L mu^+)
     1.76681462E-03    2    -1000013        13   # BR(chi^0_2 -> ~mu^+_L mu^-)
     2.61435508E-01    2     1000015       -15   # BR(chi^0_2 -> ~tau^-_1 tau^+)
     2.61435508E-01    2    -1000015        15   # BR(chi^0_2 -> ~tau^+_1 tau^-)
     4.55141055E-03    2     2000015       -15   # BR(chi^0_2 -> ~tau^-_2 tau^+)
     4.55141055E-03    2    -2000015        15   # BR(chi^0_2 -> ~tau^+_2 tau^-)
     1.06060486E-03    2     1000012       -12   # BR(chi^0_2 -> ~nu_e nu_bar_e)
     1.06060486E-03    2    -1000012        12   # BR(chi^0_2 -> ~nu^*_e nu_e)
     1.06165144E-03    2     1000014       -14   # BR(chi^0_2 -> ~nu_mu nu_bar_mu)
     1.06165144E-03    2    -1000014        14   # BR(chi^0_2 -> ~nu^*_mu nu_mu)
     1.37460760E-03    2     1000016       -16   # BR(chi^0_2 -> ~nu_tau nu_bar_tau)
     1.37460760E-03    2    -1000016        16   # BR(chi^0_2 -> ~nu^*_tau nu_tau)
     2.03774127E-02    2     1000022        23   # BR(chi^0_2 -> chi^0_1 Z)
     3.69854191E-01    2     1000022        25   # BR(chi^0_2 -> chi^0_1 h^0)
     4.02773063E-10    2     1000039        22   # BR(chi^0_2 -> ~G photon)
     6.48922443E-11    2     1000039        23   # BR(chi^0_2 -> ~G Z)
     2.67694313E-09    2     1000039        25   # BR(chi^0_2 -> ~G h^0)
     5.21149880E-07    2     1000022        22   # BR(chi^0_2 -> chi^0_1 photon)
#    BR                NDA      ID1      ID2       ID3
     7.81576789E-09    3     1000022         2        -2   # BR(chi^0_2 -> chi^0_1 u u_bar)
     7.82464889E-09    3     1000022         4        -4   # BR(chi^0_2 -> chi^0_1 c c_bar)
     3.67705332E-09    3     1000022         1        -1   # BR(chi^0_2 -> chi^0_1 d d_bar)
     4.88784690E-09    3     1000022         3        -3   # BR(chi^0_2 -> chi^0_1 s s_bar)
     2.79887799E-06    3     1000022         5        -5   # BR(chi^0_2 -> chi^0_1 b b_bar)
     2.88568629E-06    3     1000022        11       -11   # BR(chi^0_2 -> chi^0_1 e^- e^+)
     2.97167914E-06    3     1000022        13       -13   # BR(chi^0_2 -> chi^0_1 mu^- mu^+)
     2.30643402E-05    3     1000022        15       -15   # BR(chi^0_2 -> chi^0_1 tau^- tau^+)
     1.05725873E-11    3     1000024         1        -2   # BR(chi^0_2 -> chi^+_1 d u_bar)
     1.05725873E-11    3    -1000024        -1         2   # BR(chi^0_2 -> chi^-_1 d_bar u)
     6.96725348E-13    3     1000024         3        -4   # BR(chi^0_2 -> chi^+_1 s c_bar)
     6.96725348E-13    3    -1000024        -3         4   # BR(chi^0_2 -> chi^-_1 s_bar c)
     3.42977935E-12    3     1000024        11       -12   # BR(chi^0_2 -> chi^+_1 e^- nu_bar_e)
     3.42977935E-12    3    -1000024       -11        12   # BR(chi^0_2 -> chi^-_1 e^+ nu_e)
     3.37377637E-12    3     1000024        13       -14   # BR(chi^0_2 -> chi^+_1 mu^- nu_bar_mu)
     3.37377637E-12    3    -1000024       -13        14   # BR(chi^0_2 -> chi^-_1 mu^+ nu_mu)
DECAY   1000025     8.98176820E-01   # chi^0_3
#    BR                NDA      ID1      ID2
     8.45293989E-04    2     2000011       -11   # BR(chi^0_3 -> ~e^-_R e^+)
     8.45293989E-04    2    -2000011        11   # BR(chi^0_3 -> ~e^+_R e^-)
     1.02099988E-05    2     1000011       -11   # BR(chi^0_3 -> ~e^-_L e^+)
     1.02099988E-05    2    -1000011        11   # BR(chi^0_3 -> ~e^+_L e^-)
     1.71468367E-03    2     2000013       -13   # BR(chi^0_3 -> ~mu^-_R mu^+)
     1.71468367E-03    2    -2000013        13   # BR(chi^0_3 -> ~mu^+_R mu^-)
     3.53086357E-05    2     1000013       -13   # BR(chi^0_3 -> ~mu^-_L mu^+)
     3.53086357E-05    2    -1000013        13   # BR(chi^0_3 -> ~mu^+_L mu^-)
     2.67092766E-01    2     1000015       -15   # BR(chi^0_3 -> ~tau^-_1 tau^+)
     2.67092766E-01    2    -1000015        15   # BR(chi^0_3 -> ~tau^+_1 tau^-)
     7.73466924E-03    2     2000015       -15   # BR(chi^0_3 -> ~tau^-_2 tau^+)
     7.73466924E-03    2    -2000015        15   # BR(chi^0_3 -> ~tau^+_2 tau^-)
     7.69179678E-05    2     1000012       -12   # BR(chi^0_3 -> ~nu_e nu_bar_e)
     7.69179678E-05    2    -1000012        12   # BR(chi^0_3 -> ~nu^*_e nu_e)
     7.69671571E-05    2     1000014       -14   # BR(chi^0_3 -> ~nu_mu nu_bar_mu)
     7.69671571E-05    2    -1000014        14   # BR(chi^0_3 -> ~nu^*_mu nu_mu)
     9.13411810E-05    2     1000016       -16   # BR(chi^0_3 -> ~nu_tau nu_bar_tau)
     9.13411810E-05    2    -1000016        16   # BR(chi^0_3 -> ~nu^*_tau nu_tau)
     4.25726743E-01    2     1000022        23   # BR(chi^0_3 -> chi^0_1 Z)
     1.88723808E-02    2     1000022        25   # BR(chi^0_3 -> chi^0_1 h^0)
     1.95333471E-13    2     1000039        22   # BR(chi^0_3 -> ~G photon)
     6.44407285E-10    2     1000039        23   # BR(chi^0_3 -> ~G Z)
     3.30680960E-09    2     1000039        25   # BR(chi^0_3 -> ~G h^0)
     4.23733075E-07    2     1000022        22   # BR(chi^0_3 -> chi^0_1 photon)
     2.89216380E-09    2     1000023        22   # BR(chi^0_3 -> chi^0_2 photon)
#    BR                NDA      ID1      ID2       ID3
     1.22689899E-10    3     1000022         2        -2   # BR(chi^0_3 -> chi^0_1 u u_bar)
     1.43571538E-10    3     1000022         4        -4   # BR(chi^0_3 -> chi^0_1 c c_bar)
     3.69272142E-11    3     1000022         1        -1   # BR(chi^0_3 -> chi^0_1 d d_bar)
     1.74361480E-09    3     1000022         3        -3   # BR(chi^0_3 -> chi^0_1 s s_bar)
     3.92667383E-06    3     1000022         5        -5   # BR(chi^0_3 -> chi^0_1 b b_bar)
     7.05942531E-08    3     1000022        11       -11   # BR(chi^0_3 -> chi^0_1 e^- e^+)
     1.87391894E-07    3     1000022        13       -13   # BR(chi^0_3 -> chi^0_1 mu^- mu^+)
     2.77056148E-05    3     1000022        15       -15   # BR(chi^0_3 -> chi^0_1 tau^- tau^+)
     3.00484362E-07    3     1000023         2        -2   # BR(chi^0_3 -> chi^0_2 u u_bar)
     2.92547856E-07    3     1000023         4        -4   # BR(chi^0_3 -> chi^0_2 c c_bar)
     3.89941941E-07    3     1000023         1        -1   # BR(chi^0_3 -> chi^0_2 d d_bar)
     3.89849193E-07    3     1000023         3        -3   # BR(chi^0_3 -> chi^0_2 s s_bar)
     2.55899974E-07    3     1000023         5        -5   # BR(chi^0_3 -> chi^0_2 b b_bar)
     8.96767189E-08    3     1000023        11       -11   # BR(chi^0_3 -> chi^0_2 e^- e^+)
     8.96510453E-08    3     1000023        13       -13   # BR(chi^0_3 -> chi^0_2 mu^- mu^+)
     8.20483947E-08    3     1000023        15       -15   # BR(chi^0_3 -> chi^0_2 tau^- tau^+)
     5.35752384E-07    3     1000023        12       -12   # BR(chi^0_3 -> chi^0_2 nu_e nu_bar_e)
     1.65185582E-06    3     1000024         1        -2   # BR(chi^0_3 -> chi^+_1 d u_bar)
     1.65185582E-06    3    -1000024        -1         2   # BR(chi^0_3 -> chi^-_1 d_bar u)
     1.62301721E-06    3     1000024         3        -4   # BR(chi^0_3 -> chi^+_1 s c_bar)
     1.62301721E-06    3    -1000024        -3         4   # BR(chi^0_3 -> chi^-_1 s_bar c)
     5.49960206E-07    3     1000024        11       -12   # BR(chi^0_3 -> chi^+_1 e^- nu_bar_e)
     5.49960206E-07    3    -1000024       -11        12   # BR(chi^0_3 -> chi^-_1 e^+ nu_e)
     5.49957808E-07    3     1000024        13       -14   # BR(chi^0_3 -> chi^+_1 mu^- nu_bar_mu)
     5.49957808E-07    3    -1000024       -13        14   # BR(chi^0_3 -> chi^-_1 mu^+ nu_mu)
     5.31155946E-07    3     1000024        15       -16   # BR(chi^0_3 -> chi^+_1 tau^- nu_bar_tau)
     5.31155946E-07    3    -1000024       -15        16   # BR(chi^0_3 -> chi^-_1 tau^+ nu_tau)
DECAY   1000035     6.17770104E+00   # chi^0_4
#    BR                NDA      ID1      ID2
     1.97866385E-04    2     2000011       -11   # BR(chi^0_4 -> ~e^-_R e^+)
     1.97866385E-04    2    -2000011        11   # BR(chi^0_4 -> ~e^+_R e^-)
     4.36270174E-02    2     1000011       -11   # BR(chi^0_4 -> ~e^-_L e^+)
     4.36270174E-02    2    -1000011        11   # BR(chi^0_4 -> ~e^+_L e^-)
     1.98732108E-04    2     2000013       -13   # BR(chi^0_4 -> ~mu^-_R mu^+)
     1.98732108E-04    2    -2000013        13   # BR(chi^0_4 -> ~mu^+_R mu^-)
     4.36366190E-02    2     1000013       -13   # BR(chi^0_4 -> ~mu^-_L mu^+)
     4.36366190E-02    2    -1000013        13   # BR(chi^0_4 -> ~mu^+_L mu^-)
     5.80627433E-04    2     1000015       -15   # BR(chi^0_4 -> ~tau^-_1 tau^+)
     5.80627433E-04    2    -1000015        15   # BR(chi^0_4 -> ~tau^+_1 tau^-)
     4.63817118E-02    2     2000015       -15   # BR(chi^0_4 -> ~tau^-_2 tau^+)
     4.63817118E-02    2    -2000015        15   # BR(chi^0_4 -> ~tau^+_2 tau^-)
     4.83710944E-02    2     1000012       -12   # BR(chi^0_4 -> ~nu_e nu_bar_e)
     4.83710944E-02    2    -1000012        12   # BR(chi^0_4 -> ~nu^*_e nu_e)
     4.83782580E-02    2     1000014       -14   # BR(chi^0_4 -> ~nu_mu nu_bar_mu)
     4.83782580E-02    2    -1000014        14   # BR(chi^0_4 -> ~nu^*_mu nu_mu)
     5.04025217E-02    2     1000016       -16   # BR(chi^0_4 -> ~nu_tau nu_bar_tau)
     5.04025217E-02    2    -1000016        16   # BR(chi^0_4 -> ~nu^*_tau nu_tau)
     1.30109415E-01    2     1000024       -24   # BR(chi^0_4 -> chi^+_1 W^-)
     1.30109415E-01    2    -1000024        24   # BR(chi^0_4 -> chi^-_1 W^+)
     4.00140259E-04    2     1000022        23   # BR(chi^0_4 -> chi^0_1 Z)
     1.56280800E-03    2     1000023        23   # BR(chi^0_4 -> chi^0_2 Z)
     8.31796102E-02    2     1000025        23   # BR(chi^0_4 -> chi^0_3 Z)
     3.79376469E-03    2     1000022        25   # BR(chi^0_4 -> chi^0_1 h^0)
     8.69012053E-02    2     1000023        25   # BR(chi^0_4 -> chi^0_2 h^0)
     3.80375396E-04    2     1000025        25   # BR(chi^0_4 -> chi^0_3 h^0)
     5.38627155E-10    2     1000039        22   # BR(chi^0_4 -> ~G photon)
     2.53209578E-09    2     1000039        23   # BR(chi^0_4 -> ~G Z)
     1.90256396E-10    2     1000039        25   # BR(chi^0_4 -> ~G h^0)
     2.60685414E-07    2     1000022        22   # BR(chi^0_4 -> chi^0_1 photon)
     1.02506949E-06    2     1000023        22   # BR(chi^0_4 -> chi^0_2 photon)
     8.71895534E-07    2     1000025        22   # BR(chi^0_4 -> chi^0_3 photon)
#    BR                NDA      ID1      ID2       ID3
     3.85279660E-08    3     1000022         2        -2   # BR(chi^0_4 -> chi^0_1 u u_bar)
     3.85226371E-08    3     1000022         4        -4   # BR(chi^0_4 -> chi^0_1 c c_bar)
     1.46582537E-06    3     1000022         6        -6   # BR(chi^0_4 -> chi^0_1 t t_bar)
     5.02851488E-08    3     1000022         1        -1   # BR(chi^0_4 -> chi^0_1 d d_bar)
     5.02920848E-08    3     1000022         3        -3   # BR(chi^0_4 -> chi^0_1 s s_bar)
     7.38814993E-08    3     1000022         5        -5   # BR(chi^0_4 -> chi^0_1 b b_bar)
     1.16436501E-07    3     1000022        11       -11   # BR(chi^0_4 -> chi^0_1 e^- e^+)
     1.16522652E-07    3     1000022        13       -13   # BR(chi^0_4 -> chi^0_1 mu^- mu^+)
     1.85244295E-07    3     1000022        15       -15   # BR(chi^0_4 -> chi^0_1 tau^- tau^+)
     3.12560883E-09    3     1000023         2        -2   # BR(chi^0_4 -> chi^0_2 u u_bar)
     3.12258819E-09    3     1000023         4        -4   # BR(chi^0_4 -> chi^0_2 c c_bar)
     2.45745821E-09    3     1000023         1        -1   # BR(chi^0_4 -> chi^0_2 d d_bar)
     2.52246802E-09    3     1000023         3        -3   # BR(chi^0_4 -> chi^0_2 s s_bar)
     1.53663613E-07    3     1000023         5        -5   # BR(chi^0_4 -> chi^0_2 b b_bar)
     9.45521789E-07    3     1000023        11       -11   # BR(chi^0_4 -> chi^0_2 e^- e^+)
     9.47879220E-07    3     1000023        13       -13   # BR(chi^0_4 -> chi^0_2 mu^- mu^+)
     1.54853348E-06    3     1000023        15       -15   # BR(chi^0_4 -> chi^0_2 tau^- tau^+)
     1.21443314E-06    3     1000023        12       -12   # BR(chi^0_4 -> chi^0_2 nu_e nu_bar_e)
     3.96416908E-12    3     1000025         2        -2   # BR(chi^0_4 -> chi^0_3 u u_bar)
     4.22429318E-12    3     1000025         4        -4   # BR(chi^0_4 -> chi^0_3 c c_bar)
     7.31545032E-12    3     1000025         1        -1   # BR(chi^0_4 -> chi^0_3 d d_bar)
     6.00438922E-11    3     1000025         3        -3   # BR(chi^0_4 -> chi^0_3 s s_bar)
     1.21711222E-07    3     1000025         5        -5   # BR(chi^0_4 -> chi^0_3 b b_bar)
     3.69210347E-10    3     1000025        11       -11   # BR(chi^0_4 -> chi^0_3 e^- e^+)
     1.69732114E-09    3     1000025        13       -13   # BR(chi^0_4 -> chi^0_3 mu^- mu^+)
     3.66374331E-07    3     1000025        15       -15   # BR(chi^0_4 -> chi^0_3 tau^- tau^+)
     6.60903057E-09    3     1000025        12       -12   # BR(chi^0_4 -> chi^0_3 nu_e nu_bar_e)
     2.00501906E-09    3     1000024         1        -2   # BR(chi^0_4 -> chi^+_1 d u_bar)
     2.00501906E-09    3    -1000024        -1         2   # BR(chi^0_4 -> chi^-_1 d_bar u)
     2.09760681E-09    3     1000024         3        -4   # BR(chi^0_4 -> chi^+_1 s c_bar)
     2.09760681E-09    3    -1000024        -3         4   # BR(chi^0_4 -> chi^-_1 s_bar c)
     1.00022463E-07    3     1000024         5        -6   # BR(chi^0_4 -> chi^+_1 b t_bar)
     1.00022463E-07    3    -1000024        -5         6   # BR(chi^0_4 -> chi^-_1 b_bar t)
     5.85784432E-07    3     1000024        11       -12   # BR(chi^0_4 -> chi^+_1 e^- nu_bar_e)
     5.85784432E-07    3    -1000024       -11        12   # BR(chi^0_4 -> chi^-_1 e^+ nu_e)
     5.87885695E-07    3     1000024        13       -14   # BR(chi^0_4 -> chi^+_1 mu^- nu_bar_mu)
     5.87885695E-07    3    -1000024       -13        14   # BR(chi^0_4 -> chi^-_1 mu^+ nu_mu)
     1.09935164E-06    3     1000024        15       -16   # BR(chi^0_4 -> chi^+_1 tau^- nu_bar_tau)
     1.09935164E-06    3    -1000024       -15        16   # BR(chi^0_4 -> chi^-_1 tau^+ nu_tau)
DECAY   1000021     1.11819955E+01   # ~g
#    BR                NDA      ID1      ID2
     4.80393325E-02    2     2000002        -2   # BR(~g -> ~u_R u_bar)
     4.80393325E-02    2    -2000002         2   # BR(~g -> ~u^*_R u)
     1.17041167E-02    2     1000002        -2   # BR(~g -> ~u_L u_bar)
     1.17041167E-02    2    -1000002         2   # BR(~g -> ~u^*_L u)
     4.80388696E-02    2     2000004        -4   # BR(~g -> ~c_R c_bar)
     4.80388696E-02    2    -2000004         4   # BR(~g -> ~c^*_R c)
     1.17054937E-02    2     1000004        -4   # BR(~g -> ~c_L c_bar)
     1.17054937E-02    2    -1000004         4   # BR(~g -> ~c^*_L c)
     3.14980945E-03    2     1000006        -4   # BR(~g -> ~t_1 c_bar)
     3.14980945E-03    2    -1000006         4   # BR(~g -> ~t^*_1 c)
     1.22182924E-01    2     1000006        -6   # BR(~g -> ~t_1 t_bar)
     1.22182924E-01    2    -1000006         6   # BR(~g -> ~t^*_1 t)
     8.36285926E-03    2     2000006        -6   # BR(~g -> ~t_2 t_bar)
     8.36285926E-03    2    -2000006         6   # BR(~g -> ~t^*_2 t)
     5.21044067E-02    2     2000001        -1   # BR(~g -> ~d_R d_bar)
     5.21044067E-02    2    -2000001         1   # BR(~g -> ~d^*_R d)
     1.13413411E-02    2     1000001        -1   # BR(~g -> ~d_L d_bar)
     1.13413411E-02    2    -1000001         1   # BR(~g -> ~d^*_L d)
     5.21121895E-02    2     2000003        -3   # BR(~g -> ~s_R s_bar)
     5.21121895E-02    2    -2000003         3   # BR(~g -> ~s^*_R s)
     1.13434030E-02    2     1000003        -3   # BR(~g -> ~s_L s_bar)
     1.13434030E-02    2    -1000003         3   # BR(~g -> ~s^*_L s)
     7.20632649E-02    2     1000005        -5   # BR(~g -> ~b_1 b_bar)
     7.20632649E-02    2    -1000005         5   # BR(~g -> ~b^*_1 b)
     4.76381183E-02    2     2000005        -5   # BR(~g -> ~b_2 b_bar)
     4.76381183E-02    2    -2000005         5   # BR(~g -> ~b^*_2 b)
     3.84401689E-06    2     1000022        21   # BR(~g -> chi^0_1 g)
     1.69672267E-04    2     1000023        21   # BR(~g -> chi^0_2 g)
     2.15056044E-04    2     1000025        21   # BR(~g -> chi^0_3 g)
     3.91705859E-05    2     1000035        21   # BR(~g -> chi^0_4 g)
DECAY        25     2.62222341E-03   # h^0
#    BR                NDA      ID1      ID2
     9.49305692E-09    2          11       -11   # BR(h^0 -> e^- e^+)
     4.05840980E-04    2          13       -13   # BR(h^0 -> mu^- mu^+)
     1.13678474E-01    2          15       -15   # BR(h^0 -> tau^- tau^+)
     6.49991368E-07    2           1        -1   # BR(h^0 -> d d_bar)
     2.86643857E-04    2           3        -3   # BR(h^0 -> s s_bar)
     6.24718402E-01    2           5        -5   # BR(h^0 -> b b_bar)
     2.53751914E-07    2           2        -2   # BR(h^0 -> u u_bar)
     4.54658614E-02    2           4        -4   # BR(h^0 -> c c_bar)
     6.83960852E-02    2          21        21   # BR(h^0 -> g g)
     3.26069669E-03    2          22        22   # BR(h^0 -> photon photon)
# writing decays into V V* as 3-body decays
#    BR                NDA      ID1      ID2       ID3
     6.59606899E-03    3          24        11        12   # BR(h^0 -> W^+ e^- nu_e)
     6.59606899E-03    3          24        13        14   # BR(h^0 -> W^+ mu^- nu_mu)
     6.59606899E-03    3          24        15        16   # BR(h^0 -> W^+ tau^- nu_tau)
     2.30862415E-02    3          24         1        -2   # BR(h^0 -> W^+ d u_bar)
     2.30862415E-02    3          24         3        -4   # BR(h^0 -> W^+ s c_bar)
     6.59606899E-03    3         -24       -11       -12   # BR(h^0 -> W^- e^+ nu_bar_e)
     6.59606899E-03    3         -24       -13       -14   # BR(h^0 -> W^- mu^+ nu_bar_mu)
     6.59606899E-03    3         -24       -15       -16   # BR(h^0 -> W^- tau^+ nu_bar_tau)
     2.30862415E-02    3         -24        -1         2   # BR(h^0 -> W^- d_bar u)
     2.30862415E-02    3         -24        -3         4   # BR(h^0 -> W^- s_bar c)
     4.15299604E-04    3          23        11       -11   # BR(h^0 -> Z e^- e^+)
     4.15299604E-04    3          23        13       -13   # BR(h^0 -> Z mu^- mu^+)
     3.55971089E-04    3          23        15       -15   # BR(h^0 -> Z tau^- tau^+)
     2.37314059E-03    3          23        12       -12   # BR(h^0 -> Z nu_e nu_bar_e)
     1.66119842E-03    3          23         1        -1   # BR(h^0 -> Z u u_bar)
     1.66119842E-03    3          23         3        -3   # BR(h^0 -> Z c c_bar)
     1.66119842E-03    3          23         5        -5   # BR(h^0 -> Z t t_bar)
     1.66119842E-03    3          23         2        -2   # BR(h^0 -> Z u u_bar)
     1.66119842E-03    3          23         4        -4   # BR(h^0 -> Z c c_bar)
DECAY        35     1.01740354E+01   # H^0
#    BR                NDA      ID1      ID2
     1.43357048E-08    2          11       -11   # BR(H^0 -> e^- e^+)
     6.12897030E-04    2          13       -13   # BR(H^0 -> mu^- mu^+)
     1.73760172E-01    2          15       -15   # BR(H^0 -> tau^- tau^+)
     8.15132684E-07    2           1        -1   # BR(H^0 -> d d_bar)
     3.59473311E-04    2           3        -3   # BR(H^0 -> s s_bar)
     8.20363210E-01    2           5        -5   # BR(H^0 -> b b_bar)
     5.34393582E-13    2           2        -2   # BR(H^0 -> u u_bar)
     9.57694438E-08    2           4        -4   # BR(H^0 -> c c_bar)
     4.63498912E-03    2           6        -6   # BR(H^0 -> t t_bar)
     1.87040248E-06    2     2000011  -2000011   # BR(H^0 -> ~e^-_R ~e^+_R)
     1.88554282E-06    2     2000013  -2000013   # BR(H^0 -> ~mu^-_R ~mu^+_R)
     8.14722012E-06    2     1000015  -1000015   # BR(H^0 -> ~tau^-_1 ~tau^+_1)
     5.40670210E-05    2          23        23   # BR(H^0 -> Z Z)
     1.03653188E-04    2          24       -24   # BR(H^0 -> W^+ W^-)
     5.38196913E-05    2          25        25   # BR(H^0 -> h^0 h^0)
     4.48400249E-05    2          21        21   # BR(H^0 -> g g)
     4.98091736E-08    2          22        22   # BR(H^0 -> photon photon)
DECAY        36     1.01730861E+01   # A^0
#    BR                NDA      ID1      ID2
     1.43381172E-08    2          11       -11   # BR(A^0 -> e^- e^+)
     6.13000205E-04    2          13       -13   # BR(A^0 -> mu^- mu^+)
     1.73792056E-01    2          15       -15   # BR(A^0 -> tau^- tau^+)
     8.15269298E-07    2           1        -1   # BR(A^0 -> d d_bar)
     3.59533540E-04    2           3        -3   # BR(A^0 -> s s_bar)
     8.20511015E-01    2           5        -5   # BR(A^0 -> b b_bar)
     4.72077575E-13    2           2        -2   # BR(A^0 -> u u_bar)
     8.46016758E-08    2           4        -4   # BR(A^0 -> c c_bar)
     4.60298955E-03    2           6        -6   # BR(A^0 -> t t_bar)
     1.00749888E-04    2          25        23   # BR(A^0 -> h^0 Z)
     1.96833470E-05    2          21        21   # BR(A^0 -> g g)
     5.80143545E-08    2          22        22   # BR(A^0 -> photon photon)
DECAY        37     8.69695413E+00   # H^+
#    BR                NDA      ID1      ID2
     1.68457881E-08    2         -11        12   # BR(H^+ -> e^+ nu_e)
     7.20211125E-04    2         -13        12   # BR(H^+ -> mu^+ nu_e)
     2.04187502E-01    2         -15        12   # BR(H^+ -> tau^+ nu_e)
     8.44115038E-07    2          -1         2   # BR(H^+ -> d_bar u)
     3.72340448E-04    2          -3         4   # BR(H^+ -> s_bar c)
     7.94602037E-01    2          -5         6   # BR(H^+ -> b_bar t)
     1.17048737E-04    2          25        24   # BR(H^+ -> h^0 W^+)
DECAY         6     2.43000000E+00   # top
#    BR                NDA      ID1      ID2
     1.00000000E+00    2           5        24   # BR(t -> b W)
Block HiggsBoundsInputHiggsCouplingsFermions
# ScalarNormEffCoupSq PseudoSNormEffCoupSq NP IP1 IP2 IP2
    1.13202734E+00    0.00000000E+00        3  25   5   5  # h0-b-b eff. coupling^2, normalised to SM
    8.99867973E+02    0.00000000E+00        3  35   5   5  # H0-b-b eff. coupling^2, normalised to SM
    0.00000000E+00    9.00000000E+02        3  36   5   5  # A0-b-b eff. coupling^2, normalised to SM
#
    9.99853303E-01    0.00000000E+00        3  25   6   6  # h0-t-t eff. coupling^2, normalised to SM
    1.25780815E-03    0.00000000E+00        3  35   6   6  # H0-t-t eff. coupling^2, normalised to SM
    0.00000000E+00    1.11111111E-03        3  36   6   6  # A0-t-t eff. coupling^2, normalised to SM
#
    1.13202734E+00    0.00000000E+00        3  25  15  15  # h0-tau-tau eff. coupling^2, normalised to SM
    8.99867973E+02    0.00000000E+00        3  35  15  15  # H0-tau-tau eff. coupling^2, normalised to SM
    0.00000000E+00    9.00000000E+02        3  36  15  15  # A0-tau-tau eff. coupling^2, normalised to SM
#
Block HiggsBoundsInputHiggsCouplingsBosons
    9.99995453E-01        3  25  24  24  # h0-W-W eff. coupling^2, normalised to SM
    4.54684647E-06        3  35  24  24  # H0-W-W eff. coupling^2, normalised to SM
    0.00000000E+00        3  36  24  24  # A0-W-W eff. coupling^2, normalised to SM
#
    9.99995453E-01        3  25  23  23  # h0-Z-Z eff. coupling^2, normalised to SM
    4.54684647E-06        3  35  23  23  # H0-Z-Z eff. coupling^2, normalised to SM
    0.00000000E+00        3  36  23  23  # A0-Z-Z eff. coupling^2, normalised to SM
#
    1.16190392E+00        3  25  21  21  # h0-g-g eff. coupling^2, normalised to SM
    1.28561403E-02        3  35  21  21  # H0-g-g eff. coupling^2, normalised to SM
    1.30942465E-01        3  36  21  21  # A0-g-g eff. coupling^2, normalised to SM
#
    0.00000000E+00        3  25  25  23  # h0-h0-Z eff. coupling^2, normalised to SM
    0.00000000E+00        3  35  25  23  # H0-h0-Z eff. coupling^2, normalised to SM
    4.54684647E-06        3  36  25  23  # A0-h0-Z eff. coupling^2, normalised to SM
    0.00000000E+00        3  35  35  23  # H0-H0-Z eff. coupling^2, normalised to SM
    9.99995453E-01        3  36  35  23  # A0-H0-Z eff. coupling^2, normalised to SM
    0.00000000E+00        3  36  36  23  # A0-A0-Z eff. coupling^2, normalised to SM
#
    0.00000000E+00        4  25  21  21  23  # h0-g-g-Z eff. coupling^2, normalised to SM
    0.00000000E+00        4  35  21  21  23  # H0-g-g-Z eff. coupling^2, normalised to SM
    0.00000000E+00        4  36  21  21  23  # A0-g-g-Z eff. coupling^2, normalised to SM
Block SPhenoLowEnergy  # low energy observables
    1    3.15998242E-04   # BR(b -> s gamma)
    2    1.58964654E-06   # BR(b -> s mu+ mu-)
    3    3.53824132E-05   # BR(b -> s nu nu)
    4    5.20191783E-11   # BR(Bd -> mu+ mu-)
    5    3.40005194E-09   # BR(Bs -> mu+ mu-)
    6    1.06304561E-04   # BR(B_u -> tau nu)
    7    9.61220412E-01   # BR(B_u -> tau nu)/BR(B_u -> tau nu)_SM
    8    2.73644428E-01   # |Delta(M_Bd)| [ps^-1] 
    9    2.02978340E+01   # |Delta(M_Bs)| [ps^-1] 
   20    2.60391365E-14   # Delta(g-2)_electron/2
   21    5.61826614E-10   # Delta(g-2)_muon/2
   22    4.48531138E-08   # Delta(g-2)_tau/2
   23    0.00000000E+00   # electric dipole moment of the electron
   24    0.00000000E+00   # electric dipole moment of the muon
   25    0.00000000E+00   # electric dipole moment of the tau
   26    0.00000000E+00   # Br(mu -> e gamma)
   27    0.00000000E+00   # Br(tau -> e gamma)
   28    0.00000000E+00   # Br(tau -> mu gamma)
   29    0.00000000E+00   # Br(mu -> 3 e)
   30    0.00000000E+00   # Br(tau -> 3 e)
   31    0.00000000E+00   # Br(tau -> 3 mu)
   39    7.57712156E-04   # Delta(rho_parameter)
   40    0.00000000E+00   # BR(Z -> e mu)
   41    0.00000000E+00   # BR(Z -> e tau)
   42    0.00000000E+00   # BR(Z -> mu tau)
Block FWCOEF Q=  9.11876000E+01  # Wilson coefficients at scale Q
#    id        order  M        value         comment
Block FWCOEF Q=  1.60000000E+02  # Wilson coefficients at scale Q
#    id        order  M        value         comment
     0305 4422   00   0    -1.87760317E-01   # C7
     0305 4422   00   1    -1.65188721E-02   # C7
     0305 4322   00   1    -3.58224059E-04   # C7'
     0305 6421   00   0    -9.48903111E-02   # C8
     0305 6421   00   1    -2.62505686E-02   # C8
     0305 6321   00   1    -5.61753370E-04   # C8'
 03051111 4133   00   0    -1.11055962E+00   # C9 e+e-
 03051111 4133   00   1     1.09990201E-03   # C9 e+e-
 03051111 4233   00   1    -3.97740030E-05   # C9' e+e-
 03051111 4137   00   0    -3.95578250E+00   # C10 e+e-
 03051111 4137   00   1     3.75029608E-03   # C10 e+e-
 03051111 4237   00   1     9.69463851E-04   # C10' e+e-
 03051313 4133   00   0    -1.11055962E+00   # C9 mu+mu-
 03051313 4133   00   1     1.09977209E-03   # C9 mu+mu-
 03051313 4233   00   1    -3.97798791E-05   # C9' mu+mu-
 03051313 4137   00   0    -3.95578250E+00   # C10 mu+mu-
 03051313 4137   00   1     3.75016593E-03   # C10 mu+mu-
 03051313 4237   00   1     9.69469729E-04   # C10' mu+mu-
 03051212 4237   00   0     1.49018784E+00   # C11 nu_1 nu_1
 03051212 4237   00   1    -9.01950006E-04   # C11 nu_1 nu_1
 03051212 4137   00   1    -2.32527057E-04   # C11' nu_1 nu_1
 03051414 4237   00   0     1.49018784E+00   # C11 nu_2 nu_2
 03051414 4237   00   1    -9.01949899E-04   # C11 nu_2 nu_2
 03051414 4137   00   1    -2.32525662E-04   # C11' nu_2 nu_2
 03051616 4237   00   0     1.49018784E+00   # C11 nu_3 nu_3
 03051616 4237   00   1    -9.01906222E-04   # C11 nu_3 nu_3
 03051616 4137   00   1    -2.32132443E-04   # C11' nu_3 nu_3
