# SUSY Les Houches Accord 2 - MSSM spectrum + Decays
# SPheno v3.1.12 
# W. Porod, Comput. Phys. Commun. 153 (2003) 275-315, hep-ph/0301101
# in case of problems send email to porod@physik.uni-wuerzburg.de
# Created: 23.11.2012,  13:30
Block SPINFO         # Program information
     1   SPheno      # spectrum calculator
     2   v3.1.12     # version number
#
Block SPhenoINFO     # SPheno specific information
    1      2         # using 2-loop RGEs
    2      1         # using running masses for boundary conditions at mZ
Block MODSEL  # Model selection
    1    2    # mGMSB model
Block MINPAR  # Input parameters
    1    1.20000000E+05  # Lambda, scale of SUSY breaking
    2    2.50000000E+05  # M_M, messenger mass scale
    3    6.00000000E+01  # tanb at m_Z   
    4    1.00000000E+00  # Sign(mu)
    5    3.00000000E+00  # N_5 number of effective five-plets
    6    1.00000000E+00  # c_grav, Gravitino mass factor
Block gauge Q=  2.50000000E+05  # (GMSB scale)
   1    4.93345804E-01  # g'(Q)^DRbar
   2    6.47843462E-01  # g(Q)^DRbar
   3    9.36402217E-01  # g3(Q)^DRbar
Block SMINPUTS  # SM parameters
         1     1.27932544E+02  # alpha_em^-1(MZ)^MSbar
         2     1.16639000E-05  # G_mu [GeV^-2]
         3     1.17200000E-01  # alpha_s(MZ)^MSbar
         4     9.11876000E+01  # m_Z(pole)
         5     4.20000000E+00  # m_b(m_b), MSbar
         6     1.72500000E+02  # m_t(pole)
         7     1.77700000E+00  # m_tau(pole)
         8     0.00000000E+00  # m_nu_3
        11     5.10998910E-04  # m_e(pole)
        12     0.00000000E+00  # m_nu_1
        13     1.05658000E-01  # m_muon(pole)
        14     0.00000000E+00  # m_nu_2
        21     5.00000000E-03  # m_d(2 GeV), MSbar
        22     3.00000000E-03  # m_u(2 GeV), MSbar
        23     1.05000000E-01  # m_s(2 GeV), MSbar
        24     1.27000000E+00  # m_c(m_c), MSbar
Block gauge Q=  2.25263569E+03  # (SUSY scale)
   1    3.64837459E-01  # g'(Q)^DRbar
   2    6.38609587E-01  # g(Q)^DRbar
   3    1.01721364E+00  # g3(Q)^DRbar
Block Yu Q=  2.25263569E+03  # (SUSY scale)
  1  1     8.35674362E-06   # Y_u(Q)^DRbar
  2  2     3.53769220E-03   # Y_c(Q)^DRbar
  3  3     8.41953185E-01   # Y_t(Q)^DRbar
Block Yd Q=  2.25263569E+03  # (SUSY scale)
  1  1     6.88613016E-04   # Y_d(Q)^DRbar
  2  2     1.44608580E-02   # Y_s(Q)^DRbar
  3  3     7.03731923E-01   # Y_b(Q)^DRbar
Block Ye Q=  2.25263569E+03  # (SUSY scale)
  1  1     1.96880468E-04   # Y_e(Q)^DRbar
  2  2     4.07096942E-02   # Y_mu(Q)^DRbar
  3  3     6.89889452E-01   # Y_tau(Q)^DRbar
Block Au Q=  2.25263569E+03  # (SUSY scale)
  1  1    -7.11430922E+02   # A_u(Q)^DRbar
  2  2    -7.11426328E+02   # A_c(Q)^DRbar
  3  3    -6.63066410E+02   # A_t(Q)^DRbar
Block Ad Q=  2.25263569E+03  # (SUSY scale)
  1  1    -7.22461859E+02   # A_d(Q)^DRbar
  2  2    -7.22449737E+02   # A_s(Q)^DRbar
  3  3    -6.81781286E+02   # A_b(Q)^DRbar
Block Ae Q=  2.25263569E+03  # (SUSY scale)
  1  1    -4.95148607E+01   # A_e(Q)^DRbar
  2  2    -4.95051278E+01   # A_mu(Q)^DRbar
  3  3    -4.67412064E+01   # A_tau(Q)^DRbar
Block MSOFT Q=  2.25263569E+03  # soft SUSY breaking masses at Q
   1    5.23911301E+02  # M_1
   2    9.60001842E+02  # M_2
   3    2.44631731E+03  # M_3
  21   -2.30538737E+05  # M^2_(H,d)
  22   -5.23281437E+05  # M^2_(H,u)
  31    7.47701107E+02  # M_(L,11)
  32    7.47653003E+02  # M_(L,22)
  33    7.33965209E+02  # M_(L,33)
  34    3.63180965E+02  # M_(E,11)
  35    3.62977884E+02  # M_(E,22)
  36    2.99713040E+02  # M_(E,33)
  41    2.36978958E+03  # M_(Q,11)
  42    2.36976710E+03  # M_(Q,22)
  43    2.24715817E+03  # M_(Q,33)
  44    2.27225449E+03  # M_(U,11)
  45    2.27225185E+03  # M_(U,22)
  46    2.11997004E+03  # M_(U,33)
  47    2.26282884E+03  # M_(D,11)
  48    2.26278395E+03  # M_(D,22)
  49    2.15538400E+03  # M_(D,33)
Block MASS  # Mass spectrum
#   PDG code      mass          particle
         6     1.72500000E+02  # m_t(pole)
        23     9.11876000E+01  # m_Z(pole)
        24     8.03089171E+01  # W+
        15     1.77700000E+00  # m_tau(pole)
        25     1.19748027E+02  # h0
        35     5.50733692E+02  # H0
        36     5.50696960E+02  # A0
        37     5.57893923E+02  # H+
   1000001     2.46680559E+03  # ~d_L
   2000001     2.35402139E+03  # ~d_R
   1000002     2.46551021E+03  # ~u_L
   2000002     2.36292148E+03  # ~u_R
   1000003     2.46677997E+03  # ~s_L
   2000003     2.35396581E+03  # ~s_R
   1000004     2.46548324E+03  # ~c_L
   2000004     2.36291830E+03  # ~c_R
   1000005     2.21956983E+03  # ~b_1
   2000005     2.32210632E+03  # ~b_2
   1000006     2.18147735E+03  # ~t_1
   2000006     2.32611493E+03  # ~t_2
   1000011     7.64787328E+02  # ~e_L-
   2000011     3.77005344E+02  # ~e_R-
   1000012     7.60231318E+02  # ~nu_eL
   1000013     7.64767660E+02  # ~mu_L-
   2000013     3.76668394E+02  # ~mu_R-
   1000014     7.60163373E+02  # ~nu_muL
   1000015     2.70012472E+02  # ~tau_1-
   2000015     7.58456697E+02  # ~tau_2-
   1000016     7.41520917E+02  # ~nu_tauL
   1000021     2.56853554E+03  # ~g
   1000022     5.09356244E+02  # ~chi_10
   1000023     7.85394939E+02  # ~chi_20
   1000025    -8.00447486E+02  # ~chi_30
   1000035     9.96541650E+02  # ~chi_40
   1000024     7.83447406E+02  # ~chi_1+
   1000037     9.96713610E+02  # ~chi_2+
   1000039     7.20000000E-09  # ~G
# Higgs mixing
Block alpha # Effective Higgs mixing angle
          -1.80356605E-02   # alpha
Block Hmix Q=  2.25263569E+03  # Higgs mixing parameters
   1    7.95222983E+02  # mu
   2    5.97308402E+01  # tan[beta](Q)
   3    2.43424182E+02  # v(Q)
   4    2.84893624E+05  # m^2_A(Q)
Block stopmix # stop mixing matrix
   1  1     1.85473132E-01   # Re[R_st(1,1)]
   1  2     9.82649336E-01   # Re[R_st(1,2)]
   2  1    -9.82649336E-01   # Re[R_st(2,1)]
   2  2     1.85473132E-01   # Re[R_st(2,2)]
Block sbotmix # sbottom mixing matrix
   1  1     2.22492500E-01   # Re[R_sb(1,1)]
   1  2     9.74934402E-01   # Re[R_sb(1,2)]
   2  1    -9.74934402E-01   # Re[R_sb(2,1)]
   2  2     2.22492500E-01   # Re[R_sb(2,2)]
Block staumix # stau mixing matrix
   1  1     1.92597554E-01   # Re[R_sta(1,1)]
   1  2     9.81277831E-01   # Re[R_sta(1,2)]
   2  1    -9.81277831E-01   # Re[R_sta(2,1)]
   2  2     1.92597554E-01   # Re[R_sta(2,2)]
Block Nmix # neutralino mixing matrix
   1  1    -9.93207069E-01   # Re[N(1,1)]
   1  2     1.07940010E-02   # Re[N(1,2)]
   1  3    -9.70040804E-02   # Re[N(1,3)]
   1  4     6.33515256E-02   # Re[N(1,4)]
   2  1     1.12175728E-01   # Re[N(2,1)]
   2  2     2.74932587E-01   # Re[N(2,2)]
   2  3    -6.80391951E-01   # Re[N(2,3)]
   2  4     6.69996621E-01   # Re[N(2,4)]
   3  1     2.34277812E-02   # Re[N(3,1)]
   3  2    -3.08820485E-02   # Re[N(3,2)]
   3  3    -7.05476570E-01   # Re[N(3,3)]
   3  4    -7.07672415E-01   # Re[N(3,4)]
   4  1    -2.01857113E-02   # Re[N(4,1)]
   4  2     9.60906791E-01   # Re[N(4,2)]
   4  3     1.73089025E-01   # Re[N(4,3)]
   4  4    -2.15153120E-01   # Re[N(4,4)]
Block Umix # chargino mixing matrix
   1  1    -2.44253206E-01   # Re[U(1,1)]
   1  2     9.69711489E-01   # Re[U(1,2)]
   2  1     9.69711489E-01   # Re[U(2,1)]
   2  2     2.44253206E-01   # Re[U(2,2)]
Block Vmix # chargino mixing matrix
   1  1    -3.03587251E-01   # Re[V(1,1)]
   1  2     9.52803643E-01   # Re[V(1,2)]
   2  1     9.52803643E-01   # Re[V(2,1)]
   2  2     3.03587251E-01   # Re[V(2,2)]
DECAY   2000011     9.56204786E-06   # ~e^-_R
#    BR                NDA      ID1      ID2
     1.76065496E-05    2     1000039        11   # BR(~e^-_R -> ~G e^-)
#    BR                NDA      ID1      ID2       ID3
     9.68649405E-14    3     2000013        11       -13   # BR(~e^-_R -> ~mu^-_R e^- mu^+)
     3.25993912E-13    3    -2000013        11        13   # BR(~e^-_R -> ~mu^+_R e^- mu^-)
     1.85693185E-01    3     1000015        11       -15   # BR(~e^-_R -> ~tau^-_1 e^- tau^+)
     8.14289208E-01    3    -1000015        11        15   # BR(~e^-_R -> ~tau^+_1 e^- tau^-)
DECAY   1000011     2.97617939E-01   # ~e^-_L
#    BR                NDA      ID1      ID2
     9.99998480E-01    2     1000022        11   # BR(~e^-_L -> chi^0_1 e^-)
     7.32331509E-07    2     2000011        23   # BR(~e^-_L -> ~e^-_R Z)
     7.68043507E-07    2     2000011        25   # BR(~e^-_L -> ~e^-_R h^0)
     1.94326464E-08    2     1000039        11   # BR(~e^-_L -> ~G e^-)
DECAY   2000013     9.47881573E-06   # ~mu^-_R
#    BR                NDA      ID1      ID2
     1.76819159E-05    2     1000039        13   # BR(~mu^-_R -> ~G mu^-)
#    BR                NDA      ID1      ID2       ID3
     1.84497634E-01    3     1000015        13       -15   # BR(~mu^-_R -> ~tau^-_1 mu^- tau^+)
     8.15484684E-01    3    -1000015        13        15   # BR(~mu^-_R -> ~tau^+_1 mu^- tau^-)
DECAY   1000013     3.16784013E-01   # ~mu^-_L
#    BR                NDA      ID1      ID2
     9.39712691E-01    2     1000022        13   # BR(~mu^-_L -> chi^0_1 mu^-)
     2.94356989E-02    2     2000013        23   # BR(~mu^-_L -> ~mu^-_R Z)
     3.08515921E-02    2     2000013        25   # BR(~mu^-_L -> ~mu^-_R h^0)
     1.82545831E-08    2     1000039        13   # BR(~mu^-_L -> ~G mu^-)
DECAY   1000015     3.17198785E-11   # ~tau^-_1
#    BR                NDA      ID1      ID2
     1.00000000E+00    2     1000039        15   # BR(~tau^-_1 -> ~G tau^-)
DECAY   2000015     6.30555586E+00   # ~tau^-_2
#    BR                NDA      ID1      ID2
     4.92952142E-02    2     1000022        15   # BR(~tau^-_2 -> chi^0_1 tau^-)
     4.98971574E-01    2     1000015        23   # BR(~tau^-_2 -> ~tau^-_1 Z)
     4.51733211E-01    2     1000015        25   # BR(~tau^-_2 -> ~tau^-_1 h^0)
     8.79850071E-10    2     1000039        15   # BR(~tau^-_2 -> ~G tau^-)
DECAY   1000012     3.13148420E-01   # ~nu_e
#    BR                NDA      ID1      ID2
     9.99998642E-01    2     1000022        12   # BR(~nu_e -> chi^0_1 nu_e)
     1.34032976E-06    2     2000011        24   # BR(~nu_e -> ~e^-_R W^+)
     1.79252901E-08    2     1000039        12   # BR(~nu_e -> ~G nu_e)
DECAY   1000014     3.30982697E-01   # ~nu_mu
#    BR                NDA      ID1      ID2
     9.45755850E-01    2     1000022        14   # BR(~nu_mu -> chi^0_1 nu_mu)
     5.42441331E-02    2     2000013        24   # BR(~nu_mu -> ~mu^-_R W^+)
     1.69518479E-08    2     1000039        14   # BR(~nu_mu -> ~G nu_mu)
DECAY   1000016     6.16473309E+00   # ~nu_tau
#    BR                NDA      ID1      ID2
     4.55075719E-02    2     1000022        16   # BR(~nu_tau -> chi^0_1 nu_tau)
     9.54492427E-01    2     1000015        24   # BR(~nu_tau -> ~tau^-_1 W^+)
     8.03878455E-10    2     1000039        16   # BR(~nu_tau -> ~G nu_tau)
DECAY   2000001     1.25630866E+00   # ~d_R
#    BR                NDA      ID1      ID2
     9.88236762E-01    2     1000022         1   # BR(~d_R -> chi^0_1 d)
     1.09647686E-02    2     1000023         1   # BR(~d_R -> chi^0_2 d)
     4.80109749E-04    2     1000025         1   # BR(~d_R -> chi^0_3 d)
     3.02710318E-04    2     1000035         1   # BR(~d_R -> chi^0_4 d)
     1.43054919E-05    2    -1000024         2   # BR(~d_R -> chi^-_1 u)
     7.18654854E-08    2    -1000037         2   # BR(~d_R -> chi^-_2 u)
     1.27187170E-06    2     1000039         1   # BR(~d_R -> ~G d)
DECAY   1000001     2.15602033E+01   # ~d_L
#    BR                NDA      ID1      ID2
     1.70050998E-02    2     1000022         1   # BR(~d_L -> chi^0_1 d)
     2.41001706E-02    2     1000023         1   # BR(~d_L -> chi^0_2 d)
     4.64560655E-04    2     1000025         1   # BR(~d_L -> chi^0_3 d)
     3.02500750E-01    2     1000035         1   # BR(~d_L -> chi^0_4 d)
     4.47724271E-02    2    -1000024         2   # BR(~d_L -> chi^-_1 u)
     6.11156897E-01    2    -1000037         2   # BR(~d_L -> chi^-_2 u)
     4.55684851E-13    2     2000002       -24   # BR(~d_L -> ~u_R W^-)
     1.12278966E-09    2     2000001        23   # BR(~d_L -> ~d_R Z)
     9.36503505E-08    2     1000039         1   # BR(~d_L -> ~G d)
DECAY   2000003     1.27202300E+00   # ~s_R
#    BR                NDA      ID1      ID2
     9.76150406E-01    2     1000022         3   # BR(~s_R -> chi^0_1 s)
     1.38545636E-02    2     1000023         3   # BR(~s_R -> chi^0_2 s)
     3.41862926E-03    2     1000025         3   # BR(~s_R -> chi^0_3 s)
     3.13483180E-04    2     1000035         3   # BR(~s_R -> chi^0_4 s)
     6.23033106E-03    2    -1000024         4   # BR(~s_R -> chi^-_1 c)
     3.13312874E-05    2    -1000037         4   # BR(~s_R -> chi^-_2 c)
     1.25601095E-06    2     1000039         3   # BR(~s_R -> ~G s)
DECAY   1000003     2.15680658E+01   # ~s_L
#    BR                NDA      ID1      ID2
     1.69975166E-02    2     1000022         3   # BR(~s_L -> chi^0_1 s)
     2.42546593E-02    2     1000023         3   # BR(~s_L -> chi^0_2 s)
     6.56378703E-04    2     1000025         3   # BR(~s_L -> chi^0_3 s)
     3.02404012E-01    2     1000035         3   # BR(~s_L -> chi^0_4 s)
     4.47437087E-02    2    -1000024         4   # BR(~s_L -> chi^-_1 c)
     6.10943054E-01    2    -1000037         4   # BR(~s_L -> chi^-_2 c)
     8.15405626E-08    2     2000004       -24   # BR(~s_L -> ~c_R W^-)
     4.95848505E-07    2     2000003        23   # BR(~s_L -> ~s_R Z)
     9.36113481E-08    2     1000039         3   # BR(~s_L -> ~G s)
DECAY   1000005     3.51410315E+01   # ~b_1
#    BR                NDA      ID1      ID2
     4.56732810E-02    2     1000022         5   # BR(~b_1 -> chi^0_1 b)
     2.40310568E-01    2     1000023         5   # BR(~b_1 -> chi^0_2 b)
     2.30477496E-01    2     1000025         5   # BR(~b_1 -> chi^0_3 b)
     8.30399570E-04    2     1000035         5   # BR(~b_1 -> chi^0_4 b)
     4.79703863E-01    2    -1000024         6   # BR(~b_1 -> chi^-_1 t)
     3.00435861E-03    2    -1000037         6   # BR(~b_1 -> chi^-_2 t)
     3.38852717E-08    2     1000039         5   # BR(~b_1 -> ~G b)
DECAY   2000005     6.12403901E+01   # ~b_2
#    BR                NDA      ID1      ID2
     4.18028653E-03    2     1000022         5   # BR(~b_2 -> chi^0_1 b)
     1.31317166E-01    2     1000023         5   # BR(~b_2 -> chi^0_2 b)
     1.46932530E-01    2     1000025         5   # BR(~b_2 -> chi^0_3 b)
     1.09774122E-01    2     1000035         5   # BR(~b_2 -> chi^0_4 b)
     3.57270017E-01    2    -1000024         6   # BR(~b_2 -> chi^-_1 t)
     2.46566878E-01    2    -1000037         6   # BR(~b_2 -> chi^-_2 t)
     3.76736220E-03    2     1000006       -24   # BR(~b_2 -> ~t_1 W^-)
     1.91614000E-04    2     1000005        23   # BR(~b_2 -> ~b_1 Z)
     2.43699426E-08    2     1000039         5   # BR(~b_2 -> ~G b)
DECAY   2000002     5.04788216E+00   # ~u_R
#    BR                NDA      ID1      ID2
     9.88251780E-01    2     1000022         2   # BR(~u_R -> chi^0_1 u)
     1.09705220E-02    2     1000023         2   # BR(~u_R -> chi^0_2 u)
     4.73922407E-04    2     1000025         2   # BR(~u_R -> chi^0_3 u)
     3.03452104E-04    2     1000035         2   # BR(~u_R -> chi^0_4 u)
     5.31191729E-10    2     1000024         1   # BR(~u_R -> chi^+_1 d)
     5.04912882E-12    2     1000037         1   # BR(~u_R -> chi^+_2 d)
     3.22570675E-07    2     1000039         2   # BR(~u_R -> ~G u)
DECAY   1000002     2.16179022E+01   # ~u_L
#    BR                NDA      ID1      ID2
     1.34866166E-02    2     1000022         2   # BR(~u_L -> chi^0_1 u)
     3.27922489E-02    2     1000023         2   # BR(~u_L -> chi^0_2 u)
     2.58467229E-04    2     1000025         2   # BR(~u_L -> chi^0_3 u)
     2.96626555E-01    2     1000035         2   # BR(~u_L -> chi^0_4 u)
     6.89305525E-02    2     1000024         1   # BR(~u_L -> chi^+_1 d)
     5.87905463E-01    2     1000037         1   # BR(~u_L -> chi^+_2 d)
     3.44645871E-09    2     2000001        24   # BR(~u_L -> ~d_R W^+)
     8.48909984E-14    2     2000002        23   # BR(~u_L -> ~u_R Z)
     9.31554169E-08    2     1000039         2   # BR(~u_L -> ~G u)
DECAY   2000004     5.04882620E+00   # ~c_R
#    BR                NDA      ID1      ID2
     9.88064928E-01    2     1000022         4   # BR(~c_R -> chi^0_1 c)
     1.10143612E-02    2     1000023         4   # BR(~c_R -> chi^0_2 c)
     5.20520906E-04    2     1000025         4   # BR(~c_R -> chi^0_3 c)
     3.03781262E-04    2     1000035         4   # BR(~c_R -> chi^0_4 c)
     9.51821576E-05    2     1000024         3   # BR(~c_R -> chi^+_1 s)
     9.04017862E-07    2     1000037         3   # BR(~c_R -> chi^+_2 s)
     3.22507812E-07    2     1000039         4   # BR(~c_R -> ~G c)
DECAY   1000004     2.16261826E+01   # ~c_L
#    BR                NDA      ID1      ID2
     1.34813843E-02    2     1000022         4   # BR(~c_L -> chi^0_1 c)
     3.27880229E-02    2     1000023         4   # BR(~c_L -> chi^0_2 c)
     2.69573095E-04    2     1000025         4   # BR(~c_L -> chi^0_3 c)
     2.96509249E-01    2     1000035         4   # BR(~c_L -> chi^0_4 c)
     6.92595933E-02    2     1000024         3   # BR(~c_L -> chi^+_1 s)
     5.87690548E-01    2     1000037         3   # BR(~c_L -> chi^+_2 s)
     1.52096112E-06    2     2000003        24   # BR(~c_L -> ~s_R W^+)
     1.51645156E-08    2     2000004        23   # BR(~c_L -> ~c_R Z)
     9.31145573E-08    2     1000039         4   # BR(~c_L -> ~G c)
DECAY   1000006     5.10401033E+01   # ~t_1
#    BR                NDA      ID1      ID2
     8.73333161E-04    2     1000022         4   # BR(~t_1 -> chi^0_1 c)
     8.98105480E-02    2     1000022         6   # BR(~t_1 -> chi^0_1 t)
     2.04264400E-03    2     1000023         4   # BR(~t_1 -> chi^0_2 c)
     2.12083037E-01    2     1000023         6   # BR(~t_1 -> chi^0_2 t)
     2.30935195E-01    2     1000025         6   # BR(~t_1 -> chi^0_3 t)
     5.11870818E-03    2     1000035         6   # BR(~t_1 -> chi^0_4 t)
     4.48395154E-01    2     1000024         5   # BR(~t_1 -> chi^+_1 b)
     1.07149638E-02    2     1000037         5   # BR(~t_1 -> chi^+_2 b)
     2.08657140E-08    2     1000039         6   # BR(~t_1 -> ~G t)
#    BR                NDA      ID1      ID2       ID3
     2.63956091E-05    3     1000022        24         5   # BR(~t_1 -> chi^0_1 W^+ b)
DECAY   2000006     6.19492443E+01   # ~t_2
#    BR                NDA      ID1      ID2
     5.33738651E-03    2     1000022         6   # BR(~t_2 -> chi^0_1 t)
     1.81705383E-01    2     1000023         6   # BR(~t_2 -> chi^0_2 t)
     1.96946716E-01    2     1000025         6   # BR(~t_2 -> chi^0_3 t)
     1.24909314E-01    2     1000035         6   # BR(~t_2 -> chi^0_4 t)
     2.64996970E-01    2     1000024         5   # BR(~t_2 -> chi^+_1 b)
     2.21746084E-01    2     1000037         5   # BR(~t_2 -> chi^+_2 b)
     1.24262791E-03    2     1000005        24   # BR(~t_2 -> ~b_1 W^+)
     1.78542618E-03    2     1000006        23   # BR(~t_2 -> ~t_1 Z)
     1.33006823E-03    2     1000006        25   # BR(~t_2 -> ~t_1 h^0)
     2.37699163E-08    2     1000039         6   # BR(~t_2 -> ~G t)
DECAY   1000024     3.26165149E+00   # chi^+_1
#    BR                NDA      ID1      ID2
     5.67479135E-08    2    -2000011        12   # BR(chi^+_1 -> ~e^+_R nu_e)
     1.28790819E-04    2    -1000011        12   # BR(chi^+_1 -> ~e^+_L nu_e)
     2.42840539E-03    2    -2000013        14   # BR(chi^+_1 -> ~mu^+_R nu_mu)
     1.28205401E-04    2    -1000013        14   # BR(chi^+_1 -> ~mu^+_L nu_mu)
     8.74448654E-01    2    -1000015        16   # BR(chi^+_1 -> ~tau^+_1 nu_tau)
     5.52196622E-06    2    -2000015        16   # BR(chi^+_1 -> ~tau^+_2 nu_tau)
     3.06170494E-04    2     1000012       -11   # BR(chi^+_1 -> ~nu_e e^+)
     3.21279706E-04    2     1000014       -13   # BR(chi^+_1 -> ~nu_mu mu^+)
     1.28595393E-02    2     1000016       -15   # BR(chi^+_1 -> ~nu_tau tau^+)
     1.09260618E-01    2     1000022        24   # BR(chi^+_1 -> chi^0_1 W^+)
#    BR                NDA      ID1      ID2       ID3
     1.09848894E-09    3     1000022        -1         2   # BR(chi^+_1 -> chi^0_1 d_bar u)
     1.12930059E-08    3     1000022        -3         4   # BR(chi^+_1 -> chi^0_1 s_bar c)
     9.72489052E-05    3     1000022        -5         6   # BR(chi^+_1 -> chi^0_1 b_bar t)
     2.13097226E-12    3     1000022       -11        12   # BR(chi^+_1 -> chi^0_1 e^+ nu_e)
     9.08921605E-08    3     1000022       -13        14   # BR(chi^+_1 -> chi^0_1 mu^+ nu_mu)
     1.54052279E-05    3     1000022       -15        16   # BR(chi^+_1 -> chi^0_1 tau^+ nu_tau)
DECAY   1000037     7.60078096E+00   # chi^+_2
#    BR                NDA      ID1      ID2
     9.25181878E-11    2    -2000011        12   # BR(chi^+_2 -> ~e^+_R nu_e)
     8.45965022E-02    2    -1000011        12   # BR(chi^+_2 -> ~e^+_L nu_e)
     3.96906728E-06    2    -2000013        14   # BR(chi^+_2 -> ~mu^+_R nu_mu)
     8.46298614E-02    2    -1000013        14   # BR(chi^+_2 -> ~mu^+_L nu_mu)
     2.37848235E-03    2    -1000015        16   # BR(chi^+_2 -> ~tau^+_1 nu_tau)
     9.47093555E-02    2    -2000015        16   # BR(chi^+_2 -> ~tau^+_2 nu_tau)
     8.44737946E-02    2     1000012       -11   # BR(chi^+_2 -> ~nu_e e^+)
     8.45369686E-02    2     1000014       -13   # BR(chi^+_2 -> ~nu_mu mu^+)
     1.03242517E-01    2     1000016       -15   # BR(chi^+_2 -> ~nu_tau tau^+)
     1.61915879E-03    2     1000022        24   # BR(chi^+_2 -> chi^0_1 W^+)
     1.29048438E-01    2     1000023        24   # BR(chi^+_2 -> chi^0_2 W^+)
     1.07026590E-01    2     1000025        24   # BR(chi^+_2 -> chi^0_3 W^+)
     1.22709225E-01    2     1000024        23   # BR(chi^+_2 -> chi^+_1 Z)
     1.00954277E-01    2     1000024        25   # BR(chi^+_2 -> chi^+_1 h^0)
#    BR                NDA      ID1      ID2       ID3
     2.76470953E-09    3     1000024         2        -2   # BR(chi^+_2 -> chi^+_1 u u_bar)
     2.76035517E-09    3     1000024         4        -4   # BR(chi^+_2 -> chi^+_1 c c_bar)
     4.15173690E-09    3     1000024         1        -1   # BR(chi^+_2 -> chi^+_1 d d_bar)
     1.22112712E-08    3     1000024         3        -3   # BR(chi^+_2 -> chi^+_1 s s_bar)
     1.92186641E-05    3     1000024         5        -5   # BR(chi^+_2 -> chi^+_1 b b_bar)
     1.24817154E-06    3     1000024        11       -11   # BR(chi^+_2 -> chi^+_1 e^- e^+)
     1.28879047E-06    3     1000024        13       -13   # BR(chi^+_2 -> chi^+_1 mu^- mu^+)
     1.33363607E-05    3     1000024        15       -15   # BR(chi^+_2 -> chi^+_1 tau^- tau^+)
     1.87049323E-06    3     1000024        12       -12   # BR(chi^+_2 -> chi^+_1 nu_e nu_bar_e)
     7.97667266E-08    3     1000022        -1         2   # BR(chi^+_2 -> chi^0_1 d_bar u)
     7.97594878E-08    3     1000022        -3         4   # BR(chi^+_2 -> chi^0_1 s_bar c)
     1.06778813E-05    3     1000022        -5         6   # BR(chi^+_2 -> chi^0_1 b_bar t)
     1.68028613E-14    3     1000022       -11        12   # BR(chi^+_2 -> chi^0_1 e^+ nu_e)
     7.19273286E-10    3     1000022       -13        14   # BR(chi^+_2 -> chi^0_1 mu^+ nu_mu)
     2.53821845E-07    3     1000022       -15        16   # BR(chi^+_2 -> chi^0_1 tau^+ nu_tau)
     1.70858338E-09    3     1000023        -1         2   # BR(chi^+_2 -> chi^0_2 d_bar u)
     6.05868702E-09    3     1000023        -3         4   # BR(chi^+_2 -> chi^0_2 s_bar c)
     9.83968031E-06    3     1000023        -5         6   # BR(chi^+_2 -> chi^0_2 b_bar t)
     7.37588969E-07    3     1000023       -11        12   # BR(chi^+_2 -> chi^0_2 e^+ nu_e)
     7.56491746E-07    3     1000023       -13        14   # BR(chi^+_2 -> chi^0_2 mu^+ nu_mu)
     5.88435458E-06    3     1000023       -15        16   # BR(chi^+_2 -> chi^0_2 tau^+ nu_tau)
     5.10481149E-11    3     1000025        -1         2   # BR(chi^+_2 -> chi^0_3 d_bar u)
     2.74140385E-09    3     1000025        -3         4   # BR(chi^+_2 -> chi^0_3 s_bar c)
     1.80386665E-06    3     1000025        -5         6   # BR(chi^+_2 -> chi^0_3 b_bar t)
     1.05414463E-08    3     1000025       -11        12   # BR(chi^+_2 -> chi^0_3 e^+ nu_e)
     2.41037629E-08    3     1000025       -13        14   # BR(chi^+_2 -> chi^0_3 mu^+ nu_mu)
     3.71518876E-06    3     1000025       -15        16   # BR(chi^+_2 -> chi^0_3 tau^+ nu_tau)
DECAY   1000022     2.48633549E+00   # chi^0_1
#    BR                NDA      ID1      ID2
     1.09410653E-01    2     2000011       -11   # BR(chi^0_1 -> ~e^-_R e^+)
     1.09410653E-01    2    -2000011        11   # BR(chi^0_1 -> ~e^+_R e^-)
     1.09889064E-01    2     2000013       -13   # BR(chi^0_1 -> ~mu^-_R mu^+)
     1.09889064E-01    2    -2000013        13   # BR(chi^0_1 -> ~mu^+_R mu^-)
     2.80700282E-01    2     1000015       -15   # BR(chi^0_1 -> ~tau^-_1 tau^+)
     2.80700282E-01    2    -1000015        15   # BR(chi^0_1 -> ~tau^+_1 tau^-)
     2.23891152E-10    2     1000039        22   # BR(chi^0_1 -> ~G photon)
     6.71435869E-11    2     1000039        23   # BR(chi^0_1 -> ~G Z)
     1.28749248E-12    2     1000039        25   # BR(chi^0_1 -> ~G h^0)
DECAY   1000023     3.41604221E+00   # chi^0_2
#    BR                NDA      ID1      ID2
     4.53735280E-03    2     2000011       -11   # BR(chi^0_2 -> ~e^-_R e^+)
     4.53735280E-03    2    -2000011        11   # BR(chi^0_2 -> ~e^+_R e^-)
     1.43754534E-04    2     1000011       -11   # BR(chi^0_2 -> ~e^-_L e^+)
     1.43754534E-04    2    -1000011        11   # BR(chi^0_2 -> ~e^+_L e^-)
     5.67660690E-03    2     2000013       -13   # BR(chi^0_2 -> ~mu^-_R mu^+)
     5.67660690E-03    2    -2000013        13   # BR(chi^0_2 -> ~mu^+_R mu^-)
     1.48581273E-04    2     1000013       -13   # BR(chi^0_2 -> ~mu^-_L mu^+)
     1.48581273E-04    2    -1000013        13   # BR(chi^0_2 -> ~mu^+_L mu^-)
     4.29445507E-01    2     1000015       -15   # BR(chi^0_2 -> ~tau^-_1 tau^+)
     4.29445507E-01    2    -1000015        15   # BR(chi^0_2 -> ~tau^+_1 tau^-)
     2.38517964E-03    2     2000015       -15   # BR(chi^0_2 -> ~tau^-_2 tau^+)
     2.38517964E-03    2    -2000015        15   # BR(chi^0_2 -> ~tau^+_2 tau^-)
     8.24217947E-05    2     1000012       -12   # BR(chi^0_2 -> ~nu_e nu_bar_e)
     8.24217947E-05    2    -1000012        12   # BR(chi^0_2 -> ~nu^*_e nu_e)
     8.28602039E-05    2     1000014       -14   # BR(chi^0_2 -> ~nu_mu nu_bar_mu)
     8.28602039E-05    2    -1000014        14   # BR(chi^0_2 -> ~nu^*_mu nu_mu)
     2.44529869E-04    2     1000016       -16   # BR(chi^0_2 -> ~nu_tau nu_bar_tau)
     2.44529869E-04    2    -1000016        16   # BR(chi^0_2 -> ~nu^*_tau nu_tau)
     5.65210702E-03    2     1000022        23   # BR(chi^0_2 -> chi^0_1 Z)
     1.08809665E-01    2     1000022        25   # BR(chi^0_2 -> chi^0_1 h^0)
     1.05689037E-10    2     1000039        22   # BR(chi^0_2 -> ~G photon)
     4.79880628E-11    2     1000039        23   # BR(chi^0_2 -> ~G Z)
     8.99374321E-10    2     1000039        25   # BR(chi^0_2 -> ~G h^0)
     1.13541027E-07    2     1000022        22   # BR(chi^0_2 -> chi^0_1 photon)
#    BR                NDA      ID1      ID2       ID3
     1.56256665E-09    3     1000022         2        -2   # BR(chi^0_2 -> chi^0_1 u u_bar)
     1.56447677E-09    3     1000022         4        -4   # BR(chi^0_2 -> chi^0_1 c c_bar)
     6.02812018E-10    3     1000022         1        -1   # BR(chi^0_2 -> chi^0_1 d d_bar)
     1.21036191E-08    3     1000022         3        -3   # BR(chi^0_2 -> chi^0_1 s s_bar)
     2.74356406E-05    3     1000022         5        -5   # BR(chi^0_2 -> chi^0_1 b b_bar)
     6.60424376E-07    3     1000022        11       -11   # BR(chi^0_2 -> chi^0_1 e^- e^+)
     7.42320791E-07    3     1000022        13       -13   # BR(chi^0_2 -> chi^0_1 mu^- mu^+)
     1.56714065E-05    3     1000022        15       -15   # BR(chi^0_2 -> chi^0_1 tau^- tau^+)
     3.76155989E-12    3     1000024         1        -2   # BR(chi^0_2 -> chi^+_1 d u_bar)
     3.76155989E-12    3    -1000024        -1         2   # BR(chi^0_2 -> chi^-_1 d_bar u)
     3.68709998E-13    3     1000024         3        -4   # BR(chi^0_2 -> chi^+_1 s c_bar)
     3.68709998E-13    3    -1000024        -3         4   # BR(chi^0_2 -> chi^-_1 s_bar c)
     1.22041702E-12    3     1000024        11       -12   # BR(chi^0_2 -> chi^+_1 e^- nu_bar_e)
     1.22041702E-12    3    -1000024       -11        12   # BR(chi^0_2 -> chi^-_1 e^+ nu_e)
     1.20268833E-12    3     1000024        13       -14   # BR(chi^0_2 -> chi^+_1 mu^- nu_bar_mu)
     1.20268833E-12    3    -1000024       -13        14   # BR(chi^0_2 -> chi^-_1 mu^+ nu_mu)
DECAY   1000025     3.36804786E+00   # chi^0_3
#    BR                NDA      ID1      ID2
     2.09192468E-04    2     2000011       -11   # BR(chi^0_3 -> ~e^-_R e^+)
     2.09192468E-04    2    -2000011        11   # BR(chi^0_3 -> ~e^+_R e^-)
     1.12044788E-06    2     1000011       -11   # BR(chi^0_3 -> ~e^-_L e^+)
     1.12044788E-06    2    -1000011        11   # BR(chi^0_3 -> ~e^+_L e^-)
     1.37063416E-03    2     2000013       -13   # BR(chi^0_3 -> ~mu^-_R mu^+)
     1.37063416E-03    2    -2000013        13   # BR(chi^0_3 -> ~mu^+_R mu^-)
     1.62249373E-05    2     1000013       -13   # BR(chi^0_3 -> ~mu^-_L mu^+)
     1.62249373E-05    2    -1000013        13   # BR(chi^0_3 -> ~mu^+_L mu^-)
     4.32509841E-01    2     1000015       -15   # BR(chi^0_3 -> ~tau^-_1 tau^+)
     4.32509841E-01    2    -1000015        15   # BR(chi^0_3 -> ~tau^+_1 tau^-)
     6.03682555E-03    2     2000015       -15   # BR(chi^0_3 -> ~tau^-_2 tau^+)
     6.03682555E-03    2    -2000015        15   # BR(chi^0_3 -> ~tau^+_2 tau^-)
     9.06441437E-06    2     1000012       -12   # BR(chi^0_3 -> ~nu_e nu_bar_e)
     9.06441437E-06    2    -1000012        12   # BR(chi^0_3 -> ~nu^*_e nu_e)
     9.09427656E-06    2     1000014       -14   # BR(chi^0_3 -> ~nu_mu nu_bar_mu)
     9.09427656E-06    2    -1000014        14   # BR(chi^0_3 -> ~nu^*_mu nu_mu)
     1.89969800E-05    2     1000016       -16   # BR(chi^0_3 -> ~nu_tau nu_bar_tau)
     1.89969800E-05    2    -1000016        16   # BR(chi^0_3 -> ~nu^*_tau nu_tau)
     1.14899293E-01    2     1000022        23   # BR(chi^0_3 -> chi^0_1 Z)
     4.68383038E-03    2     1000022        25   # BR(chi^0_3 -> chi^0_1 h^0)
     5.44117537E-14    2     1000039        22   # BR(chi^0_3 -> ~G photon)
     2.06512121E-10    2     1000039        23   # BR(chi^0_3 -> ~G Z)
     1.04068305E-09    2     1000039        25   # BR(chi^0_3 -> ~G h^0)
     4.13230287E-08    2     1000022        22   # BR(chi^0_3 -> chi^0_1 photon)
     1.11275845E-09    2     1000023        22   # BR(chi^0_3 -> chi^0_2 photon)
#    BR                NDA      ID1      ID2       ID3
     2.21660431E-11    3     1000022         2        -2   # BR(chi^0_3 -> chi^0_1 u u_bar)
     2.62757367E-11    3     1000022         4        -4   # BR(chi^0_3 -> chi^0_1 c c_bar)
     3.93150497E-11    3     1000022         1        -1   # BR(chi^0_3 -> chi^0_1 d d_bar)
     1.47623852E-08    3     1000022         3        -3   # BR(chi^0_3 -> chi^0_1 s s_bar)
     3.51009002E-05    3     1000022         5        -5   # BR(chi^0_3 -> chi^0_1 b b_bar)
     1.30486155E-08    3     1000022        11       -11   # BR(chi^0_3 -> chi^0_1 e^- e^+)
     1.15637007E-07    3     1000022        13       -13   # BR(chi^0_3 -> chi^0_1 mu^- mu^+)
     1.84858547E-05    3     1000022        15       -15   # BR(chi^0_3 -> chi^0_1 tau^- tau^+)
     2.45948948E-08    3     1000023         2        -2   # BR(chi^0_3 -> chi^0_2 u u_bar)
     2.35285021E-08    3     1000023         4        -4   # BR(chi^0_3 -> chi^0_2 c c_bar)
     3.19233039E-08    3     1000023         1        -1   # BR(chi^0_3 -> chi^0_2 d d_bar)
     3.19107095E-08    3     1000023         3        -3   # BR(chi^0_3 -> chi^0_2 s s_bar)
     1.51324689E-08    3     1000023         5        -5   # BR(chi^0_3 -> chi^0_2 b b_bar)
     7.34592322E-09    3     1000023        11       -11   # BR(chi^0_3 -> chi^0_2 e^- e^+)
     7.33668892E-09    3     1000023        13       -13   # BR(chi^0_3 -> chi^0_2 mu^- mu^+)
     4.99691621E-09    3     1000023        15       -15   # BR(chi^0_3 -> chi^0_2 tau^- tau^+)
     4.38956538E-08    3     1000023        12       -12   # BR(chi^0_3 -> chi^0_2 nu_e nu_bar_e)
     1.56459550E-07    3     1000024         1        -2   # BR(chi^0_3 -> chi^+_1 d u_bar)
     1.56459550E-07    3    -1000024        -1         2   # BR(chi^0_3 -> chi^-_1 d_bar u)
     1.52259192E-07    3     1000024         3        -4   # BR(chi^0_3 -> chi^+_1 s c_bar)
     1.52259192E-07    3    -1000024        -3         4   # BR(chi^0_3 -> chi^-_1 s_bar c)
     5.20896535E-08    3     1000024        11       -12   # BR(chi^0_3 -> chi^+_1 e^- nu_bar_e)
     5.20896535E-08    3    -1000024       -11        12   # BR(chi^0_3 -> chi^-_1 e^+ nu_e)
     5.20893521E-08    3     1000024        13       -14   # BR(chi^0_3 -> chi^+_1 mu^- nu_bar_mu)
     5.20893521E-08    3    -1000024       -13        14   # BR(chi^0_3 -> chi^-_1 mu^+ nu_mu)
     4.87566070E-08    3     1000024        15       -16   # BR(chi^0_3 -> chi^+_1 tau^- nu_bar_tau)
     4.87566070E-08    3    -1000024       -15        16   # BR(chi^0_3 -> chi^-_1 tau^+ nu_tau)
DECAY   1000035     7.59087647E+00   # chi^0_4
#    BR                NDA      ID1      ID2
     1.04006251E-04    2     2000011       -11   # BR(chi^0_4 -> ~e^-_R e^+)
     1.04006251E-04    2    -2000011        11   # BR(chi^0_4 -> ~e^+_R e^-)
     4.05484906E-02    2     1000011       -11   # BR(chi^0_4 -> ~e^-_L e^+)
     4.05484906E-02    2    -1000011        11   # BR(chi^0_4 -> ~e^+_L e^-)
     1.04622857E-04    2     2000013       -13   # BR(chi^0_4 -> ~mu^-_R mu^+)
     1.04622857E-04    2    -2000013        13   # BR(chi^0_4 -> ~mu^+_R mu^-)
     4.05755461E-02    2     1000013       -13   # BR(chi^0_4 -> ~mu^-_L mu^+)
     4.05755461E-02    2    -1000013        13   # BR(chi^0_4 -> ~mu^+_L mu^-)
     1.52983969E-03    2     1000015       -15   # BR(chi^0_4 -> ~tau^-_1 tau^+)
     1.52983969E-03    2    -1000015        15   # BR(chi^0_4 -> ~tau^+_1 tau^-)
     4.85818795E-02    2     2000015       -15   # BR(chi^0_4 -> ~tau^-_2 tau^+)
     4.85818795E-02    2    -2000015        15   # BR(chi^0_4 -> ~tau^+_2 tau^-)
     4.40031804E-02    2     1000012       -12   # BR(chi^0_4 -> ~nu_e nu_bar_e)
     4.40031804E-02    2    -1000012        12   # BR(chi^0_4 -> ~nu^*_e nu_e)
     4.40250821E-02    2     1000014       -14   # BR(chi^0_4 -> ~nu_mu nu_bar_mu)
     4.40250821E-02    2    -1000014        14   # BR(chi^0_4 -> ~nu^*_mu nu_mu)
     5.01613430E-02    2     1000016       -16   # BR(chi^0_4 -> ~nu_tau nu_bar_tau)
     5.01613430E-02    2    -1000016        16   # BR(chi^0_4 -> ~nu^*_tau nu_tau)
     1.28315024E-01    2     1000024       -24   # BR(chi^0_4 -> chi^+_1 W^-)
     1.28315024E-01    2    -1000024        24   # BR(chi^0_4 -> chi^-_1 W^+)
     1.77539574E-04    2     1000022        23   # BR(chi^0_4 -> chi^0_1 Z)
     1.96969571E-03    2     1000023        23   # BR(chi^0_4 -> chi^0_2 Z)
     9.88100598E-02    2     1000025        23   # BR(chi^0_4 -> chi^0_3 Z)
     1.70598278E-03    2     1000022        25   # BR(chi^0_4 -> chi^0_1 h^0)
     1.00567503E-01    2     1000023        25   # BR(chi^0_4 -> chi^0_2 h^0)
     8.04093024E-04    2     1000025        25   # BR(chi^0_4 -> chi^0_3 h^0)
     6.03328772E-10    2     1000039        22   # BR(chi^0_4 -> ~G photon)
     2.60111839E-09    2     1000039        23   # BR(chi^0_4 -> ~G Z)
     1.36285632E-10    2     1000039        25   # BR(chi^0_4 -> ~G h^0)
     2.26930588E-07    2     1000022        22   # BR(chi^0_4 -> chi^0_1 photon)
     9.26685299E-07    2     1000023        22   # BR(chi^0_4 -> chi^0_2 photon)
     8.12392878E-07    2     1000025        22   # BR(chi^0_4 -> chi^0_3 photon)
#    BR                NDA      ID1      ID2       ID3
     3.52899575E-08    3     1000022         2        -2   # BR(chi^0_4 -> chi^0_1 u u_bar)
     3.52872735E-08    3     1000022         4        -4   # BR(chi^0_4 -> chi^0_1 c c_bar)
     1.25146961E-06    3     1000022         6        -6   # BR(chi^0_4 -> chi^0_1 t t_bar)
     4.47227076E-08    3     1000022         1        -1   # BR(chi^0_4 -> chi^0_1 d d_bar)
     4.47476596E-08    3     1000022         3        -3   # BR(chi^0_4 -> chi^0_1 s s_bar)
     1.13708064E-07    3     1000022         5        -5   # BR(chi^0_4 -> chi^0_1 b b_bar)
     5.69274671E-08    3     1000022        11       -11   # BR(chi^0_4 -> chi^0_1 e^- e^+)
     5.66163307E-08    3     1000022        13       -13   # BR(chi^0_4 -> chi^0_1 mu^- mu^+)
     3.09349386E-07    3     1000022        15       -15   # BR(chi^0_4 -> chi^0_1 tau^- tau^+)
     2.83587127E-09    3     1000023         2        -2   # BR(chi^0_4 -> chi^0_2 u u_bar)
     2.83374875E-09    3     1000023         4        -4   # BR(chi^0_4 -> chi^0_2 c c_bar)
     2.11328533E-09    3     1000023         1        -1   # BR(chi^0_4 -> chi^0_2 d d_bar)
     5.60221429E-09    3     1000023         3        -3   # BR(chi^0_4 -> chi^0_2 s s_bar)
     8.30858349E-06    3     1000023         5        -5   # BR(chi^0_4 -> chi^0_2 b b_bar)
     1.09768644E-06    3     1000023        11       -11   # BR(chi^0_4 -> chi^0_2 e^- e^+)
     1.11699186E-06    3     1000023        13       -13   # BR(chi^0_4 -> chi^0_2 mu^- mu^+)
     6.66322471E-06    3     1000023        15       -15   # BR(chi^0_4 -> chi^0_2 tau^- tau^+)
     1.09412846E-06    3     1000023        12       -12   # BR(chi^0_4 -> chi^0_2 nu_e nu_bar_e)
     5.45114797E-12    3     1000025         2        -2   # BR(chi^0_4 -> chi^0_3 u u_bar)
     5.81447988E-12    3     1000025         4        -4   # BR(chi^0_4 -> chi^0_3 c c_bar)
     1.66565042E-11    3     1000025         1        -1   # BR(chi^0_4 -> chi^0_3 d d_bar)
     2.99533394E-09    3     1000025         3        -3   # BR(chi^0_4 -> chi^0_3 s s_bar)
     7.08784430E-06    3     1000025         5        -5   # BR(chi^0_4 -> chi^0_3 b b_bar)
     6.80206300E-10    3     1000025        11       -11   # BR(chi^0_4 -> chi^0_3 e^- e^+)
     1.33744817E-08    3     1000025        13       -13   # BR(chi^0_4 -> chi^0_3 mu^- mu^+)
     3.42030715E-06    3     1000025        15       -15   # BR(chi^0_4 -> chi^0_3 tau^- tau^+)
     1.12314821E-08    3     1000025        12       -12   # BR(chi^0_4 -> chi^0_3 nu_e nu_bar_e)
     1.79498493E-09    3     1000024         1        -2   # BR(chi^0_4 -> chi^+_1 d u_bar)
     1.79498493E-09    3    -1000024        -1         2   # BR(chi^0_4 -> chi^-_1 d_bar u)
     6.04862038E-09    3     1000024         3        -4   # BR(chi^0_4 -> chi^+_1 s c_bar)
     6.04862038E-09    3    -1000024        -3         4   # BR(chi^0_4 -> chi^-_1 s_bar c)
     1.09848347E-05    3     1000024         5        -6   # BR(chi^0_4 -> chi^+_1 b t_bar)
     1.09848347E-05    3    -1000024        -5         6   # BR(chi^0_4 -> chi^-_1 b_bar t)
     6.86552336E-07    3     1000024        11       -12   # BR(chi^0_4 -> chi^+_1 e^- nu_bar_e)
     6.86552336E-07    3    -1000024       -11        12   # BR(chi^0_4 -> chi^-_1 e^+ nu_e)
     7.04049270E-07    3     1000024        13       -14   # BR(chi^0_4 -> chi^+_1 mu^- nu_bar_mu)
     7.04049270E-07    3    -1000024       -13        14   # BR(chi^0_4 -> chi^-_1 mu^+ nu_mu)
     4.79143735E-06    3     1000024        15       -16   # BR(chi^0_4 -> chi^+_1 tau^- nu_bar_tau)
     4.79143735E-06    3    -1000024       -15        16   # BR(chi^0_4 -> chi^-_1 tau^+ nu_tau)
DECAY   1000021     1.70269613E+01   # ~g
#    BR                NDA      ID1      ID2
     3.66764025E-02    2     2000002        -2   # BR(~g -> ~u_R u_bar)
     3.66764025E-02    2    -2000002         2   # BR(~g -> ~u^*_R u)
     9.59517686E-03    2     1000002        -2   # BR(~g -> ~u_L u_bar)
     9.59517686E-03    2    -1000002         2   # BR(~g -> ~u^*_L u)
     3.66763106E-02    2     2000004        -4   # BR(~g -> ~c_R c_bar)
     3.66763106E-02    2    -2000004         4   # BR(~g -> ~c^*_R c)
     9.59967426E-03    2     1000004        -4   # BR(~g -> ~c_L c_bar)
     9.59967426E-03    2    -1000004         4   # BR(~g -> ~c^*_L c)
     2.13602744E-02    2     1000006        -4   # BR(~g -> ~t_1 c_bar)
     2.13602744E-02    2    -1000006         4   # BR(~g -> ~t^*_1 c)
     9.06652554E-02    2     1000006        -6   # BR(~g -> ~t_1 t_bar)
     9.06652554E-02    2    -1000006         6   # BR(~g -> ~t^*_1 t)
     4.57508359E-02    2     2000006        -6   # BR(~g -> ~t_2 t_bar)
     4.57508359E-02    2    -2000006         6   # BR(~g -> ~t^*_2 t)
     3.97762669E-02    2     2000001        -1   # BR(~g -> ~d_R d_bar)
     3.97762669E-02    2    -2000001         1   # BR(~g -> ~d^*_R d)
     9.36022058E-03    2     1000001        -1   # BR(~g -> ~d_L d_bar)
     9.36022058E-03    2    -1000001         1   # BR(~g -> ~d^*_L d)
     3.97958185E-02    2     2000003        -3   # BR(~g -> ~s_R s_bar)
     3.97958185E-02    2    -2000003         3   # BR(~g -> ~s^*_R s)
     9.36491271E-03    2     1000003        -3   # BR(~g -> ~s_L s_bar)
     9.36491271E-03    2    -1000003         3   # BR(~g -> ~s^*_L s)
     9.90277200E-02    2     1000005        -5   # BR(~g -> ~b_1 b_bar)
     9.90277200E-02    2    -1000005         5   # BR(~g -> ~b^*_1 b)
     5.22095255E-02    2     2000005        -5   # BR(~g -> ~b_2 b_bar)
     5.22095255E-02    2    -2000005         5   # BR(~g -> ~b^*_2 b)
     1.00948770E-06    2     1000022        21   # BR(~g -> chi^0_1 g)
     1.15242481E-04    2     1000023        21   # BR(~g -> chi^0_2 g)
     1.50895137E-04    2     1000025        21   # BR(~g -> chi^0_3 g)
     1.60649340E-05    2     1000035        21   # BR(~g -> chi^0_4 g)
DECAY        25     2.48281677E-03   # h^0
#    BR                NDA      ID1      ID2
     1.18872373E-08    2          11       -11   # BR(h^0 -> e^- e^+)
     5.08148146E-04    2          13       -13   # BR(h^0 -> mu^- mu^+)
     1.38559051E-01    2          15       -15   # BR(h^0 -> tau^- tau^+)
     5.97821382E-07    2           1        -1   # BR(h^0 -> d d_bar)
     2.63631900E-04    2           3        -3   # BR(h^0 -> s s_bar)
     5.72011514E-01    2           5        -5   # BR(h^0 -> b b_bar)
     2.69394652E-07    2           2        -2   # BR(h^0 -> u u_bar)
     4.82684712E-02    2           4        -4   # BR(h^0 -> c c_bar)
     7.23917025E-02    2          21        21   # BR(h^0 -> g g)
     3.57250130E-03    2          22        22   # BR(h^0 -> photon photon)
# writing decays into V V* as 3-body decays
#    BR                NDA      ID1      ID2       ID3
     7.52609406E-03    3          24        11        12   # BR(h^0 -> W^+ e^- nu_e)
     7.52609406E-03    3          24        13        14   # BR(h^0 -> W^+ mu^- nu_mu)
     7.52609406E-03    3          24        15        16   # BR(h^0 -> W^+ tau^- nu_tau)
     2.63413292E-02    3          24         1        -2   # BR(h^0 -> W^+ d u_bar)
     2.63413292E-02    3          24         3        -4   # BR(h^0 -> W^+ s c_bar)
     7.52609406E-03    3         -24       -11       -12   # BR(h^0 -> W^- e^+ nu_bar_e)
     7.52609406E-03    3         -24       -13       -14   # BR(h^0 -> W^- mu^+ nu_bar_mu)
     7.52609406E-03    3         -24       -15       -16   # BR(h^0 -> W^- tau^+ nu_bar_tau)
     2.63413292E-02    3         -24        -1         2   # BR(h^0 -> W^- d_bar u)
     2.63413292E-02    3         -24        -3         4   # BR(h^0 -> W^- s_bar c)
     4.86577683E-04    3          23        11       -11   # BR(h^0 -> Z e^- e^+)
     4.86577683E-04    3          23        13       -13   # BR(h^0 -> Z mu^- mu^+)
     4.17066585E-04    3          23        15       -15   # BR(h^0 -> Z tau^- tau^+)
     2.78044390E-03    3          23        12       -12   # BR(h^0 -> Z nu_e nu_bar_e)
     1.94631073E-03    3          23         1        -1   # BR(h^0 -> Z u u_bar)
     1.94631073E-03    3          23         3        -3   # BR(h^0 -> Z c c_bar)
     1.94631073E-03    3          23         5        -5   # BR(h^0 -> Z t t_bar)
     1.94631073E-03    3          23         2        -2   # BR(h^0 -> Z u u_bar)
     1.94631073E-03    3          23         4        -4   # BR(h^0 -> Z c c_bar)
DECAY        35     2.36107269E+01   # H^0
#    BR                NDA      ID1      ID2
     1.79815210E-08    2          11       -11   # BR(H^0 -> e^- e^+)
     7.68805961E-04    2          13       -13   # BR(H^0 -> mu^- mu^+)
     2.20776598E-01    2          15       -15   # BR(H^0 -> tau^- tau^+)
     7.44778253E-07    2           1        -1   # BR(H^0 -> d d_bar)
     3.28446542E-04    2           3        -3   # BR(H^0 -> s s_bar)
     7.77795031E-01    2           5        -5   # BR(H^0 -> b b_bar)
     3.56869155E-14    2           2        -2   # BR(H^0 -> u u_bar)
     6.39550826E-09    2           4        -4   # BR(H^0 -> c c_bar)
     2.06777223E-04    2           6        -6   # BR(H^0 -> t t_bar)
     6.20465775E-06    2     1000015  -1000015   # BR(H^0 -> ~tau^-_1 ~tau^+_1)
     1.91359138E-06    2          23        23   # BR(H^0 -> Z Z)
     3.75126620E-06    2          24       -24   # BR(H^0 -> W^+ W^-)
     9.25954814E-06    2          25        25   # BR(H^0 -> h^0 h^0)
     1.02279556E-04    2          21        21   # BR(H^0 -> g g)
     1.63491744E-07    2          22        22   # BR(H^0 -> photon photon)
DECAY        36     2.36109161E+01   # A^0
#    BR                NDA      ID1      ID2
     1.79810328E-08    2          11       -11   # BR(A^0 -> e^- e^+)
     7.68785201E-04    2          13       -13   # BR(A^0 -> mu^- mu^+)
     2.20779797E-01    2          15       -15   # BR(A^0 -> tau^- tau^+)
     7.44757576E-07    2           1        -1   # BR(A^0 -> d d_bar)
     3.28437411E-04    2           3        -3   # BR(A^0 -> s s_bar)
     7.77820384E-01    2           5        -5   # BR(A^0 -> b b_bar)
     3.04674529E-14    2           2        -2   # BR(A^0 -> u u_bar)
     5.46012941E-09    2           4        -4   # BR(A^0 -> c c_bar)
     2.70690007E-04    2           6        -6   # BR(A^0 -> t t_bar)
     3.37467099E-06    2          25        23   # BR(A^0 -> h^0 Z)
     2.77157658E-05    2          21        21   # BR(A^0 -> g g)
     4.77380827E-08    2          22        22   # BR(A^0 -> photon photon)
DECAY        37     1.87909803E+01   # H^+
#    BR                NDA      ID1      ID2
     2.28884818E-08    2         -11        12   # BR(H^+ -> e^+ nu_e)
     9.78604860E-04    2         -13        12   # BR(H^+ -> mu^+ nu_e)
     2.81035974E-01    2         -15        12   # BR(H^+ -> tau^+ nu_e)
     8.40008046E-07    2          -1         2   # BR(H^+ -> d_bar u)
     3.70445036E-04    2          -3         4   # BR(H^+ -> s_bar c)
     7.17609706E-01    2          -5         6   # BR(H^+ -> b_bar t)
     4.40728193E-06    2          25        24   # BR(H^+ -> h^0 W^+)
DECAY         6     2.43000000E+00   # top
#    BR                NDA      ID1      ID2
     1.00000000E+00    2           5        24   # BR(t -> b W)
Block HiggsBoundsInputHiggsCouplingsFermions
# ScalarNormEffCoupSq PseudoSNormEffCoupSq NP IP1 IP2 IP2
    1.17122446E+00    0.00000000E+00        3  25   5   5  # h0-b-b eff. coupling^2, normalised to SM
    3.59982878E+03    0.00000000E+00        3  35   5   5  # H0-b-b eff. coupling^2, normalised to SM
    0.00000000E+00    3.60000000E+03        3  36   5   5  # A0-b-b eff. coupling^2, normalised to SM
#
    9.99952438E-01    0.00000000E+00        3  25   6   6  # h0-t-t eff. coupling^2, normalised to SM
    3.25340128E-04    0.00000000E+00        3  35   6   6  # H0-t-t eff. coupling^2, normalised to SM
    0.00000000E+00    2.77777778E-04        3  36   6   6  # A0-t-t eff. coupling^2, normalised to SM
#
    1.17122446E+00    0.00000000E+00        3  25  15  15  # h0-tau-tau eff. coupling^2, normalised to SM
    3.59982878E+03    0.00000000E+00        3  35  15  15  # H0-tau-tau eff. coupling^2, normalised to SM
    0.00000000E+00    3.60000000E+03        3  36  15  15  # A0-tau-tau eff. coupling^2, normalised to SM
#
Block HiggsBoundsInputHiggsCouplingsBosons
    9.99998122E-01        3  25  24  24  # h0-W-W eff. coupling^2, normalised to SM
    1.87836985E-06        3  35  24  24  # H0-W-W eff. coupling^2, normalised to SM
    0.00000000E+00        3  36  24  24  # A0-W-W eff. coupling^2, normalised to SM
#
    9.99998122E-01        3  25  23  23  # h0-Z-Z eff. coupling^2, normalised to SM
    1.87836985E-06        3  35  23  23  # H0-Z-Z eff. coupling^2, normalised to SM
    0.00000000E+00        3  36  23  23  # A0-Z-Z eff. coupling^2, normalised to SM
#
    1.15814566E+00        3  25  21  21  # h0-g-g eff. coupling^2, normalised to SM
    1.13546418E-01        3  35  21  21  # H0-g-g eff. coupling^2, normalised to SM
    2.66812867E-01        3  36  21  21  # A0-g-g eff. coupling^2, normalised to SM
#
    0.00000000E+00        3  25  25  23  # h0-h0-Z eff. coupling^2, normalised to SM
    0.00000000E+00        3  35  25  23  # H0-h0-Z eff. coupling^2, normalised to SM
    1.87836985E-06        3  36  25  23  # A0-h0-Z eff. coupling^2, normalised to SM
    0.00000000E+00        3  35  35  23  # H0-H0-Z eff. coupling^2, normalised to SM
    9.99998122E-01        3  36  35  23  # A0-H0-Z eff. coupling^2, normalised to SM
    0.00000000E+00        3  36  36  23  # A0-A0-Z eff. coupling^2, normalised to SM
#
    0.00000000E+00        4  25  21  21  23  # h0-g-g-Z eff. coupling^2, normalised to SM
    0.00000000E+00        4  35  21  21  23  # H0-g-g-Z eff. coupling^2, normalised to SM
    0.00000000E+00        4  36  21  21  23  # A0-g-g-Z eff. coupling^2, normalised to SM
Block SPhenoLowEnergy  # low energy observables
    1    3.30063991E-04   # BR(b -> s gamma)
    2    1.58957207E-06   # BR(b -> s mu+ mu-)
    3    3.53918775E-05   # BR(b -> s nu nu)
    4    1.44301573E-10   # BR(Bd -> mu+ mu-)
    5    9.63851891E-09   # BR(Bs -> mu+ mu-)
    6    7.09594288E-05   # BR(B_u -> tau nu)
    7    6.41624883E-01   # BR(B_u -> tau nu)/BR(B_u -> tau nu)_SM
    8    2.72665569E-01   # |Delta(M_Bd)| [ps^-1] 
    9    2.00828813E+01   # |Delta(M_Bs)| [ps^-1] 
   20    4.63465645E-14   # Delta(g-2)_electron/2
   21    1.01091434E-09   # Delta(g-2)_muon/2
   22    1.05931463E-07   # Delta(g-2)_tau/2
   23    0.00000000E+00   # electric dipole moment of the electron
   24    0.00000000E+00   # electric dipole moment of the muon
   25    0.00000000E+00   # electric dipole moment of the tau
   26    0.00000000E+00   # Br(mu -> e gamma)
   27    0.00000000E+00   # Br(tau -> e gamma)
   28    0.00000000E+00   # Br(tau -> mu gamma)
   29    0.00000000E+00   # Br(mu -> 3 e)
   30    0.00000000E+00   # Br(tau -> 3 e)
   31    0.00000000E+00   # Br(tau -> 3 mu)
   39    2.50640377E-03   # Delta(rho_parameter)
   40    0.00000000E+00   # BR(Z -> e mu)
   41    0.00000000E+00   # BR(Z -> e tau)
   42    0.00000000E+00   # BR(Z -> mu tau)
Block FWCOEF Q=  9.11876000E+01  # Wilson coefficients at scale Q
#    id        order  M        value         comment
Block FWCOEF Q=  1.60000000E+02  # Wilson coefficients at scale Q
#    id        order  M        value         comment
     0305 4422   00   0    -1.87764313E-01   # C7
     0305 4422   00   1    -3.00166300E-02   # C7
     0305 4322   00   1    -6.19468305E-04   # C7'
     0305 6421   00   0    -9.48915878E-02   # C8
     0305 6421   00   1    -4.31783142E-02   # C8
     0305 6321   00   1    -8.92460003E-04   # C8'
 03051111 4133   00   0    -1.17757151E+00   # C9 e+e-
 03051111 4133   00   1     9.47659067E-04   # C9 e+e-
 03051111 4233   00   1    -2.90182094E-04   # C9' e+e-
 03051111 4137   00   0    -3.95243201E+00   # C10 e+e-
 03051111 4137   00   1     3.41321957E-03   # C10 e+e-
 03051111 4237   00   1     7.28102815E-03   # C10' e+e-
 03051313 4133   00   0    -1.17757151E+00   # C9 mu+mu-
 03051313 4133   00   1     9.47160548E-04   # C9 mu+mu-
 03051313 4233   00   1    -2.90652433E-04   # C9' mu+mu-
 03051313 4137   00   0    -3.95243201E+00   # C10 mu+mu-
 03051313 4137   00   1     3.41272071E-03   # C10 mu+mu-
 03051313 4237   00   1     7.28149887E-03   # C10' mu+mu-
 03051212 4237   00   0     1.49024468E+00   # C11 nu_1 nu_1
 03051212 4237   00   1    -8.20918870E-04   # C11 nu_1 nu_1
 03051212 4137   00   1    -1.74793510E-03   # C11' nu_1 nu_1
 03051414 4237   00   0     1.49024468E+00   # C11 nu_2 nu_2
 03051414 4237   00   1    -8.20918515E-04   # C11 nu_2 nu_2
 03051414 4137   00   1    -1.74782224E-03   # C11' nu_2 nu_2
 03051616 4237   00   0     1.49024468E+00   # C11 nu_3 nu_3
 03051616 4237   00   1    -8.20553081E-04   # C11 nu_3 nu_3
 03051616 4137   00   1    -1.71601108E-03   # C11' nu_3 nu_3
