#
#                              ======================
#                              | THE SUSYHIT OUTPUT |
#                              ======================
#
#
#              ------------------------------------------------------
#              |     This is the output of the SUSY-HIT package     |
#              |  created by A.Djouadi, M.Muehlleitner and M.Spira. |
#              |  In case of problems with SUSY-HIT email to        |
#              |           margarete.muehlleitner@cern.ch           |
#              |           michael.spira@psi.ch                     |
#              |           abdelhak.djouadi@cern.ch                 |
#              ------------------------------------------------------
#
#              ------------------------------------------------------
#              |  SUSY Les Houches Accord - MSSM Spectrum + Decays  |
#              |              based on the decay programs           |
#              |                                                    |
#              |                     SDECAY 1.3b                    |
#              |                                                    |
#              |  Authors: M.Muhlleitner, A.Djouadi and Y.Mambrini  |
#              |  Ref.:    Comput.Phys.Commun.168(2005)46           |
#              |           [hep-ph/0311167]                         |
#              |                                                    |
#              |                     HDECAY 3.4                     |
#              |                                                    |
#              |  By: A.Djouadi,J.Kalinowski,M.Muhlleitner,M.Spira  |
#              |  Ref.:    Comput.Phys.Commun.108(1998)56           |
#              |           [hep-ph/9704448]                         |
#              |                                                    |
#              |                                                    |
#              |  If not stated otherwise all DRbar couplings and   |
#              |  soft SUSY breaking masses are given at the scale  |
#              |  Q=  0.91187600E+02
#              |                                                    |
#              ------------------------------------------------------
#
#
BLOCK DCINFO  # Decay Program information
     1   SDECAY/HDECAY # decay calculator
     2   1.3b  /3.4    # version number
#
BLOCK SPINFO  # Spectrum calculator information
     1   SuSpect     # RGE +Spectrum calculator            
     2   2.41         # version number                     
#
BLOCK MODSEL  # Model selection
     1     0   # #general MSSM low scale                           
#
BLOCK SMINPUTS  # Standard Model inputs
         1     1.27934000E+02   # alpha_em^-1(M_Z)^MSbar
         2     1.16639000E-05   # G_F [GeV^-2]
         3     1.17200000E-01   # alpha_S(M_Z)^MSbar
         4     9.11870000E+01   # M_Z pole mass
         5     4.25000000E+00   # mb(mb)^MSbar
         6     1.72500000E+02   # mt pole mass
         7     1.77700000E+00   # mtau pole mass
#
BLOCK MINPAR  # Input parameters - minimal models
#
BLOCK EXTPAR  # Input parameters - non-minimal models
         0     9.11876000E+01   # EWSB                
         1     1.89000000E+03   # M_1                 
         2     1.00000000E+05   # M_2                 
         3     1.00000000E+05   # M_3                 
        11     0.00000000E+00   # A_t                 
        12     0.00000000E+00   # A_b                 
        13     0.00000000E+00   # A_tau               
        14     0.00000000E+00   # A_u                 
        15     0.00000000E+00   # A_d                 
        16     0.00000000E+00   # A_e                 
        23     3.50000000E+03   # mu(EWSB)            
        25     1.50000000E+00   # tanbeta(in)         
        26     2.00000000E+03   # MA_pole             
        31     1.00000000E+05   # M_eL                
        32     1.00000000E+05   # M_muL               
        33     1.00000000E+05   # M_tauL              
        34     1.00000000E+05   # M_eR                
        35     1.00000000E+05   # M_muR               
        36     1.00000000E+05   # M_tauR              
        41     1.90000000E+03   # M_q1L               
        42     1.90000000E+03   # M_q2L               
        43     1.90000000E+03   # M_q3L               
        44     1.00000000E+05   # M_uR                
        45     1.00000000E+05   # M_cR                
        46     1.00000000E+05   # M_tR                
        47     1.90000000E+03   # M_dR                
        48     1.90000000E+03   # M_sR                
        49     1.90000000E+03   # M_bR                
#
BLOCK MASS  # Mass Spectrum
# PDG code           mass       particle
        24     8.05842135E+01   # W+
        25     1.25000000E+02   # h
        35     2.00404458E+03   # H
        36     2.00000000E+03   # A
        37     2.02368849E+03   # H+
         5     4.87877839E+00   # b-quark pole mass calculated from mb(mb)_Msbar
   1000001     1.90034912E+03   # ~d_L
   2000001     1.90006734E+03   # ~d_R
   1000002     1.89971818E+03   # ~u_L
   2000002     9.99999974E+04   # ~u_R
   1000003     1.90034912E+03   # ~s_L
   2000003     1.90006734E+03   # ~s_R
   1000004     1.89971818E+03   # ~c_L
   2000004     9.99999974E+04   # ~c_R
   1000005     1.89663083E+03   # ~b_1
   2000005     1.90378243E+03   # ~b_2
   1000006     1.90543211E+03   # ~t_1
   2000006     1.00000106E+05   # ~t_2
   1000011     1.00000004E+05   # ~e_L
   2000011     1.00000004E+05   # ~e_R
   1000012     9.99999921E+04   # ~nu_eL
   1000013     1.00000004E+05   # ~mu_L
   2000013     1.00000004E+05   # ~mu_R
   1000014     9.99999921E+04   # ~nu_muL
   1000015     9.99999574E+04   # ~tau_1
   2000015     1.00000051E+05   # ~tau_2
   1000016     9.99999921E+04   # ~nu_tauL
   1000021     1.00000000E+05   # ~g
   1000022     1.88882294E+03   # ~chi_10
   1000023    -3.50001656E+03   # ~chi_20
   1000025     3.50112919E+03   # ~chi_30
   1000035     1.00000064E+05   # ~chi_40
   1000024     3.49994020E+03   # ~chi_1+
   1000037     1.00000064E+05   # ~chi_2+
   1000039     1.00000000E-09   # ~gravitino
#
BLOCK NMIX  # Neutralino Mixing Matrix
  1  1     9.99629168E-01   # N_11
  1  2    -2.11935405E-05   # N_12
  1  3     2.03702179E-02   # N_13
  1  4    -1.80715183E-02   # N_14
  2  1     1.62570206E-03   # N_21
  2  2    -1.49614528E-04   # N_22
  2  3    -7.07097474E-01   # N_23
  2  4    -7.07114203E-01   # N_24
  3  1     2.71824042E-02   # N_31
  3  2     8.02008800E-04   # N_32
  3  3    -7.06822469E-01   # N_33
  3  4     7.06868071E-01   # N_34
  4  1     3.71617548E-07   # N_41
  4  2    -9.99999667E-01   # N_42
  4  3    -4.61517656E-04   # N_43
  4  4     6.73092196E-04   # N_44
#
BLOCK UMIX  # Chargino Mixing Matrix U
  1  1    -6.52684321E-04   # U_11
  1  2     9.99999787E-01   # U_12
  2  1     9.99999787E-01   # U_21
  2  2     6.52684321E-04   # U_22
#
BLOCK VMIX  # Chargino Mixing Matrix V
  1  1    -9.51896020E-04   # V_11
  1  2     9.99999547E-01   # V_12
  2  1     9.99999547E-01   # V_21
  2  2     9.51896020E-04   # V_22
#
BLOCK STOPMIX  # Stop Mixing Matrix
  1  1     9.99999999E-01   # cos(theta_t)
  1  2     4.47213589E-05   # sin(theta_t)
  2  1    -4.47213589E-05   # -sin(theta_t)
  2  2     9.99999999E-01   # cos(theta_t)
#
BLOCK SBOTMIX  # Sbottom Mixing Matrix
  1  1     6.93036865E-01   # cos(theta_b)
  1  2     7.20902146E-01   # sin(theta_b)
  2  1    -7.20902146E-01   # -sin(theta_b)
  2  2     6.93036865E-01   # cos(theta_b)
#
BLOCK STAUMIX  # Stau Mixing Matrix
  1  1     7.06210050E-01   # cos(theta_tau)
  1  2     7.08002377E-01   # sin(theta_tau)
  2  1    -7.08002377E-01   # -sin(theta_tau)
  2  2     7.06210050E-01   # cos(theta_tau)
#
BLOCK ALPHA  # Higgs mixing
          -5.90333065E-01   # Mixing angle in the neutral Higgs boson sector
#
BLOCK HMIX Q=  9.11876000E+01  # DRbar Higgs Parameters
         1     3.50000000E+03   # mu(Q)               
         2     1.49999982E+00   # tanbeta(Q)          
         3     2.54890496E+02   # vev(Q)              
         4    -6.81625928E+07   # MA^2(Q)             
#
BLOCK GAUGE Q=  9.11876000E+01  # The gauge couplings
     1     3.50565502E-01   # gprime(Q) DRbar
     2     6.19515687E-01   # g(Q) DRbar
     3     1.02270771E+00   # g3(Q) DRbar
#
BLOCK AU Q=  9.11876000E+01  # The trilinear couplings
  1  1     0.00000000E+00   # A_u(Q) DRbar
  2  2     0.00000000E+00   # A_c(Q) DRbar
  3  3     0.00000000E+00   # A_t(Q) DRbar
#
BLOCK AD Q=  9.11876000E+01  # The trilinear couplings
  1  1     0.00000000E+00   # A_d(Q) DRbar
  2  2     0.00000000E+00   # A_s(Q) DRbar
  3  3     0.00000000E+00   # A_b(Q) DRbar
#
BLOCK AE Q=  9.11876000E+01  # The trilinear couplings
  1  1     0.00000000E+00   # A_e(Q) DRbar
  2  2     0.00000000E+00   # A_mu(Q) DRbar
  3  3     0.00000000E+00   # A_tau(Q) DRbar
#
BLOCK Yu Q=  9.11876000E+01  # The Yukawa couplings
  1  1     0.00000000E+00   # y_u(Q) DRbar
  2  2     0.00000000E+00   # y_c(Q) DRbar
  3  3     9.83520863E-01   # y_t(Q) DRbar
#
BLOCK Yd Q=  9.11876000E+01  # The Yukawa couplings
  1  1     0.00000000E+00   # y_d(Q) DRbar
  2  2     0.00000000E+00   # y_s(Q) DRbar
  3  3     2.58708278E-02   # y_b(Q) DRbar
#
BLOCK Ye Q=  9.11876000E+01  # The Yukawa couplings
  1  1     0.00000000E+00   # y_e(Q) DRbar
  2  2     0.00000000E+00   # y_mu(Q) DRbar
  3  3     1.77387388E-02   # y_tau(Q) DRbar
#
BLOCK MSOFT Q=  9.11876000E+01  # The soft SUSY breaking masses at the scale Q
         1     1.89000000E+03   # M_1                 
         2     1.00000000E+05   # M_2                 
         3     1.00000000E+05   # M_3                 
        14     0.00000000E+00   # A_u                 
        15     0.00000000E+00   # A_d                 
        16     0.00000000E+00   # A_e                 
        21     6.30425807E+08   # M^2_Hd              
        22    -1.14989244E+09   # M^2_Hu              
        31     1.00000000E+05   # M_eL                
        32     1.00000000E+05   # M_muL               
        33     1.00000000E+05   # M_tauL              
        34     1.00000000E+05   # M_eR                
        35     1.00000000E+05   # M_muR               
        36     1.00000000E+05   # M_tauR              
        41     1.90000000E+03   # M_q1L               
        42     1.90000000E+03   # M_q2L               
        43     1.90000000E+03   # M_q3L               
        44     1.00000000E+05   # M_uR                
        45     1.00000000E+05   # M_cR                
        46     1.00000000E+05   # M_tR                
        47     1.90000000E+03   # M_dR                
        48     1.90000000E+03   # M_sR                
        49     1.90000000E+03   # M_bR                
#
#
#
#                             =================
#                             |The decay table|
#                             =================
#
# - The QCD corrections to the decays gluino -> squark  + quark
#                                     squark -> gaugino + quark_prime
#                                     squark -> squark_prime + Higgs
#                                     squark -> gluino  + quark
#   are included.
#
# - The multi-body decays for the inos, stops and sbottoms are included.
#
# - The loop induced decays for the gluino, neutralinos and stops
#   are included.
#
# - The SUSY decays of the top quark are included.
#
# - Possible decays of the NLSP in GMSB models are included.
#
#
#         PDG            Width
DECAY         6     1.32462152E+00   # top decays
#          BR         NDA      ID1       ID2
     1.00000000E+00    2           5        24   # BR(t ->  b    W+)
#
#         PDG            Width
DECAY   1000021     1.E-04   # gluino decays (OJ Mods)
#          BR         NDA      ID1       ID2
    -1.89918268E-03    2     1000001        -1   # BR(~g -> ~d_L  db)
    -1.89918268E-03    2    -1000001         1   # BR(~g -> ~d_L* d )
    -1.89918309E-03    2     2000001        -1   # BR(~g -> ~d_R  db)
    -1.89918309E-03    2    -2000001         1   # BR(~g -> ~d_R* d )
    -1.89918359E-03    2     1000002        -2   # BR(~g -> ~u_L  ub)
    -1.89918359E-03    2    -1000002         2   # BR(~g -> ~u_L* u )
    -5.13910098E-18    2     2000002        -2   # BR(~g -> ~u_R  ub)
    -5.13910098E-18    2    -2000002         2   # BR(~g -> ~u_R* u )
    -1.89918268E-03    2     1000003        -3   # BR(~g -> ~s_L  sb)
    -1.89918268E-03    2    -1000003         3   # BR(~g -> ~s_L* s )
    -1.89918309E-03    2     2000003        -3   # BR(~g -> ~s_R  sb)
    -1.89918309E-03    2    -2000003         3   # BR(~g -> ~s_R* s )
    -1.89918359E-03    2     1000004        -4   # BR(~g -> ~c_L  cb)
    -1.89918359E-03    2    -1000004         4   # BR(~g -> ~c_L* c )
    -5.13910098E-18    2     2000004        -4   # BR(~g -> ~c_R  cb)
    -5.13910098E-18    2    -2000004         4   # BR(~g -> ~c_R* c )
     2.69759361E-01    2     1000005        -5   # BR(~g -> ~b_1  bb)
     2.69759361E-01    2    -1000005         5   # BR(~g -> ~b_1* b )
     2.70169185E-01    2     2000005        -5   # BR(~g -> ~b_2  bb)
     2.70169185E-01    2    -2000005         5   # BR(~g -> ~b_2* b )
    -1.86918328E-03    2     1000006        -6   # BR(~g -> ~t_1  tb)
    -1.86918328E-03    2    -1000006         6   # BR(~g -> ~t_1* t )
    -5.33285283E-02    2     1000039        21   # BR(~g -> ~G g)
#
#         PDG            Width
DECAY   1000006     8.99705544E-06   # stop1 decays
#          BR         NDA      ID1       ID2
     9.86555935E-01    2     1000022         4   # BR(~t_1 -> ~chi_10 c )
     7.60604695E-03    2     1000022         2   # BR(~t_1 -> ~chi_10 u )
#           BR         NDA      ID1       ID2       ID3
     1.98491332E-03    3     1000005        -1         2   # BR(~t_1 -> ~b_1     db u)
     4.96398418E-07    3     2000005        -1         2   # BR(~t_1 -> ~b_2     db u)
     1.98491332E-03    3     1000005        -3         4   # BR(~t_1 -> ~b_1     sb c)
     4.96398418E-07    3     2000005        -3         4   # BR(~t_1 -> ~b_2     sb c)
     5.43591924E-04    3     1000005       -15        16   # BR(~t_1 -> ~b_1     tau+ nu_tau)
     6.61637773E-04    3     1000005       -11        12   # BR(~t_1 -> ~b_1     e+   nu_e)
     1.65466139E-07    3     2000005       -11        12   # BR(~t_1 -> ~b_2     e+   nu_e)
     6.61637773E-04    3     1000005       -13        14   # BR(~t_1 -> ~b_1     mu+  nu_mu)
     1.65466139E-07    3     2000005       -13        14   # BR(~t_1 -> ~b_2     mu+  nu_mu)
#
#         PDG            Width
DECAY   2000006    -1.07976688E+05   # stop2 decays
#          BR         NDA      ID1       ID2
    -1.93088325E-03    2     1000022         6   # BR(~t_2 -> ~chi_10 t )
    -4.64212820E-03    2     1000023         6   # BR(~t_2 -> ~chi_20 t )
    -4.64018880E-03    2     1000025         6   # BR(~t_2 -> ~chi_30 t )
     1.01105552E+00    2     1000024         5   # BR(~t_2 -> ~chi_1+ b )
     1.25465654E-04    2     1000006        25   # BR(~t_2 -> ~t_1    h )
    -1.31424007E-04    2     1000006        35   # BR(~t_2 -> ~t_1    H )
    -1.31190891E-04    2     1000006        36   # BR(~t_2 -> ~t_1    A )
    -1.23595721E-04    2     1000005        37   # BR(~t_2 -> ~b_1    H+)
    -1.38782846E-04    2     2000005        37   # BR(~t_2 -> ~b_2    H+)
     8.92541632E-05    2     1000006        23   # BR(~t_2 -> ~t_1    Z )
     2.24761367E-04    2     1000005        24   # BR(~t_2 -> ~b_1    W+)
     2.43189604E-04    2     2000005        24   # BR(~t_2 -> ~b_2    W+)
#
#         PDG            Width
DECAY   1000005    -9.49491300E-04   # sbottom1 decays
#          BR         NDA      ID1       ID2
     1.00000000E+00    2     1000022         5   # BR(~b_1 -> ~chi_10 b )
#
#         PDG            Width
DECAY   2000005    -1.00919076E-02   # sbottom2 decays
#          BR         NDA      ID1       ID2
     1.00000000E+00    2     1000022         5   # BR(~b_2 -> ~chi_10 b )
#
#         PDG            Width
DECAY   1000002     2.52268747E-04   # sup_L decays
#          BR         NDA      ID1       ID2
     1.00000000E+00    2     1000022         2   # BR(~u_L -> ~chi_10 u)
#
#         PDG            Width
DECAY   2000002     2.08371406E+02   # sup_R decays
#          BR         NDA      ID1       ID2
     9.99259202E-01    2     1000022         2   # BR(~u_R -> ~chi_10 u)
     2.64031629E-06    2     1000023         2   # BR(~u_R -> ~chi_20 u)
     7.38158027E-04    2     1000025         2   # BR(~u_R -> ~chi_30 u)
#
#         PDG            Width
DECAY   1000001     2.69514680E-04   # sdown_L decays
#          BR         NDA      ID1       ID2
     1.00000000E+00    2     1000022         1   # BR(~d_L -> ~chi_10 d)
#
#         PDG            Width
DECAY   2000001     1.04708577E-03   # sdown_R decays
#          BR         NDA      ID1       ID2
     1.00000000E+00    2     1000022         1   # BR(~d_R -> ~chi_10 d)
#
#         PDG            Width
DECAY   1000004     2.52268747E-04   # scharm_L decays
#          BR         NDA      ID1       ID2
     1.00000000E+00    2     1000022         4   # BR(~c_L -> ~chi_10 c)
#
#         PDG            Width
DECAY   2000004     2.08371406E+02   # scharm_R decays
#          BR         NDA      ID1       ID2
     9.99259202E-01    2     1000022         4   # BR(~c_R -> ~chi_10 c)
     2.64031629E-06    2     1000023         4   # BR(~c_R -> ~chi_20 c)
     7.38158027E-04    2     1000025         4   # BR(~c_R -> ~chi_30 c)
#
#         PDG            Width
DECAY   1000003     2.69514680E-04   # sstrange_L decays
#          BR         NDA      ID1       ID2
     1.00000000E+00    2     1000022         3   # BR(~s_L -> ~chi_10 s)
#
#         PDG            Width
DECAY   2000003     1.04708577E-03   # sstrange_R decays
#          BR         NDA      ID1       ID2
     1.00000000E+00    2     1000022         3   # BR(~s_R -> ~chi_10 s)
#
#         PDG            Width
DECAY   1000011     1.22160440E+02   # selectron_L decays
#          BR         NDA      ID1       ID2
     9.99178976E-01    2     1000022        11   # BR(~e_L -> ~chi_10 e-)
     1.84992456E-06    2     1000023        11   # BR(~e_L -> ~chi_20 e-)
     8.16517878E-04    2     1000025        11   # BR(~e_L -> ~chi_30 e-)
     2.65610911E-06    2    -1000024        12   # BR(~e_L -> ~chi_1- nu_e)
#
#         PDG            Width
DECAY   2000011     4.88638872E+02   # selectron_R decays
#          BR         NDA      ID1       ID2
     9.99259762E-01    2     1000022        11   # BR(~e_R -> ~chi_10 e-)
     2.63832156E-06    2     1000023        11   # BR(~e_R -> ~chi_20 e-)
     7.37599933E-04    2     1000025        11   # BR(~e_R -> ~chi_30 e-)
#
#         PDG            Width
DECAY   1000013     1.22160440E+02   # smuon_L decays
#          BR         NDA      ID1       ID2
     9.99178976E-01    2     1000022        13   # BR(~mu_L -> ~chi_10 mu-)
     1.84992456E-06    2     1000023        13   # BR(~mu_L -> ~chi_20 mu-)
     8.16517878E-04    2     1000025        13   # BR(~mu_L -> ~chi_30 mu-)
     2.65610911E-06    2    -1000024        14   # BR(~mu_L -> ~chi_1- nu_mu)
#
#         PDG            Width
DECAY   2000013     4.88638872E+02   # smuon_R decays
#          BR         NDA      ID1       ID2
     9.99259762E-01    2     1000022        13   # BR(~mu_R -> ~chi_10 mu-)
     2.63832156E-06    2     1000023        13   # BR(~mu_R -> ~chi_20 mu-)
     7.37599933E-04    2     1000025        13   # BR(~mu_R -> ~chi_30 mu-)
#
#         PDG            Width
DECAY   1000015     1.18197432E+04   # stau_1 decays
#          BR         NDA      ID1       ID2
     2.58729036E-02    2     1000022        15   # BR(~tau_1 -> ~chi_10  tau-)
     2.54931634E-05    2     1000023        15   # BR(~tau_1 -> ~chi_20  tau-)
     3.24435898E-05    2     1000025        15   # BR(~tau_1 -> ~chi_30  tau-)
     2.77012834E-05    2    -1000024        16   # BR(~tau_1 -> ~chi_1-  nu_tau)
     9.74041458E-01    2     1000039        15   # BR(~tau_1 -> ~G       tau-)
#
#         PDG            Width
DECAY   2000015     3.05849425E+02   # stau_2 decays
#          BR         NDA      ID1       ID2
     9.95675407E-01    2     1000022        15   # BR(~tau_2 -> ~chi_10  tau-)
     1.06145427E-03    2     1000023        15   # BR(~tau_2 -> ~chi_20  tau-)
     2.29085895E-03    2     1000025        15   # BR(~tau_2 -> ~chi_30  tau-)
     9.72280095E-04    2    -1000024        16   # BR(~tau_2 -> ~chi_1-  nu_tau)
#
#         PDG            Width
DECAY   1000012     1.22160503E+02   # snu_eL decays
#          BR         NDA      ID1       ID2
     9.99328101E-01    2     1000022        12   # BR(~nu_eL -> ~chi_10 nu_e)
     3.56625348E-06    2     1000023        12   # BR(~nu_eL -> ~chi_20 nu_e)
     6.62683332E-04    2     1000025        12   # BR(~nu_eL -> ~chi_30 nu_e)
     5.64960778E-06    2     1000024        11   # BR(~nu_eL -> ~chi_1+ e-)
#
#         PDG            Width
DECAY   1000014     1.22160503E+02   # snu_muL decays
#          BR         NDA      ID1       ID2
     9.99328101E-01    2     1000022        14   # BR(~nu_muL -> ~chi_10 nu_mu)
     3.56625348E-06    2     1000023        14   # BR(~nu_muL -> ~chi_20 nu_mu)
     6.62683332E-04    2     1000025        14   # BR(~nu_muL -> ~chi_30 nu_mu)
     5.64960778E-06    2     1000024        13   # BR(~nu_muL -> ~chi_1+ mu-)
#
#         PDG            Width
DECAY   1000016     1.22784972E+02   # snu_tauL decays
#          BR         NDA      ID1       ID2
     9.94245645E-01    2     1000022        16   # BR(~nu_tauL -> ~chi_10 nu_tau)
     3.54811597E-06    2     1000023        16   # BR(~nu_tauL -> ~chi_20 nu_tau)
     6.59313009E-04    2     1000025        16   # BR(~nu_tauL -> ~chi_30 nu_tau)
     5.09149391E-03    2     1000024        15   # BR(~nu_tauL -> ~chi_1+ tau-)
#
#         PDG            Width
DECAY   1000024     4.45651389E+01   # chargino1+ decays
#          BR         NDA      ID1       ID2
     4.86762901E-07    2     1000002        -1   # BR(~chi_1+ -> ~u_L     db)
     2.28726677E-07    2    -1000001         2   # BR(~chi_1+ -> ~d_L*    u )
     4.86762901E-07    2     1000004        -3   # BR(~chi_1+ -> ~c_L     sb)
     2.28726677E-07    2    -1000003         4   # BR(~chi_1+ -> ~s_L*    c )
    -4.24501954E-02    2     1000006        -5   # BR(~chi_1+ -> ~t_1     bb)
     1.02302549E-01    2    -1000005         6   # BR(~chi_1+ -> ~b_1*    t )
     8.65734461E-01    2    -2000005         6   # BR(~chi_1+ -> ~b_2*    t )
     7.44036523E-02    2     1000022        24   # BR(~chi_1+ -> ~chi_10  W+)
     6.76981384E-06    2     1000039        24   # BR(~chi_1+ -> ~G       W+)
     1.33203326E-06    2     1000039        37   # BR(~chi_1+ -> ~G       H+)
#
#         PDG            Width
DECAY   1000037    -5.72180679E+04   # chargino2+ decays
#          BR         NDA      ID1       ID2
    -2.40260114E-02    2     1000002        -1   # BR(~chi_2+ -> ~u_L     db)
    -2.40260178E-02    2    -1000001         2   # BR(~chi_2+ -> ~d_L*    u )
    -2.40260114E-02    2     1000004        -3   # BR(~chi_2+ -> ~c_L     sb)
    -2.40260178E-02    2    -1000003         4   # BR(~chi_2+ -> ~s_L*    c )
     1.40904976E+00    2     1000006        -5   # BR(~chi_2+ -> ~t_1     bb)
    -5.29371757E-03    2    -1000005         6   # BR(~chi_2+ -> ~b_1*    t )
    -2.27585956E-02    2    -2000005         6   # BR(~chi_2+ -> ~b_2*    t )
    -1.72725613E-14    2     1000012       -11   # BR(~chi_2+ -> ~nu_eL   e+  )
    -1.72725613E-14    2     1000014       -13   # BR(~chi_2+ -> ~nu_muL  mu+ )
    -1.20282300E-14    2    -1000011        12   # BR(~chi_2+ -> ~e_L+    nu_e)
    -1.20282300E-14    2    -1000013        14   # BR(~chi_2+ -> ~mu_L+   nu_mu)
    -1.89349840E-14    2    -1000015        16   # BR(~chi_2+ -> ~tau_1+  nu_tau)
    -2.83055601E-16    2    -2000015        16   # BR(~chi_2+ -> ~tau_2+  nu_tau)
    -4.40046010E-03    2     1000024        23   # BR(~chi_2+ -> ~chi_1+  Z )
    -2.83446807E-06    2     1000022        24   # BR(~chi_2+ -> ~chi_10  W+)
    -4.26799457E-03    2     1000023        24   # BR(~chi_2+ -> ~chi_20  W+)
    -4.26511574E-03    2     1000025        24   # BR(~chi_2+ -> ~chi_30  W+)
    -4.44649745E-03    2     1000024        25   # BR(~chi_2+ -> ~chi_1+  h )
    -3.90317213E-03    2     1000024        35   # BR(~chi_2+ -> ~chi_1+  H )
    -3.90369666E-03    2     1000024        36   # BR(~chi_2+ -> ~chi_1+  A )
    -3.03669196E-06    2     1000022        37   # BR(~chi_2+ -> ~chi_10  H+)
    -3.90357380E-03    2     1000023        37   # BR(~chi_2+ -> ~chi_20  H+)
    -3.90063897E-03    2     1000025        37   # BR(~chi_2+ -> ~chi_30  H+)
    -2.51896294E-01    2     1000039        24   # BR(~chi_2+ -> ~G       W+)
    -7.21412219E-08    2     1000039        37   # BR(~chi_2+ -> ~G       H+)
#
#         PDG            Width
DECAY   1000022     1.E-08   # neutralino1 decays (OJ Mods)
#          BR         NDA      ID1       ID2
     7.58881714E-01    2     1000039        22   # BR(~chi_10 -> ~G        gam)
     2.41111636E-01    2     1000039        23   # BR(~chi_10 -> ~G        Z)
     6.64989611E-06    2     1000039        25   # BR(~chi_10 -> ~G        h)
#
#         PDG            Width
DECAY   1000023     1.E-08   # neutralino2 decays (OJ Mods)
#          BR         NDA      ID1       ID2
     7.99095059E-02    2     1000022        23   # BR(~chi_20 -> ~chi_10   Z )
     2.80784159E-04    2     1000022        25   # BR(~chi_20 -> ~chi_10   h )
     8.08704737E-09    2     1000002        -2   # BR(~chi_20 -> ~u_L      ub)
     8.08704737E-09    2    -1000002         2   # BR(~chi_20 -> ~u_L*     u )
     6.82378933E-08    2     1000001        -1   # BR(~chi_20 -> ~d_L      db)
     6.82378933E-08    2    -1000001         1   # BR(~chi_20 -> ~d_L*     d )
     1.23319455E-07    2     2000001        -1   # BR(~chi_20 -> ~d_R      db)
     1.23319455E-07    2    -2000001         1   # BR(~chi_20 -> ~d_R*     d )
     8.08704737E-09    2     1000004        -4   # BR(~chi_20 -> ~c_L      cb)
     8.08704737E-09    2    -1000004         4   # BR(~chi_20 -> ~c_L*     c )
     6.82378933E-08    2     1000003        -3   # BR(~chi_20 -> ~s_L      sb)
     6.82378933E-08    2    -1000003         3   # BR(~chi_20 -> ~s_L*     s )
     1.23319455E-07    2     2000003        -3   # BR(~chi_20 -> ~s_R      sb)
     1.23319455E-07    2    -2000003         3   # BR(~chi_20 -> ~s_R*     s )
     5.05264252E-01    2     1000006        -6   # BR(~chi_20 -> ~t_1      tb)
     5.05264252E-01    2    -1000006         6   # BR(~chi_20 -> ~t_1*     t )
    -2.21016786E-02    2     1000005        -5   # BR(~chi_20 -> ~b_1      bb)
    -2.21016786E-02    2    -1000005         5   # BR(~chi_20 -> ~b_1*     b )
    -2.32623245E-02    2     2000005        -5   # BR(~chi_20 -> ~b_2      bb)
    -2.32623245E-02    2    -2000005         5   # BR(~chi_20 -> ~b_2*     b )
     2.55375508E-11    2     1000039        22   # BR(~chi_20 -> ~G        gam)
     2.72320916E-07    2     1000039        23   # BR(~chi_20 -> ~G        Z)
     6.79699739E-06    2     1000039        25   # BR(~chi_20 -> ~G        h)
     5.44278300E-08    2     1000039        35   # BR(~chi_20 -> ~G        H)
     1.40412971E-06    2     1000039        36   # BR(~chi_20 -> ~G        A)
#
#         PDG            Width
DECAY   1000025     4.25515095E+01   # neutralino3 decays
#          BR         NDA      ID1       ID2
     2.88494589E-04    2     1000022        23   # BR(~chi_30 -> ~chi_10   Z )
     8.07923014E-02    2     1000022        25   # BR(~chi_30 -> ~chi_10   h )
     1.15499317E-05    2     1000002        -2   # BR(~chi_30 -> ~u_L      ub)
     1.15499317E-05    2    -1000002         2   # BR(~chi_30 -> ~u_L*     u )
     6.14299495E-06    2     1000001        -1   # BR(~chi_30 -> ~d_L      db)
     6.14299495E-06    2    -1000001         1   # BR(~chi_30 -> ~d_L*     d )
     3.45371447E-05    2     2000001        -1   # BR(~chi_30 -> ~d_R      db)
     3.45371447E-05    2    -2000001         1   # BR(~chi_30 -> ~d_R*     d )
     1.15499317E-05    2     1000004        -4   # BR(~chi_30 -> ~c_L      cb)
     1.15499317E-05    2    -1000004         4   # BR(~chi_30 -> ~c_L*     c )
     6.14299495E-06    2     1000003        -3   # BR(~chi_30 -> ~s_L      sb)
     6.14299495E-06    2    -1000003         3   # BR(~chi_30 -> ~s_L*     s )
     3.45371447E-05    2     2000003        -3   # BR(~chi_30 -> ~s_R      sb)
     3.45371447E-05    2    -2000003         3   # BR(~chi_30 -> ~s_R*     s )
     5.06238564E-01    2     1000006        -6   # BR(~chi_30 -> ~t_1      tb)
     5.06238564E-01    2    -1000006         6   # BR(~chi_30 -> ~t_1*     t )
    -1.57936467E-02    2     1000005        -5   # BR(~chi_30 -> ~b_1      bb)
    -1.57936467E-02    2    -1000005         5   # BR(~chi_30 -> ~b_1*     b )
    -3.10791128E-02    2     2000005        -5   # BR(~chi_30 -> ~b_2      bb)
    -3.10791128E-02    2    -2000005         5   # BR(~chi_30 -> ~b_2*     b )
     8.23423933E-09    2     1000039        22   # BR(~chi_30 -> ~G        gam)
     6.82175494E-06    2     1000039        23   # BR(~chi_30 -> ~G        Z)
     2.65905256E-07    2     1000039        25   # BR(~chi_30 -> ~G        h)
     1.39870153E-06    2     1000039        35   # BR(~chi_30 -> ~G        H)
     5.63193962E-08    2     1000039        36   # BR(~chi_30 -> ~G        A)
#
#         PDG            Width
DECAY   1000035    -5.72183561E+04   # neutralino4 decays
#          BR         NDA      ID1       ID2
    -5.05534328E-08    2     1000022        23   # BR(~chi_40 -> ~chi_10   Z )
    -4.25257222E-03    2     1000023        23   # BR(~chi_40 -> ~chi_20   Z )
    -1.47813035E-04    2     1000025        23   # BR(~chi_40 -> ~chi_30   Z )
    -4.26794158E-03    2     1000024       -24   # BR(~chi_40 -> ~chi_1+   W-)
    -4.26794158E-03    2    -1000024        24   # BR(~chi_40 -> ~chi_1-   W+)
    -2.90519400E-06    2     1000022        25   # BR(~chi_40 -> ~chi_10   h )
    -2.03710176E-07    2     1000022        35   # BR(~chi_40 -> ~chi_10   H )
    -2.82941613E-06    2     1000022        36   # BR(~chi_40 -> ~chi_10   A )
    -1.45954957E-04    2     1000023        25   # BR(~chi_40 -> ~chi_20   h )
    -3.73536440E-03    2     1000023        35   # BR(~chi_40 -> ~chi_20   H )
    -1.71710457E-04    2     1000023        36   # BR(~chi_40 -> ~chi_20   A )
    -4.29761380E-03    2     1000025        25   # BR(~chi_40 -> ~chi_30   h )
    -1.67574586E-04    2     1000025        35   # BR(~chi_40 -> ~chi_30   H )
    -3.72913210E-03    2     1000025        36   # BR(~chi_40 -> ~chi_30   A )
    -3.90360252E-03    2     1000024       -37   # BR(~chi_40 -> ~chi_1+   H-)
    -3.90360252E-03    2    -1000024        37   # BR(~chi_40 -> ~chi_1-   H+)
    -1.15055581E-02    2     1000002        -2   # BR(~chi_40 -> ~u_L      ub)
    -1.15055581E-02    2    -1000002         2   # BR(~chi_40 -> ~u_L*     u )
    -1.85390369E-22    2     2000002        -2   # BR(~chi_40 -> ~u_R      ub)
    -1.85390369E-22    2    -2000002         2   # BR(~chi_40 -> ~u_R*     u )
    -1.15055622E-02    2     1000001        -1   # BR(~chi_40 -> ~d_L      db)
    -1.15055622E-02    2    -1000001         1   # BR(~chi_40 -> ~d_L*     d )
    -2.26126627E-16    2     2000001        -1   # BR(~chi_40 -> ~d_R      db)
    -2.26126627E-16    2    -2000001         1   # BR(~chi_40 -> ~d_R*     d )
    -1.15055581E-02    2     1000004        -4   # BR(~chi_40 -> ~c_L      cb)
    -1.15055581E-02    2    -1000004         4   # BR(~chi_40 -> ~c_L*     c )
    -1.85390369E-22    2     2000004        -4   # BR(~chi_40 -> ~c_R      cb)
    -1.85390369E-22    2    -2000004         4   # BR(~chi_40 -> ~c_R*     c )
    -1.15055622E-02    2     1000003        -3   # BR(~chi_40 -> ~s_L      sb)
    -1.15055622E-02    2    -1000003         3   # BR(~chi_40 -> ~s_L*     s )
    -2.26126627E-16    2     2000003        -3   # BR(~chi_40 -> ~s_R      sb)
    -2.26126627E-16    2    -2000003         3   # BR(~chi_40 -> ~s_R*     s )
    -1.40260833E-02    2     1000006        -6   # BR(~chi_40 -> ~t_1      tb)
    -1.40260833E-02    2    -1000006         6   # BR(~chi_40 -> ~t_1*     t )
     3.42454072E-01    2     1000005        -5   # BR(~chi_40 -> ~b_1      bb)
     3.42454072E-01    2    -1000005         5   # BR(~chi_40 -> ~b_1*     b )
     3.62069529E-01    2     2000005        -5   # BR(~chi_40 -> ~b_2      bb)
     3.62069529E-01    2    -2000005         5   # BR(~chi_40 -> ~b_2*     b )
    -6.01407306E-15    2     1000011       -11   # BR(~chi_40 -> ~e_L-     e+)
    -6.01407306E-15    2    -1000011        11   # BR(~chi_40 -> ~e_L+     e-)
    -1.06378859E-27    2     2000011       -11   # BR(~chi_40 -> ~e_R-     e+)
    -1.06378859E-27    2    -2000011        11   # BR(~chi_40 -> ~e_R+     e-)
    -6.01407306E-15    2     1000013       -13   # BR(~chi_40 -> ~mu_L-    mu+)
    -6.01407306E-15    2    -1000013        13   # BR(~chi_40 -> ~mu_L+    mu-)
    -1.06378859E-27    2     2000013       -13   # BR(~chi_40 -> ~mu_R-    mu+)
    -1.06378859E-27    2    -2000013        13   # BR(~chi_40 -> ~mu_R+    mu-)
    -8.63623186E-15    2     1000012       -12   # BR(~chi_40 -> ~nu_eL    nu_eb)
    -8.63623186E-15    2    -1000012        12   # BR(~chi_40 -> ~nu_eL*   nu_e )
    -8.63623186E-15    2     1000014       -14   # BR(~chi_40 -> ~nu_muL   nu_mub)
    -8.63623186E-15    2    -1000014        14   # BR(~chi_40 -> ~nu_muL*  nu_mu )
    -8.63623186E-15    2     1000016       -16   # BR(~chi_40 -> ~nu_tau1  nu_taub)
    -8.63623186E-15    2    -1000016        16   # BR(~chi_40 -> ~nu_tau1* nu_tau )
    -6.10956634E-02    2     1000039        22   # BR(~chi_40 -> ~G        gam)
    -1.90799023E-01    2     1000039        23   # BR(~chi_40 -> ~G        Z)
    -1.15079273E-08    2     1000039        25   # BR(~chi_40 -> ~G        h)
    -7.22634699E-08    2     1000039        35   # BR(~chi_40 -> ~G        H)
    -1.42396581E-11    2     1000039        36   # BR(~chi_40 -> ~G        A)
#
#
#
#
