#
#                              ======================
#                              | THE SUSYHIT OUTPUT |
#                              ======================
#
#
#              ------------------------------------------------------
#              |     This is the output of the SUSY-HIT package     |
#              |  created by A.Djouadi, M.Muehlleitner and M.Spira. |
#              |  In case of problems with SUSY-HIT email to        |
#              |           margarete.muehlleitner@cern.ch           |
#              |           michael.spira@psi.ch                     |
#              |           abdelhak.djouadi@cern.ch                 |
#              ------------------------------------------------------
#
#              ------------------------------------------------------
#              |  SUSY Les Houches Accord - MSSM Spectrum + Decays  |
#              |              based on the decay programs           |
#              |                                                    |
#              |                     SDECAY 1.3b                    |
#              |                                                    |
#              |  Authors: M.Muhlleitner, A.Djouadi and Y.Mambrini  |
#              |  Ref.:    Comput.Phys.Commun.168(2005)46           |
#              |           [hep-ph/0311167]                         |
#              |                                                    |
#              |                     HDECAY 3.4                     |
#              |                                                    |
#              |  By: A.Djouadi,J.Kalinowski,M.Muhlleitner,M.Spira  |
#              |  Ref.:    Comput.Phys.Commun.108(1998)56           |
#              |           [hep-ph/9704448]                         |
#              |                                                    |
#              |                                                    |
#              |  If not stated otherwise all DRbar couplings and   |
#              |  soft SUSY breaking masses are given at the scale  |
#              |  Q=  0.91187600E+02
#              |                                                    |
#              ------------------------------------------------------
#
#
BLOCK DCINFO  # Decay Program information
     1   SDECAY/HDECAY # decay calculator
     2   1.3b  /3.4    # version number
#
BLOCK SPINFO  # Spectrum calculator information
     1   SuSpect     # RGE +Spectrum calculator            
     2   2.41         # version number                     
#
BLOCK MODSEL  # Model selection
     1     0   # #general MSSM low scale                           
#
BLOCK SMINPUTS  # Standard Model inputs
         1     1.27934000E+02   # alpha_em^-1(M_Z)^MSbar
         2     1.16639000E-05   # G_F [GeV^-2]
         3     1.17200000E-01   # alpha_S(M_Z)^MSbar
         4     9.11870000E+01   # M_Z pole mass
         5     4.25000000E+00   # mb(mb)^MSbar
         6     1.72500000E+02   # mt pole mass
         7     1.77700000E+00   # mtau pole mass
#
BLOCK MINPAR  # Input parameters - minimal models
#
BLOCK EXTPAR  # Input parameters - non-minimal models
         0     9.11876000E+01   # EWSB                
         1     2.00000000E+03   # M_1                 
         2     1.00000000E+05   # M_2                 
         3     2.10000000E+03   # M_3                 
        11     0.00000000E+00   # A_t                 
        12     0.00000000E+00   # A_b                 
        13     0.00000000E+00   # A_tau               
        14     0.00000000E+00   # A_u                 
        15     0.00000000E+00   # A_d                 
        16     0.00000000E+00   # A_e                 
        23     1.00000000E+05   # mu(EWSB)            
        25     1.50000000E+00   # tanbeta(in)         
        26     2.00000000E+03   # MA_pole             
        31     1.00000000E+05   # M_eL                
        32     1.00000000E+05   # M_muL               
        33     1.00000000E+05   # M_tauL              
        34     1.00000000E+05   # M_eR                
        35     1.00000000E+05   # M_muR               
        36     1.00000000E+05   # M_tauR              
        41     3.00000000E+03   # M_q1L               
        42     3.00000000E+03   # M_q2L               
        43     3.00000000E+03   # M_q3L               
        44     1.00000000E+05   # M_uR                
        45     1.00000000E+05   # M_cR                
        46     1.00000000E+05   # M_tR                
        47     3.00000000E+03   # M_dR                
        48     3.00000000E+03   # M_sR                
        49     3.00000000E+03   # M_bR                
#
BLOCK MASS  # Mass Spectrum
# PDG code           mass       particle
        24     8.06178253E+01   # W+
        25     1.25000000E+02   # h
        35     2.00460081E+03   # H
        36     2.00000000E+03   # A
        37     2.02282079E+03   # H+
         5     4.87877839E+00   # b-quark pole mass calculated from mb(mb)_Msbar
   1000001     3.00021874E+03   # ~d_L
   2000001     3.00004257E+03   # ~d_R
   1000002     2.99982381E+03   # ~u_L
   2000002     9.99999974E+04   # ~u_R
   1000003     3.00021874E+03   # ~s_L
   2000003     3.00004257E+03   # ~s_R
   1000004     2.99982381E+03   # ~c_L
   2000004     9.99999974E+04   # ~c_R
   1000005     2.95087196E+03   # ~b_1
   2000005     3.04859479E+03   # ~b_2
   1000006     3.00183580E+03   # ~t_1
   2000006     1.00000155E+05   # ~t_2
   1000011     1.00000004E+05   # ~e_L
   2000011     1.00000004E+05   # ~e_R
   1000012     9.99999922E+04   # ~nu_eL
   1000013     1.00000004E+05   # ~mu_L
   2000013     1.00000004E+05   # ~mu_R
   1000014     9.99999922E+04   # ~nu_muL
   1000015     9.99986716E+04   # ~tau_1
   2000015     1.00001336E+05   # ~tau_2
   1000016     9.99999922E+04   # ~nu_tauL
   1000021     2.10000000E+03   # ~g
   1000022     1.99998121E+03   # ~chi_10
   1000023     9.99230428E+04   # ~chi_20
   1000025    -1.00000002E+05   # ~chi_30
   1000035     1.00076978E+05   # ~chi_40
   1000024     9.99230336E+04   # ~chi_1+
   1000037     1.00076969E+05   # ~chi_2+
   1000039     6.25000000E-07   # ~gravitino
#
BLOCK NMIX  # Neutralino Mixing Matrix
  1  1     9.99999897E-01   # N_11
  1  2    -3.37270505E-07   # N_12
  1  3     3.76473743E-04   # N_13
  1  4    -2.55110438E-04   # N_14
  2  1     3.16016389E-04   # N_21
  2  2     7.07148952E-01   # N_22
  2  3    -5.00008619E-01   # N_23
  2  4     4.99931636E-01   # N_24
  3  1     8.58167239E-05   # N_31
  3  2    -7.69676040E-05   # N_32
  3  3    -7.07106742E-01   # N_33
  3  4    -7.07106811E-01   # N_34
  4  1     3.15567743E-04   # N_41
  4  2    -7.07064609E-01   # N_42
  4  3    -4.99991290E-01   # N_43
  4  4     5.00068243E-01   # N_44
#
BLOCK UMIX  # Chargino Mixing Matrix U
  1  1    -7.07052355E-01   # U_11
  1  2     7.07161203E-01   # U_12
  2  1     7.07161203E-01   # U_21
  2  2     7.07052355E-01   # U_22
#
BLOCK VMIX  # Chargino Mixing Matrix V
  1  1    -7.07161203E-01   # V_11
  1  2     7.07052355E-01   # V_12
  2  1     7.07052355E-01   # V_21
  2  2     7.07161203E-01   # V_22
#
BLOCK STOPMIX  # Stop Mixing Matrix
  1  1     9.99999516E-01   # cos(theta_t)
  1  2     9.83869791E-04   # sin(theta_t)
  2  1    -9.83869791E-04   # -sin(theta_t)
  2  2     9.99999516E-01   # cos(theta_t)
#
BLOCK SBOTMIX  # Sbottom Mixing Matrix
  1  1     7.06469019E-01   # cos(theta_b)
  1  2     7.07743969E-01   # sin(theta_b)
  2  1    -7.07743969E-01   # -sin(theta_b)
  2  2     7.06469019E-01   # cos(theta_b)
#
BLOCK STAUMIX  # Stau Mixing Matrix
  1  1     7.07083232E-01   # cos(theta_tau)
  1  2     7.07130330E-01   # sin(theta_tau)
  2  1    -7.07130330E-01   # -sin(theta_tau)
  2  2     7.07083232E-01   # cos(theta_tau)
#
BLOCK ALPHA  # Higgs mixing
          -6.05201609E-01   # Mixing angle in the neutral Higgs boson sector
#
BLOCK HMIX Q=  9.11876000E+01  # DRbar Higgs Parameters
         1     1.00000000E+05   # mu(Q)               
         2     1.49999982E+00   # tanbeta(Q)          
         3     2.55133578E+02   # vev(Q)              
         4    -2.18191298E+09   # MA^2(Q)             
#
BLOCK GAUGE Q=  9.11876000E+01  # The gauge couplings
     1     3.49874177E-01   # gprime(Q) DRbar
     2     6.15287008E-01   # g(Q) DRbar
     3     1.07403633E+00   # g3(Q) DRbar
#
BLOCK AU Q=  9.11876000E+01  # The trilinear couplings
  1  1     0.00000000E+00   # A_u(Q) DRbar
  2  2     0.00000000E+00   # A_c(Q) DRbar
  3  3     0.00000000E+00   # A_t(Q) DRbar
#
BLOCK AD Q=  9.11876000E+01  # The trilinear couplings
  1  1     0.00000000E+00   # A_d(Q) DRbar
  2  2     0.00000000E+00   # A_s(Q) DRbar
  3  3     0.00000000E+00   # A_b(Q) DRbar
#
BLOCK AE Q=  9.11876000E+01  # The trilinear couplings
  1  1     0.00000000E+00   # A_e(Q) DRbar
  2  2     0.00000000E+00   # A_mu(Q) DRbar
  3  3     0.00000000E+00   # A_tau(Q) DRbar
#
BLOCK Yu Q=  9.11876000E+01  # The Yukawa couplings
  1  1     0.00000000E+00   # y_u(Q) DRbar
  2  2     0.00000000E+00   # y_c(Q) DRbar
  3  3     9.82492560E-01   # y_t(Q) DRbar
#
BLOCK Yd Q=  9.11876000E+01  # The Yukawa couplings
  1  1     0.00000000E+00   # y_d(Q) DRbar
  2  2     0.00000000E+00   # y_s(Q) DRbar
  3  3     1.95283921E-02   # y_b(Q) DRbar
#
BLOCK Ye Q=  9.11876000E+01  # The Yukawa couplings
  1  1     0.00000000E+00   # y_e(Q) DRbar
  2  2     0.00000000E+00   # y_mu(Q) DRbar
  3  3     1.77518713E-02   # y_tau(Q) DRbar
#
BLOCK MSOFT Q=  9.11876000E+01  # The soft SUSY breaking masses at the scale Q
         1     2.00000000E+03   # M_1                 
         2     1.00000000E+05   # M_2                 
         3     2.10000000E+03   # M_3                 
        14     0.00000000E+00   # A_u                 
        15     0.00000000E+00   # A_d                 
        16     0.00000000E+00   # A_e                 
        21    -1.06445617E+10   # M^2_Hd              
        22    -1.00446283E+10   # M^2_Hu              
        31     1.00000000E+05   # M_eL                
        32     1.00000000E+05   # M_muL               
        33     1.00000000E+05   # M_tauL              
        34     1.00000000E+05   # M_eR                
        35     1.00000000E+05   # M_muR               
        36     1.00000000E+05   # M_tauR              
        41     3.00000000E+03   # M_q1L               
        42     3.00000000E+03   # M_q2L               
        43     3.00000000E+03   # M_q3L               
        44     1.00000000E+05   # M_uR                
        45     1.00000000E+05   # M_cR                
        46     1.00000000E+05   # M_tR                
        47     3.00000000E+03   # M_dR                
        48     3.00000000E+03   # M_sR                
        49     3.00000000E+03   # M_bR                
#
#
#
#                             =================
#                             |The decay table|
#                             =================
#
# - The QCD corrections to the decays gluino -> squark  + quark
#                                     squark -> gaugino + quark_prime
#                                     squark -> squark_prime + Higgs
#                                     squark -> gluino  + quark
#   are included.
#
# - The multi-body decays for the inos, stops and sbottoms are included.
#
# - The loop induced decays for the gluino, neutralinos and stops
#   are included.
#
# - The SUSY decays of the top quark are included.
#
# - Possible decays of the NLSP in GMSB models are included.
#
#
#         PDG            Width
DECAY         6     1.30523353E+00   # top decays
#          BR         NDA      ID1       ID2
     1.00000000E+00    2           5        24   # BR(t ->  b    W+)
#
#         PDG            Width
DECAY   1000021     1.E-04   # gluino decays (OJ Mods)
#          BR         NDA      ID1       ID2
     2.07519113E-02    2     1000022        21   # BR(~g -> ~chi_10 g)
#          BR         NDA      ID1       ID2
     1.08120618E-02    2     1000039        21   # BR(~g -> ~G      g)
#           BR         NDA      ID1       ID2       ID3
     2.87374249E-01    3     1000022         1        -1   # BR(~g -> ~chi_10 d  db)
     5.75113691E-02    3     1000022         2        -2   # BR(~g -> ~chi_10 u  ub)
     2.87374249E-01    3     1000022         3        -3   # BR(~g -> ~chi_10 s  sb)
     5.75113691E-02    3     1000022         4        -4   # BR(~g -> ~chi_10 c  cb)
     2.78664792E-01    3     1000022         5        -5   # BR(~g -> ~chi_10 b  bb)
#
#         PDG            Width
DECAY   1000006     5.16239796E+01   # stop1 decays
#          BR         NDA      ID1       ID2
     2.31838075E-03    2     1000022         6   # BR(~t_1 -> ~chi_10 t )
     9.97681619E-01    2     1000021         6   # BR(~t_1 -> ~g      t )
#
#         PDG            Width
DECAY   2000006     4.80922194E+03   # stop2 decays
#          BR         NDA      ID1       ID2
     4.35907710E-02    2     1000022         6   # BR(~t_2 -> ~chi_10 t )
     3.23171724E-07    2     1000024         5   # BR(~t_2 -> ~chi_1+ b )
     5.57196857E-01    2     1000021         6   # BR(~t_2 -> ~g      t )
     2.21139252E-02    2     1000006        25   # BR(~t_2 -> ~t_1    h )
     5.00268845E-02    2     1000006        35   # BR(~t_2 -> ~t_1    H )
     5.11624929E-02    2     1000006        36   # BR(~t_2 -> ~t_1    A )
     5.08781160E-02    2     1000005        37   # BR(~t_2 -> ~b_1    H+)
     5.14841867E-02    2     2000005        37   # BR(~t_2 -> ~b_2    H+)
     5.72981571E-02    2     1000006        23   # BR(~t_2 -> ~t_1    Z )
     5.78974625E-02    2     1000005        24   # BR(~t_2 -> ~b_1    W+)
     5.83508238E-02    2     2000005        24   # BR(~t_2 -> ~b_2    W+)
#
#         PDG            Width
DECAY   1000005     4.87225627E+01   # sbottom1 decays
#          BR         NDA      ID1       ID2
     5.79934695E-03    2     1000022         5   # BR(~b_1 -> ~chi_10 b )
     9.94200653E-01    2     1000021         5   # BR(~b_1 -> ~g      b )
#
#         PDG            Width
DECAY   2000005     5.60451415E+01   # sbottom2 decays
#          BR         NDA      ID1       ID2
     5.77464338E-03    2     1000022         5   # BR(~b_2 -> ~chi_10 b )
     9.93612372E-01    2     1000021         5   # BR(~b_2 -> ~g      b )
     6.12985049E-04    2     1000005        23   # BR(~b_2 -> ~b_1    Z )
#
#         PDG            Width
DECAY   1000002     2.95634694E+01   # sup_L decays
#          BR         NDA      ID1       ID2
     4.48661703E-03    2     1000022         2   # BR(~u_L -> ~chi_10 u)
     9.95513383E-01    2     1000021         2   # BR(~u_L -> ~g      u)
#
#         PDG            Width
DECAY   2000002     3.97917094E+03   # sup_R decays
#          BR         NDA      ID1       ID2
     5.26974667E-02    2     1000022         2   # BR(~u_R -> ~chi_10 u)
     6.66918416E-13    2     1000023         2   # BR(~u_R -> ~chi_20 u)
     9.47302533E-01    2     1000021         2   # BR(~u_R -> ~g      u)
#
#         PDG            Width
DECAY   1000001     2.95823087E+01   # sdown_L decays
#          BR         NDA      ID1       ID2
     4.48611739E-03    2     1000022         1   # BR(~d_L -> ~chi_10 d)
     9.95513883E-01    2     1000021         1   # BR(~d_L -> ~g      d)
#
#         PDG            Width
DECAY   2000001     2.99719402E+01   # sdown_R decays
#          BR         NDA      ID1       ID2
     1.77070347E-02    2     1000022         1   # BR(~d_R -> ~chi_10 d)
     9.82292965E-01    2     1000021         1   # BR(~d_R -> ~g      d)
#
#         PDG            Width
DECAY   1000004     2.95634694E+01   # scharm_L decays
#          BR         NDA      ID1       ID2
     4.48661703E-03    2     1000022         4   # BR(~c_L -> ~chi_10 c)
     9.95513383E-01    2     1000021         4   # BR(~c_L -> ~g      c)
#
#         PDG            Width
DECAY   2000004     3.97917094E+03   # scharm_R decays
#          BR         NDA      ID1       ID2
     5.26974667E-02    2     1000022         4   # BR(~c_R -> ~chi_10 c)
     6.66918416E-13    2     1000023         4   # BR(~c_R -> ~chi_20 c)
     9.47302533E-01    2     1000021         4   # BR(~c_R -> ~g      c)
#
#         PDG            Width
DECAY   1000003     2.95823087E+01   # sstrange_L decays
#          BR         NDA      ID1       ID2
     4.48611739E-03    2     1000022         3   # BR(~s_L -> ~chi_10 s)
     9.95513883E-01    2     1000021         3   # BR(~s_L -> ~g      s)
#
#         PDG            Width
DECAY   2000003     2.99719402E+01   # sstrange_R decays
#          BR         NDA      ID1       ID2
     1.77070347E-02    2     1000022         3   # BR(~s_R -> ~chi_10 s)
     9.82292965E-01    2     1000021         3   # BR(~s_R -> ~g      s)
#
#         PDG            Width
DECAY   1000011     1.21669190E+02   # selectron_L decays
#          BR         NDA      ID1       ID2
     9.99989006E-01    2     1000022        11   # BR(~e_L -> ~chi_10 e-)
     3.66595266E-06    2     1000023        11   # BR(~e_L -> ~chi_20 e-)
     3.92954640E-24    2     1000025        11   # BR(~e_L -> ~chi_30 e-)
     7.32792949E-06    2    -1000024        12   # BR(~e_L -> ~chi_1- nu_e)
#
#         PDG            Width
DECAY   2000011     4.86671988E+02   # selectron_R decays
#          BR         NDA      ID1       ID2
     1.00000000E+00    2     1000022        11   # BR(~e_R -> ~chi_10 e-)
     2.36611646E-13    2     1000023        11   # BR(~e_R -> ~chi_20 e-)
     1.17926496E-23    2     1000025        11   # BR(~e_R -> ~chi_30 e-)
#
#         PDG            Width
DECAY   1000013     1.21669190E+02   # smuon_L decays
#          BR         NDA      ID1       ID2
     9.99989006E-01    2     1000022        13   # BR(~mu_L -> ~chi_10 mu-)
     3.66595266E-06    2     1000023        13   # BR(~mu_L -> ~chi_20 mu-)
     3.92954640E-24    2     1000025        13   # BR(~mu_L -> ~chi_30 mu-)
     7.32792949E-06    2    -1000024        14   # BR(~mu_L -> ~chi_1- nu_mu)
#
#         PDG            Width
DECAY   2000013     4.86671988E+02   # smuon_R decays
#          BR         NDA      ID1       ID2
     1.00000000E+00    2     1000022        13   # BR(~mu_R -> ~chi_10 mu-)
     2.36611646E-13    2     1000023        13   # BR(~mu_R -> ~chi_20 mu-)
     1.17926496E-23    2     1000025        13   # BR(~mu_R -> ~chi_30 mu-)
#
#         PDG            Width
DECAY   1000015     3.04211631E+02   # stau_1 decays
#          BR         NDA      ID1       ID2
     9.99900876E-01    2     1000022        15   # BR(~tau_1 -> ~chi_10  tau-)
     7.48724808E-07    2     1000023        15   # BR(~tau_1 -> ~chi_20  tau-)
     1.49789706E-06    2    -1000024        16   # BR(~tau_1 -> ~chi_1-  nu_tau)
     9.68772298E-05    2     1000039        15   # BR(~tau_1 -> ~G       tau-)
#
#         PDG            Width
DECAY   2000015     3.04159015E+02   # stau_2 decays
#          BR         NDA      ID1       ID2
     9.99997854E-01    2     1000022        15   # BR(~tau_2 -> ~chi_10  tau-)
     7.15201512E-07    2     1000023        15   # BR(~tau_2 -> ~chi_20  tau-)
     1.43060712E-06    2    -1000024        16   # BR(~tau_2 -> ~chi_1-  nu_tau)
#
#         PDG            Width
DECAY   1000012     1.21669464E+02   # snu_eL decays
#          BR         NDA      ID1       ID2
     9.99989011E-01    2     1000022        12   # BR(~nu_eL -> ~chi_10 nu_e)
     3.66109794E-06    2     1000023        12   # BR(~nu_eL -> ~chi_20 nu_e)
     7.32792377E-06    2     1000024        11   # BR(~nu_eL -> ~chi_1+ e-)
#
#         PDG            Width
DECAY   1000014     1.21669464E+02   # snu_muL decays
#          BR         NDA      ID1       ID2
     9.99989011E-01    2     1000022        14   # BR(~nu_muL -> ~chi_10 nu_mu)
     3.66109794E-06    2     1000023        14   # BR(~nu_muL -> ~chi_20 nu_mu)
     7.32792377E-06    2     1000024        13   # BR(~nu_muL -> ~chi_1+ mu-)
#
#         PDG            Width
DECAY   1000016     1.21669463E+02   # snu_tauL decays
#          BR         NDA      ID1       ID2
     9.99989017E-01    2     1000022        16   # BR(~nu_tauL -> ~chi_10 nu_tau)
     3.66109796E-06    2     1000023        16   # BR(~nu_tauL -> ~chi_20 nu_tau)
     7.32230952E-06    2     1000024        15   # BR(~nu_tauL -> ~chi_1+ tau-)
#
#         PDG            Width
DECAY   1000024     3.91370672E+03   # chargino1+ decays
#          BR         NDA      ID1       ID2
     1.39617764E-01    2     1000002        -1   # BR(~chi_1+ -> ~u_L     db)
     1.39574736E-01    2    -1000001         2   # BR(~chi_1+ -> ~d_L*    u )
     1.39617764E-01    2     1000004        -3   # BR(~chi_1+ -> ~c_L     sb)
     1.39574736E-01    2    -1000003         4   # BR(~chi_1+ -> ~s_L*    c )
     1.24895158E-01    2     1000006        -5   # BR(~chi_1+ -> ~t_1     bb)
     1.53068496E-01    2    -1000005         6   # BR(~chi_1+ -> ~b_1*    t )
     1.48501559E-01    2    -2000005         6   # BR(~chi_1+ -> ~b_2*    t )
     7.65041982E-03    2     1000022        24   # BR(~chi_1+ -> ~chi_10  W+)
     7.49186945E-03    2     1000022        37   # BR(~chi_1+ -> ~chi_10  H+)
     5.62619150E-06    2     1000039        24   # BR(~chi_1+ -> ~G       W+)
     1.87247725E-06    2     1000039        37   # BR(~chi_1+ -> ~G       H+)
#
#         PDG            Width
DECAY   1000037     3.91802210E+03   # chargino2+ decays
#          BR         NDA      ID1       ID2
     1.39636430E-01    2     1000002        -1   # BR(~chi_2+ -> ~u_L     db)
     1.39679376E-01    2    -1000001         2   # BR(~chi_2+ -> ~d_L*    u )
     1.39636430E-01    2     1000004        -3   # BR(~chi_2+ -> ~c_L     sb)
     1.39679376E-01    2    -1000003         4   # BR(~chi_2+ -> ~s_L*    c )
     1.24572876E-01    2     1000006        -5   # BR(~chi_2+ -> ~t_1     bb)
     9.24053944E-07    2     2000006        -5   # BR(~chi_2+ -> ~t_2     bb)
     1.46959279E-01    2    -1000005         6   # BR(~chi_2+ -> ~b_1*    t )
     1.54101893E-01    2    -2000005         6   # BR(~chi_2+ -> ~b_2*    t )
     1.13710368E-07    2     1000012       -11   # BR(~chi_2+ -> ~nu_eL   e+  )
     1.13710368E-07    2     1000014       -13   # BR(~chi_2+ -> ~nu_muL  mu+ )
     1.13623229E-07    2     1000016       -15   # BR(~chi_2+ -> ~nu_tau1 tau+)
     1.13710525E-07    2    -1000011        12   # BR(~chi_2+ -> ~e_L+    nu_e)
     1.13710525E-07    2    -1000013        14   # BR(~chi_2+ -> ~mu_L+   nu_mu)
     5.54903866E-08    2    -1000015        16   # BR(~chi_2+ -> ~tau_1+  nu_tau)
     5.81221125E-08    2    -2000015        16   # BR(~chi_2+ -> ~tau_2+  nu_tau)
     2.91118244E-04    2     1000024        23   # BR(~chi_2+ -> ~chi_1+  Z )
     7.63192141E-03    2     1000022        24   # BR(~chi_2+ -> ~chi_10  W+)
     3.32769511E-04    2     1000023        24   # BR(~chi_2+ -> ~chi_20  W+)
     2.23341734E-12    2     1000024        25   # BR(~chi_2+ -> ~chi_1+  h )
     7.46937709E-03    2     1000022        37   # BR(~chi_2+ -> ~chi_10  H+)
     5.66364072E-06    2     1000039        24   # BR(~chi_2+ -> ~G       W+)
     1.88465280E-06    2     1000039        37   # BR(~chi_2+ -> ~G       H+)
#
#         PDG            Width
DECAY   1000022     1.E-08   # neutralino1 decays (OJ Mods)
#          BR         NDA      ID1       ID2
     7.57193211E-01    2     1000039        22   # BR(~chi_10 -> ~G        gam)
     2.42806789E-01    2     1000039        23   # BR(~chi_10 -> ~G        Z)
     9.49175835E-12    2     1000039        25   # BR(~chi_10 -> ~G        h)
#
#         PDG            Width
DECAY   1000023     1.E-08   # neutralino2 decays (OJ Mods)
#          BR         NDA      ID1       ID2
     2.81035844E-04    2     1000022        23   # BR(~chi_20 -> ~chi_10   Z )
     7.83114970E-03    2     1000022        25   # BR(~chi_20 -> ~chi_10   h )
     2.60358014E-04    2     1000022        35   # BR(~chi_20 -> ~chi_10   H )
     7.17658648E-03    2     1000022        36   # BR(~chi_20 -> ~chi_10   A )
     6.76106417E-02    2     1000002        -2   # BR(~chi_20 -> ~u_L      ub)
     6.76106417E-02    2    -1000002         2   # BR(~chi_20 -> ~u_L*     u )
     6.75877208E-02    2     1000001        -1   # BR(~chi_20 -> ~d_L      db)
     6.75877208E-02    2    -1000001         1   # BR(~chi_20 -> ~d_L*     d )
     1.94010220E-09    2     2000001        -1   # BR(~chi_20 -> ~d_R      db)
     1.94010220E-09    2    -2000001         1   # BR(~chi_20 -> ~d_R*     d )
     6.76106417E-02    2     1000004        -4   # BR(~chi_20 -> ~c_L      cb)
     6.76106417E-02    2    -1000004         4   # BR(~chi_20 -> ~c_L*     c )
     6.75877208E-02    2     1000003        -3   # BR(~chi_20 -> ~s_L      sb)
     6.75877208E-02    2    -1000003         3   # BR(~chi_20 -> ~s_L*     s )
     1.94010220E-09    2     2000003        -3   # BR(~chi_20 -> ~s_R      sb)
     1.94010220E-09    2    -2000003         3   # BR(~chi_20 -> ~s_R*     s )
     1.50735078E-01    2     1000006        -6   # BR(~chi_20 -> ~t_1      tb)
     1.50735078E-01    2    -1000006         6   # BR(~chi_20 -> ~t_1*     t )
     3.25394783E-02    2     1000005        -5   # BR(~chi_20 -> ~b_1      bb)
     3.25394783E-02    2    -1000005         5   # BR(~chi_20 -> ~b_1*     b )
     2.98279530E-02    2     2000005        -5   # BR(~chi_20 -> ~b_2      bb)
     2.98279530E-02    2    -2000005         5   # BR(~chi_20 -> ~b_2*     b )
     9.17690028E-07    2     1000039        22   # BR(~chi_20 -> ~G        gam)
     4.63453685E-06    2     1000039        23   # BR(~chi_20 -> ~G        Z)
     6.01592830E-08    2     1000039        25   # BR(~chi_20 -> ~G        h)
     1.81142061E-06    2     1000039        35   # BR(~chi_20 -> ~G        H)
     7.20360519E-08    2     1000039        36   # BR(~chi_20 -> ~G        A)
#
#         PDG            Width
DECAY   1000025     1.50332325E+03   # neutralino3 decays
#          BR         NDA      ID1       ID2
     3.97085221E-02    2     1000022        23   # BR(~chi_30 -> ~chi_10   Z )
     1.24881639E-03    2     1000022        25   # BR(~chi_30 -> ~chi_10   h )
     3.75990285E-02    2     1000022        35   # BR(~chi_30 -> ~chi_10   H )
     1.61861926E-03    2     1000022        36   # BR(~chi_30 -> ~chi_10   A )
     1.29822333E-09    2     1000002        -2   # BR(~chi_30 -> ~u_L      ub)
     1.29822333E-09    2    -1000002         2   # BR(~chi_30 -> ~u_L*     u )
     2.28029433E-17    2     2000002        -2   # BR(~chi_30 -> ~u_R      ub)
     2.28029433E-17    2    -2000002         2   # BR(~chi_30 -> ~u_R*     u )
     3.06265093E-09    2     1000001        -1   # BR(~chi_30 -> ~d_L      db)
     3.06265093E-09    2    -1000001         1   # BR(~chi_30 -> ~d_L*     d )
     3.72890075E-10    2     2000001        -1   # BR(~chi_30 -> ~d_R      db)
     3.72890075E-10    2    -2000001         1   # BR(~chi_30 -> ~d_R*     d )
     1.29822333E-09    2     1000004        -4   # BR(~chi_30 -> ~c_L      cb)
     1.29822333E-09    2    -1000004         4   # BR(~chi_30 -> ~c_L*     c )
     2.28029433E-17    2     2000004        -4   # BR(~chi_30 -> ~c_R      cb)
     2.28029433E-17    2    -2000004         4   # BR(~chi_30 -> ~c_R*     c )
     3.06265093E-09    2     1000003        -3   # BR(~chi_30 -> ~s_L      sb)
     3.06265093E-09    2    -1000003         3   # BR(~chi_30 -> ~s_L*     s )
     3.72890075E-10    2     2000003        -3   # BR(~chi_30 -> ~s_R      sb)
     3.72890075E-10    2    -2000003         3   # BR(~chi_30 -> ~s_R*     s )
     4.59588526E-01    2     1000006        -6   # BR(~chi_30 -> ~t_1      tb)
     4.59588526E-01    2    -1000006         6   # BR(~chi_30 -> ~t_1*     t )
     1.55663370E-04    2     1000005        -5   # BR(~chi_30 -> ~b_1      bb)
     1.55663370E-04    2    -1000005         5   # BR(~chi_30 -> ~b_1*     b )
     1.58512704E-04    2     2000005        -5   # BR(~chi_30 -> ~b_2      bb)
     1.58512704E-04    2    -2000005         5   # BR(~chi_30 -> ~b_2*     b )
     7.61033476E-23    2     1000012       -12   # BR(~chi_30 -> ~nu_eL    nu_eb)
     7.61033476E-23    2    -1000012        12   # BR(~chi_30 -> ~nu_eL*   nu_e )
     7.61033476E-23    2     1000014       -14   # BR(~chi_30 -> ~nu_muL   nu_mub)
     7.61033476E-23    2    -1000014        14   # BR(~chi_30 -> ~nu_muL*  nu_mu )
     7.61033476E-23    2     1000016       -16   # BR(~chi_30 -> ~nu_tau1  nu_taub)
     7.61033476E-23    2    -1000016        16   # BR(~chi_30 -> ~nu_tau1* nu_tau )
     2.61955754E-14    2     1000039        22   # BR(~chi_30 -> ~G        gam)
     3.77017042E-07    2     1000039        23   # BR(~chi_30 -> ~G        Z)
     9.48754730E-06    2     1000039        25   # BR(~chi_30 -> ~G        h)
     3.14357861E-07    2     1000039        35   # BR(~chi_30 -> ~G        H)
     9.41038052E-06    2     1000039        36   # BR(~chi_30 -> ~G        A)
#
#         PDG            Width
DECAY   1000035     3.91909857E+03   # neutralino4 decays
#          BR         NDA      ID1       ID2
     2.81672654E-04    2     1000022        23   # BR(~chi_40 -> ~chi_10   Z )
     1.17136519E-18    2     1000023        23   # BR(~chi_40 -> ~chi_20   Z )
     3.32602533E-04    2     1000024       -24   # BR(~chi_40 -> ~chi_1+   W-)
     3.32602533E-04    2    -1000024        24   # BR(~chi_40 -> ~chi_1-   W+)
     7.81353821E-03    2     1000022        25   # BR(~chi_40 -> ~chi_10   h )
     2.58433611E-04    2     1000022        35   # BR(~chi_40 -> ~chi_10   H )
     7.15885305E-03    2     1000022        36   # BR(~chi_40 -> ~chi_10   A )
     4.85370492E-12    2     1000023        25   # BR(~chi_40 -> ~chi_20   h )
     6.76086387E-02    2     1000002        -2   # BR(~chi_40 -> ~u_L      ub)
     6.76086387E-02    2    -1000002         2   # BR(~chi_40 -> ~u_L*     u )
     2.00678174E-12    2     2000002        -2   # BR(~chi_40 -> ~u_R      ub)
     2.00678174E-12    2    -2000002         2   # BR(~chi_40 -> ~u_R*     u )
     6.76315034E-02    2     1000001        -1   # BR(~chi_40 -> ~d_L      db)
     6.76315034E-02    2    -1000001         1   # BR(~chi_40 -> ~d_L*     d )
     1.93565696E-09    2     2000001        -1   # BR(~chi_40 -> ~d_R      db)
     1.93565696E-09    2    -2000001         1   # BR(~chi_40 -> ~d_R*     d )
     6.76086387E-02    2     1000004        -4   # BR(~chi_40 -> ~c_L      cb)
     6.76086387E-02    2    -1000004         4   # BR(~chi_40 -> ~c_L*     c )
     2.00678174E-12    2     2000004        -4   # BR(~chi_40 -> ~c_R      cb)
     2.00678174E-12    2    -2000004         4   # BR(~chi_40 -> ~c_R*     c )
     6.76315034E-02    2     1000003        -3   # BR(~chi_40 -> ~s_L      sb)
     6.76315034E-02    2    -1000003         3   # BR(~chi_40 -> ~s_L*     s )
     1.93565696E-09    2     2000003        -3   # BR(~chi_40 -> ~s_R      sb)
     1.93565696E-09    2    -2000003         3   # BR(~chi_40 -> ~s_R*     s )
     1.50288232E-01    2     1000006        -6   # BR(~chi_40 -> ~t_1      tb)
     1.50288232E-01    2    -1000006         6   # BR(~chi_40 -> ~t_1*     t )
     2.96341986E-02    2     1000005        -5   # BR(~chi_40 -> ~b_1      bb)
     2.96341986E-02    2    -1000005         5   # BR(~chi_40 -> ~b_1*     b )
     3.27787942E-02    2     2000005        -5   # BR(~chi_40 -> ~b_2      bb)
     3.27787942E-02    2    -2000005         5   # BR(~chi_40 -> ~b_2*     b )
     5.68085539E-08    2     1000011       -11   # BR(~chi_40 -> ~e_L-     e+)
     5.68085539E-08    2    -1000011        11   # BR(~chi_40 -> ~e_L+     e-)
     1.46429806E-14    2     2000011       -11   # BR(~chi_40 -> ~e_R-     e+)
     1.46429806E-14    2    -2000011        11   # BR(~chi_40 -> ~e_R+     e-)
     5.68085539E-08    2     1000013       -13   # BR(~chi_40 -> ~mu_L-    mu+)
     5.68085539E-08    2    -1000013        13   # BR(~chi_40 -> ~mu_L+    mu-)
     1.46429806E-14    2     2000013       -13   # BR(~chi_40 -> ~mu_R-    mu+)
     1.46429806E-14    2    -2000013        13   # BR(~chi_40 -> ~mu_R+    mu-)
     2.77013001E-08    2     1000015       -15   # BR(~chi_40 -> ~tau_1-   tau+)
     2.77013001E-08    2    -1000015        15   # BR(~chi_40 -> ~tau_1+   tau-)
     2.90147309E-08    2     2000015       -15   # BR(~chi_40 -> ~tau_2-   tau+)
     2.90147309E-08    2    -2000015        15   # BR(~chi_40 -> ~tau_2+   tau-)
     5.68836817E-08    2     1000012       -12   # BR(~chi_40 -> ~nu_eL    nu_eb)
     5.68836817E-08    2    -1000012        12   # BR(~chi_40 -> ~nu_eL*   nu_e )
     5.68836817E-08    2     1000014       -14   # BR(~chi_40 -> ~nu_muL   nu_mub)
     5.68836817E-08    2    -1000014        14   # BR(~chi_40 -> ~nu_muL*  nu_mu )
     5.68836817E-08    2     1000016       -16   # BR(~chi_40 -> ~nu_tau1  nu_taub)
     5.68836817E-08    2    -1000016        16   # BR(~chi_40 -> ~nu_tau1* nu_tau )
     9.20743596E-07    2     1000039        22   # BR(~chi_40 -> ~G        gam)
     4.66846361E-06    2     1000039        23   # BR(~chi_40 -> ~G        Z)
     6.06807406E-08    2     1000039        25   # BR(~chi_40 -> ~G        h)
     1.82394337E-06    2     1000039        35   # BR(~chi_40 -> ~G        H)
     7.24265437E-08    2     1000039        36   # BR(~chi_40 -> ~G        A)
#
#
#
#
