# SUSY Les Houches Accord 2 - MSSM-RpV/Bi Spectrum + Decays + Flavor Observables
# SPheno module generated by SARAH
# ----------------------------------------------------------------------
# SPheno v3.3.6  
#   W. Porod, Comput. Phys. Commun. 153 (2003) 275-315, hep-ph/0301101
#   W. Porod, F.Staub, Comput.Phys.Commun.183 (2012) 2458-2469, arXiv:1104.1573
# SARAH: SARAHVER
#   F. Staub; arXiv:0806.0538 (online manual)
#   F. Staub; Comput. Phys. Commun. 181 (2010) 1077-1086; arXiv:0909.2863
#   F. Staub; Comput. Phys. Commun. 182 (2011)  808-833; arXiv:1002.0840
#   F. Staub; Comput. Phys. Commun. 184 (2013)  1792-1809; arXiv:1207.0906
#   F. Staub; Comput. Phys. Commun. 185 (2014)  1773-1790; arXiv:1309.7223 
# Including the calculation of flavor observables based on the FlavorKit 
#   W. Porod, F. Staub, A. Vicente; Eur.Phys.J. C74 (2014) 8, 2992; arXiv:1405.1434 
# Two-loop masss corrections to Higgs fields based on 
#   M. D. Goodsell, K. Nickel, F. Staub; arXiv:1411.0675 
#   M. D. Goodsell, K. Nickel, F. Staub; arXiv:1503.03098
#  
# in case of problems send email to florian.staub@cern.ch and goodsell@lpthe.jussieu.fr 
# ----------------------------------------------------------------------
# Created: 01.02.2018,  11:32
Block SPINFO         # Program information
     1   SPhenoSARAH      # spectrum calculator
     2   v3.3.6      # version number of SPheno
     9   SARAHVER    # version number of SARAH
Block MODSEL  # Input parameters
     1  0   #  SUSY Scale input
     2  1   #  Boundary conditions 
Block MINPAR  # Input parameters
    1    0.00000000E+00  # m0
    2    0.00000000E+00  # m12
    3    5.00000000E+00  # TanBeta
    4    0.00000000E+00  # SignumMue
    5    0.00000000E+00  # Azero
Block EXTPAR  # Input parameters
    1   -1.00000000E+03  # M1input
    2    2.00000000E+03  # M2input
    3    3.20000000E+03  # M3input
   23    6.00000000E+02  # Muinput
   25    5.00000000E+00  # TanBeta
   24    1.00000000E+06  # MA2input
Block gaugeGUT Q=  1.99764391E+03  # (GUT scale)
   1    4.69740198E-01  # g1(Q)^DRbar
   2    6.36800319E-01  # g2(Q)^DRbar
   3    1.02086020E+00  # g3(Q)^DRbar
Block SMINPUTS  # SM parameters
         1     1.27932471E+02  # alpha_em^-1(MZ)^MSbar
         2     1.16637000E-05  # G_mu [GeV^-2]
         3     1.18700000E-01  # alpha_s(MZ)^MSbar
         4     9.11887000E+01  # m_Z(pole)
         5     4.18000000E+00  # m_b(m_b), MSbar
         6     1.73500000E+02  # m_t(pole)
         7     1.77669000E+00  # m_tau(pole)
Block GAUGE Q=  1.99764391E+03  # (SUSY Scale)
   1    3.63859192E-01  # g1
   2    6.36800319E-01  # g2
   3    1.02086020E+00  # g3
Block HMIX Q=  1.99764391E+03  # (SUSY Scale)
   1    6.00000000E+02  # Mu
 101    1.92307692E+05  # Bmu
 102    4.77379709E+01  # vd
 103    2.38689855E+02  # vu
Block MSOFT Q=  1.99764391E+03  # (SUSY Scale)
  21    5.51478009E+05  # mHd2
  22   -2.63363314E+05  # mHu2
   1   -1.00000000E+03  # M1
   2    2.00000000E+03  # M2
   3    3.20000000E+03  # M3
Block PHASES Q=  1.99764391E+03  # (SUSY Scale)
   1    1.00000000E+00  # pG
Block Yd Q=  1.99764391E+03  # (SUSY Scale)
  1  1     6.70005508E-05   # Real(Yd(1,1),dp)
  1  2     0.00000000E+00   # Real(Yd(1,2),dp)
  1  3     0.00000000E+00   # Real(Yd(1,3),dp)
  2  1     0.00000000E+00   # Real(Yd(2,1),dp)
  2  2     1.27300999E-03   # Real(Yd(2,2),dp)
  2  3     0.00000000E+00   # Real(Yd(2,3),dp)
  3  1     0.00000000E+00   # Real(Yd(3,1),dp)
  3  2     0.00000000E+00   # Real(Yd(3,2),dp)
  3  3     6.62833836E-02   # Real(Yd(3,3),dp)
Block Ye Q=  1.99764391E+03  # (SUSY Scale)
  1  1     1.43570424E-05   # Real(Ye(1,1),dp)
  1  2    -2.07323837E-14   # Real(Ye(1,2),dp)
  1  3     2.08384286E-14   # Real(Ye(1,3),dp)
  2  1     1.47802468E-11   # Real(Ye(2,1),dp)
  2  2     2.96858114E-03   # Real(Ye(2,2),dp)
  2  3     1.54774386E-11   # Real(Ye(2,3),dp)
  3  1     2.87742634E-10   # Real(Ye(3,1),dp)
  3  2    -2.99419217E-10   # Real(Ye(3,2),dp)
  3  3     4.99187302E-02   # Real(Ye(3,3),dp)
Block Yu Q=  1.99764391E+03  # (SUSY Scale)
  1  1     7.03204900E-06   # Real(Yu(1,1),dp)
  1  2     0.00000000E+00   # Real(Yu(1,2),dp)
  1  3     0.00000000E+00   # Real(Yu(1,3),dp)
  2  1     0.00000000E+00   # Real(Yu(2,1),dp)
  2  2     3.57228113E-03   # Real(Yu(2,2),dp)
  2  3     0.00000000E+00   # Real(Yu(2,3),dp)
  3  1     0.00000000E+00   # Real(Yu(3,1),dp)
  3  2     0.00000000E+00   # Real(Yu(3,2),dp)
  3  3     8.54145541E-01   # Real(Yu(3,3),dp)
Block RVSNVEV Q=  1.99764391E+03  # (SUSY Scale)
   1   -1.10715278E-02  # vL(1)
   2    1.28802431E-02  # vL(2)
   3   -1.06791412E-02  # vL(3)
Block RVKAPPA Q=  1.99764391E+03  # (SUSY Scale)
   1    1.37582873E-01  # Real(REps(1) ,dp)
   2   -1.43229920E-01  # Real(REps(2) ,dp)
   3    1.44001208E-01  # Real(REps(3) ,dp)
Block Td Q=  1.99764391E+03  # (SUSY Scale)
  1  1     0.00000000E+00   # Real(Td(1,1),dp)
  1  2     0.00000000E+00   # Real(Td(1,2),dp)
  1  3     0.00000000E+00   # Real(Td(1,3),dp)
  2  1     0.00000000E+00   # Real(Td(2,1),dp)
  2  2     0.00000000E+00   # Real(Td(2,2),dp)
  2  3     0.00000000E+00   # Real(Td(2,3),dp)
  3  1     0.00000000E+00   # Real(Td(3,1),dp)
  3  2     0.00000000E+00   # Real(Td(3,2),dp)
  3  3     0.00000000E+00   # Real(Td(3,3),dp)
Block Te Q=  1.99764391E+03  # (SUSY Scale)
  1  1     0.00000000E+00   # Real(Te(1,1),dp)
  1  2     0.00000000E+00   # Real(Te(1,2),dp)
  1  3     0.00000000E+00   # Real(Te(1,3),dp)
  2  1     0.00000000E+00   # Real(Te(2,1),dp)
  2  2     0.00000000E+00   # Real(Te(2,2),dp)
  2  3     0.00000000E+00   # Real(Te(2,3),dp)
  3  1     0.00000000E+00   # Real(Te(3,1),dp)
  3  2     0.00000000E+00   # Real(Te(3,2),dp)
  3  3     0.00000000E+00   # Real(Te(3,3),dp)
Block Tu Q=  1.99764391E+03  # (SUSY Scale)
  1  1     0.00000000E+00   # Real(Tu(1,1),dp)
  1  2     0.00000000E+00   # Real(Tu(1,2),dp)
  1  3     0.00000000E+00   # Real(Tu(1,3),dp)
  2  1     0.00000000E+00   # Real(Tu(2,1),dp)
  2  2     0.00000000E+00   # Real(Tu(2,2),dp)
  2  3     0.00000000E+00   # Real(Tu(2,3),dp)
  3  1     0.00000000E+00   # Real(Tu(3,1),dp)
  3  2     0.00000000E+00   # Real(Tu(3,2),dp)
  3  3    -2.70000000E+03   # Real(Tu(3,3),dp)
Block RVD Q=  1.99764391E+03  # (SUSY Scale)
   1    2.04030898E+02  # Real(Beps(1) ,dp)
   2   -2.35163887E+02  # Real(Beps(2) ,dp)
   3    1.98271134E+02  # Real(Beps(3) ,dp)
Block MSQ2 Q=  1.99764391E+03  # (SUSY Scale)
  1  1     4.00000000E+06   # Real(mq2(1,1),dp)
  1  2     0.00000000E+00   # Real(mq2(1,2),dp)
  1  3     0.00000000E+00   # Real(mq2(1,3),dp)
  2  1     0.00000000E+00   # Real(mq2(2,1),dp)
  2  2     4.00000000E+06   # Real(mq2(2,2),dp)
  2  3     0.00000000E+00   # Real(mq2(2,3),dp)
  3  1     0.00000000E+00   # Real(mq2(3,1),dp)
  3  2     0.00000000E+00   # Real(mq2(3,2),dp)
  3  3     4.00000000E+06   # Real(mq2(3,3),dp)
Block MSL2 Q=  1.99764391E+03  # (SUSY Scale)
  1  1     4.00000000E+06   # Real(ml2(1,1),dp)
  1  2     0.00000000E+00   # Real(ml2(1,2),dp)
  1  3     0.00000000E+00   # Real(ml2(1,3),dp)
  2  1     0.00000000E+00   # Real(ml2(2,1),dp)
  2  2     4.00000000E+06   # Real(ml2(2,2),dp)
  2  3     0.00000000E+00   # Real(ml2(2,3),dp)
  3  1     0.00000000E+00   # Real(ml2(3,1),dp)
  3  2     0.00000000E+00   # Real(ml2(3,2),dp)
  3  3     4.00000000E+06   # Real(ml2(3,3),dp)
Block MSD2 Q=  1.99764391E+03  # (SUSY Scale)
  1  1     4.00000000E+06   # Real(md2(1,1),dp)
  1  2     0.00000000E+00   # Real(md2(1,2),dp)
  1  3     0.00000000E+00   # Real(md2(1,3),dp)
  2  1     0.00000000E+00   # Real(md2(2,1),dp)
  2  2     4.00000000E+06   # Real(md2(2,2),dp)
  2  3     0.00000000E+00   # Real(md2(2,3),dp)
  3  1     0.00000000E+00   # Real(md2(3,1),dp)
  3  2     0.00000000E+00   # Real(md2(3,2),dp)
  3  3     4.00000000E+06   # Real(md2(3,3),dp)
Block MSU2 Q=  1.99764391E+03  # (SUSY Scale)
  1  1     4.00000000E+06   # Real(mu2(1,1),dp)
  1  2     0.00000000E+00   # Real(mu2(1,2),dp)
  1  3     0.00000000E+00   # Real(mu2(1,3),dp)
  2  1     0.00000000E+00   # Real(mu2(2,1),dp)
  2  2     4.00000000E+06   # Real(mu2(2,2),dp)
  2  3     0.00000000E+00   # Real(mu2(2,3),dp)
  3  1     0.00000000E+00   # Real(mu2(3,1),dp)
  3  2     0.00000000E+00   # Real(mu2(3,2),dp)
  3  3     4.00000000E+06   # Real(mu2(3,3),dp)
Block MSE2 Q=  1.99764391E+03  # (SUSY Scale)
  1  1     4.00000000E+06   # Real(me2(1,1),dp)
  1  2     0.00000000E+00   # Real(me2(1,2),dp)
  1  3     0.00000000E+00   # Real(me2(1,3),dp)
  2  1     0.00000000E+00   # Real(me2(2,1),dp)
  2  2     4.00000000E+06   # Real(me2(2,2),dp)
  2  3     0.00000000E+00   # Real(me2(2,3),dp)
  3  1     0.00000000E+00   # Real(me2(3,1),dp)
  3  2     0.00000000E+00   # Real(me2(3,2),dp)
  3  3     4.00000000E+06   # Real(me2(3,3),dp)
Block RVM2LH1 Q=  1.99764391E+03  # (SUSY Scale)
   1    0.00000000E+00  # mlHd2(1) 
   2    0.00000000E+00  # mlHd2(2) 
   3    0.00000000E+00  # mlHd2(3) 
Block MASS  # Mass spectrum
#   PDG code      mass          particle
   1000001     2.04848531E+03  # Sd_1
   1000003     2.07168320E+03  # Sd_2
   1000005     2.07177653E+03  # Sd_3
   2000001     2.07177667E+03  # Sd_4
   2000003     2.09022436E+03  # Sd_5
   2000005     2.09022460E+03  # Sd_6
   1000002     1.90198113E+03  # Su_1
   1000004     2.07205514E+03  # Su_2
   1000006     2.07205560E+03  # Su_3
   2000002     2.08878589E+03  # Su_4
   2000004     2.08878613E+03  # Su_5
   2000006     2.14218142E+03  # Su_6
        25     1.22457054E+02  # hh_1
        35     9.95845715E+02  # hh_2
   1000012     2.01403343E+03  # hh_3
   1000014     2.01408997E+03  # hh_4
   1000016     2.01409017E+03  # hh_5
        36     9.95080415E+02  # Ah_2
   1000017     2.01403354E+03  # Ah_3
   1000018     2.01408997E+03  # Ah_4
   1000019     2.01409017E+03  # Ah_5
        37     9.98108887E+02  # Hpm_2
   1000011     2.00339354E+03  # Hpm_3
   2000011     2.00363906E+03  # Hpm_4
   1000013     2.00363994E+03  # Hpm_5
   2000013     2.01592053E+03  # Hpm_6
   1000015     2.01592081E+03  # Hpm_7
   2000015     2.01599777E+03  # Hpm_8
        23     9.11887000E+01  # VZ
        24     8.03157462E+01  # VWm
         1     5.00000000E-03  # Fd_1
         3     9.50000000E-02  # Fd_2
         5     4.18000000E+00  # Fd_3
         2     2.50000000E-03  # Fu_1
         4     1.27000000E+00  # Fu_2
         6     1.73500000E+02  # Fu_3
   1000021     3.13322297E+03  # Glu
        12     2.06524276E-12  # Chi_1
        14     1.30622135E-11  # Chi_2
        16     5.13672107E-11  # Chi_3
   1000022     6.07921535E+02  # Chi_4
   1000023     6.09679540E+02  # Chi_5
   1000025     9.95207470E+02  # Chi_6
   1000035     2.00949501E+03  # Chi_7
        11     5.10998930E-04  # Cha_1
        13     1.05658372E-01  # Cha_2
        15     1.77669000E+00  # Cha_3
   1000024     6.08414517E+02  # Cha_4
   1000037     2.00971376E+03  # Cha_5
Block DSQMIX Q=  1.99764391E+03  # ()
  1  1     0.00000000E+00   # Real(ZD(1,1),dp)
  1  2     0.00000000E+00   # Real(ZD(1,2),dp)
  1  3     9.97474952E-01   # Real(ZD(1,3),dp)
  1  4     0.00000000E+00   # Real(ZD(1,4),dp)
  1  5     6.21359605E-15   # Real(ZD(1,5),dp)
  1  6     7.10191551E-02   # Real(ZD(1,6),dp)
  2  1     0.00000000E+00   # Real(ZD(2,1),dp)
  2  2     0.00000000E+00   # Real(ZD(2,2),dp)
  2  3     7.10191551E-02   # Real(ZD(2,3),dp)
  2  4     0.00000000E+00   # Real(ZD(2,4),dp)
  2  5     1.04621507E-15   # Real(ZD(2,5),dp)
  2  6    -9.97474952E-01   # Real(ZD(2,6),dp)
  3  1    -1.79918081E-13   # Real(ZD(3,1),dp)
  3  2    -1.97296145E-03   # Real(ZD(3,2),dp)
  3  3     6.27219552E-15   # Real(ZD(3,3),dp)
  3  4    -1.73267214E-09   # Real(ZD(3,4),dp)
  3  5    -9.99998054E-01   # Real(ZD(3,5),dp)
  3  6    -6.02287812E-16   # Real(ZD(3,6),dp)
  4  1     1.03839391E-04   # Real(ZD(4,1),dp)
  4  2    -3.40997327E-12   # Real(ZD(4,2),dp)
  4  3     1.08676586E-23   # Real(ZD(4,3),dp)
  4  4     9.99999995E-01   # Real(ZD(4,4),dp)
  4  5    -1.73266880E-09   # Real(ZD(4,5),dp)
  4  6    -1.04356733E-24   # Real(ZD(4,6),dp)
  5  1     6.48965127E-14   # Real(ZD(5,1),dp)
  5  2    -9.99998054E-01   # Real(ZD(5,2),dp)
  5  3    -1.23748240E-17   # Real(ZD(5,3),dp)
  5  4     8.40438043E-15   # Real(ZD(5,4),dp)
  5  5     1.97296145E-03   # Real(ZD(5,5),dp)
  5  6     1.18829295E-18   # Real(ZD(5,6),dp)
  6  1     9.99999995E-01   # Real(ZD(6,1),dp)
  6  2     6.48955075E-14   # Real(ZD(6,2),dp)
  6  3     7.93410951E-31   # Real(ZD(6,3),dp)
  6  4    -1.03839391E-04   # Real(ZD(6,4),dp)
  6  5    -1.26496281E-16   # Real(ZD(6,5),dp)
  6  6    -7.61873165E-32   # Real(ZD(6,6),dp)
Block USQMIX Q=  1.99764391E+03  # ()
  1  1    -0.00000000E+00   # Real(ZU(1,1),dp)
  1  2    -0.00000000E+00   # Real(ZU(1,2),dp)
  1  3    -6.31771709E-01   # Real(ZU(1,3),dp)
  1  4    -0.00000000E+00   # Real(ZU(1,4),dp)
  1  5    -0.00000000E+00   # Real(ZU(1,5),dp)
  1  6    -7.75154506E-01   # Real(ZU(1,6),dp)
  2  1    -1.87791684E-14   # Real(ZU(2,1),dp)
  2  2     2.01569457E-03   # Real(ZU(2,2),dp)
  2  3    -0.00000000E+00   # Real(ZU(2,3),dp)
  2  4    -2.24673241E-15   # Real(ZU(2,4),dp)
  2  5     9.99997968E-01   # Real(ZU(2,5),dp)
  2  6    -0.00000000E+00   # Real(ZU(2,6),dp)
  3  1     3.96799043E-06   # Real(ZU(3,1),dp)
  3  2     4.52902674E-18   # Real(ZU(3,2),dp)
  3  3     0.00000000E+00   # Real(ZU(3,3),dp)
  3  4     1.00000000E+00   # Real(ZU(3,4),dp)
  3  5     2.24680236E-15   # Real(ZU(3,5),dp)
  3  6     0.00000000E+00   # Real(ZU(3,6),dp)
  4  1     3.89488507E-12   # Real(ZU(4,1),dp)
  4  2     9.99997968E-01   # Real(ZU(4,2),dp)
  4  3     0.00000000E+00   # Real(ZU(4,3),dp)
  4  4    -1.54550169E-17   # Real(ZU(4,4),dp)
  4  5    -2.01569457E-03   # Real(ZU(4,5),dp)
  4  6     0.00000000E+00   # Real(ZU(4,6),dp)
  5  1     1.00000000E+00   # Real(ZU(5,1),dp)
  5  2    -3.89483931E-12   # Real(ZU(5,2),dp)
  5  3    -0.00000000E+00   # Real(ZU(5,3),dp)
  5  4    -3.96799043E-06   # Real(ZU(5,4),dp)
  5  5     2.66300200E-14   # Real(ZU(5,5),dp)
  5  6    -0.00000000E+00   # Real(ZU(5,6),dp)
  6  1     0.00000000E+00   # Real(ZU(6,1),dp)
  6  2     0.00000000E+00   # Real(ZU(6,2),dp)
  6  3    -7.75154506E-01   # Real(ZU(6,3),dp)
  6  4     0.00000000E+00   # Real(ZU(6,4),dp)
  6  5     0.00000000E+00   # Real(ZU(6,5),dp)
  6  6     6.31771709E-01   # Real(ZU(6,6),dp)
Block SCALARMIX Q=  1.99764391E+03  # ()
  1  1    -2.00558848E-01   # ZH(1,1)
  1  2    -9.79681653E-01   # ZH(1,2)
  1  3     4.55926354E-05   # ZH(1,3)
  1  4    -5.30533212E-05   # ZH(1,4)
  1  5     4.39685017E-05   # ZH(1,5)
  2  1     9.79681655E-01   # ZH(2,1)
  2  2    -2.00558842E-01   # ZH(2,2)
  2  3     4.01487116E-05   # ZH(2,3)
  2  4    -4.33054771E-05   # ZH(2,4)
  2  5     4.10072143E-05   # ZH(2,5)
  3  1     3.13241547E-05   # ZH(3,1)
  3  2    -5.12416103E-05   # ZH(3,2)
  3  3     4.90195478E-04   # ZH(3,3)
  3  4    -5.27993874E-04   # ZH(3,4)
  3  5    -9.99999739E-01   # ZH(3,5)
  4  1    -2.67517334E-05   # ZH(4,1)
  4  2     5.18072131E-05   # ZH(4,2)
  4  3    -1.54547446E-01   # ZH(4,3)
  4  4    -9.87985265E-01   # ZH(4,4)
  4  5     4.45888332E-04   # ZH(4,5)
  5  1     3.47563054E-05   # ZH(5,1)
  5  2    -6.14890139E-05   # ZH(5,2)
  5  3    -9.87985244E-01   # ZH(5,3)
  5  4     1.54547183E-01   # ZH(5,4)
  5  5    -5.65901774E-04   # ZH(5,5)
Block PSEUDOSCALARMIX Q=  1.99764391E+03  # ()
  1  1    -1.94523561E-01   # ZA(1,1)
  1  2     9.80897843E-01   # ZA(1,2)
  1  3     4.54427761E-05   # ZA(1,3)
  1  4    -5.28637543E-05   # ZA(1,4)
  1  5     4.38341380E-05   # ZA(1,5)
  2  1     9.80897845E-01   # ZA(2,1)
  2  2     1.94523555E-01   # ZA(2,2)
  2  3     3.97263287E-05   # ZA(2,3)
  2  4    -4.28146510E-05   # ZA(2,4)
  2  5     4.05994365E-05   # ZA(2,5)
  3  1     3.12651273E-05   # ZA(3,1)
  3  2     5.08360549E-05   # ZA(3,2)
  3  3     4.96894318E-04   # ZA(3,3)
  3  4    -5.36724042E-04   # ZA(3,4)
  3  5    -9.99999731E-01   # ZA(3,5)
  4  1     2.69579011E-05   # ZA(4,1)
  4  2     5.18692939E-05   # ZA(4,2)
  4  3     1.46904588E-01   # ZA(4,3)
  4  4     9.89150559E-01   # ZA(4,4)
  4  5    -4.57901475E-04   # ZA(4,5)
  5  1     3.44776179E-05   # ZA(5,1)
  5  2     6.06050573E-05   # ZA(5,2)
  5  3    -9.89150540E-01   # ZA(5,3)
  5  4     1.46904317E-01   # ZA(5,4)
  5  5    -5.70346356E-04   # ZA(5,5)
Block CHARGEMIX Q=  1.99764391E+03  # ()
  1  1    -1.96015884E-01   # ZP(1,1)
  1  2     9.80600717E-01   # ZP(1,2)
  1  3     4.54810538E-05   # ZP(1,3)
  1  4    -5.29108571E-05   # ZP(1,4)
  1  5     4.38693481E-05   # ZP(1,5)
  1  6     6.87412130E-15   # ZP(1,6)
  1  7    -1.43893117E-12   # ZP(1,7)
  1  8     2.55097784E-11   # ZP(1,8)
  2  1    -9.80600719E-01   # ZP(2,1)
  2  2    -1.96015878E-01   # ZP(2,2)
  2  3    -3.98523781E-05   # ZP(2,3)
  2  4     4.29611807E-05   # ZP(2,4)
  2  5    -4.07216014E-05   # ZP(2,5)
  2  6    -1.27763448E-10   # ZP(2,6)
  2  7     2.75438770E-08   # ZP(2,7)
  2  8    -4.64489730E-07   # ZP(2,8)
  3  1    -7.21315927E-06   # ZP(3,1)
  3  2    -1.11059969E-05   # ZP(3,2)
  3  3    -3.09585474E-07   # ZP(3,3)
  3  4     3.34378157E-07   # ZP(3,4)
  3  5     2.16020114E-01   # ZP(3,5)
  3  6    -3.62727704E-10   # ZP(3,6)
  3  7     8.14269608E-08   # ZP(3,7)
  3  8     9.76388913E-01   # ZP(3,8)
  4  1    -4.67539073E-07   # ZP(4,1)
  4  2    -8.41972436E-07   # ZP(4,2)
  4  3    -2.23253906E-08   # ZP(4,3)
  4  4    -1.38722636E-02   # ZP(4,4)
  4  5    -2.11149371E-09   # ZP(4,5)
  4  6    -7.02137026E-09   # ZP(4,6)
  4  7    -9.99903776E-01   # ZP(4,7)
  4  8     8.85928764E-08   # ZP(4,8)
  5  1     2.14963620E-09   # ZP(5,1)
  5  2     3.54236628E-09   # ZP(5,2)
  5  3    -6.71109799E-05   # ZP(5,3)
  5  4    -1.02444400E-11   # ZP(5,4)
  5  5     9.94333189E-12   # ZP(5,5)
  5  6    -9.99999998E-01   # ZP(5,6)
  5  7     7.02368246E-09   # ZP(5,7)
  5  8    -3.94922519E-10   # ZP(5,8)
  6  1    -2.98849742E-05   # ZP(6,1)
  6  2    -5.18805081E-05   # ZP(6,2)
  6  3     9.99961882E-01   # ZP(6,3)
  6  4     8.72987788E-03   # ZP(6,4)
  6  5    -2.92000056E-05   # ZP(6,5)
  6  6    -6.71084231E-05   # ZP(6,6)
  6  7    -1.21137090E-04   # ZP(6,7)
  6  8     6.77359311E-06   # ZP(6,8)
  7  1    -3.20141089E-05   # ZP(7,1)
  7  2    -6.07532664E-05   # ZP(7,2)
  7  3     8.73071318E-03   # ZP(7,3)
  7  4    -9.99865663E-01   # ZP(7,4)
  7  5    -3.21057788E-05   # ZP(7,5)
  7  6    -5.85819332E-07   # ZP(7,6)
  7  7     1.38717348E-02   # ZP(7,7)
  7  8     7.44631044E-06   # ZP(7,8)
  8  1     3.04963066E-05   # ZP(8,1)
  8  2     4.97801039E-05   # ZP(8,2)
  8  3    -3.02568548E-05   # ZP(8,3)
  8  4     3.26865085E-05   # ZP(8,4)
  8  5    -9.76388911E-01   # ZP(8,5)
  8  6     1.93578594E-09   # ZP(8,6)
  8  7    -4.32333479E-07   # ZP(8,7)
  8  8     2.16020114E-01   # ZP(8,8)
Block UVMIX Q=  1.99764391E+03  # ()
  1  1     0.00000000E+00   # Real(UV(1,1),dp)
  1  2     0.00000000E+00   # Real(UV(1,2),dp)
  1  3    -0.00000000E+00   # Real(UV(1,3),dp)
  1  4     0.00000000E+00   # Real(UV(1,4),dp)
  1  5     0.00000000E+00   # Real(UV(1,5),dp)
  1  6    -0.00000000E+00   # Real(UV(1,6),dp)
  1  7     0.00000000E+00   # Real(UV(1,7),dp)
  2  1    -5.66209261E-01   # Real(UV(2,1),dp)
  2  2     3.67895736E-01   # Real(UV(2,2),dp)
  2  3    -7.37603989E-01   # Real(UV(2,3),dp)
  2  4    -6.93127979E-09   # Real(UV(2,4),dp)
  2  5    -1.26807049E-08   # Real(UV(2,5),dp)
  2  6    -3.94502503E-04   # Real(UV(2,6),dp)
  2  7    -9.58943923E-11   # Real(UV(2,7),dp)
  3  1     0.00000000E+00   # Real(UV(3,1),dp)
  3  2    -0.00000000E+00   # Real(UV(3,2),dp)
  3  3    -0.00000000E+00   # Real(UV(3,3),dp)
  3  4     0.00000000E+00   # Real(UV(3,4),dp)
  3  5     0.00000000E+00   # Real(UV(3,5),dp)
  3  6     0.00000000E+00   # Real(UV(3,6),dp)
  3  7     0.00000000E+00   # Real(UV(3,7),dp)
  4  1    -1.62067970E-04   # Real(UV(4,1),dp)
  4  2     1.68650667E-04   # Real(UV(4,2),dp)
  4  3    -1.69673364E-04   # Real(UV(4,3),dp)
  4  4    -2.29418186E-02   # Real(UV(4,4),dp)
  4  5    -4.63812743E-02   # Real(UV(4,5),dp)
  4  6     7.07125580E-01   # Real(UV(4,6),dp)
  4  7    -7.05192017E-01   # Real(UV(4,7),dp)
  5  1    -0.00000000E+00   # Real(UV(5,1),dp)
  5  2     0.00000000E+00   # Real(UV(5,2),dp)
  5  3    -0.00000000E+00   # Real(UV(5,3),dp)
  5  4     0.00000000E+00   # Real(UV(5,4),dp)
  5  5     0.00000000E+00   # Real(UV(5,5),dp)
  5  6     0.00000000E+00   # Real(UV(5,6),dp)
  5  7     0.00000000E+00   # Real(UV(5,7),dp)
  6  1     0.00000000E+00   # Real(UV(6,1),dp)
  6  2    -0.00000000E+00   # Real(UV(6,2),dp)
  6  3     0.00000000E+00   # Real(UV(6,3),dp)
  6  4     0.00000000E+00   # Real(UV(6,4),dp)
  6  5    -0.00000000E+00   # Real(UV(6,5),dp)
  6  6    -0.00000000E+00   # Real(UV(6,6),dp)
  6  7    -0.00000000E+00   # Real(UV(6,7),dp)
  7  1     4.82776260E-06   # Real(UV(7,1),dp)
  7  2    -5.24033269E-06   # Real(UV(7,2),dp)
  7  3     4.90912258E-06   # Real(UV(7,3),dp)
  7  4     7.00904095E-04   # Real(UV(7,4),dp)
  7  5    -9.98782566E-01   # Real(UV(7,5),dp)
  7  6    -2.09624835E-02   # Real(UV(7,6),dp)
  7  7     4.46482894E-02   # Real(UV(7,7),dp)
Block IMUVMIX Q=  1.99764391E+03  # ()
  1  1     8.22366283E-01   # Aimag(UV(1,1))
  1  2     3.12785860E-01   # Aimag(UV(1,2))
  1  3    -4.75266981E-01   # Aimag(UV(1,3))
  1  4     1.51048689E-09   # Aimag(UV(1,4))
  1  5     1.27714226E-09   # Aimag(UV(1,5))
  1  6    -1.58893426E-07   # Aimag(UV(1,6))
  1  7     8.53131635E-12   # Aimag(UV(1,7))
  2  1     0.00000000E+00   # Aimag(UV(2,1))
  2  2     0.00000000E+00   # Aimag(UV(2,2))
  2  3     0.00000000E+00   # Aimag(UV(2,3))
  2  4     0.00000000E+00   # Aimag(UV(2,4))
  2  5     0.00000000E+00   # Aimag(UV(2,5))
  2  6     0.00000000E+00   # Aimag(UV(2,6))
  2  7     0.00000000E+00   # Aimag(UV(2,7))
  3  1     5.58633829E-02   # Aimag(UV(3,1))
  3  2    -8.75681264E-01   # Aimag(UV(3,2))
  3  3    -4.79647365E-01   # Aimag(UV(3,3))
  3  4     3.03823193E-07   # Aimag(UV(3,4))
  3  5     2.70060816E-07   # Aimag(UV(3,5))
  3  6     1.06594037E-04   # Aimag(UV(3,6))
  3  7     1.93158763E-09   # Aimag(UV(3,7))
  4  1     0.00000000E+00   # Aimag(UV(4,1))
  4  2     0.00000000E+00   # Aimag(UV(4,2))
  4  3     0.00000000E+00   # Aimag(UV(4,3))
  4  4     0.00000000E+00   # Aimag(UV(4,4))
  4  5     0.00000000E+00   # Aimag(UV(4,5))
  4  6     0.00000000E+00   # Aimag(UV(4,6))
  4  7     0.00000000E+00   # Aimag(UV(4,7))
  5  1    -1.61860790E-04   # Aimag(UV(5,1))
  5  2     1.68471993E-04   # Aimag(UV(5,2))
  5  3    -1.69431689E-04   # Aimag(UV(5,3))
  5  4     6.31302061E-02   # Aimag(UV(5,4))
  5  5     1.67372880E-02   # Aimag(UV(5,5))
  5  6     7.06205858E-01   # Aimag(UV(5,6))
  5  7     7.04987690E-01   # Aimag(UV(5,7))
  6  1     6.48930514E-06   # Aimag(UV(6,1))
  6  2    -6.50941850E-06   # Aimag(UV(6,2))
  6  3     6.95724858E-06   # Aimag(UV(6,3))
  6  4     9.97741329E-01   # Aimag(UV(6,4))
  6  5    -1.42386448E-03   # Aimag(UV(6,5))
  6  6    -2.84096500E-02   # Aimag(UV(6,6))
  6  7    -6.08531470E-02   # Aimag(UV(6,7))
  7  1     0.00000000E+00   # Aimag(UV(7,1))
  7  2     0.00000000E+00   # Aimag(UV(7,2))
  7  3     0.00000000E+00   # Aimag(UV(7,3))
  7  4     0.00000000E+00   # Aimag(UV(7,4))
  7  5     0.00000000E+00   # Aimag(UV(7,5))
  7  6     0.00000000E+00   # Aimag(UV(7,6))
  7  7     0.00000000E+00   # Aimag(UV(7,7))
Block UELMIX Q=  1.99764391E+03  # ()
  1  1    -9.99999974E-01   # Real(ZEL(1,1),dp)
  1  2    -5.66899314E-08   # Real(ZEL(1,2),dp)
  1  3     5.67967184E-08   # Real(ZEL(1,3),dp)
  1  4    -3.29952971E-08   # Real(ZEL(1,4),dp)
  1  5    -2.29191403E-04   # Real(ZEL(1,5),dp)
  2  1    -2.03237333E-09   # Real(ZEL(2,1),dp)
  2  2     9.99999972E-01   # Real(ZEL(2,2),dp)
  2  3     5.93154973E-08   # Real(ZEL(2,3),dp)
  2  4    -3.40814224E-07   # Real(ZEL(2,4),dp)
  2  5    -2.38479895E-04   # Real(ZEL(2,5),dp)
  3  1     1.79980080E-09   # Real(ZEL(3,1),dp)
  3  2    -2.08975883E-09   # Real(ZEL(3,2),dp)
  3  3     9.99999971E-01   # Real(ZEL(3,3),dp)
  3  4    -1.71014292E-07   # Real(ZEL(3,4),dp)
  3  5     2.39960666E-04   # Real(ZEL(3,5),dp)
  4  1     2.29089710E-04   # Real(ZEL(4,1),dp)
  4  2    -2.38364981E-04   # Real(ZEL(4,2),dp)
  4  3     2.39860259E-04   # Real(ZEL(4,3),dp)
  4  4     2.96445717E-02   # Real(ZEL(4,4),dp)
  4  5    -9.99560420E-01   # Real(ZEL(4,5),dp)
  5  1    -6.82726219E-06   # Real(ZEL(5,1),dp)
  5  2     7.41029881E-06   # Real(ZEL(5,2),dp)
  5  3    -6.94259161E-06   # Real(ZEL(5,3),dp)
  5  4     9.99560503E-01   # Real(ZEL(5,4),dp)
  5  5     2.96445692E-02   # Real(ZEL(5,5),dp)
Block UERMIX Q=  1.99764391E+03  # ()
  1  1    -1.00000000E+00   # Real(ZER(1,1),dp)
  1  2    -2.83273116E-10   # Real(ZER(1,2),dp)
  1  3     1.68783594E-11   # Real(ZER(1,3),dp)
  1  4    -8.56822771E-14   # Real(ZER(1,4),dp)
  1  5     1.53751039E-12   # Real(ZER(1,5),dp)
  2  1    -2.83273115E-10   # Real(ZER(2,1),dp)
  2  2     1.00000000E+00   # Real(ZER(2,2),dp)
  2  3     3.65369039E-09   # Real(ZER(2,3),dp)
  2  4    -2.88913178E-10   # Real(ZER(2,4),dp)
  2  5     5.03769971E-09   # Real(ZER(2,5),dp)
  3  1     1.68783605E-11   # Real(ZER(3,1),dp)
  3  2    -3.65369065E-09   # Real(ZER(3,2),dp)
  3  3     1.00000000E+00   # Real(ZER(3,3),dp)
  3  4    -2.74054093E-09   # Real(ZER(3,4),dp)
  3  5     4.75210002E-08   # Real(ZER(3,5),dp)
  4  1    -1.53985275E-12   # Real(ZER(4,1),dp)
  4  2     5.04588861E-09   # Real(ZER(4,2),dp)
  4  3     4.75992087E-08   # Real(ZER(4,3),dp)
  4  4     6.31758756E-02   # Real(ZER(4,4),dp)
  4  5    -9.98002409E-01   # Real(ZER(4,5),dp)
  5  1     1.16224499E-14   # Real(ZER(5,1),dp)
  5  2    -2.99250414E-11   # Real(ZER(5,2),dp)
  5  3    -2.67114342E-10   # Real(ZER(5,3),dp)
  5  4     9.98002409E-01   # Real(ZER(5,4),dp)
  5  5     6.31758756E-02   # Real(ZER(5,5),dp)
Block UDLMIX Q=  1.99764391E+03  # ()
  1  1     1.00000000E+00   # Real(ZDL(1,1),dp)
  1  2     0.00000000E+00   # Real(ZDL(1,2),dp)
  1  3     0.00000000E+00   # Real(ZDL(1,3),dp)
  2  1     0.00000000E+00   # Real(ZDL(2,1),dp)
  2  2     1.00000000E+00   # Real(ZDL(2,2),dp)
  2  3     0.00000000E+00   # Real(ZDL(2,3),dp)
  3  1     0.00000000E+00   # Real(ZDL(3,1),dp)
  3  2     0.00000000E+00   # Real(ZDL(3,2),dp)
  3  3     1.00000000E+00   # Real(ZDL(3,3),dp)
Block UDRMIX Q=  1.99764391E+03  # ()
  1  1     1.00000000E+00   # Real(ZDR(1,1),dp)
  1  2     0.00000000E+00   # Real(ZDR(1,2),dp)
  1  3     0.00000000E+00   # Real(ZDR(1,3),dp)
  2  1     0.00000000E+00   # Real(ZDR(2,1),dp)
  2  2     1.00000000E+00   # Real(ZDR(2,2),dp)
  2  3     0.00000000E+00   # Real(ZDR(2,3),dp)
  3  1     0.00000000E+00   # Real(ZDR(3,1),dp)
  3  2     0.00000000E+00   # Real(ZDR(3,2),dp)
  3  3     1.00000000E+00   # Real(ZDR(3,3),dp)
Block UULMIX Q=  1.99764391E+03  # ()
  1  1     1.00000000E+00   # Real(ZUL(1,1),dp)
  1  2     0.00000000E+00   # Real(ZUL(1,2),dp)
  1  3     0.00000000E+00   # Real(ZUL(1,3),dp)
  2  1     0.00000000E+00   # Real(ZUL(2,1),dp)
  2  2     1.00000000E+00   # Real(ZUL(2,2),dp)
  2  3     0.00000000E+00   # Real(ZUL(2,3),dp)
  3  1     0.00000000E+00   # Real(ZUL(3,1),dp)
  3  2     0.00000000E+00   # Real(ZUL(3,2),dp)
  3  3     1.00000000E+00   # Real(ZUL(3,3),dp)
Block UURMIX Q=  1.99764391E+03  # ()
  1  1     1.00000000E+00   # Real(ZUR(1,1),dp)
  1  2     0.00000000E+00   # Real(ZUR(1,2),dp)
  1  3     0.00000000E+00   # Real(ZUR(1,3),dp)
  2  1     0.00000000E+00   # Real(ZUR(2,1),dp)
  2  2     1.00000000E+00   # Real(ZUR(2,2),dp)
  2  3     0.00000000E+00   # Real(ZUR(2,3),dp)
  3  1     0.00000000E+00   # Real(ZUR(3,1),dp)
  3  2     0.00000000E+00   # Real(ZUR(3,2),dp)
  3  3     1.00000000E+00   # Real(ZUR(3,3),dp)
Block SPheno # SPheno internal parameters 
         1    -1.00000000E+00  # ErrorLevel
         2     0.00000000E+00  # SPA_conventions
        11     1.00000000E+00  # Branching ratios
        13     1.00000000E+00  # 3 Body decays
        31     1.99764391E+03  # GUT scale
        33     1.99764391E+03  # Renormalization scale
        34     1.00000000E-04  # Precision
        35     4.00000000E+01  # Iterations
        38     2.00000000E+00  # RGE level
        40     7.29735257E-03  # Alpha
        41     2.49520000E+00  # Gamma_Z
        42     2.06000000E+00  # Gamma_W
        50     1.00000000E+00  # Rotate negative fermion masses
        51     0.00000000E+00  # Switch to SCKM matrix
        52     0.00000000E+00  # Ignore negative masses
        53     0.00000000E+00  # Ignore negative masses at MZ
        55     1.00000000E+00  # Calculate one loop masses
        56     1.00000000E+00  # Calculate two-loop Higgs masses
        57     0.00000000E+00  # Calculate low energy
        60     1.00000000E+00  # Include kinetic mixing
        65     1.00000000E+00  # Solution of tadpole equation
         8     3.00000000E+00  # Two-Loop Method: diagrammatic 
         9     1.00000000E+00  # Gauge-less limit
       400     1.00000000E-01  # Step-size for purely-numerical methode for 2-loop calculation
       401     1.00000000E-03  # Step-size for semi-analytical methode for 2-loop calculation
       410     0.00000000E+00  # indicative error in numerical derivation
Block HiggsLHC7 # Higgs production cross section at LHC7 [pb] 
  1        25        1.59664074E+01 # Gluon fusion 
  2        25        1.23856565E+00 # Vector boson fusion 
  3        25        5.84632687E-01 # W-H production 
  4        25        3.37881634E-01 # Z-H production 
  5        25        9.14915947E-02 # t-t-H production 
  1        35        9.93950606E-02 # Gluon fusion 
  2        35        1.47906433E-06 # Vector boson fusion 
Block HiggsLHC8 # Higgs production cross section at LHC8 [pb] 
  1        25        2.02065653E+01 # Gluon fusion 
  2        25        1.59518387E+00 # Vector boson fusion 
  3        25        7.43725871E-01 # W-H production 
  4        25        4.21690222E-01 # Z-H production 
  5        25        1.38302268E-01 # t-t-H production 
  1        35        1.48184131E-01 # Gluon fusion 
  2        35        1.67181634E-06 # Vector boson fusion 
Block EFFHIGGSCOUPLINGS # values of loop-induced couplings 
        25           22           22     0.18437294E-04 # H-Photon-Photon 
        25           21           21     0.58952665E-04 # H-Gluon-Gluon 
        25           22           23     0.00000000E+00 # H-Photon-Z (not yet calculated by SPheno) 
        35           22           22     0.70786804E-04 # H-Photon-Photon 
        35           21           21     0.80194360E-05 # H-Gluon-Gluon 
        35           22           23     0.00000000E+00 # H-Photon-Z (not yet calculated by SPheno) 
   1000012           22           22     0.26935108E-08 # H-Photon-Photon 
   1000012           21           21     0.80900486E-09 # H-Gluon-Gluon 
   1000012           22           23     0.00000000E+00 # H-Photon-Z (not yet calculated by SPheno) 
   1000014           22           22     0.23633238E-08 # H-Photon-Photon 
   1000014           21           21     0.81918951E-09 # H-Gluon-Gluon 
   1000014           22           23     0.00000000E+00 # H-Photon-Z (not yet calculated by SPheno) 
   1000016           22           22     0.30247784E-08 # H-Photon-Photon 
   1000016           21           21     0.97149297E-09 # H-Gluon-Gluon 
   1000016           22           23     0.00000000E+00 # H-Photon-Z (not yet calculated by SPheno) 
        36           22           22     0.12766946E-05 # A-Photon-Photon 
        36           21           21     0.11211375E-04 # A-Gluon-Gluon 
        36           22           23     0.00000000E+00 # A-Photon-Z (not yet calculated by SPheno) 
   1000017           22           22     0.15914647E-09 # A-Photon-Photon 
   1000017           21           21     0.10935556E-08 # A-Gluon-Gluon 
   1000017           22           23     0.00000000E+00 # A-Photon-Z (not yet calculated by SPheno) 
   1000018           22           22     0.15586872E-09 # A-Photon-Photon 
   1000018           21           21     0.11152424E-08 # A-Gluon-Gluon 
   1000018           22           23     0.00000000E+00 # A-Photon-Z (not yet calculated by SPheno) 
   1000019           22           22     0.18530004E-09 # A-Photon-Photon 
   1000019           21           21     0.13033954E-08 # A-Gluon-Gluon 
   1000019           22           23     0.00000000E+00 # A-Photon-Z (not yet calculated by SPheno) 
Block SPhenoLowEnergy # low energy observables 
      20    0.00000000E+00  # (g-2)_e
      21    0.00000000E+00  # (g-2)_mu
      22    0.00000000E+00  # (g-2)_tau
      23    0.00000000E+00  # EDM(e)
      24    0.00000000E+00  # EDM(mu)
      25    0.00000000E+00  # EDM(tau)
      39    0.00000000E+00  # delta(rho)
Block FlavorKitQFV # quark flavor violating observables 
     200    0.00000000E+00  # BR(B->X_s gamma)
     201    0.00000000E+00  # BR(B->X_s gamma)/BR(B->X_s gamma)_SM
     300    0.00000000E+00  # BR(D->mu nu)
     301    0.00000000E+00  # BR(D->mu nu)/BR(D->mu nu)_SM
     400    0.00000000E+00  # BR(Ds->mu nu)
     401    0.00000000E+00  # BR(Ds->mu nu)/BR(Ds->mu nu)_SM
     402    0.00000000E+00  # BR(Ds->tau nu)
     403    0.00000000E+00  # BR(Ds->tau nu)/BR(Ds->tau nu)_SM
     500    0.00000000E+00  # BR(B->mu nu)
     501    0.00000000E+00  # BR(B->mu nu)/BR(B->mu nu)_SM
     502    0.00000000E+00  # BR(B->tau nu)
     503    0.00000000E+00  # BR(B->tau nu)/BR(B->tau nu)_SM
     600    0.00000000E+00  # BR(K->mu nu)
     601    0.00000000E+00  # BR(K->mu nu)/BR(K->mu nu)_SM
     602    0.00000000E+00  # R_K = BR(K->e nu)/(K->mu nu)
     603    0.00000000E+00  # R_K^SM = BR(K->e nu)_SM/(K->mu nu)_SM
    1900    0.00000000E+00  # Delta(M_Bs)
    1901    0.00000000E+00  # Delta(M_Bs)/Delta(M_Bs)_SM
    1902    0.00000000E+00  # Delta(M_Bd)
    1903    0.00000000E+00  # Delta(M_Bd)/Delta(M_Bd)_SM
    4000    0.00000000E+00  # BR(B^0_d->e e)
    4001    0.00000000E+00  # BR(B^0_d->e e)/BR(B^0_d->e e)_SM
    4002    0.00000000E+00  # BR(B^0_s->e e)
    4003    0.00000000E+00  # BR(B^0_s->e e)/BR(B^0_s->e e)_SM
    4004    0.00000000E+00  # BR(B^0_d->mu mu)
    4005    0.00000000E+00  # BR(B^0_d->mu mu)/BR(B^0_d->mu mu)_SM
    4006    0.00000000E+00  # BR(B^0_s->mu mu)
    4007    0.00000000E+00  # BR(B^0_s->mu mu)/BR(B^0_s->mu mu)_SM
    4008    0.00000000E+00  # BR(B^0_d->tau tau)
    4009    0.00000000E+00  # BR(B^0_d->tau tau)/BR(B^0_d->tau tau)_SM
    4010    0.00000000E+00  # BR(B^0_s->tau tau)
    4011    0.00000000E+00  # BR(B^0_s->tau tau)/BR(B^0_s->tau tau)_SM
    5000    0.00000000E+00  # BR(B-> s e e)
    5001    0.00000000E+00  # BR(B-> s e e)/BR(B-> s e e)_SM
    5002    0.00000000E+00  # BR(B-> s mu mu)
    5003    0.00000000E+00  # BR(B-> s mu mu)/BR(B-> s mu mu)_SM
    6000    0.00000000E+00  # BR(B -> K mu mu)
    6001    0.00000000E+00  # BR(B -> K mu mu)/BR(B -> K mu mu)_SM
    7000    0.00000000E+00  # BR(B->s nu nu)
    7001    0.00000000E+00  # BR(B->s nu nu)/BR(B->s nu nu)_SM
    7002    0.00000000E+00  # BR(B->D nu nu)
    7003    0.00000000E+00  # BR(B->D nu nu)/BR(B->D nu nu)_SM
    8000    0.00000000E+00  # BR(K^+ -> pi^+ nu nu)
    8001    0.00000000E+00  # BR(K^+ -> pi^+ nu nu)/BR(K^+ -> pi^+ nu nu)_SM
    8002    0.00000000E+00  # BR(K_L -> pi^0 nu nu)
    8003    0.00000000E+00  # BR(K_L -> pi^0 nu nu)/BR(K_L -> pi^0 nu nu)_SM
    9100    0.00000000E+00  # Delta(M_K)
    9102    0.00000000E+00  # Delta(M_K)/Delta(M_K)_SM
    9103    0.00000000E+00  # epsilon_K
    9104    0.00000000E+00  # epsilon_K/epsilon_K^SM
Block FlavorKitLFV # lepton flavor violating observables 
     701    0.00000000E+00  # BR(mu->e gamma)
     702    0.00000000E+00  # BR(tau->e gamma)
     703    0.00000000E+00  # BR(tau->mu gamma)
     800    0.00000000E+00  # CR(mu-e, Al)
     801    0.00000000E+00  # CR(mu-e, Ti)
     802    0.00000000E+00  # CR(mu-e, Sr)
     803    0.00000000E+00  # CR(mu-e, Sb)
     804    0.00000000E+00  # CR(mu-e, Au)
     805    0.00000000E+00  # CR(mu-e, Pb)
     901    0.00000000E+00  # BR(mu->3e)
     902    0.00000000E+00  # BR(tau->3e)
     903    0.00000000E+00  # BR(tau->3mu)
     904    0.00000000E+00  # BR(tau- -> e- mu+ mu-)
     905    0.00000000E+00  # BR(tau- -> mu- e+ e-)
     906    0.00000000E+00  # BR(tau- -> e+ mu- mu-)
     907    0.00000000E+00  # BR(tau- -> mu+ e- e-)
    1001    0.00000000E+00  # BR(Z->e mu)
    1002    0.00000000E+00  # BR(Z->e tau)
    1003    0.00000000E+00  # BR(Z->mu tau)
    1101    0.00000000E+00  # BR(h->e mu)
    1102    0.00000000E+00  # BR(h->e tau)
    1103    0.00000000E+00  # BR(h->mu tau)
    2001    0.00000000E+00  # BR(tau->e pi)
    2002    0.00000000E+00  # BR(tau->e eta)
    2003    0.00000000E+00  # BR(tau->e eta')
    2004    0.00000000E+00  # BR(tau->mu pi)
    2005    0.00000000E+00  # BR(tau->mu eta)
    2006    0.00000000E+00  # BR(tau->mu eta')
Block FWCOEF Q=  1.60000000E+02  # Wilson coefficients at scale Q 
      030 4422   00   0     0.00000000E+00    # coeffC7sm
      030 4422   00   2     0.00000000E+00    # coeffC7
      030 4322   00   2     0.00000000E+00    # coeffC7p
      030 6421   00   0     0.00000000E+00    # coeffC8sm
      030 6421   00   2     0.00000000E+00    # coeffC8
      030 6321   00   2     0.00000000E+00    # coeffC8p
  0305111 4133   00   0     0.00000000E+00    # coeffC9eeSM
  0305111 4133   00   2     0.00000000E+00    # coeffC9ee
  0305111 4233   00   2     0.00000000E+00    # coeffC9Pee
  0305111 4137   00   0     0.00000000E+00    # coeffC10eeSM
  0305111 4137   00   2     0.00000000E+00    # coeffC10ee
  0305111 4237   00   2     0.00000000E+00    # coeffC10Pee
  0305131 4133   00   0     0.00000000E+00    # coeffC9mumuSM
  0305131 4133   00   2     0.00000000E+00    # coeffC9mumu
  0305131 4233   00   2     0.00000000E+00    # coeffC9Pmumu
  0305131 4137   00   0     0.00000000E+00    # coeffC10mumuSM
  0305131 4137   00   2     0.00000000E+00    # coeffC10mumu
  0305131 4237   00   2     0.00000000E+00    # coeffC10Pmumu
  0305121 4137   00   0     0.00000000E+00    # coeffC11nu1nu1SM
  0305121 4137   00   2     0.00000000E+00    # coeffC11nu1nu1
  0305121 4237   00   2     0.00000000E+00    # coeffC11Pnu1nu1
  0305141 4137   00   0     0.00000000E+00    # coeffC11nu2nu2SM
  0305141 4137   00   2     0.00000000E+00    # coeffC11nu2nu2
  0305141 4237   00   2     0.00000000E+00    # coeffC11Pnu2nu2
  0305161 4137   00   0     0.00000000E+00    # coeffC11nu3nu3SM
  0305161 4137   00   2     0.00000000E+00    # coeffC11nu3nu3
  0305161 4237   00   2     0.00000000E+00    # coeffC11Pnu3nu3
Block IMFWCOEF Q=  1.60000000E+02  # Im(Wilson coefficients) at scale Q 
      030 4422   00   0     0.00000000E+00    # coeffC7sm
      030 4422   00   2     0.00000000E+00    # coeffC7
      030 4322   00   2     0.00000000E+00    # coeffC7p
      030 6421   00   0     0.00000000E+00    # coeffC8sm
      030 6421   00   2     0.00000000E+00    # coeffC8
      030 6321   00   2     0.00000000E+00    # coeffC8p
  0305111 4133   00   0     0.00000000E+00    # coeffC9eeSM
  0305111 4133   00   2     0.00000000E+00    # coeffC9ee
  0305111 4233   00   2     0.00000000E+00    # coeffC9Pee
  0305111 4137   00   0     0.00000000E+00    # coeffC10eeSM
  0305111 4137   00   2     0.00000000E+00    # coeffC10ee
  0305111 4237   00   2     0.00000000E+00    # coeffC10Pee
  0305131 4133   00   0     0.00000000E+00    # coeffC9mumuSM
  0305131 4133   00   2     0.00000000E+00    # coeffC9mumu
  0305131 4233   00   2     0.00000000E+00    # coeffC9Pmumu
  0305131 4137   00   0     0.00000000E+00    # coeffC10mumuSM
  0305131 4137   00   2     0.00000000E+00    # coeffC10mumu
  0305131 4237   00   2     0.00000000E+00    # coeffC10Pmumu
  0305121 4137   00   0     0.00000000E+00    # coeffC11nu1nu1SM
  0305121 4137   00   2     0.00000000E+00    # coeffC11nu1nu1
  0305121 4237   00   2     0.00000000E+00    # coeffC11Pnu1nu1
  0305141 4137   00   0     0.00000000E+00    # coeffC11nu2nu2SM
  0305141 4137   00   2     0.00000000E+00    # coeffC11nu2nu2
  0305141 4237   00   2     0.00000000E+00    # coeffC11Pnu2nu2
  0305161 4137   00   0     0.00000000E+00    # coeffC11nu3nu3SM
  0305161 4137   00   2     0.00000000E+00    # coeffC11nu3nu3
  0305161 4237   00   2     0.00000000E+00    # coeffC11Pnu3nu3
DECAY   1000001     2.76512685E+01   # Sd_1
#    BR                NDA      ID1      ID2
     8.68727857E-01    2            6   -1000024   # BR(Sd_1 -> Fu_3 Cha_4 )
     3.24766256E-03    2            5    1000022   # BR(Sd_1 -> Fd_3 Chi_4 )
     2.75966332E-03    2            5    1000023   # BR(Sd_1 -> Fd_3 Chi_5 )
     6.43585793E-03    2            5    1000025   # BR(Sd_1 -> Fd_3 Chi_6 )
     4.19397588E-04    2            5    1000035   # BR(Sd_1 -> Fd_3 Chi_7 )
     1.18409561E-01    2      1000002        -24   # BR(Sd_1 -> Su_1 VWm )
DECAY   1000003     1.17352018E+00   # Sd_2
#    BR                NDA      ID1      ID2
     2.38878730E-01    2            6   -1000024   # BR(Sd_2 -> Fu_3 Cha_4 )
     6.20507642E-02    2            5    1000022   # BR(Sd_2 -> Fd_3 Chi_4 )
     6.59553867E-02    2            5    1000023   # BR(Sd_2 -> Fd_3 Chi_5 )
     6.07704102E-01    2            5    1000025   # BR(Sd_2 -> Fd_3 Chi_6 )
     1.36243193E-04    2            5    1000035   # BR(Sd_2 -> Fd_3 Chi_7 )
     2.52747231E-02    2      1000002        -24   # BR(Sd_2 -> Su_1 VWm )
DECAY   1000005     7.19009266E-01   # Sd_3
#    BR                NDA      ID1      ID2
     7.82804983E-04    2            3    1000022   # BR(Sd_3 -> Fd_2 Chi_4 )
     5.64789486E-03    2            3    1000023   # BR(Sd_3 -> Fd_2 Chi_5 )
     9.93486801E-01    2            3    1000025   # BR(Sd_3 -> Fd_2 Chi_6 )
DECAY   2000001     7.18894618E-01   # Sd_4
#    BR                NDA      ID1      ID2
     7.41619509E-04    2            1    1000022   # BR(Sd_4 -> Fd_1 Chi_4 )
     5.60876416E-03    2            1    1000023   # BR(Sd_4 -> Fd_1 Chi_5 )
     9.93649385E-01    2            1    1000025   # BR(Sd_4 -> Fd_1 Chi_6 )
DECAY   2000003     3.54514411E-01   # Sd_5
#    BR                NDA      ID1      ID2
     3.54769789E-02    2            4   -1000024   # BR(Sd_5 -> Fu_2 Cha_4 )
     2.71242977E-01    2            4   -1000037   # BR(Sd_5 -> Fu_2 Cha_5 )
     3.52496536E-02    2            3    1000022   # BR(Sd_5 -> Fd_2 Chi_4 )
     5.18636201E-04    2            3    1000023   # BR(Sd_5 -> Fd_2 Chi_5 )
     5.21329206E-01    2            3    1000025   # BR(Sd_5 -> Fd_2 Chi_6 )
     1.36182548E-01    2            3    1000035   # BR(Sd_5 -> Fd_2 Chi_7 )
DECAY   2000005     3.54033315E-01   # Sd_6
#    BR                NDA      ID1      ID2
     3.42888269E-02    2            2   -1000024   # BR(Sd_6 -> Fu_1 Cha_4 )
     2.71646258E-01    2            2   -1000037   # BR(Sd_6 -> Fu_1 Cha_5 )
     3.52234755E-02    2            1    1000022   # BR(Sd_6 -> Fd_1 Chi_4 )
     4.43092332E-04    2            1    1000023   # BR(Sd_6 -> Fd_1 Chi_5 )
     5.22029400E-01    2            1    1000025   # BR(Sd_6 -> Fd_1 Chi_6 )
     1.36368947E-01    2            1    1000035   # BR(Sd_6 -> Fd_1 Chi_7 )
DECAY   1000002     3.78522117E+01   # Su_1
#    BR                NDA      ID1      ID2
     2.74870076E-01    2            6    1000022   # BR(Su_1 -> Fu_3 Chi_4 )
     2.99939358E-01    2            6    1000023   # BR(Su_1 -> Fu_3 Chi_5 )
     4.49409335E-02    2            6    1000025   # BR(Su_1 -> Fu_3 Chi_6 )
     3.80249633E-01    2      1000024          5   # BR(Su_1 -> Cha_4^* Fd_3 )
DECAY   1000004     2.87731366E+00   # Su_2
#    BR                NDA      ID1      ID2
     8.19166744E-04    2            4    1000022   # BR(Su_2 -> Fu_2 Chi_4 )
     5.68052619E-03    2            4    1000023   # BR(Su_2 -> Fu_2 Chi_5 )
     9.93341262E-01    2            4    1000025   # BR(Su_2 -> Fu_2 Chi_6 )
     1.58957885E-04    2      1000024          3   # BR(Su_2 -> Cha_4^* Fd_2 )
DECAY   1000006     2.87642685E+00   # Su_3
#    BR                NDA      ID1      ID2
     7.41423770E-04    2            2    1000022   # BR(Su_3 -> Fu_1 Chi_4 )
     5.60804018E-03    2            2    1000023   # BR(Su_3 -> Fu_1 Chi_5 )
     9.93650532E-01    2            2    1000025   # BR(Su_3 -> Fu_1 Chi_6 )
DECAY   2000002     3.97477298E-01   # Su_4
#    BR                NDA      ID1      ID2
     4.62784625E-02    2            4    1000022   # BR(Su_4 -> Fu_2 Chi_4 )
     1.52393543E-02    2            4    1000023   # BR(Su_4 -> Fu_2 Chi_5 )
     4.50587881E-01    2            4    1000025   # BR(Su_4 -> Fu_2 Chi_6 )
     1.17255764E-01    2            4    1000035   # BR(Su_4 -> Fu_2 Chi_7 )
     1.37640523E-01    2      1000024          3   # BR(Su_4 -> Cha_4^* Fd_2 )
     2.32998015E-01    2      1000037          3   # BR(Su_4 -> Cha_5^* Fd_2 )
DECAY   2000004     3.97001748E-01   # Su_5
#    BR                NDA      ID1      ID2
     4.57948880E-02    2            2    1000022   # BR(Su_5 -> Fu_1 Chi_4 )
     1.46919473E-02    2            2    1000023   # BR(Su_5 -> Fu_1 Chi_5 )
     4.51107742E-01    2            2    1000025   # BR(Su_5 -> Fu_1 Chi_6 )
     1.17411546E-01    2            2    1000035   # BR(Su_5 -> Fu_1 Chi_7 )
     1.37714621E-01    2      1000024          1   # BR(Su_5 -> Cha_4^* Fd_1 )
     2.33279256E-01    2      1000037          1   # BR(Su_5 -> Cha_5^* Fd_1 )
DECAY   2000006     4.25435149E+01   # Su_6
#    BR                NDA      ID1      ID2
     3.09793562E-01    2            6    1000022   # BR(Su_6 -> Fu_3 Chi_4 )
     2.91556366E-01    2            6    1000023   # BR(Su_6 -> Fu_3 Chi_5 )
     2.65593810E-02    2            6    1000025   # BR(Su_6 -> Fu_3 Chi_6 )
     2.20648279E-01    2      1000024          5   # BR(Su_6 -> Cha_4^* Fd_3 )
     3.98355651E-03    2      1000037          5   # BR(Su_6 -> Cha_5^* Fd_3 )
     6.26372603E-03    2      1000002         25   # BR(Su_6 -> Su_1 hh_1 )
     7.38693018E-03    2      1000001         24   # BR(Su_6 -> Sd_1 VWm^* )
     1.33808198E-01    2      1000002         23   # BR(Su_6 -> Su_1 VZ )
DECAY        25     2.53825619E-03   # hh_1
#    BR                NDA      ID1      ID2
     1.22315210E-03    2           22         22   # BR(hh_1 -> VP VP )
     1.30985501E-01    2           21         21   # BR(hh_1 -> VG VG )
     2.15896068E-02    2           23         23   # BR(hh_1 -> VZ VZ )
     2.09047624E-01    2           24        -24   # BR(hh_1 -> VWm^* VWm_virt )
     3.40218629E-04    2          -13         13   # BR(hh_1 -> Cha_2^* Cha_2 )
     9.60816567E-02    2          -15         15   # BR(hh_1 -> Cha_3^* Cha_3 )
     1.87691870E-04    2           -3          3   # BR(hh_1 -> Fd_2^* Fd_2 )
     5.05300255E-01    2           -5          5   # BR(hh_1 -> Fd_3^* Fd_3 )
     3.52436300E-02    2           -4          4   # BR(hh_1 -> Fu_2^* Fu_2 )
DECAY        35     1.78316287E+00   # hh_2
#    BR                NDA      ID1      ID2
     1.38025688E-02    2           22         22   # BR(hh_2 -> VP VP )
     1.81675506E-03    2           21         21   # BR(hh_2 -> VG VG )
     2.65717326E-02    2          -15         15   # BR(hh_2 -> Cha_3^* Cha_3 )
     1.40535429E-01    2           -5          5   # BR(hh_2 -> Fd_3^* Fd_3 )
     8.05517521E-01    2           -6          6   # BR(hh_2 -> Fu_3^* Fu_3 )
     6.76683290E-03    2           25         25   # BR(hh_2 -> hh_1 hh_1 )
     3.16776943E-03    2          -24         24   # BR(hh_2 -> VWm VWm^* )
     1.65831832E-03    2           23         23   # BR(hh_2 -> VZ VZ )
DECAY   1000012     1.66060084E+00   # hh_3
#    BR                NDA      ID1      ID2
     4.04325682E-02    2          -15   -1000024   # BR(hh_3 -> Cha_3^* Cha_4 )
     4.04325682E-02    2      1000024         15   # BR(hh_3 -> Cha_4^* Cha_3 )
     1.01161590E-03    2           12    1000022   # BR(hh_3 -> Chi_1 Chi_4 )
     3.41194092E-04    2           12    1000023   # BR(hh_3 -> Chi_1 Chi_5 )
     2.06408676E-01    2           12    1000025   # BR(hh_3 -> Chi_1 Chi_6 )
     2.43106346E-03    2           14    1000022   # BR(hh_3 -> Chi_2 Chi_4 )
     8.19940150E-04    2           14    1000023   # BR(hh_3 -> Chi_2 Chi_5 )
     4.96030749E-01    2           14    1000025   # BR(hh_3 -> Chi_2 Chi_6 )
     1.03142131E-03    2           16    1000022   # BR(hh_3 -> Chi_3 Chi_4 )
     3.47873987E-04    2           16    1000023   # BR(hh_3 -> Chi_3 Chi_5 )
     2.10449744E-01    2           16    1000025   # BR(hh_3 -> Chi_3 Chi_6 )
DECAY   1000014     1.57871763E+00   # hh_4
#    BR                NDA      ID1      ID2
     3.93224657E-04    2          -11   -1000024   # BR(hh_4 -> Cha_1^* Cha_4 )
     1.61600511E-02    2          -13   -1000024   # BR(hh_4 -> Cha_2^* Cha_4 )
     3.93224657E-04    2      1000024         11   # BR(hh_4 -> Cha_4^* Cha_1 )
     1.61600511E-02    2      1000024         13   # BR(hh_4 -> Cha_4^* Cha_2 )
     8.96029806E-04    2           12    1000022   # BR(hh_4 -> Chi_1 Chi_4 )
     3.02209662E-04    2           12    1000023   # BR(hh_4 -> Chi_1 Chi_5 )
     1.82829228E-01    2           12    1000025   # BR(hh_4 -> Chi_1 Chi_6 )
     3.59285693E-04    2           14    1000022   # BR(hh_4 -> Chi_2 Chi_4 )
     1.21178567E-04    2           14    1000023   # BR(hh_4 -> Chi_2 Chi_5 )
     7.33099784E-02    2           14    1000025   # BR(hh_4 -> Chi_2 Chi_6 )
     3.45102814E-03    2           16    1000022   # BR(hh_4 -> Chi_3 Chi_4 )
     1.16395017E-03    2           16    1000023   # BR(hh_4 -> Chi_3 Chi_5 )
     7.04160514E-01    2           16    1000025   # BR(hh_4 -> Chi_3 Chi_6 )
DECAY   1000016     1.57844102E+00   # hh_5
#    BR                NDA      ID1      ID2
     1.60728833E-02    2          -11   -1000024   # BR(hh_5 -> Cha_1^* Cha_4 )
     3.95494194E-04    2          -13   -1000024   # BR(hh_5 -> Cha_2^* Cha_4 )
     1.60728833E-02    2      1000024         11   # BR(hh_5 -> Cha_4^* Cha_1 )
     3.95494194E-04    2      1000024         13   # BR(hh_5 -> Cha_4^* Cha_2 )
     2.74666858E-03    2           12    1000022   # BR(hh_5 -> Chi_1 Chi_4 )
     9.26386353E-04    2           12    1000023   # BR(hh_5 -> Chi_1 Chi_5 )
     5.60440441E-01    2           12    1000025   # BR(hh_5 -> Chi_1 Chi_6 )
     1.79011534E-03    2           14    1000022   # BR(hh_5 -> Chi_2 Chi_4 )
     6.03763568E-04    2           14    1000023   # BR(hh_5 -> Chi_2 Chi_5 )
     3.65261772E-01    2           14    1000025   # BR(hh_5 -> Chi_2 Chi_6 )
     1.70384946E-04    2           16    1000022   # BR(hh_5 -> Chi_3 Chi_4 )
     3.47659760E-02    2           16    1000025   # BR(hh_5 -> Chi_3 Chi_6 )
DECAY        36     1.85097254E+00   # Ah_2
#    BR                NDA      ID1      ID2
     2.36646410E-03    2           21         21   # BR(Ah_2 -> VG VG )
     2.56424883E-02    2          -15         15   # BR(Ah_2 -> Cha_3^* Cha_3 )
     1.35628568E-01    2           -5          5   # BR(Ah_2 -> Fd_3^* Fd_3 )
     8.30162852E-01    2           -6          6   # BR(Ah_2 -> Fu_3^* Fu_3 )
     6.03896232E-03    2           25         23   # BR(Ah_2 -> hh_1 VZ )
DECAY   1000017     1.66060105E+00   # Ah_3
#    BR                NDA      ID1      ID2
     4.04325654E-02    2          -15   -1000024   # BR(Ah_3 -> Cha_3^* Cha_4 )
     4.04325654E-02    2      1000024         15   # BR(Ah_3 -> Cha_4^* Cha_3 )
     1.01162765E-03    2           12    1000022   # BR(Ah_3 -> Chi_1 Chi_4 )
     3.41198055E-04    2           12    1000023   # BR(Ah_3 -> Chi_1 Chi_5 )
     2.06411083E-01    2           12    1000025   # BR(Ah_3 -> Chi_1 Chi_6 )
     2.43101709E-03    2           14    1000022   # BR(Ah_3 -> Chi_2 Chi_4 )
     8.19924509E-04    2           14    1000023   # BR(Ah_3 -> Chi_2 Chi_5 )
     4.96021309E-01    2           14    1000025   # BR(Ah_3 -> Chi_2 Chi_6 )
     1.03145569E-03    2           16    1000022   # BR(Ah_3 -> Chi_3 Chi_4 )
     3.47885583E-04    2           16    1000023   # BR(Ah_3 -> Chi_3 Chi_5 )
     2.10456769E-01    2           16    1000025   # BR(Ah_3 -> Chi_3 Chi_6 )
DECAY   1000018     1.57871831E+00   # Ah_4
#    BR                NDA      ID1      ID2
     3.55293797E-04    2          -11   -1000024   # BR(Ah_4 -> Cha_1^* Cha_4 )
     1.61981871E-02    2          -13   -1000024   # BR(Ah_4 -> Cha_2^* Cha_4 )
     3.55293797E-04    2      1000024         11   # BR(Ah_4 -> Cha_4^* Cha_1 )
     1.61981871E-02    2      1000024         13   # BR(Ah_4 -> Cha_4^* Cha_2 )
     8.71900591E-04    2           12    1000022   # BR(Ah_4 -> Chi_1 Chi_4 )
     2.94071448E-04    2           12    1000023   # BR(Ah_4 -> Chi_1 Chi_5 )
     1.77905814E-01    2           12    1000025   # BR(Ah_4 -> Chi_1 Chi_6 )
     3.71784836E-04    2           14    1000022   # BR(Ah_4 -> Chi_2 Chi_4 )
     1.25394232E-04    2           14    1000023   # BR(Ah_4 -> Chi_2 Chi_5 )
     7.58603498E-02    2           14    1000025   # BR(Ah_4 -> Chi_2 Chi_6 )
     3.46265618E-03    2           16    1000022   # BR(Ah_4 -> Chi_3 Chi_4 )
     1.16787204E-03    2           16    1000023   # BR(Ah_4 -> Chi_3 Chi_5 )
     7.06533143E-01    2           16    1000025   # BR(Ah_4 -> Chi_3 Chi_6 )
DECAY   1000019     1.57844035E+00   # Ah_5
#    BR                NDA      ID1      ID2
     1.61108274E-02    2          -11   -1000024   # BR(Ah_5 -> Cha_1^* Cha_4 )
     3.57344600E-04    2          -13   -1000024   # BR(Ah_5 -> Cha_2^* Cha_4 )
     1.61108274E-02    2      1000024         11   # BR(Ah_5 -> Cha_4^* Cha_1 )
     3.57344600E-04    2      1000024         13   # BR(Ah_5 -> Cha_4^* Cha_2 )
     2.77079041E-03    2           12    1000022   # BR(Ah_5 -> Chi_1 Chi_4 )
     9.34522073E-04    2           12    1000023   # BR(Ah_5 -> Chi_1 Chi_5 )
     5.65362348E-01    2           12    1000025   # BR(Ah_5 -> Chi_1 Chi_6 )
     1.77766325E-03    2           14    1000022   # BR(Ah_5 -> Chi_2 Chi_4 )
     5.99563772E-04    2           14    1000023   # BR(Ah_5 -> Chi_2 Chi_5 )
     3.62721001E-01    2           14    1000025   # BR(Ah_5 -> Chi_2 Chi_6 )
     1.58717211E-04    2           16    1000022   # BR(Ah_5 -> Chi_3 Chi_4 )
     3.23852480E-02    2           16    1000025   # BR(Ah_5 -> Chi_3 Chi_6 )
DECAY        37     1.85936498E+00   # Hpm_2
#    BR                NDA      ID1      ID2
     5.77999446E-03    2           12        -15   # BR(Hpm_2^* -> Chi_1 Cha_3^* )
     1.39219043E-02    2           14        -15   # BR(Hpm_2^* -> Chi_2 Cha_3^* )
     5.88703022E-03    2           16        -15   # BR(Hpm_2^* -> Chi_3 Cha_3^* )
     9.70891746E-01    2            6         -5   # BR(Hpm_2^* -> Fu_3 Fd_3^* )
     3.36295736E-03    2           25         24   # BR(Hpm_2^* -> hh_1 VWm^* )
DECAY   1000011     5.97067808E+00   # Hpm_3
#    BR                NDA      ID1      ID2
     3.45759196E-03    2           12   -1000024   # BR(Hpm_3 -> Chi_1 Cha_4 )
     8.32807946E-03    2           14   -1000024   # BR(Hpm_3 -> Chi_2 Cha_4 )
     3.52162125E-03    2           16   -1000024   # BR(Hpm_3 -> Chi_3 Cha_4 )
     9.00021065E-03    2      1000022         15   # BR(Hpm_3 -> Chi_4 Cha_3 )
     1.32238923E-02    2      1000023         15   # BR(Hpm_3 -> Chi_5 Cha_3 )
     9.62468598E-01    2      1000025         15   # BR(Hpm_3 -> Chi_6 Cha_3 )
DECAY   2000011     6.00119910E+00   # Hpm_4
#    BR                NDA      ID1      ID2
     7.92625466E-04    2      1000022         13   # BR(Hpm_4 -> Chi_4 Cha_2 )
     5.79782735E-03    2      1000023         13   # BR(Hpm_4 -> Chi_5 Cha_2 )
     9.93352582E-01    2      1000025         13   # BR(Hpm_4 -> Chi_6 Cha_2 )
DECAY   1000013     6.00140954E+00   # Hpm_5
#    BR                NDA      ID1      ID2
     7.63074132E-04    2      1000022         11   # BR(Hpm_5 -> Chi_4 Cha_1 )
     5.77131637E-03    2      1000023         11   # BR(Hpm_5 -> Chi_5 Cha_1 )
     9.93465608E-01    2      1000025         11   # BR(Hpm_5 -> Chi_6 Cha_1 )
DECAY   2000013     1.55908809E+00   # Hpm_6
#    BR                NDA      ID1      ID2
     5.04110123E-03    2           12   -1000024   # BR(Hpm_6 -> Chi_1 Cha_4 )
     2.68203525E-04    2           12   -1000037   # BR(Hpm_6 -> Chi_1 Cha_5 )
     2.34707718E-03    2           14   -1000024   # BR(Hpm_6 -> Chi_2 Cha_4 )
     1.24858887E-04    2           14   -1000037   # BR(Hpm_6 -> Chi_2 Cha_5 )
     1.52528012E-02    2      1000022         11   # BR(Hpm_6 -> Chi_4 Cha_1 )
     1.20053831E-02    2      1000023         11   # BR(Hpm_6 -> Chi_5 Cha_1 )
     9.64655970E-01    2      1000025         11   # BR(Hpm_6 -> Chi_6 Cha_1 )
     2.10578651E-04    2      1000035         11   # BR(Hpm_6 -> Chi_7 Cha_1 )
DECAY   1000015     1.56017422E+00   # Hpm_7
#    BR                NDA      ID1      ID2
     6.87815801E-04    2           12   -1000024   # BR(Hpm_7 -> Chi_1 Cha_4 )
     1.02390977E-03    2           14   -1000024   # BR(Hpm_7 -> Chi_2 Cha_4 )
     5.65451582E-03    2           16   -1000024   # BR(Hpm_7 -> Chi_3 Cha_4 )
     3.02194090E-04    2           16   -1000037   # BR(Hpm_7 -> Chi_3 Cha_5 )
     1.53147979E-02    2      1000022         13   # BR(Hpm_7 -> Chi_4 Cha_2 )
     1.20814732E-02    2      1000023         13   # BR(Hpm_7 -> Chi_5 Cha_2 )
     9.64557611E-01    2      1000025         13   # BR(Hpm_7 -> Chi_6 Cha_2 )
     2.10383293E-04    2      1000035         13   # BR(Hpm_7 -> Chi_7 Cha_2 )
DECAY   2000015     1.83709056E+00   # Hpm_8
#    BR                NDA      ID1      ID2
     2.25952566E-04    2           12   -1000024   # BR(Hpm_8 -> Chi_1 Cha_4 )
     5.44429331E-04    2           14   -1000024   # BR(Hpm_8 -> Chi_2 Cha_4 )
     1.77947434E-04    2           14   -1000037   # BR(Hpm_8 -> Chi_2 Cha_5 )
     2.30099747E-04    2           16   -1000024   # BR(Hpm_8 -> Chi_3 Cha_4 )
     3.09003278E-02    2      1000022         15   # BR(Hpm_8 -> Chi_4 Cha_3 )
     3.06467458E-02    2      1000023         15   # BR(Hpm_8 -> Chi_5 Cha_3 )
     9.36956996E-01    2      1000025         15   # BR(Hpm_8 -> Chi_6 Cha_3 )
     1.68237518E-04    2      1000035         15   # BR(Hpm_8 -> Chi_7 Cha_3 )
DECAY   1000021     2.47575093E+02   # Glu
#    BR                NDA      ID1      ID2
     4.15517484E-02    2            1   -2000001   # BR(Glu -> Fd_1 Sd_4^* )
     4.15517484E-02    2           -1    2000001   # BR(Glu -> Fd_1^* Sd_4 )
     4.04048576E-02    2            1   -2000005   # BR(Glu -> Fd_1 Sd_6^* )
     4.04048576E-02    2           -1    2000005   # BR(Glu -> Fd_1^* Sd_6 )
     4.15517395E-02    2            3   -1000005   # BR(Glu -> Fd_2 Sd_3^* )
     4.15517395E-02    2           -3    1000005   # BR(Glu -> Fd_2^* Sd_3 )
     4.04048895E-02    2            3   -2000003   # BR(Glu -> Fd_2 Sd_5^* )
     4.04048895E-02    2           -3    2000003   # BR(Glu -> Fd_2^* Sd_5 )
     4.29792016E-02    2            5   -1000001   # BR(Glu -> Fd_3 Sd_1^* )
     4.29792016E-02    2           -5    1000001   # BR(Glu -> Fd_3^* Sd_1 )
     4.15852829E-02    2            5   -1000003   # BR(Glu -> Fd_3 Sd_2^* )
     4.15852829E-02    2           -5    1000003   # BR(Glu -> Fd_3^* Sd_2 )
     4.15343641E-02    2            2   -1000006   # BR(Glu -> Fu_1 Su_3^* )
     4.15343641E-02    2           -2    1000006   # BR(Glu -> Fu_1^* Su_3 )
     4.04940720E-02    2            2   -2000004   # BR(Glu -> Fu_1 Su_5^* )
     4.04940720E-02    2           -2    2000004   # BR(Glu -> Fu_1^* Su_5 )
     4.15341331E-02    2            4   -1000004   # BR(Glu -> Fu_2 Su_2^* )
     4.15341331E-02    2           -4    1000004   # BR(Glu -> Fu_2^* Su_2 )
     4.04943061E-02    2            4   -2000002   # BR(Glu -> Fu_2 Su_4^* )
     4.04943061E-02    2           -4    2000002   # BR(Glu -> Fu_2^* Su_4 )
     4.31271592E-02    2            6   -1000002   # BR(Glu -> Fu_3 Su_1^* )
     4.31271592E-02    2           -6    1000002   # BR(Glu -> Fu_3^* Su_1 )
     4.42829634E-02    2            6   -2000006   # BR(Glu -> Fu_3 Su_6^* )
     4.42829634E-02    2           -6    2000006   # BR(Glu -> Fu_3^* Su_6 )
DECAY         6     1.43716080E+00   # Fu_3
#    BR                NDA      ID1      ID2
     1.00000000E+00    2            5         24   # BR(Fu_3 -> Fd_3 VWm^* )
DECAY        13     1.07396200E-18   # Cha_2
#    BR                NDA      ID1      ID2
#    BR                NDA      ID1      ID2       ID3
     1.62827433E-02    3           11         12         12   # BR(Cha_2 -> Cha_1 Chi_1 Chi_1 )
     3.03743645E-02    3           11         12         14   # BR(Cha_2 -> Cha_1 Chi_1 Chi_2 )
     1.32177978E-01    3           11         12         16   # BR(Cha_2 -> Cha_1 Chi_1 Chi_3 )
     1.06784037E-02    3           11         14         14   # BR(Cha_2 -> Cha_1 Chi_2 Chi_2 )
     6.27990625E-02    3           11         14         16   # BR(Cha_2 -> Cha_1 Chi_2 Chi_3 )
     5.88910585E-04    3           11         16         16   # BR(Cha_2 -> Cha_1 Chi_3 Chi_3 )
     7.30923633E-02    3           12         -2          1   # BR(Cha_2 -> Chi_1 Fu_1^* Fd_1 )
     1.01117772E-01    3           14         -2          1   # BR(Cha_2 -> Chi_2 Fu_1^* Fd_1 )
     5.72888403E-01    3           16         -2          1   # BR(Cha_2 -> Chi_3 Fu_1^* Fd_1 )
DECAY        15     1.84096944E-12   # Cha_3
#    BR                NDA      ID1      ID2
#    BR                NDA      ID1      ID2       ID3
     3.04827770E-02    3           11         12         12   # BR(Cha_3 -> Cha_1 Chi_1 Chi_1 )
     8.78722721E-02    3           11         12         14   # BR(Cha_3 -> Cha_1 Chi_1 Chi_2 )
     3.11879205E-02    3           11         12         16   # BR(Cha_3 -> Cha_1 Chi_1 Chi_3 )
     3.48056071E-02    3           11         14         14   # BR(Cha_3 -> Cha_1 Chi_2 Chi_2 )
     1.50567306E-02    3           11         14         16   # BR(Cha_3 -> Cha_1 Chi_2 Chi_3 )
     1.43267335E-04    3           11         16         16   # BR(Cha_3 -> Cha_1 Chi_3 Chi_3 )
     4.29254270E-03    3           13         12         12   # BR(Cha_3 -> Cha_2 Chi_1 Chi_1 )
     1.62795172E-02    3           13         12         14   # BR(Cha_3 -> Cha_2 Chi_1 Chi_2 )
     3.80201864E-02    3           13         12         16   # BR(Cha_3 -> Cha_2 Chi_1 Chi_3 )
     1.43034714E-02    3           13         14         14   # BR(Cha_3 -> Cha_2 Chi_2 Chi_2 )
     8.70880843E-02    3           13         14         16   # BR(Cha_3 -> Cha_2 Chi_2 Chi_3 )
     3.42674227E-02    3           13         16         16   # BR(Cha_3 -> Cha_2 Chi_3 Chi_3 )
     1.35213815E-01    3           12         -2          1   # BR(Cha_3 -> Chi_1 Fu_1^* Fd_1 )
     1.71389208E-03    3           12         -4          3   # BR(Cha_3 -> Chi_1 Fu_2^* Fd_2 )
     3.25680989E-01    3           14         -2          1   # BR(Cha_3 -> Chi_2 Fu_1^* Fd_1 )
     4.12814377E-03    3           14         -4          3   # BR(Cha_3 -> Chi_2 Fu_2^* Fd_2 )
     1.37717731E-01    3           16         -2          1   # BR(Cha_3 -> Chi_3 Fu_1^* Fd_1 )
     1.74563027E-03    3           16         -4          3   # BR(Cha_3 -> Chi_3 Fu_2^* Fd_2 )
DECAY   1000024     3.93175648E-12   # Cha_4
#    BR                NDA      ID1      ID2
     1.34260184E-04    2          -11         25   # BR(Cha_4^* -> Cha_1^* hh_1 )
     1.10943900E-01    2          -13         25   # BR(Cha_4^* -> Cha_2^* hh_1 )
     9.11743446E-02    2          -15         25   # BR(Cha_4^* -> Cha_3^* hh_1 )
     9.43902514E-04    2          -13         23   # BR(Cha_4^* -> Cha_2^* VZ )
     2.55429824E-02    2          -15         23   # BR(Cha_4^* -> Cha_3^* VZ )
     6.36612041E-01    2           14         24   # BR(Cha_4^* -> Chi_2 VWm^* )
     1.11615825E-01    2           16         24   # BR(Cha_4^* -> Chi_3 VWm^* )
#    BR                NDA      ID1      ID2       ID3
     1.26355997E-04    3          -15         15        -15   # BR(Cha_4^* -> Cha_3^* Cha_3 Cha_3^* )
     6.66451792E-04    3          -11         12    1000022   # BR(Cha_4^* -> Cha_1^* Chi_1 Chi_4 )
     3.15930883E-04    3          -11         14    1000022   # BR(Cha_4^* -> Cha_1^* Chi_2 Chi_4 )
     1.06940850E-04    3          -13         14    1000022   # BR(Cha_4^* -> Cha_2^* Chi_2 Chi_4 )
     6.05879382E-04    3          -13         16    1000022   # BR(Cha_4^* -> Cha_2^* Chi_3 Chi_4 )
     2.04534254E-03    3          -11          5         -5   # BR(Cha_4^* -> Cha_1^* Fd_3 Fd_3^* )
     2.21948986E-03    3          -13          5         -5   # BR(Cha_4^* -> Cha_2^* Fd_3 Fd_3^* )
     2.63064703E-03    3          -15          5         -5   # BR(Cha_4^* -> Cha_3^* Fd_3 Fd_3^* )
     4.41253594E-04    3          -11          6         -6   # BR(Cha_4^* -> Cha_1^* Fu_3 Fu_3^* )
     5.60141300E-04    3          -13          6         -6   # BR(Cha_4^* -> Cha_2^* Fu_3 Fu_3^* )
     1.50126661E-03    3          -15          6         -6   # BR(Cha_4^* -> Cha_3^* Fu_3 Fu_3^* )
     8.19234873E-03    3           14          6         -5   # BR(Cha_4^* -> Chi_2 Fu_3 Fd_3^* )
     4.13602874E-04    3           16          6         -5   # BR(Cha_4^* -> Chi_3 Fu_3 Fd_3^* )
     2.95447810E-03    3      1000022          2         -1   # BR(Cha_4^* -> Chi_4 Fu_1 Fd_1^* )
DECAY   1000037     2.50020827E+01   # Cha_5
#    BR                NDA      ID1      ID2
     5.88419950E-02    2      1000024         36   # BR(Cha_5^* -> Cha_4^* Ah_2 )
     1.92819665E-01    2      1000024         25   # BR(Cha_5^* -> Cha_4^* hh_1 )
     5.79030996E-02    2      1000024         35   # BR(Cha_5^* -> Cha_4^* hh_2 )
     1.84008763E-01    2      1000024         23   # BR(Cha_5^* -> Cha_4^* VZ )
     5.87297174E-02    2      1000022         37   # BR(Cha_5^* -> Chi_4 Hpm_2^* )
     5.80143194E-02    2      1000023         37   # BR(Cha_5^* -> Chi_5 Hpm_2^* )
     1.87921546E-01    2      1000022         24   # BR(Cha_5^* -> Chi_4 VWm^* )
     1.80222418E-01    2      1000023         24   # BR(Cha_5^* -> Chi_5 VWm^* )
     4.87705602E-04    2      1000025         24   # BR(Cha_5^* -> Chi_6 VWm^* )
     3.38710855E-03    2           -5    1000002   # BR(Cha_5^* -> Fd_3^* Su_1 )
#    BR                NDA      ID1      ID2       ID3
     1.48658639E-04    3      1000024          5         -5   # BR(Cha_5^* -> Cha_4^* Fd_3 Fd_3^* )
     6.96481534E-03    3      1000024          6         -6   # BR(Cha_5^* -> Cha_4^* Fu_3 Fu_3^* )
     5.20538276E-03    3      1000022          6         -5   # BR(Cha_5^* -> Chi_4 Fu_3 Fd_3^* )
     5.10885237E-03    3      1000023          6         -5   # BR(Cha_5^* -> Chi_5 Fu_3 Fd_3^* )
DECAY   1000022     3.30970020E-12   # Chi_4
#    BR                NDA      ID1      ID2
     1.31381142E-01    2           11         24   # BR(Chi_4 -> Cha_1 VWm^* )
     1.31381142E-01    2          -11        -24   # BR(Chi_4 -> Cha_1^* VWm )
     1.85265559E-01    2           13         24   # BR(Chi_4 -> Cha_2 VWm^* )
     1.85265559E-01    2          -13        -24   # BR(Chi_4 -> Cha_2^* VWm )
     1.52941177E-01    2           15         24   # BR(Chi_4 -> Cha_3 VWm^* )
     1.52941177E-01    2          -15        -24   # BR(Chi_4 -> Cha_3^* VWm )
     4.89095619E-04    2           14         25   # BR(Chi_4 -> Chi_2 hh_1 )
     3.02593937E-02    2           16         25   # BR(Chi_4 -> Chi_3 hh_1 )
     1.07671280E-02    2           16         23   # BR(Chi_4 -> Chi_3 VZ )
#    BR                NDA      ID1      ID2       ID3
     5.32835238E-04    3           14         -5          5   # BR(Chi_4 -> Chi_2 Fd_3^* Fd_3 )
     2.58671564E-04    3           14         -6          6   # BR(Chi_4 -> Chi_2 Fu_3^* Fu_3 )
     1.35250395E-04    3           16         -6          6   # BR(Chi_4 -> Chi_3 Fu_3^* Fu_3 )
     2.04766293E-03    3           11         -5          6   # BR(Chi_4 -> Cha_1 Fd_3^* Fu_3 )
     2.04766293E-03    3          -11          5         -6   # BR(Chi_4 -> Cha_1^* Fd_3 Fu_3^* )
     2.51088869E-03    3           13         -5          6   # BR(Chi_4 -> Cha_2 Fd_3^* Fu_3 )
     2.51088869E-03    3          -13          5         -6   # BR(Chi_4 -> Cha_2^* Fd_3 Fu_3^* )
     4.48008162E-03    3           15         -5          6   # BR(Chi_4 -> Cha_3 Fd_3^* Fu_3 )
     4.48008162E-03    3          -15          5         -6   # BR(Chi_4 -> Cha_3^* Fd_3 Fu_3^* )
DECAY   1000023     1.52616973E-11   # Chi_5
#    BR                NDA      ID1      ID2
     2.62844262E-02    2           11         24   # BR(Chi_5 -> Cha_1 VWm^* )
     2.62844262E-02    2          -11        -24   # BR(Chi_5 -> Cha_1^* VWm )
     2.95830066E-02    2           13         24   # BR(Chi_5 -> Cha_2 VWm^* )
     2.95830066E-02    2          -13        -24   # BR(Chi_5 -> Cha_2^* VWm )
     3.56867402E-02    2           15         24   # BR(Chi_5 -> Cha_3 VWm^* )
     3.56867402E-02    2          -15        -24   # BR(Chi_5 -> Cha_3^* VWm )
     4.00487767E-04    2           16         25   # BR(Chi_5 -> Chi_3 hh_1 )
     3.33083044E-03    2           16         23   # BR(Chi_5 -> Chi_3 VZ )
#    BR                NDA      ID1      ID2       ID3
     1.88978626E-02    3           12        -11   -1000024   # BR(Chi_5 -> Chi_1 Cha_1^* Cha_4 )
     2.64141562E-03    3           12        -13   -1000024   # BR(Chi_5 -> Chi_1 Cha_2^* Cha_4 )
     1.88978626E-02    3           12    1000024         11   # BR(Chi_5 -> Chi_1 Cha_4^* Cha_1 )
     2.64146845E-03    3           12    1000024         13   # BR(Chi_5 -> Chi_1 Cha_4^* Cha_2 )
     8.95851505E-03    3           14        -11   -1000024   # BR(Chi_5 -> Chi_2 Cha_1^* Cha_4 )
     3.65419923E-03    3           14        -13   -1000024   # BR(Chi_5 -> Chi_2 Cha_2^* Cha_4 )
     8.95851506E-03    3           14    1000024         11   # BR(Chi_5 -> Chi_2 Cha_4^* Cha_1 )
     3.65427238E-03    3           14    1000024         13   # BR(Chi_5 -> Chi_2 Cha_4^* Cha_2 )
     2.07030707E-02    3           16        -13   -1000024   # BR(Chi_5 -> Chi_3 Cha_2^* Cha_4 )
     2.07034849E-02    3           16    1000024         13   # BR(Chi_5 -> Chi_3 Cha_4^* Cha_2 )
     3.82523119E-02    3      1000022        -11         11   # BR(Chi_5 -> Chi_4 Cha_1^* Cha_1 )
     3.75441032E-02    3      1000022        -13         13   # BR(Chi_5 -> Chi_4 Cha_2^* Cha_2 )
     1.66505116E-01    3      1000022         -1          1   # BR(Chi_5 -> Chi_4 Fd_1^* Fd_1 )
     1.62605606E-01    3      1000022         -3          3   # BR(Chi_5 -> Chi_4 Fd_2^* Fd_2 )
     1.28280771E-01    3      1000022         -2          2   # BR(Chi_5 -> Chi_4 Fu_1^* Fu_1 )
     2.87858929E-04    3           11         -5          6   # BR(Chi_5 -> Cha_1 Fd_3^* Fu_3 )
     2.87858929E-04    3          -11          5         -6   # BR(Chi_5 -> Cha_1^* Fd_3 Fu_3^* )
     3.83628639E-04    3           13         -5          6   # BR(Chi_5 -> Cha_2 Fd_3^* Fu_3 )
     3.83628639E-04    3          -13          5         -6   # BR(Chi_5 -> Cha_2^* Fd_3 Fu_3^* )
     4.50476366E-04    3           15         -5          6   # BR(Chi_5 -> Cha_3 Fd_3^* Fu_3 )
     4.50476366E-04    3          -15          5         -6   # BR(Chi_5 -> Cha_3^* Fd_3 Fu_3^* )
     8.38225658E-02    3     -1000024         -1          2   # BR(Chi_5 -> Cha_4 Fd_1^* Fu_1 )
     8.38225658E-02    3      1000024          1         -2   # BR(Chi_5 -> Cha_4^* Fd_1 Fu_1^* )
DECAY   1000025     1.31924357E+00   # Chi_6
#    BR                NDA      ID1      ID2
     2.46586498E-01    2     -1000024         24   # BR(Chi_6 -> Cha_4 VWm^* )
     2.46586498E-01    2      1000024        -24   # BR(Chi_6 -> Cha_4^* VWm )
     2.80591755E-02    2      1000022         25   # BR(Chi_6 -> Chi_4 hh_1 )
     2.27228507E-01    2      1000023         25   # BR(Chi_6 -> Chi_5 hh_1 )
     2.16813696E-01    2      1000022         23   # BR(Chi_6 -> Chi_4 VZ )
     3.28616134E-02    2      1000023         23   # BR(Chi_6 -> Chi_5 VZ )
#    BR                NDA      ID1      ID2       ID3
     8.97188587E-04    3     -1000024         -5          6   # BR(Chi_6 -> Cha_4 Fd_3^* Fu_3 )
     8.97188587E-04    3      1000024          5         -6   # BR(Chi_6 -> Cha_4^* Fd_3 Fu_3^* )
DECAY   1000035     2.45637621E+01   # Chi_7
#    BR                NDA      ID1      ID2
     1.61935204E-02    2      1000022         36   # BR(Chi_7 -> Chi_4 Ah_2 )
     4.35703810E-02    2      1000023         36   # BR(Chi_7 -> Chi_5 Ah_2 )
     5.93578427E-02    2     -1000024         37   # BR(Chi_7 -> Cha_4 Hpm_2^* )
     5.93578427E-02    2      1000024        -37   # BR(Chi_7 -> Cha_4^* Hpm_2 )
     1.77377573E-01    2     -1000024         24   # BR(Chi_7 -> Cha_4 VWm^* )
     1.77377573E-01    2      1000024        -24   # BR(Chi_7 -> Cha_4^* VWm )
     1.74119524E-01    2      1000022         25   # BR(Chi_7 -> Chi_4 hh_1 )
     4.28905722E-02    2      1000022         35   # BR(Chi_7 -> Chi_4 hh_2 )
     2.16751998E-02    2      1000023         25   # BR(Chi_7 -> Chi_5 hh_1 )
     1.61676341E-02    2      1000023         35   # BR(Chi_7 -> Chi_5 hh_2 )
     2.22247209E-02    2      1000022         23   # BR(Chi_7 -> Chi_4 VZ )
     1.69612122E-01    2      1000023         23   # BR(Chi_7 -> Chi_5 VZ )
     4.95974256E-04    2      1000025         23   # BR(Chi_7 -> Chi_6 VZ )
#    BR                NDA      ID1      ID2       ID3
     2.09971015E-03    3      1000022         -6          6   # BR(Chi_7 -> Chi_4 Fu_3^* Fu_3 )
     5.33450621E-03    3      1000023         -6          6   # BR(Chi_7 -> Chi_5 Fu_3^* Fu_3 )
     5.86573937E-03    3     -1000024         -5          6   # BR(Chi_7 -> Cha_4 Fd_3^* Fu_3 )
     5.86573937E-03    3      1000024          5         -6   # BR(Chi_7 -> Cha_4^* Fd_3 Fu_3^* )
