#
#                              ======================
#                              | THE SUSYHIT OUTPUT |
#                              ======================
#
#
#              ------------------------------------------------------
#              |     This is the output of the SUSY-HIT package     |
#              |  created by A.Djouadi, M.Muehlleitner and M.Spira. |
#              |  In case of problems with SUSY-HIT email to        |
#              |           margarete.muehlleitner@cern.ch           |
#              |           michael.spira@psi.ch                     |
#              |           abdelhak.djouadi@cern.ch                 |
#              ------------------------------------------------------
#
#              ------------------------------------------------------
#              |  SUSY Les Houches Accord - MSSM Spectrum + Decays  |
#              |              based on the decay programs           |
#              |                                                    |
#              |                     SDECAY 1.3b                    |
#              |                                                    |
#              |  Authors: M.Muhlleitner, A.Djouadi and Y.Mambrini  |
#              |  Ref.:    Comput.Phys.Commun.168(2005)46           |
#              |           [hep-ph/0311167]                         |
#              |                                                    |
#              |                     HDECAY 3.4                     |
#              |                                                    |
#              |  By: A.Djouadi,J.Kalinowski,M.Muhlleitner,M.Spira  |
#              |  Ref.:    Comput.Phys.Commun.108(1998)56           |
#              |           [hep-ph/9704448]                         |
#              |                                                    |
#              |                                                    |
#              |  If not stated otherwise all DRbar couplings and   |
#              |  soft SUSY breaking masses are given at the scale  |
#              |  Q=  0.50007513E+04
#              |                                                    |
#              ------------------------------------------------------
#
#
BLOCK DCINFO  # Decay Program information
     1   SDECAY/HDECAY # decay calculator
     2   1.3b  /3.4    # version number
#
BLOCK SPINFO  # Spectrum calculator information
     1    SOFTSUSY    # spectrum calculator                
     2    3.4.0       # version number                     
#
BLOCK MODSEL  # Model selection
     1     0   #  nonUniversal                                     
#
BLOCK SMINPUTS  # Standard Model inputs
         1     1.25778332E+02   # alpha_em^-1(M_Z)^MSbar
         2     1.16570000E-05   # G_F [GeV^-2]
         3     1.17200002E-01   # alpha_S(M_Z)^MSbar
         4     9.11876000E+01   # M_Z pole mass
         5     4.25000000E+00   # mb(mb)^MSbar
         6     1.72500000E+02   # mt pole mass
         7     1.77682000E+00   # mtau pole mass
#
BLOCK MINPAR  # Input parameters - minimal models
         3     1.00000000E+01   # tanb                
#
BLOCK EXTPAR  # Input parameters - non-minimal models
         0    -1.00000000E+00   # Set                 
         1     6.00000000E+01   # M_1(MX)             
         2     3.00000000E+03   # M_2(MX)             
         3     7.73140000E+02   # M_3(MX)             
        11     5.00000000E+03   # At(MX)              
        12     5.00000000E+03   # Ab(MX)              
        13     0.00000000E+00   # Atau(MX)            
        23    -3.78873000E+02   # mu(MX)              
        26     3.00000000E+03   # mA(pole)            
        31     5.00000000E+03   # meL(MX)             
        32     5.00000000E+03   # mmuL(MX)            
        33     5.00000000E+03   # mtauL(MX)           
        34     5.00000000E+03   # meR(MX)             
        35     5.00000000E+03   # mmuR(MX)            
        36     5.00000000E+03   # mtauR(MX)           
        41     5.00000000E+03   # mqL1(MX)            
        42     5.00000000E+03   # mqL2(MX)            
        43     5.00000000E+03   # mqL3(MX)            
        44     5.00000000E+03   # muR(MX)             
        45     5.00000000E+03   # mcR(MX)             
        46     5.00000000E+03   # mtR(MX)             
        47     5.00000000E+03   # mdR(MX)             
        48     5.00000000E+03   # msR(MX)             
        49     5.00000000E+03   # mbR(MX)             
#
BLOCK MASS  # Mass Spectrum
# PDG code           mass       particle
        24     8.00895577E+01   # W+
        25     1.24296748E+02   # h
        35     3.00008662E+03   # H
        36     2.99999959E+03   # A
        37     3.00145132E+03   # H+
         5     4.87878001E+00   # b-quark pole mass calculated from mb(mb)_Msbar
   1000001     5.06385421E+03   # ~d_L
   2000001     5.04596522E+03   # ~d_R
   1000002     5.06337614E+03   # ~u_L
   2000002     5.04566047E+03   # ~u_R
   1000003     5.06385421E+03   # ~s_L
   2000003     5.04596522E+03   # ~s_R
   1000004     5.06337614E+03   # ~c_L
   2000004     5.04566047E+03   # ~c_R
   1000005     5.01041638E+03   # ~b_1
   2000005     5.04419561E+03   # ~b_2
   1000006     4.90096678E+03   # ~t_1
   2000006     5.05519890E+03   # ~t_2
   1000011     5.01912476E+03   # ~e_L
   2000011     5.00594924E+03   # ~e_R
   1000012     5.01817328E+03   # ~nu_eL
   1000013     5.01912476E+03   # ~mu_L
   2000013     5.00594924E+03   # ~mu_R
   1000014     5.01817328E+03   # ~nu_muL
   1000015     5.00479714E+03   # ~tau_1
   2000015     5.01862566E+03   # ~tau_2
   1000016     5.01762035E+03   # ~nu_tauL
   1000021     1.00000023E+03   # ~g
   1000022     6.00909478E+01   # ~chi_10
   1000023     4.01021301E+02   # ~chi_20
   1000025    -4.03144874E+02   # ~chi_30
   1000035     3.07420247E+03   # ~chi_40
   1000024     4.00000691E+02   # ~chi_1+
   1000037     3.07437037E+03   # ~chi_2+
#
BLOCK NMIX  # Neutralino Mixing Matrix
  1  1     9.93742903E-01   # N_11
  1  2     1.92393483E-04   # N_12
  1  3    -1.11564866E-01   # N_13
  1  4    -5.31845968E-03   # N_14
  2  1     8.26930486E-02   # N_21
  2  2     1.83280858E-02   # N_22
  2  3     7.02939230E-01   # N_23
  2  4     7.06188629E-01   # N_24
  3  1    -7.50782798E-02   # N_31
  3  2     1.75106568E-02   # N_32
  3  3    -7.02445303E-01   # N_33
  3  4     7.07550157E-01   # N_34
  4  1    -3.92251005E-04   # N_41
  4  2     9.99678659E-01   # N_42
  4  3    -5.61968129E-04   # N_43
  4  4    -2.53398733E-02   # N_44
#
BLOCK UMIX  # Chargino Mixing Matrix U
  1  1     7.98321395E-04   # U_11
  1  2     9.99999681E-01   # U_12
  2  1    -9.99999681E-01   # U_21
  2  2     7.98321395E-04   # U_22
#
BLOCK VMIX  # Chargino Mixing Matrix V
  1  1     3.58512529E-02   # V_11
  1  2    -9.99357137E-01   # V_12
  2  1    -9.99357137E-01   # V_21
  2  2    -3.58512529E-02   # V_22
#
BLOCK STOPMIX  # Stop Mixing Matrix
  1  1    -5.06885349E-01   # cos(theta_t)
  1  2     8.62013482E-01   # sin(theta_t)
  2  1    -8.62013482E-01   # -sin(theta_t)
  2  2    -5.06885349E-01   # cos(theta_t)
#
BLOCK SBOTMIX  # Sbottom Mixing Matrix
  1  1     9.98958217E-01   # cos(theta_b)
  1  2    -4.56342052E-02   # sin(theta_b)
  2  1     4.56342052E-02   # -sin(theta_b)
  2  2     9.98958217E-01   # cos(theta_b)
#
BLOCK STAUMIX  # Stau Mixing Matrix
  1  1    -4.53536757E-02   # cos(theta_tau)
  1  2     9.98970993E-01   # sin(theta_tau)
  2  1    -9.98970993E-01   # -sin(theta_tau)
  2  2    -4.53536757E-02   # cos(theta_tau)
#
BLOCK ALPHA  # Higgs mixing
          -1.05436446E-01   # Mixing angle in the neutral Higgs boson sector
#
BLOCK HMIX Q=  5.00075126E+03  # DRbar Higgs Parameters
         1    -3.85592257E+02   # mu(Q)MSSM           
         2     9.47366473E+00   # tan                 
         3     2.41797039E+02   # higgs               
         4     8.71144996E+06   # mA^2(Q)MSSM         
#
BLOCK GAUGE Q=  5.00075126E+03  # The gauge couplings
     1     3.71025461E-01   # gprime(Q) DRbar
     2     6.33627422E-01   # g(Q) DRbar
     3     1.00864729E+00   # g3(Q) DRbar
#
BLOCK AU Q=  5.00075126E+03  # The trilinear couplings
  1  1     5.00000001E+03   # A_u(Q) DRbar
  2  2     5.00000001E+03   # A_c(Q) DRbar
  3  3     5.00000001E+03   # A_t(Q) DRbar
#
BLOCK AD Q=  5.00075126E+03  # The trilinear couplings
  1  1     5.00000000E+03   # A_d(Q) DRbar
  2  2     5.00000000E+03   # A_s(Q) DRbar
  3  3     5.00000001E+03   # A_b(Q) DRbar
#
BLOCK AE Q=  5.00075126E+03  # The trilinear couplings
  1  1     0.00000000E+00   # A_e(Q) DRbar
  2  2     1.60564926E-08   # A_mu(Q) DRbar
  3  3     1.50697749E-08   # A_tau(Q) DRbar
#
BLOCK Yu Q=  5.00075126E+03  # The Yukawa couplings
  1  1     0.00000000E+00   # y_u(Q) DRbar
  2  2     0.00000000E+00   # y_c(Q) DRbar
  3  3     8.14583486E-01   # y_t(Q) DRbar
#
BLOCK Yd Q=  5.00075126E+03  # The Yukawa couplings
  1  1     0.00000000E+00   # y_d(Q) DRbar
  2  2     0.00000000E+00   # y_s(Q) DRbar
  3  3     1.29007515E-01   # y_b(Q) DRbar
#
BLOCK Ye Q=  5.00075126E+03  # The Yukawa couplings
  1  1     0.00000000E+00   # y_e(Q) DRbar
  2  2     0.00000000E+00   # y_mu(Q) DRbar
  3  3     9.72242205E-02   # y_tau(Q) DRbar
#
BLOCK MSOFT Q=  5.00075126E+03  # The soft SUSY breaking masses at the scale Q
         1     6.00000000E+01   # M_1(Q)              
         2     3.00000000E+03   # M_2(Q)              
         3     7.73140000E+02   # M_3(Q)              
        21     8.57881910E+06   # mH1^2(Q)            
        22     4.23646832E+05   # mH2^2(Q)            
        31     5.00000000E+03   # meL(Q)              
        32     5.00000000E+03   # mmuL(Q)             
        33     5.00000000E+03   # mtauL(Q)            
        34     5.00000000E+03   # meR(Q)              
        35     5.00000000E+03   # mmuR(Q)             
        36     5.00000000E+03   # mtauR(Q)            
        41     5.00000000E+03   # mqL1(Q)             
        42     5.00000000E+03   # mqL2(Q)             
        43     5.00000000E+03   # mqL3(Q)             
        44     5.00000000E+03   # muR(Q)              
        45     5.00000000E+03   # mcR(Q)              
        46     5.00000000E+03   # mtR(Q)              
        47     5.00000000E+03   # mdR(Q)              
        48     5.00000000E+03   # msR(Q)              
        49     5.00000000E+03   # mbR(Q)              
#
#
#
#                             =================
#                             |The decay table|
#                             =================
#
# - The QCD corrections to the decays gluino -> squark  + quark
#                                     squark -> gaugino + quark_prime
#                                     squark -> squark_prime + Higgs
#                                     squark -> gluino  + quark
#   are included.
#
# - The multi-body decays for the inos, stops and sbottoms are included.
#
# - The loop induced decays for the gluino, neutralinos and stops
#   are included.
#
# - The SUSY decays of the top quark are included.
#
#
#         PDG            Width
DECAY         6     1.40717386E+00   # top decays
#          BR         NDA      ID1       ID2
     1.00000000E+00    2           5        24   # BR(t ->  b    W+)
#
#         PDG            Width
DECAY   1000021     2.27083152E-05   # gluino decays
#          BR         NDA      ID1       ID2
     1.98969724E-07    2     1000022        21   # BR(~g -> ~chi_10 g)
     4.84528781E-02    2     1000023        21   # BR(~g -> ~chi_20 g)
     4.68824756E-02    2     1000025        21   # BR(~g -> ~chi_30 g)
#           BR         NDA      ID1       ID2       ID3
     3.04606598E-02    3     1000022         1        -1   # BR(~g -> ~chi_10 d  db)
     7.05835347E-05    3     1000023         1        -1   # BR(~g -> ~chi_20 d  db)
     5.14191380E-05    3     1000025         1        -1   # BR(~g -> ~chi_30 d  db)
     1.03854531E-01    3     1000022         2        -2   # BR(~g -> ~chi_10 u  ub)
     3.60123925E-04    3     1000023         2        -2   # BR(~g -> ~chi_20 u  ub)
     9.42839872E-05    3     1000025         2        -2   # BR(~g -> ~chi_30 u  ub)
     3.04606598E-02    3     1000022         3        -3   # BR(~g -> ~chi_10 s  sb)
     7.05835347E-05    3     1000023         3        -3   # BR(~g -> ~chi_20 s  sb)
     5.14191380E-05    3     1000025         3        -3   # BR(~g -> ~chi_30 s  sb)
     1.03854531E-01    3     1000022         4        -4   # BR(~g -> ~chi_10 c  cb)
     3.60123925E-04    3     1000023         4        -4   # BR(~g -> ~chi_20 c  cb)
     9.42839872E-05    3     1000025         4        -4   # BR(~g -> ~chi_30 c  cb)
     3.13953584E-02    3     1000022         5        -5   # BR(~g -> ~chi_10 b  bb)
     5.97654544E-03    3     1000023         5        -5   # BR(~g -> ~chi_20 b  bb)
     5.87087681E-03    3     1000025         5        -5   # BR(~g -> ~chi_30 b  bb)
     6.57444631E-02    3     1000022         6        -6   # BR(~g -> ~chi_10 t  tb)
     1.17960358E-01    3     1000023         6        -6   # BR(~g -> ~chi_20 t  tb)
     7.20567156E-02    3     1000025         6        -6   # BR(~g -> ~chi_30 t  tb)
     6.18233660E-05    3     1000024         1        -2   # BR(~g -> ~chi_1+ d  ub)
     6.18233660E-05    3    -1000024         2        -1   # BR(~g -> ~chi_1- u  db)
     6.18233660E-05    3     1000024         3        -4   # BR(~g -> ~chi_1+ s  cb)
     6.18233660E-05    3    -1000024         4        -3   # BR(~g -> ~chi_1- c  sb)
     1.67814817E-01    3     1000024         5        -6   # BR(~g -> ~chi_1+ b  tb)
     1.67814817E-01    3    -1000024         6        -5   # BR(~g -> ~chi_1- t  bb)
#
#         PDG            Width
DECAY   1000006     4.23881818E+02   # stop1 decays
#          BR         NDA      ID1       ID2
     2.03232585E-02    2     1000022         6   # BR(~t_1 -> ~chi_10 t )
     7.78906593E-02    2     1000023         6   # BR(~t_1 -> ~chi_20 t )
     7.28424965E-02    2     1000025         6   # BR(~t_1 -> ~chi_30 t )
     4.89825451E-03    2     1000035         6   # BR(~t_1 -> ~chi_40 t )
     1.11014238E-01    2     1000024         5   # BR(~t_1 -> ~chi_1+ b )
     9.76519232E-03    2     1000037         5   # BR(~t_1 -> ~chi_2+ b )
     7.03265901E-01    2     1000021         6   # BR(~t_1 -> ~g      t )
#
#         PDG            Width
DECAY   2000006     4.22301948E+02   # stop2 decays
#          BR         NDA      ID1       ID2
     8.62046038E-03    2     1000022         6   # BR(~t_2 -> ~chi_10 t )
     7.68362821E-02    2     1000023         6   # BR(~t_2 -> ~chi_20 t )
     8.25367633E-02    2     1000025         6   # BR(~t_2 -> ~chi_30 t )
     1.30804794E-02    2     1000035         6   # BR(~t_2 -> ~chi_40 t )
     4.67843066E-02    2     1000024         5   # BR(~t_2 -> ~chi_1+ b )
     2.60479480E-02    2     1000037         5   # BR(~t_2 -> ~chi_2+ b )
     7.43130213E-01    2     1000021         6   # BR(~t_2 -> ~g      t )
     6.73750363E-04    2     1000006        25   # BR(~t_2 -> ~t_1    h )
     2.28979659E-03    2     1000006        23   # BR(~t_2 -> ~t_1    Z )
#
#         PDG            Width
DECAY   1000005     4.00071875E+02   # sbottom1 decays
#          BR         NDA      ID1       ID2
     1.96999590E-03    2     1000022         5   # BR(~b_1 -> ~chi_10 b )
     2.01995200E-03    2     1000023         5   # BR(~b_1 -> ~chi_20 b )
     2.03844980E-03    2     1000025         5   # BR(~b_1 -> ~chi_30 b )
     1.88687034E-02    2     1000035         5   # BR(~b_1 -> ~chi_40 b )
     1.64420123E-01    2    -1000024         6   # BR(~b_1 -> ~chi_1- t )
     3.78798938E-02    2    -1000037         6   # BR(~b_1 -> ~chi_2- t )
     7.71393969E-01    2     1000021         5   # BR(~b_1 -> ~g      b )
     1.40891315E-03    2     1000006       -24   # BR(~b_1 -> ~t_1    W-)
#
#         PDG            Width
DECAY   2000005     3.17271494E+02   # sbottom2 decays
#          BR         NDA      ID1       ID2
     9.23050982E-03    2     1000022         5   # BR(~b_2 -> ~chi_10 b )
     2.69525667E-03    2     1000023         5   # BR(~b_2 -> ~chi_20 b )
     2.71547901E-03    2     1000025         5   # BR(~b_2 -> ~chi_30 b )
     4.87111959E-05    2     1000035         5   # BR(~b_2 -> ~chi_40 b )
     5.66702887E-03    2    -1000024         6   # BR(~b_2 -> ~chi_1- t )
     9.77968637E-05    2    -1000037         6   # BR(~b_2 -> ~chi_2- t )
     9.79530413E-01    2     1000021         5   # BR(~b_2 -> ~g      b )
     1.48049577E-05    2     1000006       -24   # BR(~b_2 -> ~t_1    W-)
#
#         PDG            Width
DECAY   1000002     3.36364752E+02   # sup_L decays
#          BR         NDA      ID1       ID2
     2.20166621E-03    2     1000022         2   # BR(~u_L -> ~chi_10 u)
     6.85551279E-05    2     1000023         2   # BR(~u_L -> ~chi_20 u)
     4.70741822E-07    2     1000025         2   # BR(~u_L -> ~chi_30 u)
     2.32890900E-02    2     1000035         2   # BR(~u_L -> ~chi_40 u)
     1.48340230E-04    2     1000024         1   # BR(~u_L -> ~chi_1+ d)
     4.65494464E-02    2     1000037         1   # BR(~u_L -> ~chi_2+ d)
     9.27742431E-01    2     1000021         2   # BR(~u_L -> ~g      u)
#
#         PDG            Width
DECAY   2000002     3.22721564E+02   # sup_R decays
#          BR         NDA      ID1       ID2
     3.65145666E-02    2     1000022         2   # BR(~u_R -> ~chi_10 u)
     2.49785029E-04    2     1000023         2   # BR(~u_R -> ~chi_20 u)
     2.05872652E-04    2     1000025         2   # BR(~u_R -> ~chi_30 u)
     2.25190305E-09    2     1000035         2   # BR(~u_R -> ~chi_40 u)
     9.63029773E-01    2     1000021         2   # BR(~u_R -> ~g      u)
#
#         PDG            Width
DECAY   1000001     3.36373135E+02   # sdown_L decays
#          BR         NDA      ID1       ID2
     2.19310118E-03    2     1000022         1   # BR(~d_L -> ~chi_10 d)
     2.76150886E-07    2     1000023         1   # BR(~d_L -> ~chi_20 d)
     5.96938727E-05    2     1000025         1   # BR(~d_L -> ~chi_30 d)
     2.33029516E-02    2     1000035         1   # BR(~d_L -> ~chi_40 d)
     7.35592164E-08    2    -1000024         2   # BR(~d_L -> ~chi_1- u)
     4.66227829E-02    2    -1000037         2   # BR(~d_L -> ~chi_2- u)
     9.27821121E-01    2     1000021         1   # BR(~d_L -> ~g      d)
#
#         PDG            Width
DECAY   2000001     3.13795269E+02   # sdown_R decays
#          BR         NDA      ID1       ID2
     9.38888591E-03    2     1000022         1   # BR(~d_R -> ~chi_10 d)
     6.42266033E-05    2     1000023         1   # BR(~d_R -> ~chi_20 d)
     5.29355240E-05    2     1000025         1   # BR(~d_R -> ~chi_30 d)
     5.79107377E-10    2     1000035         1   # BR(~d_R -> ~chi_40 d)
     9.90493951E-01    2     1000021         1   # BR(~d_R -> ~g      d)
#
#         PDG            Width
DECAY   1000004     3.36364752E+02   # scharm_L decays
#          BR         NDA      ID1       ID2
     2.20166621E-03    2     1000022         4   # BR(~c_L -> ~chi_10 c)
     6.85551279E-05    2     1000023         4   # BR(~c_L -> ~chi_20 c)
     4.70741822E-07    2     1000025         4   # BR(~c_L -> ~chi_30 c)
     2.32890900E-02    2     1000035         4   # BR(~c_L -> ~chi_40 c)
     1.48340230E-04    2     1000024         3   # BR(~c_L -> ~chi_1+ s)
     4.65494464E-02    2     1000037         3   # BR(~c_L -> ~chi_2+ s)
     9.27742431E-01    2     1000021         4   # BR(~c_L -> ~g      c)
#
#         PDG            Width
DECAY   2000004     3.22721564E+02   # scharm_R decays
#          BR         NDA      ID1       ID2
     3.65145666E-02    2     1000022         4   # BR(~c_R -> ~chi_10 c)
     2.49785029E-04    2     1000023         4   # BR(~c_R -> ~chi_20 c)
     2.05872652E-04    2     1000025         4   # BR(~c_R -> ~chi_30 c)
     2.25190305E-09    2     1000035         4   # BR(~c_R -> ~chi_40 c)
     9.63029773E-01    2     1000021         4   # BR(~c_R -> ~g      c)
#
#         PDG            Width
DECAY   1000003     3.36373135E+02   # sstrange_L decays
#          BR         NDA      ID1       ID2
     2.19310118E-03    2     1000022         3   # BR(~s_L -> ~chi_10 s)
     2.76150886E-07    2     1000023         3   # BR(~s_L -> ~chi_20 s)
     5.96938727E-05    2     1000025         3   # BR(~s_L -> ~chi_30 s)
     2.33029516E-02    2     1000035         3   # BR(~s_L -> ~chi_40 s)
     7.35592164E-08    2    -1000024         4   # BR(~s_L -> ~chi_1- c)
     4.66227829E-02    2    -1000037         4   # BR(~s_L -> ~chi_2- c)
     9.27821121E-01    2     1000021         3   # BR(~s_L -> ~g      s)
#
#         PDG            Width
DECAY   2000003     3.13795269E+02   # sstrange_R decays
#          BR         NDA      ID1       ID2
     9.38888591E-03    2     1000022         3   # BR(~s_R -> ~chi_10 s)
     6.42266033E-05    2     1000023         3   # BR(~s_R -> ~chi_20 s)
     5.29355240E-05    2     1000025         3   # BR(~s_R -> ~chi_30 s)
     5.79107377E-10    2     1000035         3   # BR(~s_R -> ~chi_40 s)
     9.90493951E-01    2     1000021         3   # BR(~s_R -> ~g      s)
#
#         PDG            Width
DECAY   1000011     3.03591500E+01   # selectron_L decays
#          BR         NDA      ID1       ID2
     2.23643698E-01    2     1000022        11   # BR(~e_L -> ~chi_10 e-)
     2.90430142E-03    2     1000023        11   # BR(~e_L -> ~chi_20 e-)
     4.56039015E-04    2     1000025        11   # BR(~e_L -> ~chi_30 e-)
     2.57498353E-01    2     1000035        11   # BR(~e_L -> ~chi_40 e-)
     8.30917094E-07    2    -1000024        12   # BR(~e_L -> ~chi_1- nu_e)
     5.15496778E-01    2    -1000037        12   # BR(~e_L -> ~chi_2- nu_e)
#
#         PDG            Width
DECAY   2000011     2.74069490E+01   # selectron_R decays
#          BR         NDA      ID1       ID2
     9.87679932E-01    2     1000022        11   # BR(~e_R -> ~chi_10 e-)
     6.75366074E-03    2     1000023        11   # BR(~e_R -> ~chi_20 e-)
     5.56634713E-03    2     1000025        11   # BR(~e_R -> ~chi_30 e-)
     5.97193539E-08    2     1000035        11   # BR(~e_R -> ~chi_40 e-)
#
#         PDG            Width
DECAY   1000013     3.03591500E+01   # smuon_L decays
#          BR         NDA      ID1       ID2
     2.23643698E-01    2     1000022        13   # BR(~mu_L -> ~chi_10 mu-)
     2.90430142E-03    2     1000023        13   # BR(~mu_L -> ~chi_20 mu-)
     4.56039015E-04    2     1000025        13   # BR(~mu_L -> ~chi_30 mu-)
     2.57498353E-01    2     1000035        13   # BR(~mu_L -> ~chi_40 mu-)
     8.30917094E-07    2    -1000024        14   # BR(~mu_L -> ~chi_1- nu_mu)
     5.15496778E-01    2    -1000037        14   # BR(~mu_L -> ~chi_2- nu_mu)
#
#         PDG            Width
DECAY   2000013     2.74069490E+01   # smuon_R decays
#          BR         NDA      ID1       ID2
     9.87679932E-01    2     1000022        13   # BR(~mu_R -> ~chi_10 mu-)
     6.75366074E-03    2     1000023        13   # BR(~mu_R -> ~chi_20 mu-)
     5.56634713E-03    2     1000025        13   # BR(~mu_R -> ~chi_30 mu-)
     5.97193539E-08    2     1000035        13   # BR(~mu_R -> ~chi_40 mu-)
#
#         PDG            Width
DECAY   1000015     2.92633898E+01   # stau_1 decays
#          BR         NDA      ID1       ID2
     9.24654328E-01    2     1000022        15   # BR(~tau_1 -> ~chi_10  tau-)
     2.17238615E-02    2     1000023        15   # BR(~tau_1 -> ~chi_20  tau-)
     2.02950914E-02    2     1000025        15   # BR(~tau_1 -> ~chi_30  tau-)
     5.41302023E-04    2     1000035        15   # BR(~tau_1 -> ~chi_40  tau-)
     3.17019094E-02    2    -1000024        16   # BR(~tau_1 -> ~chi_1-  nu_tau)
     1.08350741E-03    2    -1000037        16   # BR(~tau_1 -> ~chi_2-  nu_tau)
#
#         PDG            Width
DECAY   2000015     3.12776581E+01   # stau_2 decays
#          BR         NDA      ID1       ID2
     2.17950865E-01    2     1000022        15   # BR(~tau_2 -> ~chi_10  tau-)
     1.78087320E-02    2     1000023        15   # BR(~tau_2 -> ~chi_20  tau-)
     1.56857131E-02    2     1000025        15   # BR(~tau_2 -> ~chi_30  tau-)
     2.49340670E-01    2     1000035        15   # BR(~tau_2 -> ~chi_40  tau-)
     4.80396420E-05    2    -1000024        16   # BR(~tau_2 -> ~chi_1-  nu_tau)
     4.99165980E-01    2    -1000037        16   # BR(~tau_2 -> ~chi_2-  nu_tau)
#
#         PDG            Width
DECAY   1000012     3.03623469E+01   # snu_eL decays
#          BR         NDA      ID1       ID2
     2.23282241E-01    2     1000022        12   # BR(~nu_eL -> ~chi_10 nu_e)
     5.90144259E-04    2     1000023        12   # BR(~nu_eL -> ~chi_20 nu_e)
     2.46222514E-03    2     1000025        12   # BR(~nu_eL -> ~chi_30 nu_e)
     2.57541798E-01    2     1000035        12   # BR(~nu_eL -> ~chi_40 nu_e)
     1.67525398E-03    2     1000024        11   # BR(~nu_eL -> ~chi_1+ e-)
     5.14448338E-01    2     1000037        11   # BR(~nu_eL -> ~chi_2+ e-)
#
#         PDG            Width
DECAY   1000014     3.03623469E+01   # snu_muL decays
#          BR         NDA      ID1       ID2
     2.23282241E-01    2     1000022        14   # BR(~nu_muL -> ~chi_10 nu_mu)
     5.90144259E-04    2     1000023        14   # BR(~nu_muL -> ~chi_20 nu_mu)
     2.46222514E-03    2     1000025        14   # BR(~nu_muL -> ~chi_30 nu_mu)
     2.57541798E-01    2     1000035        14   # BR(~nu_muL -> ~chi_40 nu_mu)
     1.67525398E-03    2     1000024        13   # BR(~nu_muL -> ~chi_1+ mu-)
     5.14448338E-01    2     1000037        13   # BR(~nu_muL -> ~chi_2+ mu-)
#
#         PDG            Width
DECAY   1000016     3.12844260E+01   # snu_tauL decays
#          BR         NDA      ID1       ID2
     2.16677315E-01    2     1000022        16   # BR(~nu_tauL -> ~chi_10 nu_tau)
     5.72685579E-04    2     1000023        16   # BR(~nu_tauL -> ~chi_20 nu_tau)
     2.38938322E-03    2     1000025        16   # BR(~nu_tauL -> ~chi_30 nu_tau)
     2.49857273E-01    2     1000035        16   # BR(~nu_tauL -> ~chi_40 nu_tau)
     3.14055227E-02    2     1000024        15   # BR(~nu_tauL -> ~chi_1+ tau-)
     4.99097821E-01    2     1000037        15   # BR(~nu_tauL -> ~chi_2+ tau-)
#
#         PDG            Width
DECAY   1000024     2.30100963E-01   # chargino1+ decays
#          BR         NDA      ID1       ID2
     1.00000000E+00    2     1000022        24   # BR(~chi_1+ -> ~chi_10  W+)
#
#         PDG            Width
DECAY   1000037     2.25396770E+01   # chargino2+ decays
#          BR         NDA      ID1       ID2
     2.53629975E-01    2     1000024        23   # BR(~chi_2+ -> ~chi_1+  Z )
     1.38055933E-04    2     1000022        24   # BR(~chi_2+ -> ~chi_10  W+)
     2.45256343E-01    2     1000023        24   # BR(~chi_2+ -> ~chi_20  W+)
     2.44478123E-01    2     1000025        24   # BR(~chi_2+ -> ~chi_30  W+)
     2.56489262E-01    2     1000024        25   # BR(~chi_2+ -> ~chi_1+  h )
     8.24063420E-06    2     1000022        37   # BR(~chi_2+ -> ~chi_10  H+)
#
#         PDG            Width
DECAY   1000022     0.00000000E+00   # neutralino1 decays
#
#         PDG            Width
DECAY   1000023     2.27447083E-01   # neutralino2 decays
#          BR         NDA      ID1       ID2
     4.94049155E-01    2     1000022        23   # BR(~chi_20 -> ~chi_10   Z )
     5.05950845E-01    2     1000022        25   # BR(~chi_20 -> ~chi_10   h )
#
#         PDG            Width
DECAY   1000025     2.16893077E-01   # neutralino3 decays
#          BR         NDA      ID1       ID2
     5.81413440E-01    2     1000022        23   # BR(~chi_30 -> ~chi_10   Z )
     4.18586560E-01    2     1000022        25   # BR(~chi_30 -> ~chi_10   h )
#
#         PDG            Width
DECAY   1000035     2.25465645E+01   # neutralino4 decays
#          BR         NDA      ID1       ID2
     2.15632151E-06    2     1000022        23   # BR(~chi_40 -> ~chi_10   Z )
     1.20956178E-01    2     1000023        23   # BR(~chi_40 -> ~chi_20   Z )
     1.32356975E-01    2     1000025        23   # BR(~chi_40 -> ~chi_30   Z )
     2.45250782E-01    2     1000024       -24   # BR(~chi_40 -> ~chi_1+   W-)
     2.45250782E-01    2    -1000024        24   # BR(~chi_40 -> ~chi_1-   W+)
     1.25258476E-04    2     1000022        25   # BR(~chi_40 -> ~chi_10   h )
     7.94665247E-06    2     1000022        35   # BR(~chi_40 -> ~chi_10   H )
     8.52027849E-07    2     1000022        36   # BR(~chi_40 -> ~chi_10   A )
     1.34901736E-01    2     1000023        25   # BR(~chi_40 -> ~chi_20   h )
     1.21147333E-01    2     1000025        25   # BR(~chi_40 -> ~chi_30   h )
#
#         PDG            Width
DECAY        25     4.02448084E-03   # h decays
#          BR         NDA      ID1       ID2
     6.18200246E-01    2           5        -5   # BR(h -> b       bb     )
     6.42075031E-02    2         -15        15   # BR(h -> tau+    tau-   )
     2.27320026E-04    2         -13        13   # BR(h -> mu+     mu-    )
     4.82264065E-04    2           3        -3   # BR(h -> s       sb     )
     2.08955639E-02    2           4        -4   # BR(h -> c       cb     )
     6.70422020E-02    2          21        21   # BR(h -> g       g      )
     2.29299235E-03    2          22        22   # BR(h -> gam     gam    )
     1.43919002E-03    2          22        23   # BR(h -> Z       gam    )
     2.01374768E-01    2          24       -24   # BR(h -> W+      W-     )
     2.37853767E-02    2          23        23   # BR(h -> Z       Z      )
     5.25737284E-05    2     1000022   1000022   # BR(h -> ~chi_10 ~chi_10)
#
#         PDG            Width
DECAY        35     8.73595930E+00   # H decays
#          BR         NDA      ID1       ID2
     3.65110342E-01    2           5        -5   # BR(H -> b       bb     )
     6.38237483E-02    2         -15        15   # BR(H -> tau+    tau-   )
     2.25685844E-04    2         -13        13   # BR(H -> mu+     mu-    )
     2.76656256E-04    2           3        -3   # BR(H -> s       sb     )
     1.54517165E-06    2           4        -4   # BR(H -> c       cb     )
     1.54374891E-01    2           6        -6   # BR(H -> t       tb     )
     5.13274040E-05    2          21        21   # BR(H -> g       g      )
     1.39569370E-07    2          22        22   # BR(H -> gam     gam    )
     9.09831864E-08    2          23        22   # BR(H -> Z       gam    )
     7.36446074E-05    2          24       -24   # BR(H -> W+      W-     )
     3.67756739E-05    2          23        23   # BR(H -> Z       Z      )
     2.67583855E-04    2          25        25   # BR(H -> h       h      )
    -1.81838611E-23    2          36        36   # BR(H -> A       A      )
     1.08095756E-18    2          23        36   # BR(H -> Z       A      )
     3.30392266E-03    2     1000024  -1000024   # BR(H -> ~chi_1+ ~chi_1-)
     1.04819668E-02    2     1000022   1000022   # BR(H -> ~chi_10 ~chi_10)
     1.10140070E-03    2     1000023   1000023   # BR(H -> ~chi_20 ~chi_20)
     3.42812770E-03    2     1000025   1000025   # BR(H -> ~chi_30 ~chi_30)
     2.38797337E-01    2     1000022   1000023   # BR(H -> ~chi_10 ~chi_20)
     1.53327515E-01    2     1000022   1000025   # BR(H -> ~chi_10 ~chi_30)
     5.31729966E-03    2     1000023   1000025   # BR(H -> ~chi_20 ~chi_30)
#
#         PDG            Width
DECAY        36     8.74201875E+00   # A decays
#          BR         NDA      ID1       ID2
     3.64982124E-01    2           5        -5   # BR(A -> b       bb     )
     6.37813904E-02    2         -15        15   # BR(A -> tau+    tau-   )
     2.25535747E-04    2         -13        13   # BR(A -> mu+     mu-    )
     2.76674211E-04    2           3        -3   # BR(A -> s       sb     )
     1.55028423E-06    2           4        -4   # BR(A -> c       cb     )
     1.54800215E-01    2           6        -6   # BR(A -> t       tb     )
     1.53240604E-04    2          21        21   # BR(A -> g       g      )
     5.81803217E-07    2          22        22   # BR(A -> gam     gam    )
     1.85322646E-07    2          23        22   # BR(A -> Z       gam    )
     7.33179026E-05    2          23        25   # BR(A -> Z       h      )
     3.52118270E-03    2     1000024  -1000024   # BR(A -> ~chi_1+ ~chi_1-)
     1.02824954E-02    2     1000022   1000022   # BR(A -> ~chi_10 ~chi_10)
     7.73984573E-04    2     1000023   1000023   # BR(A -> ~chi_20 ~chi_20)
     5.66234663E-03    2     1000025   1000025   # BR(A -> ~chi_30 ~chi_30)
     1.57017236E-01    2     1000022   1000023   # BR(A -> ~chi_10 ~chi_20)
     2.34237172E-01    2     1000022   1000025   # BR(A -> ~chi_10 ~chi_30)
     4.21076728E-03    2     1000023   1000025   # BR(A -> ~chi_20 ~chi_30)
#
#         PDG            Width
DECAY        37     8.66923179E+00   # H+ decays
#          BR         NDA      ID1       ID2
     5.83459717E-04    2           4        -5   # BR(H+ -> c       bb     )
     6.43480232E-02    2         -15        16   # BR(H+ -> tau+    nu_tau )
     2.27539403E-04    2         -13        14   # BR(H+ -> mu+     nu_mu  )
     3.73412253E-06    2           2        -5   # BR(H+ -> u       bb     )
     1.33512050E-05    2           2        -3   # BR(H+ -> u       sb     )
     2.76101318E-04    2           4        -3   # BR(H+ -> c       sb     )
     5.17538637E-01    2           6        -5   # BR(H+ -> t       bb     )
     7.40885982E-05    2          24        25   # BR(H+ -> W+      h      )
     9.77374631E-13    2          24        36   # BR(H+ -> W+      A      )
     4.10955176E-01    2     1000024   1000022   # BR(H+ -> ~chi_1+ ~chi_10)
     5.23197370E-03    2     1000024   1000023   # BR(H+ -> ~chi_1+ ~chi_20)
     7.47915896E-04    2     1000024   1000025   # BR(H+ -> ~chi_1+ ~chi_30)
