#
#                              ======================
#                              | THE SUSYHIT OUTPUT |
#                              ======================
#
#
#              ------------------------------------------------------
#              |     This is the output of the SUSY-HIT package     |
#              |  created by A.Djouadi, M.Muehlleitner and M.Spira. |
#              |  In case of problems with SUSY-HIT email to        |
#              |           margarete.muehlleitner@cern.ch           |
#              |           michael.spira@psi.ch                     |
#              |           abdelhak.djouadi@cern.ch                 |
#              ------------------------------------------------------
#
#              ------------------------------------------------------
#              |  SUSY Les Houches Accord - MSSM Spectrum + Decays  |
#              |              based on the decay programs           |
#              |                                                    |
#              |                     SDECAY 1.3b                    |
#              |                                                    |
#              |  Authors: M.Muhlleitner, A.Djouadi and Y.Mambrini  |
#              |  Ref.:    Comput.Phys.Commun.168(2005)46           |
#              |           [hep-ph/0311167]                         |
#              |                                                    |
#              |                     HDECAY 3.4                     |
#              |                                                    |
#              |  By: A.Djouadi,J.Kalinowski,M.Muhlleitner,M.Spira  |
#              |  Ref.:    Comput.Phys.Commun.108(1998)56           |
#              |           [hep-ph/9704448]                         |
#              |                                                    |
#              |                                                    |
#              |  If not stated otherwise all DRbar couplings and   |
#              |  soft SUSY breaking masses are given at the scale  |
#              |  Q=  0.50007722E+04
#              |                                                    |
#              ------------------------------------------------------
#
#
BLOCK DCINFO  # Decay Program information
     1   SDECAY/HDECAY # decay calculator
     2   1.3b  /3.4    # version number
#
BLOCK SPINFO  # Spectrum calculator information
     1    SOFTSUSY    # spectrum calculator                
     2    3.4.0       # version number                     
#
BLOCK MODSEL  # Model selection
     1     0   #  nonUniversal                                     
#
BLOCK SMINPUTS  # Standard Model inputs
         1     1.25778332E+02   # alpha_em^-1(M_Z)^MSbar
         2     1.16570000E-05   # G_F [GeV^-2]
         3     1.17200002E-01   # alpha_S(M_Z)^MSbar
         4     9.11876000E+01   # M_Z pole mass
         5     4.25000000E+00   # mb(mb)^MSbar
         6     1.72500000E+02   # mt pole mass
         7     1.77682000E+00   # mtau pole mass
#
BLOCK MINPAR  # Input parameters - minimal models
         3     1.00000000E+01   # tanb                
#
BLOCK EXTPAR  # Input parameters - non-minimal models
         0    -1.00000000E+00   # Set                 
         1     6.00000000E+01   # M_1(MX)             
         2     3.00000000E+03   # M_2(MX)             
         3     1.57542900E+03   # M_3(MX)             
        11     5.00000000E+03   # At(MX)              
        12     5.00000000E+03   # Ab(MX)              
        13     0.00000000E+00   # Atau(MX)            
        23    -1.58727000E+02   # mu(MX)              
        26     3.00000000E+03   # mA(pole)            
        31     5.00000000E+03   # meL(MX)             
        32     5.00000000E+03   # mmuL(MX)            
        33     5.00000000E+03   # mtauL(MX)           
        34     5.00000000E+03   # meR(MX)             
        35     5.00000000E+03   # mmuR(MX)            
        36     5.00000000E+03   # mtauR(MX)           
        41     5.00000000E+03   # mqL1(MX)            
        42     5.00000000E+03   # mqL2(MX)            
        43     5.00000000E+03   # mqL3(MX)            
        44     5.00000000E+03   # muR(MX)             
        45     5.00000000E+03   # mcR(MX)             
        46     5.00000000E+03   # mtR(MX)             
        47     5.00000000E+03   # mdR(MX)             
        48     5.00000000E+03   # msR(MX)             
        49     5.00000000E+03   # mbR(MX)             
#
BLOCK MASS  # Mass Spectrum
# PDG code           mass       particle
        24     8.00903881E+01   # W+
        25     1.24728902E+02   # h
        35     3.00009163E+03   # H
        36     2.99999979E+03   # A
        37     3.00148483E+03   # H+
         5     4.87878001E+00   # b-quark pole mass calculated from mb(mb)_Msbar
   1000001     5.07077837E+03   # ~d_L
   2000001     5.05286352E+03   # ~d_R
   1000002     5.07030198E+03   # ~u_L
   2000002     5.05255188E+03   # ~u_R
   1000003     5.07077837E+03   # ~s_L
   2000003     5.05286352E+03   # ~s_R
   1000004     5.07030198E+03   # ~c_L
   2000004     5.05255188E+03   # ~c_R
   1000005     5.01688723E+03   # ~b_1
   2000005     5.05093611E+03   # ~b_2
   1000006     4.90795283E+03   # ~t_1
   2000006     5.06035779E+03   # ~t_2
   1000011     5.01917500E+03   # ~e_L
   2000011     5.00596258E+03   # ~e_R
   1000012     5.01822173E+03   # ~nu_eL
   1000013     5.01917500E+03   # ~mu_L
   2000013     5.00596258E+03   # ~mu_R
   1000014     5.01822173E+03   # ~nu_muL
   1000015     5.00483751E+03   # ~tau_1
   2000015     5.01863620E+03   # ~tau_2
   1000016     5.01766642E+03   # ~nu_tauL
   1000021     1.90000006E+03   # ~g
   1000022     5.78424454E+01   # ~chi_10
   1000023    -1.75655829E+02   # ~chi_20
   1000025     1.75674144E+02   # ~chi_30
   1000035     3.07435103E+03   # ~chi_40
   1000024     1.70000920E+02   # ~chi_1+
   1000037     3.07451927E+03   # ~chi_2+
#
BLOCK NMIX  # Neutralino Mixing Matrix
  1  1     9.59062574E-01   # N_11
  1  2    -9.56319583E-04   # N_12
  1  3    -2.74941955E-01   # N_13
  1  4    -6.78600501E-02   # N_14
  2  1    -1.47312351E-01   # N_21
  2  2     1.87613797E-02   # N_22
  2  3    -6.89010418E-01   # N_23
  2  4     7.09374179E-01   # N_24
  3  1     2.41863349E-01   # N_31
  3  2     1.69302485E-02   # N_32
  3  3     6.70574266E-01   # N_33
  3  4     7.01103160E-01   # N_34
  4  1    -4.13985746E-04   # N_41
  4  2     9.99680180E-01   # N_42
  4  3     1.31128408E-03   # N_43
  4  4    -2.52516610E-02   # N_44
#
BLOCK UMIX  # Chargino Mixing Matrix U
  1  1    -1.84860794E-03   # U_11
  1  2     9.99998291E-01   # U_12
  2  1    -9.99998291E-01   # U_21
  2  2    -1.84860794E-03   # U_22
#
BLOCK VMIX  # Chargino Mixing Matrix V
  1  1     3.57300262E-02   # V_11
  1  2    -9.99361479E-01   # V_12
  2  1    -9.99361479E-01   # V_21
  2  2    -3.57300262E-02   # V_22
#
BLOCK STOPMIX  # Stop Mixing Matrix
  1  1    -5.02597459E-01   # cos(theta_t)
  1  2     8.64520557E-01   # sin(theta_t)
  2  1    -8.64520557E-01   # -sin(theta_t)
  2  2    -5.02597459E-01   # cos(theta_t)
#
BLOCK SBOTMIX  # Sbottom Mixing Matrix
  1  1     9.99447478E-01   # cos(theta_b)
  1  2    -3.32376100E-02   # sin(theta_b)
  2  1     3.32376100E-02   # -sin(theta_b)
  2  2     9.99447478E-01   # cos(theta_b)
#
BLOCK STAUMIX  # Stau Mixing Matrix
  1  1    -1.87268003E-02   # cos(theta_tau)
  1  2     9.99824638E-01   # sin(theta_tau)
  2  1    -9.99824638E-01   # -sin(theta_tau)
  2  2    -1.87268003E-02   # cos(theta_tau)
#
BLOCK ALPHA  # Higgs mixing
          -1.05491959E-01   # Mixing angle in the neutral Higgs boson sector
#
BLOCK HMIX Q=  5.00077220E+03  # DRbar Higgs Parameters
         1    -1.61609634E+02   # mu(Q)MSSM           
         2     9.46902548E+00   # tan                 
         3     2.41656817E+02   # higgs               
         4     8.80137837E+06   # mA^2(Q)MSSM         
#
BLOCK GAUGE Q=  5.00077220E+03  # The gauge couplings
     1     3.71196139E-01   # gprime(Q) DRbar
     2     6.34551481E-01   # g(Q) DRbar
     3     9.99260710E-01   # g3(Q) DRbar
#
BLOCK AU Q=  5.00077220E+03  # The trilinear couplings
  1  1     5.00000001E+03   # A_u(Q) DRbar
  2  2     5.00000001E+03   # A_c(Q) DRbar
  3  3     5.00000002E+03   # A_t(Q) DRbar
#
BLOCK AD Q=  5.00077220E+03  # The trilinear couplings
  1  1     5.00000001E+03   # A_d(Q) DRbar
  2  2     5.00000001E+03   # A_s(Q) DRbar
  3  3     5.00000001E+03   # A_b(Q) DRbar
#
BLOCK AE Q=  5.00077220E+03  # The trilinear couplings
  1  1     0.00000000E+00   # A_e(Q) DRbar
  2  2     1.56110965E-07   # A_mu(Q) DRbar
  3  3     1.55673351E-07   # A_tau(Q) DRbar
#
BLOCK Yu Q=  5.00077220E+03  # The Yukawa couplings
  1  1     0.00000000E+00   # y_u(Q) DRbar
  2  2     0.00000000E+00   # y_c(Q) DRbar
  3  3     8.20196898E-01   # y_t(Q) DRbar
#
BLOCK Yd Q=  5.00077220E+03  # The Yukawa couplings
  1  1     0.00000000E+00   # y_d(Q) DRbar
  2  2     0.00000000E+00   # y_s(Q) DRbar
  3  3     1.29673900E-01   # y_b(Q) DRbar
#
BLOCK Ye Q=  5.00077220E+03  # The Yukawa couplings
  1  1     0.00000000E+00   # y_e(Q) DRbar
  2  2     0.00000000E+00   # y_mu(Q) DRbar
  3  3     9.73770454E-02   # y_tau(Q) DRbar
#
BLOCK MSOFT Q=  5.00077220E+03  # The soft SUSY breaking masses at the scale Q
         1     6.00000000E+01   # M_1(Q)              
         2     3.00000000E+03   # M_2(Q)              
         3     1.57542900E+03   # M_3(Q)              
        21     8.70876390E+06   # mH1^2(Q)            
        22     5.53296810E+05   # mH2^2(Q)            
        31     5.00000000E+03   # meL(Q)              
        32     5.00000000E+03   # mmuL(Q)             
        33     5.00000000E+03   # mtauL(Q)            
        34     5.00000000E+03   # meR(Q)              
        35     5.00000000E+03   # mmuR(Q)             
        36     5.00000000E+03   # mtauR(Q)            
        41     5.00000000E+03   # mqL1(Q)             
        42     5.00000000E+03   # mqL2(Q)             
        43     5.00000000E+03   # mqL3(Q)             
        44     5.00000000E+03   # muR(Q)              
        45     5.00000000E+03   # mcR(Q)              
        46     4.99999999E+03   # mtR(Q)              
        47     5.00000000E+03   # mdR(Q)              
        48     5.00000000E+03   # msR(Q)              
        49     5.00000000E+03   # mbR(Q)              
#
#
#
#                             =================
#                             |The decay table|
#                             =================
#
# - The QCD corrections to the decays gluino -> squark  + quark
#                                     squark -> gaugino + quark_prime
#                                     squark -> squark_prime + Higgs
#                                     squark -> gluino  + quark
#   are included.
#
# - The multi-body decays for the inos, stops and sbottoms are included.
#
# - The loop induced decays for the gluino, neutralinos and stops
#   are included.
#
# - The SUSY decays of the top quark are included.
#
#
#         PDG            Width
DECAY         6     1.41124466E+00   # top decays
#          BR         NDA      ID1       ID2
     1.00000000E+00    2           5        24   # BR(t ->  b    W+)
#
#         PDG            Width
DECAY   1000021     1.94490494E-03   # gluino decays
#          BR         NDA      ID1       ID2
     5.59015704E-05    2     1000022        21   # BR(~g -> ~chi_10 g)
     6.65326366E-03    2     1000023        21   # BR(~g -> ~chi_20 g)
     6.77264142E-03    2     1000025        21   # BR(~g -> ~chi_30 g)
#           BR         NDA      ID1       ID2       ID3
     8.51457446E-03    3     1000022         1        -1   # BR(~g -> ~chi_10 d  db)
     2.02673377E-04    3     1000023         1        -1   # BR(~g -> ~chi_20 d  db)
     4.94222381E-04    3     1000025         1        -1   # BR(~g -> ~chi_30 d  db)
     2.89427101E-02    3     1000022         2        -2   # BR(~g -> ~chi_10 u  ub)
     4.88301580E-04    3     1000023         2        -2   # BR(~g -> ~chi_20 u  ub)
     1.99990601E-03    3     1000025         2        -2   # BR(~g -> ~chi_30 u  ub)
     8.51457446E-03    3     1000022         3        -3   # BR(~g -> ~chi_10 s  sb)
     2.02673377E-04    3     1000023         3        -3   # BR(~g -> ~chi_20 s  sb)
     4.94222381E-04    3     1000025         3        -3   # BR(~g -> ~chi_30 s  sb)
     2.89427101E-02    3     1000022         4        -4   # BR(~g -> ~chi_10 c  cb)
     4.88301580E-04    3     1000023         4        -4   # BR(~g -> ~chi_20 c  cb)
     1.99990601E-03    3     1000025         4        -4   # BR(~g -> ~chi_30 c  cb)
     9.56355132E-03    3     1000022         5        -5   # BR(~g -> ~chi_10 b  bb)
     5.44191928E-03    3     1000023         5        -5   # BR(~g -> ~chi_20 b  bb)
     5.44398832E-03    3     1000025         5        -5   # BR(~g -> ~chi_30 b  bb)
     2.60844247E-02    3     1000022         6        -6   # BR(~g -> ~chi_10 t  tb)
     1.98853681E-01    3     1000023         6        -6   # BR(~g -> ~chi_20 t  tb)
     2.14676101E-01    3     1000025         6        -6   # BR(~g -> ~chi_30 t  tb)
     5.43130254E-05    3     1000024         1        -2   # BR(~g -> ~chi_1+ d  ub)
     5.43130254E-05    3    -1000024         2        -1   # BR(~g -> ~chi_1- u  db)
     5.43130254E-05    3     1000024         3        -4   # BR(~g -> ~chi_1+ s  cb)
     5.43130254E-05    3    -1000024         4        -3   # BR(~g -> ~chi_1- c  sb)
     2.22476250E-01    3     1000024         5        -6   # BR(~g -> ~chi_1+ b  tb)
     2.22476250E-01    3    -1000024         6        -5   # BR(~g -> ~chi_1- t  bb)
#
#         PDG            Width
DECAY   1000006     3.59911091E+02   # stop1 decays
#          BR         NDA      ID1       ID2
     2.03498363E-02    2     1000022         6   # BR(~t_1 -> ~chi_10 t )
     8.61047129E-02    2     1000023         6   # BR(~t_1 -> ~chi_20 t )
     9.89386876E-02    2     1000025         6   # BR(~t_1 -> ~chi_30 t )
     5.64137632E-03    2     1000035         6   # BR(~t_1 -> ~chi_40 t )
     1.35045785E-01    2     1000024         5   # BR(~t_1 -> ~chi_1+ b )
     1.12470344E-02    2     1000037         5   # BR(~t_1 -> ~chi_2+ b )
     6.42672568E-01    2     1000021         6   # BR(~t_1 -> ~g      t )
#
#         PDG            Width
DECAY   2000006     3.63169409E+02   # stop2 decays
#          BR         NDA      ID1       ID2
     1.29848504E-02    2     1000022         6   # BR(~t_2 -> ~chi_10 t )
     1.01017389E-01    2     1000023         6   # BR(~t_2 -> ~chi_20 t )
     8.49751409E-02    2     1000025         6   # BR(~t_2 -> ~chi_30 t )
     1.55207688E-02    2     1000035         6   # BR(~t_2 -> ~chi_40 t )
     5.39575557E-02    2     1000024         5   # BR(~t_2 -> ~chi_1+ b )
     3.09085133E-02    2     1000037         5   # BR(~t_2 -> ~chi_2+ b )
     6.97332922E-01    2     1000021         6   # BR(~t_2 -> ~g      t )
     7.68379116E-04    2     1000006        25   # BR(~t_2 -> ~t_1    h )
     2.53448102E-03    2     1000006        23   # BR(~t_2 -> ~t_1    Z )
#
#         PDG            Width
DECAY   1000005     3.38434095E+02   # sbottom1 decays
#          BR         NDA      ID1       ID2
     2.57716838E-03    2     1000022         5   # BR(~b_1 -> ~chi_10 b )
     2.41792268E-03    2     1000023         5   # BR(~b_1 -> ~chi_20 b )
     2.20474690E-03    2     1000025         5   # BR(~b_1 -> ~chi_30 b )
     2.25181502E-02    2     1000035         5   # BR(~b_1 -> ~chi_40 b )
     1.98663849E-01    2    -1000024         6   # BR(~b_1 -> ~chi_1- t )
     4.52052911E-02    2    -1000037         6   # BR(~b_1 -> ~chi_2- t )
     7.24785077E-01    2     1000021         5   # BR(~b_1 -> ~g      b )
     1.62779457E-03    2     1000006       -24   # BR(~b_1 -> ~t_1    W-)
#
#         PDG            Width
DECAY   2000005     2.54262270E+02   # sbottom2 decays
#          BR         NDA      ID1       ID2
     1.10614659E-02    2     1000022         5   # BR(~b_2 -> ~chi_10 b )
     3.52443589E-03    2     1000023         5   # BR(~b_2 -> ~chi_20 b )
     3.80287545E-03    2     1000025         5   # BR(~b_2 -> ~chi_30 b )
     2.86134493E-05    2     1000035         5   # BR(~b_2 -> ~chi_40 b )
     6.92397443E-03    2    -1000024         6   # BR(~b_2 -> ~chi_1- t )
     5.74647309E-05    2    -1000037         6   # BR(~b_2 -> ~chi_2- t )
     9.74591388E-01    2     1000021         5   # BR(~b_2 -> ~g      b )
     9.78253910E-06    2     1000006       -24   # BR(~b_2 -> ~t_1    W-)
#
#         PDG            Width
DECAY   1000002     2.73786065E+02   # sup_L decays
#          BR         NDA      ID1       ID2
     2.48712382E-03    2     1000022         2   # BR(~u_L -> ~chi_10 u)
     7.11884606E-06    2     1000023         2   # BR(~u_L -> ~chi_20 u)
     2.94583221E-04    2     1000025         2   # BR(~u_L -> ~chi_30 u)
     2.88578637E-02    2     1000035         2   # BR(~u_L -> ~chi_40 u)
     1.83132297E-04    2     1000024         1   # BR(~u_L -> ~chi_1+ d)
     5.76809582E-02    2     1000037         1   # BR(~u_L -> ~chi_2+ d)
     9.10489220E-01    2     1000021         2   # BR(~u_L -> ~g      u)
#
#         PDG            Width
DECAY   2000002     2.59758568E+02   # sup_R decays
#          BR         NDA      ID1       ID2
     4.22252684E-02    2     1000022         2   # BR(~u_R -> ~chi_10 u)
     9.94334348E-04    2     1000023         2   # BR(~u_R -> ~chi_20 u)
     2.68036564E-03    2     1000025         2   # BR(~u_R -> ~chi_30 u)
     3.13699765E-09    2     1000035         2   # BR(~u_R -> ~chi_40 u)
     9.54100028E-01    2     1000021         2   # BR(~u_R -> ~g      u)
#
#         PDG            Width
DECAY   1000001     2.73798608E+02   # sdown_L decays
#          BR         NDA      ID1       ID2
     2.53864722E-03    2     1000022         1   # BR(~d_L -> ~chi_10 d)
     1.61718663E-04    2     1000023         1   # BR(~d_L -> ~chi_20 d)
     6.55441399E-05    2     1000025         1   # BR(~d_L -> ~chi_30 d)
     2.88748412E-02    2     1000035         1   # BR(~d_L -> ~chi_40 d)
     4.90240727E-07    2    -1000024         2   # BR(~d_L -> ~chi_1- u)
     5.77698099E-02    2    -1000037         2   # BR(~d_L -> ~chi_2- u)
     9.10588949E-01    2     1000021         1   # BR(~d_L -> ~g      d)
#
#         PDG            Width
DECAY   2000001     2.50841928E+02   # sdown_R decays
#          BR         NDA      ID1       ID2
     1.09322425E-02    2     1000022         1   # BR(~d_R -> ~chi_10 d)
     2.57436060E-04    2     1000023         1   # BR(~d_R -> ~chi_20 d)
     6.93954474E-04    2     1000025         1   # BR(~d_R -> ~chi_30 d)
     8.12294100E-10    2     1000035         1   # BR(~d_R -> ~chi_40 d)
     9.88116366E-01    2     1000021         1   # BR(~d_R -> ~g      d)
#
#         PDG            Width
DECAY   1000004     2.73786065E+02   # scharm_L decays
#          BR         NDA      ID1       ID2
     2.48712382E-03    2     1000022         4   # BR(~c_L -> ~chi_10 c)
     7.11884606E-06    2     1000023         4   # BR(~c_L -> ~chi_20 c)
     2.94583221E-04    2     1000025         4   # BR(~c_L -> ~chi_30 c)
     2.88578637E-02    2     1000035         4   # BR(~c_L -> ~chi_40 c)
     1.83132297E-04    2     1000024         3   # BR(~c_L -> ~chi_1+ s)
     5.76809582E-02    2     1000037         3   # BR(~c_L -> ~chi_2+ s)
     9.10489220E-01    2     1000021         4   # BR(~c_L -> ~g      c)
#
#         PDG            Width
DECAY   2000004     2.59758568E+02   # scharm_R decays
#          BR         NDA      ID1       ID2
     4.22252684E-02    2     1000022         4   # BR(~c_R -> ~chi_10 c)
     9.94334348E-04    2     1000023         4   # BR(~c_R -> ~chi_20 c)
     2.68036564E-03    2     1000025         4   # BR(~c_R -> ~chi_30 c)
     3.13699765E-09    2     1000035         4   # BR(~c_R -> ~chi_40 c)
     9.54100028E-01    2     1000021         4   # BR(~c_R -> ~g      c)
#
#         PDG            Width
DECAY   1000003     2.73798608E+02   # sstrange_L decays
#          BR         NDA      ID1       ID2
     2.53864722E-03    2     1000022         3   # BR(~s_L -> ~chi_10 s)
     1.61718663E-04    2     1000023         3   # BR(~s_L -> ~chi_20 s)
     6.55441399E-05    2     1000025         3   # BR(~s_L -> ~chi_30 s)
     2.88748412E-02    2     1000035         3   # BR(~s_L -> ~chi_40 s)
     4.90240727E-07    2    -1000024         4   # BR(~s_L -> ~chi_1- c)
     5.77698099E-02    2    -1000037         4   # BR(~s_L -> ~chi_2- c)
     9.10588949E-01    2     1000021         3   # BR(~s_L -> ~g      s)
#
#         PDG            Width
DECAY   2000003     2.50841928E+02   # sstrange_R decays
#          BR         NDA      ID1       ID2
     1.09322425E-02    2     1000022         3   # BR(~s_R -> ~chi_10 s)
     2.57436060E-04    2     1000023         3   # BR(~s_R -> ~chi_20 s)
     6.93954474E-04    2     1000025         3   # BR(~s_R -> ~chi_30 s)
     8.12294100E-10    2     1000035         3   # BR(~s_R -> ~chi_40 s)
     9.88116366E-01    2     1000021         3   # BR(~s_R -> ~g      s)
#
#         PDG            Width
DECAY   1000011     3.04326388E+01   # selectron_L decays
#          BR         NDA      ID1       ID2
     2.07155491E-01    2     1000022        11   # BR(~e_L -> ~chi_10 e-)
     2.99463048E-03    2     1000023        11   # BR(~e_L -> ~chi_20 e-)
     1.65367118E-02    2     1000025        11   # BR(~e_L -> ~chi_30 e-)
     2.57599552E-01    2     1000035        11   # BR(~e_L -> ~chi_40 e-)
     4.50452715E-06    2    -1000024        12   # BR(~e_L -> ~chi_1- nu_e)
     5.15709111E-01    2    -1000037        12   # BR(~e_L -> ~chi_2- nu_e)
#
#         PDG            Width
DECAY   2000011     2.74322963E+01   # selectron_R decays
#          BR         NDA      ID1       ID2
     9.19963061E-01    2     1000022        11   # BR(~e_R -> ~chi_10 e-)
     2.16571188E-02    2     1000023        11   # BR(~e_R -> ~chi_20 e-)
     5.83797538E-02    2     1000025        11   # BR(~e_R -> ~chi_30 e-)
     6.65133586E-08    2     1000035        11   # BR(~e_R -> ~chi_40 e-)
#
#         PDG            Width
DECAY   1000013     3.04326388E+01   # smuon_L decays
#          BR         NDA      ID1       ID2
     2.07155491E-01    2     1000022        13   # BR(~mu_L -> ~chi_10 mu-)
     2.99463048E-03    2     1000023        13   # BR(~mu_L -> ~chi_20 mu-)
     1.65367118E-02    2     1000025        13   # BR(~mu_L -> ~chi_30 mu-)
     2.57599552E-01    2     1000035        13   # BR(~mu_L -> ~chi_40 mu-)
     4.50452715E-06    2    -1000024        14   # BR(~mu_L -> ~chi_1- nu_mu)
     5.15709111E-01    2    -1000037        14   # BR(~mu_L -> ~chi_2- nu_mu)
#
#         PDG            Width
DECAY   2000013     2.74322963E+01   # smuon_R decays
#          BR         NDA      ID1       ID2
     9.19963061E-01    2     1000022        13   # BR(~mu_R -> ~chi_10 mu-)
     2.16571188E-02    2     1000023        13   # BR(~mu_R -> ~chi_20 mu-)
     5.83797538E-02    2     1000025        13   # BR(~mu_R -> ~chi_30 mu-)
     6.65133586E-08    2     1000035        13   # BR(~mu_R -> ~chi_40 mu-)
#
#         PDG            Width
DECAY   1000015     2.93103409E+01   # stau_1 decays
#          BR         NDA      ID1       ID2
     8.63889923E-01    2     1000022        15   # BR(~tau_1 -> ~chi_10  tau-)
     3.51131858E-02    2     1000023        15   # BR(~tau_1 -> ~chi_20  tau-)
     6.85980133E-02    2     1000025        15   # BR(~tau_1 -> ~chi_30  tau-)
     9.57987106E-05    2     1000035        15   # BR(~tau_1 -> ~chi_40  tau-)
     3.21114480E-02    2    -1000024        16   # BR(~tau_1 -> ~chi_1-  nu_tau)
     1.91631577E-04    2    -1000037        16   # BR(~tau_1 -> ~chi_2-  nu_tau)
#
#         PDG            Width
DECAY   2000015     3.13675195E+01   # stau_2 decays
#          BR         NDA      ID1       ID2
     2.02648411E-01    2     1000022        15   # BR(~tau_2 -> ~chi_10  tau-)
     1.75794097E-02    2     1000023        15   # BR(~tau_2 -> ~chi_20  tau-)
     3.00278138E-02    2     1000025        15   # BR(~tau_2 -> ~chi_30  tau-)
     2.49740439E-01    2     1000035        15   # BR(~tau_2 -> ~chi_40  tau-)
     2.85124619E-05    2    -1000024        16   # BR(~tau_2 -> ~chi_1-  nu_tau)
     4.99975414E-01    2    -1000037        16   # BR(~tau_2 -> ~chi_2-  nu_tau)
#
#         PDG            Width
DECAY   1000012     3.04354894E+01   # snu_eL decays
#          BR         NDA      ID1       ID2
     2.08513612E-01    2     1000022        12   # BR(~nu_eL -> ~chi_10 nu_e)
     7.25406741E-03    2     1000023        12   # BR(~nu_eL -> ~chi_20 nu_e)
     1.02199883E-02    2     1000025        12   # BR(~nu_eL -> ~chi_30 nu_e)
     2.57658556E-01    2     1000035        12   # BR(~nu_eL -> ~chi_40 nu_e)
     1.68229712E-03    2     1000024        11   # BR(~nu_eL -> ~chi_1+ e-)
     5.14671478E-01    2     1000037        11   # BR(~nu_eL -> ~chi_2+ e-)
#
#         PDG            Width
DECAY   1000014     3.04354894E+01   # snu_muL decays
#          BR         NDA      ID1       ID2
     2.08513612E-01    2     1000022        14   # BR(~nu_muL -> ~chi_10 nu_mu)
     7.25406741E-03    2     1000023        14   # BR(~nu_muL -> ~chi_20 nu_mu)
     1.02199883E-02    2     1000025        14   # BR(~nu_muL -> ~chi_30 nu_mu)
     2.57658556E-01    2     1000035        14   # BR(~nu_muL -> ~chi_40 nu_mu)
     1.68229712E-03    2     1000024        13   # BR(~nu_muL -> ~chi_1+ mu-)
     5.14671478E-01    2     1000037        13   # BR(~nu_muL -> ~chi_2+ mu-)
#
#         PDG            Width
DECAY   1000016     3.13702546E+01   # snu_tauL decays
#          BR         NDA      ID1       ID2
     2.02277963E-01    2     1000022        16   # BR(~nu_tauL -> ~chi_10 nu_tau)
     7.03712938E-03    2     1000023        16   # BR(~nu_tauL -> ~chi_20 nu_tau)
     9.91435228E-03    2     1000025        16   # BR(~nu_tauL -> ~chi_30 nu_tau)
     2.49886749E-01    2     1000035        16   # BR(~nu_tauL -> ~chi_40 nu_tau)
     3.17365769E-02    2     1000024        15   # BR(~nu_tauL -> ~chi_1+ tau-)
     4.99147230E-01    2     1000037        15   # BR(~nu_tauL -> ~chi_2+ tau-)
#
#         PDG            Width
DECAY   1000024     5.13378448E-02   # chargino1+ decays
#          BR         NDA      ID1       ID2
     1.00000000E+00    2     1000022        24   # BR(~chi_1+ -> ~chi_10  W+)
#
#         PDG            Width
DECAY   1000037     2.34348522E+01   # chargino2+ decays
#          BR         NDA      ID1       ID2
     2.53912583E-01    2     1000024        23   # BR(~chi_2+ -> ~chi_1+  Z )
     1.78453652E-03    2     1000022        24   # BR(~chi_2+ -> ~chi_10  W+)
     2.45142578E-01    2     1000023        24   # BR(~chi_2+ -> ~chi_20  W+)
     2.43625627E-01    2     1000025        24   # BR(~chi_2+ -> ~chi_30  W+)
     2.55479364E-01    2     1000024        25   # BR(~chi_2+ -> ~chi_1+  h )
     5.53114011E-05    2     1000022        37   # BR(~chi_2+ -> ~chi_10  H+)
#
#         PDG            Width
DECAY   1000022     0.00000000E+00   # neutralino1 decays
#
#         PDG            Width
DECAY   1000023     2.13736060E-02   # neutralino2 decays
#          BR         NDA      ID1       ID2
     1.00000000E+00    2     1000022        23   # BR(~chi_20 -> ~chi_10   Z )
#
#         PDG            Width
DECAY   1000025     2.52418126E-02   # neutralino3 decays
#          BR         NDA      ID1       ID2
     1.00000000E+00    2     1000022        23   # BR(~chi_30 -> ~chi_10   Z )
#
#         PDG            Width
DECAY   1000035     2.34456758E+01   # neutralino4 decays
#          BR         NDA      ID1       ID2
     1.72182150E-03    2     1000022        23   # BR(~chi_40 -> ~chi_10   Z )
     1.14743945E-01    2     1000023        23   # BR(~chi_40 -> ~chi_20   Z )
     1.37044680E-01    2     1000025        23   # BR(~chi_40 -> ~chi_30   Z )
     2.45642324E-01    2     1000024       -24   # BR(~chi_40 -> ~chi_1+   W-)
     2.45642324E-01    2    -1000024        24   # BR(~chi_40 -> ~chi_1-   W+)
     1.60900096E-04    2     1000022        25   # BR(~chi_40 -> ~chi_10   h )
     5.27253536E-05    2     1000022        35   # BR(~chi_40 -> ~chi_10   H )
     5.97259563E-06    2     1000022        36   # BR(~chi_40 -> ~chi_10   A )
     1.39364602E-01    2     1000023        25   # BR(~chi_40 -> ~chi_20   h )
     1.15620706E-01    2     1000025        25   # BR(~chi_40 -> ~chi_30   h )
#
#         PDG            Width
DECAY        25     4.09850643E-03   # h decays
#          BR         NDA      ID1       ID2
     6.07799669E-01    2           5        -5   # BR(h -> b       bb     )
     6.32726149E-02    2         -15        15   # BR(h -> tau+    tau-   )
     2.24008256E-04    2         -13        13   # BR(h -> mu+     mu-    )
     4.74916207E-04    2           3        -3   # BR(h -> s       sb     )
     2.05755176E-02    2           4        -4   # BR(h -> c       cb     )
     6.65067075E-02    2          21        21   # BR(h -> g       g      )
     2.28175072E-03    2          22        22   # BR(h -> gam     gam    )
     1.46977692E-03    2          22        23   # BR(h -> Z       gam    )
     2.07294236E-01    2          24       -24   # BR(h -> W+      W-     )
     2.46662475E-02    2          23        23   # BR(h -> Z       Z      )
     5.43455608E-03    2     1000022   1000022   # BR(h -> ~chi_10 ~chi_10)
#
#         PDG            Width
DECAY        35     8.82446243E+00   # H decays
#          BR         NDA      ID1       ID2
     3.58724744E-01    2           5        -5   # BR(H -> b       bb     )
     6.31218196E-02    2         -15        15   # BR(H -> tau+    tau-   )
     2.23203768E-04    2         -13        13   # BR(H -> mu+     mu-    )
     2.73613470E-04    2           3        -3   # BR(H -> s       sb     )
     1.53129864E-06    2           4        -4   # BR(H -> c       cb     )
     1.52988873E-01    2           6        -6   # BR(H -> t       tb     )
     5.09129678E-05    2          21        21   # BR(H -> g       g      )
     1.51922047E-07    2          22        22   # BR(H -> gam     gam    )
     9.02212357E-08    2          23        22   # BR(H -> Z       gam    )
     7.52829724E-05    2          24       -24   # BR(H -> W+      W-     )
     3.75938226E-05    2          23        23   # BR(H -> Z       Z      )
     2.66893269E-04    2          25        25   # BR(H -> h       h      )
     3.48044711E-24    2          36        36   # BR(H -> A       A      )
     1.11421959E-18    2          23        36   # BR(H -> Z       A      )
     3.50374508E-03    2     1000024  -1000024   # BR(H -> ~chi_1+ ~chi_1-)
     6.14633187E-02    2     1000022   1000022   # BR(H -> ~chi_10 ~chi_10)
     1.02256933E-02    2     1000023   1000023   # BR(H -> ~chi_20 ~chi_20)
     2.02343516E-02    2     1000025   1000025   # BR(H -> ~chi_30 ~chi_30)
     1.20927852E-01    2     1000022   1000023   # BR(H -> ~chi_10 ~chi_20)
     1.78696552E-01    2     1000022   1000025   # BR(H -> ~chi_10 ~chi_30)
     2.91837765E-02    2     1000023   1000025   # BR(H -> ~chi_20 ~chi_30)
#
#         PDG            Width
DECAY        36     8.82942150E+00   # A decays
#          BR         NDA      ID1       ID2
     3.58646224E-01    2           5        -5   # BR(A -> b       bb     )
     6.30881864E-02    2         -15        15   # BR(A -> tau+    tau-   )
     2.23084526E-04    2         -13        13   # BR(A -> mu+     mu-    )
     2.73667311E-04    2           3        -3   # BR(A -> s       sb     )
     1.53644242E-06    2           4        -4   # BR(A -> c       cb     )
     1.53418072E-01    2           6        -6   # BR(A -> t       tb     )
     1.51810515E-04    2          21        21   # BR(A -> g       g      )
     5.21362618E-07    2          22        22   # BR(A -> gam     gam    )
     1.83652083E-07    2          23        22   # BR(A -> Z       gam    )
     7.49558052E-05    2          23        25   # BR(A -> Z       h      )
     3.62587476E-03    2     1000024  -1000024   # BR(A -> ~chi_1+ ~chi_1-)
     5.54218860E-02    2     1000022   1000022   # BR(A -> ~chi_10 ~chi_10)
     1.60459807E-02    2     1000023   1000023   # BR(A -> ~chi_20 ~chi_20)
     1.31531966E-02    2     1000025   1000025   # BR(A -> ~chi_30 ~chi_30)
     1.94823492E-01    2     1000022   1000023   # BR(A -> ~chi_10 ~chi_20)
     1.11260263E-01    2     1000022   1000025   # BR(A -> ~chi_10 ~chi_30)
     2.97910641E-02    2     1000023   1000025   # BR(A -> ~chi_20 ~chi_30)
#
#         PDG            Width
DECAY        37     8.76235480E+00   # H+ decays
#          BR         NDA      ID1       ID2
     5.73917317E-04    2           4        -5   # BR(H+ -> c       bb     )
     6.36025293E-02    2         -15        16   # BR(H+ -> tau+    nu_tau )
     2.24903281E-04    2         -13        14   # BR(H+ -> mu+     nu_mu  )
     3.67305139E-06    2           2        -5   # BR(H+ -> u       bb     )
     1.31965076E-05    2           2        -3   # BR(H+ -> u       sb     )
     2.72905102E-04    2           4        -3   # BR(H+ -> c       sb     )
     5.10103308E-01    2           6        -5   # BR(H+ -> t       bb     )
     7.56905134E-05    2          24        25   # BR(H+ -> W+      h      )
     1.08312541E-12    2          24        36   # BR(H+ -> W+      A      )
     3.87389915E-01    2     1000024   1000022   # BR(H+ -> ~chi_1+ ~chi_10)
     5.78345686E-03    2     1000024   1000023   # BR(H+ -> ~chi_1+ ~chi_20)
     3.19565053E-02    2     1000024   1000025   # BR(H+ -> ~chi_1+ ~chi_30)
