#
#                              ======================
#                              | THE SUSYHIT OUTPUT |
#                              ======================
#
#
#              ------------------------------------------------------
#              |     This is the output of the SUSY-HIT package     |
#              |  created by A.Djouadi, M.Muehlleitner and M.Spira. |
#              |  In case of problems with SUSY-HIT email to        |
#              |           margarete.muehlleitner@cern.ch           |
#              |           michael.spira@psi.ch                     |
#              |           abdelhak.djouadi@cern.ch                 |
#              ------------------------------------------------------
#
#              ------------------------------------------------------
#              |  SUSY Les Houches Accord - MSSM Spectrum + Decays  |
#              |              based on the decay programs           |
#              |                                                    |
#              |                     SDECAY 1.3b                    |
#              |                                                    |
#              |  Authors: M.Muhlleitner, A.Djouadi and Y.Mambrini  |
#              |  Ref.:    Comput.Phys.Commun.168(2005)46           |
#              |           [hep-ph/0311167]                         |
#              |                                                    |
#              |                     HDECAY 3.4                     |
#              |                                                    |
#              |  By: A.Djouadi,J.Kalinowski,M.Muhlleitner,M.Spira  |
#              |  Ref.:    Comput.Phys.Commun.108(1998)56           |
#              |           [hep-ph/9704448]                         |
#              |                                                    |
#              |                                                    |
#              |  If not stated otherwise all DRbar couplings and   |
#              |  soft SUSY breaking masses are given at the scale  |
#              |  Q=  0.91187600E+02
#              |                                                    |
#              ------------------------------------------------------
#
#
BLOCK DCINFO  # Decay Program information
     1   SDECAY/HDECAY # decay calculator
     2   1.3b  /3.4    # version number
#
BLOCK SPINFO  # Spectrum calculator information
     1   SuSpect     # RGE +Spectrum calculator            
     2   2.41         # version number                     
#
BLOCK MODSEL  # Model selection
     1     0   # #general MSSM low scale                           
#
BLOCK SMINPUTS  # Standard Model inputs
         1     1.27934000E+02   # alpha_em^-1(M_Z)^MSbar
         2     1.16639000E-05   # G_F [GeV^-2]
         3     1.17200000E-01   # alpha_S(M_Z)^MSbar
         4     9.11870000E+01   # M_Z pole mass
         5     4.25000000E+00   # mb(mb)^MSbar
         6     1.72500000E+02   # mt pole mass
         7     1.77700000E+00   # mtau pole mass
#
BLOCK MINPAR  # Input parameters - minimal models
#
BLOCK EXTPAR  # Input parameters - non-minimal models
         0     9.11876000E+01   # EWSB                
         1     1.59000000E+03   # M_1                 
         2     1.00000000E+05   # M_2                 
         3     1.60000000E+03   # M_3                 
        11     0.00000000E+00   # A_t                 
        12     0.00000000E+00   # A_b                 
        13     0.00000000E+00   # A_tau               
        14     0.00000000E+00   # A_u                 
        15     0.00000000E+00   # A_d                 
        16     0.00000000E+00   # A_e                 
        23     1.00000000E+05   # mu(EWSB)            
        25     1.50000000E+00   # tanbeta(in)         
        26     2.00000000E+03   # MA_pole             
        31     1.00000000E+05   # M_eL                
        32     1.00000000E+05   # M_muL               
        33     1.00000000E+05   # M_tauL              
        34     1.00000000E+05   # M_eR                
        35     1.00000000E+05   # M_muR               
        36     1.00000000E+05   # M_tauR              
        41     3.00000000E+03   # M_q1L               
        42     3.00000000E+03   # M_q2L               
        43     3.00000000E+03   # M_q3L               
        44     1.00000000E+05   # M_uR                
        45     1.00000000E+05   # M_cR                
        46     1.00000000E+05   # M_tR                
        47     3.00000000E+03   # M_dR                
        48     3.00000000E+03   # M_sR                
        49     3.00000000E+03   # M_bR                
#
BLOCK MASS  # Mass Spectrum
# PDG code           mass       particle
        24     8.06306469E+01   # W+
        25     1.25000000E+02   # h
        35     2.00888877E+03   # H
        36     2.00000000E+03   # A
        37     2.02280874E+03   # H+
         5     4.87877839E+00   # b-quark pole mass calculated from mb(mb)_Msbar
   1000001     3.00021877E+03   # ~d_L
   2000001     3.00004251E+03   # ~d_R
   1000002     2.99982373E+03   # ~u_L
   2000002     9.99999974E+04   # ~u_R
   1000003     3.00021877E+03   # ~s_L
   2000003     3.00004251E+03   # ~s_R
   1000004     2.99982373E+03   # ~c_L
   2000004     9.99999974E+04   # ~c_R
   1000005     2.94898258E+03   # ~b_1
   2000005     3.05042255E+03   # ~b_2
   1000006     3.00183231E+03   # ~t_1
   2000006     1.00000154E+05   # ~t_2
   1000011     1.00000004E+05   # ~e_L
   2000011     1.00000004E+05   # ~e_R
   1000012     9.99999922E+04   # ~nu_eL
   1000013     1.00000004E+05   # ~mu_L
   2000013     1.00000004E+05   # ~mu_R
   1000014     9.99999922E+04   # ~nu_muL
   1000015     9.99986724E+04   # ~tau_1
   2000015     1.00001335E+05   # ~tau_2
   1000016     9.99999922E+04   # ~nu_tauL
   1000021     1.60000000E+03   # ~g
   1000022     1.58998131E+03   # ~chi_10
   1000023     9.99230319E+04   # ~chi_20
   1000025    -1.00000002E+05   # ~chi_30
   1000035     1.00076989E+05   # ~chi_40
   1000024     9.99230228E+04   # ~chi_1+
   1000037     1.00076980E+05   # ~chi_2+
   1000039     7.81250000E-05   # ~gravitino
#
BLOCK NMIX  # Neutralino Mixing Matrix
  1  1     9.99999898E-01   # N_11
  1  2    -3.34200036E-07   # N_12
  1  3     3.75175353E-04   # N_13
  1  4    -2.53396129E-04   # N_14
  2  1     3.14508082E-04   # N_21
  2  2     7.07148704E-01   # N_22
  2  3    -5.00008800E-01   # N_23
  2  4     4.99931807E-01   # N_24
  3  1     8.61108201E-05   # N_31
  3  2    -7.69783877E-05   # N_32
  3  3    -7.07106742E-01   # N_33
  3  4    -7.07106811E-01   # N_34
  4  1     3.14063345E-04   # N_41
  4  2    -7.07064857E-01   # N_42
  4  3    -4.99991110E-01   # N_43
  4  4     5.00068074E-01   # N_44
#
BLOCK UMIX  # Chargino Mixing Matrix U
  1  1    -7.07052347E-01   # U_11
  1  2     7.07161211E-01   # U_12
  2  1     7.07161211E-01   # U_21
  2  2     7.07052347E-01   # U_22
#
BLOCK VMIX  # Chargino Mixing Matrix V
  1  1    -7.07161211E-01   # V_11
  1  2     7.07052347E-01   # V_12
  2  1     7.07052347E-01   # V_21
  2  2     7.07161211E-01   # V_22
#
BLOCK STOPMIX  # Stop Mixing Matrix
  1  1     9.99999517E-01   # cos(theta_t)
  1  2     9.82852871E-04   # sin(theta_t)
  2  1    -9.82852871E-04   # -sin(theta_t)
  2  2     9.99999517E-01   # cos(theta_t)
#
BLOCK SBOTMIX  # Sbottom Mixing Matrix
  1  1     7.06492110E-01   # cos(theta_b)
  1  2     7.07720919E-01   # sin(theta_b)
  2  1    -7.07720919E-01   # -sin(theta_b)
  2  2     7.06492110E-01   # cos(theta_b)
#
BLOCK STAUMIX  # Stau Mixing Matrix
  1  1     7.07082072E-01   # cos(theta_tau)
  1  2     7.07131490E-01   # sin(theta_tau)
  2  1    -7.07131490E-01   # -sin(theta_tau)
  2  2     7.07082072E-01   # cos(theta_tau)
#
BLOCK ALPHA  # Higgs mixing
          -6.34403006E-01   # Mixing angle in the neutral Higgs boson sector
#
BLOCK HMIX Q=  9.11876000E+01  # DRbar Higgs Parameters
         1     1.00000000E+05   # mu(Q)               
         2     1.49999982E+00   # tanbeta(Q)          
         3     2.55014147E+02   # vev(Q)              
         4    -2.18294356E+09   # MA^2(Q)             
#
BLOCK GAUGE Q=  9.11876000E+01  # The gauge couplings
     1     3.49810401E-01   # gprime(Q) DRbar
     2     6.15634337E-01   # g(Q) DRbar
     3     1.07833019E+00   # g3(Q) DRbar
#
BLOCK AU Q=  9.11876000E+01  # The trilinear couplings
  1  1     0.00000000E+00   # A_u(Q) DRbar
  2  2     0.00000000E+00   # A_c(Q) DRbar
  3  3     0.00000000E+00   # A_t(Q) DRbar
#
BLOCK AD Q=  9.11876000E+01  # The trilinear couplings
  1  1     0.00000000E+00   # A_d(Q) DRbar
  2  2     0.00000000E+00   # A_s(Q) DRbar
  3  3     0.00000000E+00   # A_b(Q) DRbar
#
BLOCK AE Q=  9.11876000E+01  # The trilinear couplings
  1  1     0.00000000E+00   # A_e(Q) DRbar
  2  2     0.00000000E+00   # A_mu(Q) DRbar
  3  3     0.00000000E+00   # A_tau(Q) DRbar
#
BLOCK Yu Q=  9.11876000E+01  # The Yukawa couplings
  1  1     0.00000000E+00   # y_u(Q) DRbar
  2  2     0.00000000E+00   # y_c(Q) DRbar
  3  3     9.82076875E-01   # y_t(Q) DRbar
#
BLOCK Yd Q=  9.11876000E+01  # The Yukawa couplings
  1  1     0.00000000E+00   # y_d(Q) DRbar
  2  2     0.00000000E+00   # y_s(Q) DRbar
  3  3     2.02796028E-02   # y_b(Q) DRbar
#
BLOCK Ye Q=  9.11876000E+01  # The Yukawa couplings
  1  1     0.00000000E+00   # y_e(Q) DRbar
  2  2     0.00000000E+00   # y_mu(Q) DRbar
  3  3     1.77481464E-02   # y_tau(Q) DRbar
#
BLOCK MSOFT Q=  9.11876000E+01  # The soft SUSY breaking masses at the scale Q
         1     1.59000000E+03   # M_1                 
         2     1.00000000E+05   # M_2                 
         3     1.60000000E+03   # M_3                 
        14     0.00000000E+00   # A_u                 
        15     0.00000000E+00   # A_d                 
        16     0.00000000E+00   # A_e                 
        21    -1.06398936E+10   # M^2_Hd              
        22    -1.00403733E+10   # M^2_Hu              
        31     1.00000000E+05   # M_eL                
        32     1.00000000E+05   # M_muL               
        33     1.00000000E+05   # M_tauL              
        34     1.00000000E+05   # M_eR                
        35     1.00000000E+05   # M_muR               
        36     1.00000000E+05   # M_tauR              
        41     3.00000000E+03   # M_q1L               
        42     3.00000000E+03   # M_q2L               
        43     3.00000000E+03   # M_q3L               
        44     1.00000000E+05   # M_uR                
        45     1.00000000E+05   # M_cR                
        46     1.00000000E+05   # M_tR                
        47     3.00000000E+03   # M_dR                
        48     3.00000000E+03   # M_sR                
        49     3.00000000E+03   # M_bR                
#
#
#
#                             =================
#                             |The decay table|
#                             =================
#
# - The QCD corrections to the decays gluino -> squark  + quark
#                                     squark -> gaugino + quark_prime
#                                     squark -> squark_prime + Higgs
#                                     squark -> gluino  + quark
#   are included.
#
# - The multi-body decays for the inos, stops and sbottoms are included.
#
# - The loop induced decays for the gluino, neutralinos and stops
#   are included.
#
# - The SUSY decays of the top quark are included.
#
# - Possible decays of the NLSP in GMSB models are included.
#
#
#         PDG            Width
DECAY         6     1.30618608E+00   # top decays
#          BR         NDA      ID1       ID2
     1.00000000E+00    2           5        24   # BR(t ->  b    W+)
#
#         PDG            Width
DECAY   1000021     1.E-04   # gluino decays (OJ Mods)
#          BR         NDA      ID1       ID2
     2.30080224E-02    2     1000022        21   # BR(~g -> ~chi_10 g)
#          BR         NDA      ID1       ID2
     4.03529780E-02    2     1000039        21   # BR(~g -> ~G      g)
#           BR         NDA      ID1       ID2       ID3
     3.89891495E-01    3     1000022         1        -1   # BR(~g -> ~chi_10 d  db)
     7.80153177E-02    3     1000022         2        -2   # BR(~g -> ~chi_10 u  ub)
     3.89891495E-01    3     1000022         3        -3   # BR(~g -> ~chi_10 s  sb)
     7.80153177E-02    3     1000022         4        -4   # BR(~g -> ~chi_10 c  cb)
     8.25374069E-04    3     1000022         5        -5   # BR(~g -> ~chi_10 b  bb)
#
#         PDG            Width
DECAY   1000006     9.88291068E+01   # stop1 decays
#          BR         NDA      ID1       ID2
     2.03489080E-03    2     1000022         6   # BR(~t_1 -> ~chi_10 t )
     9.97965109E-01    2     1000021         6   # BR(~t_1 -> ~g      t )
#
#         PDG            Width
DECAY   2000006     4.88802111E+03   # stop2 decays
#          BR         NDA      ID1       ID2
     4.28743241E-02    2     1000022         6   # BR(~t_2 -> ~chi_10 t )
     3.16149824E-07    2     1000024         5   # BR(~t_2 -> ~chi_1+ b )
     5.61139573E-01    2     1000021         6   # BR(~t_2 -> ~g      t )
     2.42550197E-02    2     1000006        25   # BR(~t_2 -> ~t_1    h )
     4.75153682E-02    2     1000006        35   # BR(~t_2 -> ~t_1    H )
     5.06113644E-02    2     1000006        36   # BR(~t_2 -> ~t_1    A )
     5.03453762E-02    2     1000005        37   # BR(~t_2 -> ~b_1    H+)
     5.08987228E-02    2     2000005        37   # BR(~t_2 -> ~b_2    H+)
     5.69714223E-02    2     1000006        23   # BR(~t_2 -> ~t_1    Z )
     5.74590113E-02    2     1000005        24   # BR(~t_2 -> ~b_1    W+)
     5.79295017E-02    2     2000005        24   # BR(~t_2 -> ~b_2    W+)
#
#         PDG            Width
DECAY   1000005     9.59535330E+01   # sbottom1 decays
#          BR         NDA      ID1       ID2
     5.05444693E-03    2     1000022         5   # BR(~b_1 -> ~chi_10 b )
     9.94945553E-01    2     1000021         5   # BR(~b_1 -> ~g      b )
#
#         PDG            Width
DECAY   2000005     1.03370749E+02   # sbottom2 decays
#          BR         NDA      ID1       ID2
     5.10429111E-03    2     1000022         5   # BR(~b_2 -> ~chi_10 b )
     9.94304361E-01    2     1000021         5   # BR(~b_2 -> ~g      b )
     5.91347965E-04    2     1000005        23   # BR(~b_2 -> ~b_1    Z )
#
#         PDG            Width
DECAY   1000002     5.91339102E+01   # sup_L decays
#          BR         NDA      ID1       ID2
     3.61795111E-03    2     1000022         2   # BR(~u_L -> ~chi_10 u)
     9.96382049E-01    2     1000021         2   # BR(~u_L -> ~g      u)
#
#         PDG            Width
DECAY   2000002     4.04401529E+03   # sup_R decays
#          BR         NDA      ID1       ID2
     5.18316994E-02    2     1000022         2   # BR(~u_R -> ~chi_10 u)
     6.54937217E-13    2     1000023         2   # BR(~u_R -> ~chi_20 u)
     9.48168301E-01    2     1000021         2   # BR(~u_R -> ~g      u)
#
#         PDG            Width
DECAY   1000001     5.91540791E+01   # sdown_L decays
#          BR         NDA      ID1       ID2
     3.61791198E-03    2     1000022         1   # BR(~d_L -> ~chi_10 d)
     9.96382088E-01    2     1000021         1   # BR(~d_L -> ~g      d)
#
#         PDG            Width
DECAY   2000001     5.97870280E+01   # sdown_R decays
#          BR         NDA      ID1       ID2
     1.43163259E-02    2     1000022         1   # BR(~d_R -> ~chi_10 d)
     9.85683674E-01    2     1000021         1   # BR(~d_R -> ~g      d)
#
#         PDG            Width
DECAY   1000004     5.91339102E+01   # scharm_L decays
#          BR         NDA      ID1       ID2
     3.61795111E-03    2     1000022         4   # BR(~c_L -> ~chi_10 c)
     9.96382049E-01    2     1000021         4   # BR(~c_L -> ~g      c)
#
#         PDG            Width
DECAY   2000004     4.04401529E+03   # scharm_R decays
#          BR         NDA      ID1       ID2
     5.18316994E-02    2     1000022         4   # BR(~c_R -> ~chi_10 c)
     6.54937217E-13    2     1000023         4   # BR(~c_R -> ~chi_20 c)
     9.48168301E-01    2     1000021         4   # BR(~c_R -> ~g      c)
#
#         PDG            Width
DECAY   1000003     5.91540791E+01   # sstrange_L decays
#          BR         NDA      ID1       ID2
     3.61791198E-03    2     1000022         3   # BR(~s_L -> ~chi_10 s)
     9.96382088E-01    2     1000021         3   # BR(~s_L -> ~g      s)
#
#         PDG            Width
DECAY   2000003     5.97870280E+01   # sstrange_R decays
#          BR         NDA      ID1       ID2
     1.43163259E-02    2     1000022         3   # BR(~s_R -> ~chi_10 s)
     9.85683674E-01    2     1000021         3   # BR(~s_R -> ~g      s)
#
#         PDG            Width
DECAY   1000011     1.21660662E+02   # selectron_L decays
#          BR         NDA      ID1       ID2
     9.99988990E-01    2     1000022        11   # BR(~e_L -> ~chi_10 e-)
     3.67137643E-06    2     1000023        11   # BR(~e_L -> ~chi_20 e-)
     3.90083828E-24    2     1000025        11   # BR(~e_L -> ~chi_30 e-)
     7.33877738E-06    2    -1000024        12   # BR(~e_L -> ~chi_1- nu_e)
#
#         PDG            Width
DECAY   2000011     4.86637862E+02   # selectron_R decays
#          BR         NDA      ID1       ID2
     1.00000000E+00    2     1000022        11   # BR(~e_R -> ~chi_10 e-)
     2.34355741E-13    2     1000023        11   # BR(~e_R -> ~chi_20 e-)
     1.18701195E-23    2     1000025        11   # BR(~e_R -> ~chi_30 e-)
#
#         PDG            Width
DECAY   1000013     1.21660662E+02   # smuon_L decays
#          BR         NDA      ID1       ID2
     9.99988990E-01    2     1000022        13   # BR(~mu_L -> ~chi_10 mu-)
     3.67137643E-06    2     1000023        13   # BR(~mu_L -> ~chi_20 mu-)
     3.90083828E-24    2     1000025        13   # BR(~mu_L -> ~chi_30 mu-)
     7.33877738E-06    2    -1000024        14   # BR(~mu_L -> ~chi_1- nu_mu)
#
#         PDG            Width
DECAY   2000013     4.86637862E+02   # smuon_R decays
#          BR         NDA      ID1       ID2
     1.00000000E+00    2     1000022        13   # BR(~mu_R -> ~chi_10 mu-)
     2.34355741E-13    2     1000023        13   # BR(~mu_R -> ~chi_20 mu-)
     1.18701195E-23    2     1000025        13   # BR(~mu_R -> ~chi_30 mu-)
#
#         PDG            Width
DECAY   1000015     3.04161390E+02   # stau_1 decays
#          BR         NDA      ID1       ID2
     9.99997744E-01    2     1000022        15   # BR(~tau_1 -> ~chi_10  tau-)
     7.49888752E-07    2     1000023        15   # BR(~tau_1 -> ~chi_20  tau-)
     1.50022644E-06    2    -1000024        16   # BR(~tau_1 -> ~chi_1-  nu_tau)
     6.20116708E-09    2     1000039        15   # BR(~tau_1 -> ~G       tau-)
#
#         PDG            Width
DECAY   2000015     3.04137131E+02   # stau_2 decays
#          BR         NDA      ID1       ID2
     9.99997851E-01    2     1000022        15   # BR(~tau_2 -> ~chi_10  tau-)
     7.16274454E-07    2     1000023        15   # BR(~tau_2 -> ~chi_20  tau-)
     1.43275503E-06    2    -1000024        16   # BR(~tau_2 -> ~chi_1-  nu_tau)
#
#         PDG            Width
DECAY   1000012     1.21660933E+02   # snu_eL decays
#          BR         NDA      ID1       ID2
     9.99988995E-01    2     1000022        12   # BR(~nu_eL -> ~chi_10 nu_e)
     3.66653531E-06    2     1000023        12   # BR(~nu_eL -> ~chi_20 nu_e)
     7.33877245E-06    2     1000024        11   # BR(~nu_eL -> ~chi_1+ e-)
#
#         PDG            Width
DECAY   1000014     1.21660933E+02   # snu_muL decays
#          BR         NDA      ID1       ID2
     9.99988995E-01    2     1000022        14   # BR(~nu_muL -> ~chi_10 nu_mu)
     3.66653531E-06    2     1000023        14   # BR(~nu_muL -> ~chi_20 nu_mu)
     7.33877245E-06    2     1000024        13   # BR(~nu_muL -> ~chi_1+ mu-)
#
#         PDG            Width
DECAY   1000016     1.21660932E+02   # snu_tauL decays
#          BR         NDA      ID1       ID2
     9.99989000E-01    2     1000022        16   # BR(~nu_tauL -> ~chi_10 nu_tau)
     3.66653533E-06    2     1000023        16   # BR(~nu_tauL -> ~chi_20 nu_tau)
     7.33314991E-06    2     1000024        15   # BR(~nu_tauL -> ~chi_1+ tau-)
#
#         PDG            Width
DECAY   1000024     3.93445709E+03   # chargino1+ decays
#          BR         NDA      ID1       ID2
     1.39004714E-01    2     1000002        -1   # BR(~chi_1+ -> ~u_L     db)
     1.38961868E-01    2    -1000001         2   # BR(~chi_1+ -> ~d_L*    u )
     1.39004714E-01    2     1000004        -3   # BR(~chi_1+ -> ~c_L     sb)
     1.38961868E-01    2    -1000003         4   # BR(~chi_1+ -> ~s_L*    c )
     1.25722539E-01    2     1000006        -5   # BR(~chi_1+ -> ~t_1     bb)
     1.54098572E-01    2    -1000005         6   # BR(~chi_1+ -> ~b_1*    t )
     1.49186028E-01    2    -2000005         6   # BR(~chi_1+ -> ~b_2*    t )
     7.55148854E-03    2     1000022        24   # BR(~chi_1+ -> ~chi_10  W+)
     7.50820734E-03    2     1000022        37   # BR(~chi_1+ -> ~chi_10  H+)
     3.58179701E-10    2     1000039        24   # BR(~chi_1+ -> ~G       W+)
     1.19207347E-10    2     1000039        37   # BR(~chi_1+ -> ~G       H+)
#
#         PDG            Width
DECAY   1000037     3.93869758E+03   # chargino2+ decays
#          BR         NDA      ID1       ID2
     1.39026778E-01    2     1000002        -1   # BR(~chi_2+ -> ~u_L     db)
     1.39069542E-01    2    -1000001         2   # BR(~chi_2+ -> ~d_L*    u )
     1.39026778E-01    2     1000004        -3   # BR(~chi_2+ -> ~c_L     sb)
     1.39069542E-01    2    -1000003         4   # BR(~chi_2+ -> ~s_L*    c )
     1.25397798E-01    2     1000006        -5   # BR(~chi_2+ -> ~t_1     bb)
     9.18505856E-07    2     2000006        -5   # BR(~chi_2+ -> ~t_2     bb)
     1.47727548E-01    2    -1000005         6   # BR(~chi_2+ -> ~b_1*    t )
     1.55039493E-01    2    -2000005         6   # BR(~chi_2+ -> ~b_2*    t )
     1.13274402E-07    2     1000012       -11   # BR(~chi_2+ -> ~nu_eL   e+  )
     1.13274402E-07    2     1000014       -13   # BR(~chi_2+ -> ~nu_muL  mu+ )
     1.13187598E-07    2     1000016       -15   # BR(~chi_2+ -> ~nu_tau1 tau+)
     1.13274568E-07    2    -1000011        12   # BR(~chi_2+ -> ~e_L+    nu_e)
     1.13274568E-07    2    -1000013        14   # BR(~chi_2+ -> ~mu_L+   nu_mu)
     5.52785924E-08    2    -1000015        16   # BR(~chi_2+ -> ~tau_1+  nu_tau)
     5.78987652E-08    2    -2000015        16   # BR(~chi_2+ -> ~tau_2+  nu_tau)
     2.90003227E-04    2     1000024        23   # BR(~chi_2+ -> ~chi_1+  Z )
     7.53362155E-03    2     1000022        24   # BR(~chi_2+ -> ~chi_10  W+)
     3.31427960E-04    2     1000023        24   # BR(~chi_2+ -> ~chi_20  W+)
     1.56875342E-12    2     1000024        25   # BR(~chi_2+ -> ~chi_1+  h )
     7.48586897E-03    2     1000022        37   # BR(~chi_2+ -> ~chi_10  H+)
     3.60573190E-10    2     1000039        24   # BR(~chi_2+ -> ~G       W+)
     1.19985591E-10    2     1000039        37   # BR(~chi_2+ -> ~G       H+)
#
#         PDG            Width
DECAY   1000022     1.E-08   # neutralino1 decays (OJ Mods)
#          BR         NDA      ID1       ID2
     7.58358330E-01    2     1000039        22   # BR(~chi_10 -> ~G        gam)
     2.41641670E-01    2     1000039        23   # BR(~chi_10 -> ~G        Z)
     1.63392490E-10    2     1000039        25   # BR(~chi_10 -> ~G        h)
#
#         PDG            Width
DECAY   1000023     1.E-08   # neutralino2 decays (OJ Mods)
#          BR         NDA      ID1       ID2
     2.81806268E-04    2     1000022        23   # BR(~chi_20 -> ~chi_10   Z )
     7.80133353E-03    2     1000022        25   # BR(~chi_20 -> ~chi_10   h )
     1.81017115E-04    2     1000022        35   # BR(~chi_20 -> ~chi_10   H )
     7.19694210E-03    2     1000022        36   # BR(~chi_20 -> ~chi_10   A )
     6.72941761E-02    2     1000002        -2   # BR(~chi_20 -> ~u_L      ub)
     6.72941761E-02    2    -1000002         2   # BR(~chi_20 -> ~u_L*     u )
     6.72714883E-02    2     1000001        -1   # BR(~chi_20 -> ~d_L      db)
     6.72714883E-02    2    -1000001         1   # BR(~chi_20 -> ~d_L*     d )
     1.90978125E-09    2     2000001        -1   # BR(~chi_20 -> ~d_R      db)
     1.90978125E-09    2    -2000001         1   # BR(~chi_20 -> ~d_R*     d )
     6.72941761E-02    2     1000004        -4   # BR(~chi_20 -> ~c_L      cb)
     6.72941761E-02    2    -1000004         4   # BR(~chi_20 -> ~c_L*     c )
     6.72714883E-02    2     1000003        -3   # BR(~chi_20 -> ~s_L      sb)
     6.72714883E-02    2    -1000003         3   # BR(~chi_20 -> ~s_L*     s )
     1.90978125E-09    2     2000003        -3   # BR(~chi_20 -> ~s_R      sb)
     1.90978125E-09    2    -2000003         3   # BR(~chi_20 -> ~s_R*     s )
     1.51606884E-01    2     1000006        -6   # BR(~chi_20 -> ~t_1      tb)
     1.51606884E-01    2    -1000006         6   # BR(~chi_20 -> ~t_1*     t )
     3.28141072E-02    2     1000005        -5   # BR(~chi_20 -> ~b_1      bb)
     3.28141072E-02    2    -1000005         5   # BR(~chi_20 -> ~b_1*     b )
     2.99619153E-02    2     2000005        -5   # BR(~chi_20 -> ~b_2      bb)
     2.99619153E-02    2    -2000005         5   # BR(~chi_20 -> ~b_2*     b )
     5.83550668E-11    2     1000039        22   # BR(~chi_20 -> ~G        gam)
     2.95107038E-10    2     1000039        23   # BR(~chi_20 -> ~G        Z)
     2.69737871E-12    2     1000039        25   # BR(~chi_20 -> ~G        h)
     1.16447368E-10    2     1000039        35   # BR(~chi_20 -> ~G        H)
     4.58591514E-12    2     1000039        36   # BR(~chi_20 -> ~G        A)
#
#         PDG            Width
DECAY   1000025     1.51798655E+03   # neutralino3 decays
#          BR         NDA      ID1       ID2
     3.89984359E-02    2     1000022        23   # BR(~chi_30 -> ~chi_10   Z )
     8.78333231E-04    2     1000022        25   # BR(~chi_30 -> ~chi_10   h )
     3.79088721E-02    2     1000022        35   # BR(~chi_30 -> ~chi_10   H )
     1.58980392E-03    2     1000022        36   # BR(~chi_30 -> ~chi_10   A )
     1.28511014E-09    2     1000002        -2   # BR(~chi_30 -> ~u_L      ub)
     1.28511014E-09    2    -1000002         2   # BR(~chi_30 -> ~u_L*     u )
     2.29134335E-17    2     2000002        -2   # BR(~chi_30 -> ~u_R      ub)
     2.29134335E-17    2    -2000002         2   # BR(~chi_30 -> ~u_R*     u )
     3.03853162E-09    2     1000001        -1   # BR(~chi_30 -> ~d_L      db)
     3.03853162E-09    2    -1000001         1   # BR(~chi_30 -> ~d_L*     d )
     3.71504427E-10    2     2000001        -1   # BR(~chi_30 -> ~d_R      db)
     3.71504427E-10    2    -2000001         1   # BR(~chi_30 -> ~d_R*     d )
     1.28511014E-09    2     1000004        -4   # BR(~chi_30 -> ~c_L      cb)
     1.28511014E-09    2    -1000004         4   # BR(~chi_30 -> ~c_L*     c )
     2.29134335E-17    2     2000004        -4   # BR(~chi_30 -> ~c_R      cb)
     2.29134335E-17    2    -2000004         4   # BR(~chi_30 -> ~c_R*     c )
     3.03853162E-09    2     1000003        -3   # BR(~chi_30 -> ~s_L      sb)
     3.03853162E-09    2    -1000003         3   # BR(~chi_30 -> ~s_L*     s )
     3.71504427E-10    2     2000003        -3   # BR(~chi_30 -> ~s_R      sb)
     3.71504427E-10    2    -2000003         3   # BR(~chi_30 -> ~s_R*     s )
     4.59973866E-01    2     1000006        -6   # BR(~chi_30 -> ~t_1      tb)
     4.59973866E-01    2    -1000006         6   # BR(~chi_30 -> ~t_1*     t )
     1.67759614E-04    2     1000005        -5   # BR(~chi_30 -> ~b_1      bb)
     1.67759614E-04    2    -1000005         5   # BR(~chi_30 -> ~b_1*     b )
     1.70641137E-04    2     2000005        -5   # BR(~chi_30 -> ~b_2      bb)
     1.70641137E-04    2    -2000005         5   # BR(~chi_30 -> ~b_2*     b )
     7.56246544E-23    2     1000012       -12   # BR(~chi_30 -> ~nu_eL    nu_eb)
     7.56246544E-23    2    -1000012        12   # BR(~chi_30 -> ~nu_eL*   nu_e )
     7.56246544E-23    2     1000014       -14   # BR(~chi_30 -> ~nu_muL   nu_mub)
     7.56246544E-23    2    -1000014        14   # BR(~chi_30 -> ~nu_muL*  nu_mu )
     7.56246544E-23    2     1000016       -16   # BR(~chi_30 -> ~nu_tau1  nu_taub)
     7.56246544E-23    2    -1000016        16   # BR(~chi_30 -> ~nu_tau1* nu_tau )
     1.68638661E-18    2     1000039        22   # BR(~chi_30 -> ~G        gam)
     2.38964789E-11    2     1000039        23   # BR(~chi_30 -> ~G        Z)
     6.07248131E-10    2     1000039        25   # BR(~chi_30 -> ~G        h)
     1.40355662E-11    2     1000039        35   # BR(~chi_30 -> ~G        H)
     5.96458340E-10    2     1000039        36   # BR(~chi_30 -> ~G        A)
#
#         PDG            Width
DECAY   1000035     3.93993696E+03   # neutralino4 decays
#          BR         NDA      ID1       ID2
     2.82450574E-04    2     1000022        23   # BR(~chi_40 -> ~chi_10   Z )
     1.10467707E-18    2     1000023        23   # BR(~chi_40 -> ~chi_20   Z )
     3.31248919E-04    2     1000024       -24   # BR(~chi_40 -> ~chi_1+   W-)
     3.31248919E-04    2    -1000024        24   # BR(~chi_40 -> ~chi_1-   W+)
     7.78383426E-03    2     1000022        25   # BR(~chi_40 -> ~chi_10   h )
     1.79504719E-04    2     1000022        35   # BR(~chi_40 -> ~chi_10   H )
     7.17920856E-03    2     1000022        36   # BR(~chi_40 -> ~chi_10   A )
     5.01417328E-12    2     1000023        25   # BR(~chi_40 -> ~chi_20   h )
     6.72930603E-02    2     1000002        -2   # BR(~chi_40 -> ~u_L      ub)
     6.72930603E-02    2    -1000002         2   # BR(~chi_40 -> ~u_L*     u )
     1.99244025E-12    2     2000002        -2   # BR(~chi_40 -> ~u_R      ub)
     1.99244025E-12    2    -2000002         2   # BR(~chi_40 -> ~u_R*     u )
     6.73156928E-02    2     1000001        -1   # BR(~chi_40 -> ~d_L      db)
     6.73156928E-02    2    -1000001         1   # BR(~chi_40 -> ~d_L*     d )
     1.90544556E-09    2     2000001        -1   # BR(~chi_40 -> ~d_R      db)
     1.90544556E-09    2    -2000001         1   # BR(~chi_40 -> ~d_R*     d )
     6.72930603E-02    2     1000004        -4   # BR(~chi_40 -> ~c_L      cb)
     6.72930603E-02    2    -1000004         4   # BR(~chi_40 -> ~c_L*     c )
     1.99244025E-12    2     2000004        -4   # BR(~chi_40 -> ~c_R      cb)
     1.99244025E-12    2    -2000004         4   # BR(~chi_40 -> ~c_R*     c )
     6.73156928E-02    2     1000003        -3   # BR(~chi_40 -> ~s_L      sb)
     6.73156928E-02    2    -1000003         3   # BR(~chi_40 -> ~s_L*     s )
     1.90544556E-09    2     2000003        -3   # BR(~chi_40 -> ~s_R      sb)
     1.90544556E-09    2    -2000003         3   # BR(~chi_40 -> ~s_R*     s )
     1.51158334E-01    2     1000006        -6   # BR(~chi_40 -> ~t_1      tb)
     1.51158334E-01    2    -1000006         6   # BR(~chi_40 -> ~t_1*     t )
     2.97804080E-02    2     1000005        -5   # BR(~chi_40 -> ~b_1      bb)
     2.97804080E-02    2    -1000005         5   # BR(~chi_40 -> ~b_1*     b )
     3.30412649E-02    2     2000005        -5   # BR(~chi_40 -> ~b_2      bb)
     3.30412649E-02    2    -2000005         5   # BR(~chi_40 -> ~b_2*     b )
     5.65886906E-08    2     1000011       -11   # BR(~chi_40 -> ~e_L-     e+)
     5.65886906E-08    2    -1000011        11   # BR(~chi_40 -> ~e_L+     e-)
     1.44259576E-14    2     2000011       -11   # BR(~chi_40 -> ~e_R-     e+)
     1.44259576E-14    2    -2000011        11   # BR(~chi_40 -> ~e_R+     e-)
     5.65886906E-08    2     1000013       -13   # BR(~chi_40 -> ~mu_L-    mu+)
     5.65886906E-08    2    -1000013        13   # BR(~chi_40 -> ~mu_L+    mu-)
     1.44259576E-14    2     2000013       -13   # BR(~chi_40 -> ~mu_R-    mu+)
     1.44259576E-14    2    -2000013        13   # BR(~chi_40 -> ~mu_R+    mu-)
     2.75945675E-08    2     1000015       -15   # BR(~chi_40 -> ~tau_1-   tau+)
     2.75945675E-08    2    -1000015        15   # BR(~chi_40 -> ~tau_1+   tau-)
     2.89021790E-08    2     2000015       -15   # BR(~chi_40 -> ~tau_2-   tau+)
     2.89021790E-08    2    -2000015        15   # BR(~chi_40 -> ~tau_2+   tau-)
     5.66632082E-08    2     1000012       -12   # BR(~chi_40 -> ~nu_eL    nu_eb)
     5.66632082E-08    2    -1000012        12   # BR(~chi_40 -> ~nu_eL*   nu_e )
     5.66632082E-08    2     1000014       -14   # BR(~chi_40 -> ~nu_muL   nu_mub)
     5.66632082E-08    2    -1000014        14   # BR(~chi_40 -> ~nu_muL*  nu_mu )
     5.66632082E-08    2     1000016       -16   # BR(~chi_40 -> ~nu_tau1  nu_taub)
     5.66632082E-08    2    -1000016        16   # BR(~chi_40 -> ~nu_tau1* nu_tau )
     5.85506888E-11    2     1000039        22   # BR(~chi_40 -> ~G        gam)
     2.97269610E-10    2     1000039        23   # BR(~chi_40 -> ~G        Z)
     2.72169281E-12    2     1000039        25   # BR(~chi_40 -> ~G        h)
     1.17254569E-10    2     1000039        35   # BR(~chi_40 -> ~G        H)
     4.61081623E-12    2     1000039        36   # BR(~chi_40 -> ~G        A)
#
#
#
#
