#
#                              ======================
#                              | THE SUSYHIT OUTPUT |
#                              ======================
#
#
#              ------------------------------------------------------
#              |     This is the output of the SUSY-HIT package     |
#              |  created by A.Djouadi, M.Muehlleitner and M.Spira. |
#              |  In case of problems with SUSY-HIT email to        |
#              |           margarete.muehlleitner@cern.ch           |
#              |           michael.spira@psi.ch                     |
#              |           abdelhak.djouadi@cern.ch                 |
#              ------------------------------------------------------
#
#              ------------------------------------------------------
#              |  SUSY Les Houches Accord - MSSM Spectrum + Decays  |
#              |              based on the decay programs           |
#              |                                                    |
#              |                     SDECAY 1.3b                    |
#              |                                                    |
#              |  Authors: M.Muhlleitner, A.Djouadi and Y.Mambrini  |
#              |  Ref.:    Comput.Phys.Commun.168(2005)46           |
#              |           [hep-ph/0311167]                         |
#              |                                                    |
#              |                     HDECAY 3.4                     |
#              |                                                    |
#              |  By: A.Djouadi,J.Kalinowski,M.Muhlleitner,M.Spira  |
#              |  Ref.:    Comput.Phys.Commun.108(1998)56           |
#              |           [hep-ph/9704448]                         |
#              |                                                    |
#              |                                                    |
#              |  If not stated otherwise all DRbar couplings and   |
#              |  soft SUSY breaking masses are given at the scale  |
#              |  Q=  0.50007718E+04
#              |                                                    |
#              ------------------------------------------------------
#
#
BLOCK DCINFO  # Decay Program information
     1   SDECAY/HDECAY # decay calculator
     2   1.3b  /3.4    # version number
#
BLOCK SPINFO  # Spectrum calculator information
     1    SOFTSUSY    # spectrum calculator                
     2    3.4.0       # version number                     
#
BLOCK MODSEL  # Model selection
     1     0   #  nonUniversal                                     
#
BLOCK SMINPUTS  # Standard Model inputs
         1     1.25778332E+02   # alpha_em^-1(M_Z)^MSbar
         2     1.16570000E-05   # G_F [GeV^-2]
         3     1.17200002E-01   # alpha_S(M_Z)^MSbar
         4     9.11876000E+01   # M_Z pole mass
         5     4.25000000E+00   # mb(mb)^MSbar
         6     1.72500000E+02   # mt pole mass
         7     1.77682000E+00   # mtau pole mass
#
BLOCK MINPAR  # Input parameters - minimal models
         3     1.00000000E+01   # tanb                
#
BLOCK EXTPAR  # Input parameters - non-minimal models
         0    -1.00000000E+00   # Set                 
         1     6.00000000E+01   # M_1(MX)             
         2     3.00000000E+03   # M_2(MX)             
         3     1.66796600E+03   # M_3(MX)             
        11     5.00000000E+03   # At(MX)              
        12     5.00000000E+03   # Ab(MX)              
        13     0.00000000E+00   # Atau(MX)            
        23    -1.87279000E+02   # mu(MX)              
        26     3.00000000E+03   # mA(pole)            
        31     5.00000000E+03   # meL(MX)             
        32     5.00000000E+03   # mmuL(MX)            
        33     5.00000000E+03   # mtauL(MX)           
        34     5.00000000E+03   # meR(MX)             
        35     5.00000000E+03   # mmuR(MX)            
        36     5.00000000E+03   # mtauR(MX)           
        41     5.00000000E+03   # mqL1(MX)            
        42     5.00000000E+03   # mqL2(MX)            
        43     5.00000000E+03   # mqL3(MX)            
        44     5.00000000E+03   # muR(MX)             
        45     5.00000000E+03   # mcR(MX)             
        46     5.00000000E+03   # mtR(MX)             
        47     5.00000000E+03   # mdR(MX)             
        48     5.00000000E+03   # msR(MX)             
        49     5.00000000E+03   # mbR(MX)             
#
BLOCK MASS  # Mass Spectrum
# PDG code           mass       particle
        24     8.00906982E+01   # W+
        25     1.24747181E+02   # h
        35     3.00009100E+03   # H
        36     2.99999978E+03   # A
        37     3.00148193E+03   # H+
         5     4.87878001E+00   # b-quark pole mass calculated from mb(mb)_Msbar
   1000001     5.07202171E+03   # ~d_L
   2000001     5.05412211E+03   # ~d_R
   1000002     5.07154600E+03   # ~u_L
   2000002     5.05381171E+03   # ~u_R
   1000003     5.07202171E+03   # ~s_L
   2000003     5.05412211E+03   # ~s_R
   1000004     5.07154600E+03   # ~c_L
   2000004     5.05381171E+03   # ~c_R
   1000005     5.01807889E+03   # ~b_1
   2000005     5.05220631E+03   # ~b_2
   1000006     4.90925208E+03   # ~t_1
   2000006     5.06146915E+03   # ~t_2
   1000011     5.01916426E+03   # ~e_L
   2000011     5.00596037E+03   # ~e_R
   1000012     5.01821151E+03   # ~nu_eL
   1000013     5.01916426E+03   # ~mu_L
   2000013     5.00596037E+03   # ~mu_R
   1000014     5.01821151E+03   # ~nu_muL
   1000015     5.00483295E+03   # ~tau_1
   2000015     5.01862962E+03   # ~tau_2
   1000016     5.01765656E+03   # ~nu_tauL
   1000021     2.00000074E+03   # ~g
   1000022     5.87058462E+01   # ~chi_10
   1000023     2.04232341E+02   # ~chi_20
   1000025    -2.05083550E+02   # ~chi_30
   1000035     3.07431135E+03   # ~chi_40
   1000024     2.00000103E+02   # ~chi_1+
   1000037     3.07447950E+03   # ~chi_2+
#
BLOCK NMIX  # Neutralino Mixing Matrix
  1  1     9.72112003E-01   # N_11
  1  2    -5.01236694E-04   # N_12
  1  3    -2.30092093E-01   # N_13
  1  4    -4.53390630E-02   # N_14
  2  1     1.94545858E-01   # N_21
  2  2     1.71137938E-02   # N_22
  2  3     6.83258534E-01   # N_23
  2  4     7.03574305E-01   # N_24
  3  1    -1.30957990E-01   # N_31
  3  2     1.85837827E-02   # N_32
  3  3    -6.92974934E-01   # N_33
  3  4     7.08724480E-01   # N_34
  4  1    -4.08595126E-04   # N_41
  4  2     9.99680704E-01   # N_42
  4  3     1.06996095E-03   # N_43
  4  4    -2.52423927E-02   # N_44
#
BLOCK UMIX  # Chargino Mixing Matrix U
  1  1    -1.50920965E-03   # U_11
  1  2     9.99998861E-01   # U_12
  2  1    -9.99998861E-01   # U_21
  2  2    -1.50920965E-03   # U_22
#
BLOCK VMIX  # Chargino Mixing Matrix V
  1  1     3.57078771E-02   # V_11
  1  2    -9.99362270E-01   # V_12
  2  1    -9.99362270E-01   # V_21
  2  2    -3.57078771E-02   # V_22
#
BLOCK STOPMIX  # Stop Mixing Matrix
  1  1    -5.02363014E-01   # cos(theta_t)
  1  2     8.64656812E-01   # sin(theta_t)
  2  1    -8.64656812E-01   # -sin(theta_t)
  2  2    -5.02363014E-01   # cos(theta_t)
#
BLOCK SBOTMIX  # Sbottom Mixing Matrix
  1  1     9.99399297E-01   # cos(theta_b)
  1  2    -3.46560984E-02   # sin(theta_b)
  2  1     3.46560984E-02   # -sin(theta_b)
  2  2     9.99399297E-01   # cos(theta_b)
#
BLOCK STAUMIX  # Stau Mixing Matrix
  1  1    -2.21873996E-02   # cos(theta_tau)
  1  2     9.99753829E-01   # sin(theta_tau)
  2  1    -9.99753829E-01   # -sin(theta_tau)
  2  2    -2.21873996E-02   # cos(theta_tau)
#
BLOCK ALPHA  # Higgs mixing
          -1.05493465E-01   # Mixing angle in the neutral Higgs boson sector
#
BLOCK HMIX Q=  5.00077184E+03  # DRbar Higgs Parameters
         1    -1.90687582E+02   # mu(Q)MSSM           
         2     9.46885574E+00   # tan                 
         3     2.41665958E+02   # higgs               
         4     8.78980908E+06   # mA^2(Q)MSSM         
#
BLOCK GAUGE Q=  5.00077184E+03  # The gauge couplings
     1     3.71159323E-01   # gprime(Q) DRbar
     2     6.34359313E-01   # g(Q) DRbar
     3     9.98508758E-01   # g3(Q) DRbar
#
BLOCK AU Q=  5.00077184E+03  # The trilinear couplings
  1  1     5.00000001E+03   # A_u(Q) DRbar
  2  2     5.00000001E+03   # A_c(Q) DRbar
  3  3     5.00000002E+03   # A_t(Q) DRbar
#
BLOCK AD Q=  5.00077184E+03  # The trilinear couplings
  1  1     5.00000001E+03   # A_d(Q) DRbar
  2  2     5.00000001E+03   # A_s(Q) DRbar
  3  3     5.00000001E+03   # A_b(Q) DRbar
#
BLOCK AE Q=  5.00077184E+03  # The trilinear couplings
  1  1     0.00000000E+00   # A_e(Q) DRbar
  2  2     1.71245282E-07   # A_mu(Q) DRbar
  3  3     1.70868714E-07   # A_tau(Q) DRbar
#
BLOCK Yu Q=  5.00077184E+03  # The Yukawa couplings
  1  1     0.00000000E+00   # y_u(Q) DRbar
  2  2     0.00000000E+00   # y_c(Q) DRbar
  3  3     8.20487271E-01   # y_t(Q) DRbar
#
BLOCK Yd Q=  5.00077184E+03  # The Yukawa couplings
  1  1     0.00000000E+00   # y_d(Q) DRbar
  2  2     0.00000000E+00   # y_s(Q) DRbar
  3  3     1.29753954E-01   # y_b(Q) DRbar
#
BLOCK Ye Q=  5.00077184E+03  # The Yukawa couplings
  1  1     0.00000000E+00   # y_e(Q) DRbar
  2  2     0.00000000E+00   # y_mu(Q) DRbar
  3  3     9.73521257E-02   # y_tau(Q) DRbar
#
BLOCK MSOFT Q=  5.00077184E+03  # The soft SUSY breaking masses at the scale Q
         1     6.00000000E+01   # M_1(Q)              
         2     3.00000000E+03   # M_2(Q)              
         3     1.66796600E+03   # M_3(Q)              
        21     8.69781453E+06   # mH1^2(Q)            
        22     5.43229011E+05   # mH2^2(Q)            
        31     5.00000000E+03   # meL(Q)              
        32     5.00000000E+03   # mmuL(Q)             
        33     5.00000000E+03   # mtauL(Q)            
        34     5.00000000E+03   # meR(Q)              
        35     5.00000000E+03   # mmuR(Q)             
        36     5.00000000E+03   # mtauR(Q)            
        41     5.00000000E+03   # mqL1(Q)             
        42     5.00000000E+03   # mqL2(Q)             
        43     5.00000000E+03   # mqL3(Q)             
        44     5.00000000E+03   # muR(Q)              
        45     5.00000000E+03   # mcR(Q)              
        46     4.99999999E+03   # mtR(Q)              
        47     5.00000000E+03   # mdR(Q)              
        48     5.00000000E+03   # msR(Q)              
        49     5.00000000E+03   # mbR(Q)              
#
#
#
#                             =================
#                             |The decay table|
#                             =================
#
# - The QCD corrections to the decays gluino -> squark  + quark
#                                     squark -> gaugino + quark_prime
#                                     squark -> squark_prime + Higgs
#                                     squark -> gluino  + quark
#   are included.
#
# - The multi-body decays for the inos, stops and sbottoms are included.
#
# - The loop induced decays for the gluino, neutralinos and stops
#   are included.
#
# - The SUSY decays of the top quark are included.
#
#
#         PDG            Width
DECAY         6     1.41037639E+00   # top decays
#          BR         NDA      ID1       ID2
     1.00000000E+00    2           5        24   # BR(t ->  b    W+)
#
#         PDG            Width
DECAY   1000021     2.52879149E-03   # gluino decays
#          BR         NDA      ID1       ID2
     2.04318771E-05    2     1000022        21   # BR(~g -> ~chi_10 g)
     6.15077748E-03    2     1000023        21   # BR(~g -> ~chi_20 g)
     5.99582007E-03    2     1000025        21   # BR(~g -> ~chi_30 g)
#           BR         NDA      ID1       ID2       ID3
     8.76756390E-03    3     1000022         1        -1   # BR(~g -> ~chi_10 d  db)
     3.12737873E-04    3     1000023         1        -1   # BR(~g -> ~chi_20 d  db)
     1.61955073E-04    3     1000025         1        -1   # BR(~g -> ~chi_30 d  db)
     2.98407650E-02    3     1000022         2        -2   # BR(~g -> ~chi_10 u  ub)
     1.31584974E-03    3     1000023         2        -2   # BR(~g -> ~chi_20 u  ub)
     3.75214218E-04    3     1000025         2        -2   # BR(~g -> ~chi_30 u  ub)
     8.76756390E-03    3     1000022         3        -3   # BR(~g -> ~chi_10 s  sb)
     3.12737873E-04    3     1000023         3        -3   # BR(~g -> ~chi_20 s  sb)
     1.61955073E-04    3     1000025         3        -3   # BR(~g -> ~chi_30 s  sb)
     2.98407650E-02    3     1000022         4        -4   # BR(~g -> ~chi_10 c  cb)
     1.31584974E-03    3     1000023         4        -4   # BR(~g -> ~chi_20 c  cb)
     3.75214218E-04    3     1000025         4        -4   # BR(~g -> ~chi_30 c  cb)
     9.54473994E-03    3     1000022         5        -5   # BR(~g -> ~chi_10 b  bb)
     5.42490502E-03    3     1000023         5        -5   # BR(~g -> ~chi_20 b  bb)
     5.42470883E-03    3     1000025         5        -5   # BR(~g -> ~chi_30 b  bb)
     2.74448551E-02    3     1000022         6        -6   # BR(~g -> ~chi_10 t  tb)
     2.14440085E-01    3     1000023         6        -6   # BR(~g -> ~chi_20 t  tb)
     1.99839301E-01    3     1000025         6        -6   # BR(~g -> ~chi_30 t  tb)
     5.37576652E-05    3     1000024         1        -2   # BR(~g -> ~chi_1+ d  ub)
     5.37576652E-05    3    -1000024         2        -1   # BR(~g -> ~chi_1- u  db)
     5.37576652E-05    3     1000024         3        -4   # BR(~g -> ~chi_1+ s  cb)
     5.37576652E-05    3    -1000024         4        -3   # BR(~g -> ~chi_1- c  sb)
     2.21975587E-01    3     1000024         5        -6   # BR(~g -> ~chi_1+ b  tb)
     2.21975587E-01    3    -1000024         6        -5   # BR(~g -> ~chi_1- t  bb)
#
#         PDG            Width
DECAY   1000006     3.50999861E+02   # stop1 decays
#          BR         NDA      ID1       ID2
     2.21126242E-02    2     1000022         6   # BR(~t_1 -> ~chi_10 t )
     9.98376673E-02    2     1000023         6   # BR(~t_1 -> ~chi_20 t )
     8.85098103E-02    2     1000025         6   # BR(~t_1 -> ~chi_30 t )
     5.77041685E-03    2     1000035         6   # BR(~t_1 -> ~chi_40 t )
     1.38498605E-01    2     1000024         5   # BR(~t_1 -> ~chi_1+ b )
     1.15038107E-02    2     1000037         5   # BR(~t_1 -> ~chi_2+ b )
     6.33767065E-01    2     1000021         6   # BR(~t_1 -> ~g      t )
#
#         PDG            Width
DECAY   2000006     3.54826419E+02   # stop2 decays
#          BR         NDA      ID1       ID2
     1.19339835E-02    2     1000022         6   # BR(~t_2 -> ~chi_10 t )
     8.90501983E-02    2     1000023         6   # BR(~t_2 -> ~chi_20 t )
     1.02511327E-01    2     1000025         6   # BR(~t_2 -> ~chi_30 t )
     1.59061405E-02    2     1000035         6   # BR(~t_2 -> ~chi_40 t )
     5.50492102E-02    2     1000024         5   # BR(~t_2 -> ~chi_1+ b )
     3.16762858E-02    2     1000037         5   # BR(~t_2 -> ~chi_2+ b )
     6.90504416E-01    2     1000021         6   # BR(~t_2 -> ~g      t )
     7.84333503E-04    2     1000006        25   # BR(~t_2 -> ~t_1    h )
     2.58410535E-03    2     1000006        23   # BR(~t_2 -> ~t_1    Z )
#
#         PDG            Width
DECAY   1000005     3.29872875E+02   # sbottom1 decays
#          BR         NDA      ID1       ID2
     2.55491844E-03    2     1000022         5   # BR(~b_1 -> ~chi_10 b )
     2.33668869E-03    2     1000023         5   # BR(~b_1 -> ~chi_20 b )
     2.49369789E-03    2     1000025         5   # BR(~b_1 -> ~chi_30 b )
     2.31060010E-02    2     1000035         5   # BR(~b_1 -> ~chi_40 b )
     2.03652229E-01    2    -1000024         6   # BR(~b_1 -> ~chi_1- t )
     4.63855323E-02    2    -1000037         6   # BR(~b_1 -> ~chi_2- t )
     7.17807610E-01    2     1000021         5   # BR(~b_1 -> ~g      b )
     1.66332271E-03    2     1000006       -24   # BR(~b_1 -> ~t_1    W-)
#
#         PDG            Width
DECAY   2000005     2.45812143E+02   # sbottom2 decays
#          BR         NDA      ID1       ID2
     1.16107972E-02    2     1000022         5   # BR(~b_2 -> ~chi_10 b )
     3.77991951E-03    2     1000023         5   # BR(~b_2 -> ~chi_20 b )
     3.62217945E-03    2     1000025         5   # BR(~b_2 -> ~chi_30 b )
     3.22811713E-05    2     1000035         5   # BR(~b_2 -> ~chi_40 b )
     7.18304414E-03    2    -1000024         6   # BR(~b_2 -> ~chi_1- t )
     6.48273694E-05    2    -1000037         6   # BR(~b_2 -> ~chi_2- t )
     9.73695933E-01    2     1000021         5   # BR(~b_2 -> ~g      b )
     1.10178502E-05    2     1000006       -24   # BR(~b_2 -> ~t_1    W-)
#
#         PDG            Width
DECAY   1000002     2.65357214E+02   # sup_L decays
#          BR         NDA      ID1       ID2
     2.64828393E-03    2     1000022         2   # BR(~u_L -> ~chi_10 u)
     2.23918536E-04    2     1000023         2   # BR(~u_L -> ~chi_20 u)
     3.57537061E-06    2     1000025         2   # BR(~u_L -> ~chi_30 u)
     2.97818254E-02    2     1000035         2   # BR(~u_L -> ~chi_40 u)
     1.88403189E-04    2     1000024         1   # BR(~u_L -> ~chi_1+ d)
     5.95276889E-02    2     1000037         1   # BR(~u_L -> ~chi_2+ d)
     9.07626305E-01    2     1000021         2   # BR(~u_L -> ~g      u)
#
#         PDG            Width
DECAY   2000002     2.51299249E+02   # sup_R decays
#          BR         NDA      ID1       ID2
     4.48212401E-02    2     1000022         2   # BR(~u_R -> ~chi_10 u)
     1.79035820E-03    2     1000023         2   # BR(~u_R -> ~chi_20 u)
     8.11239135E-04    2     1000025         2   # BR(~u_R -> ~chi_30 u)
     3.16081739E-09    2     1000035         2   # BR(~u_R -> ~chi_40 u)
     9.52577159E-01    2     1000021         2   # BR(~u_R -> ~g      u)
#
#         PDG            Width
DECAY   1000001     2.65370398E+02   # sdown_L decays
#          BR         NDA      ID1       ID2
     2.67655946E-03    2     1000022         1   # BR(~d_L -> ~chi_10 d)
     3.20494217E-05    2     1000023         1   # BR(~d_L -> ~chi_20 d)
     1.43829484E-04    2     1000025         1   # BR(~d_L -> ~chi_30 d)
     2.97990870E-02    2     1000035         1   # BR(~d_L -> ~chi_40 d)
     3.36572930E-07    2    -1000024         2   # BR(~d_L -> ~chi_1- u)
     5.96190865E-02    2    -1000037         2   # BR(~d_L -> ~chi_2- u)
     9.07729051E-01    2     1000021         1   # BR(~d_L -> ~g      d)
#
#         PDG            Width
DECAY   2000001     2.42387064E+02   # sdown_R decays
#          BR         NDA      ID1       ID2
     1.16180336E-02    2     1000022         1   # BR(~d_R -> ~chi_10 d)
     4.64075699E-04    2     1000023         1   # BR(~d_R -> ~chi_20 d)
     2.10279915E-04    2     1000025         1   # BR(~d_R -> ~chi_30 d)
     8.19426648E-10    2     1000035         1   # BR(~d_R -> ~chi_40 d)
     9.87707610E-01    2     1000021         1   # BR(~d_R -> ~g      d)
#
#         PDG            Width
DECAY   1000004     2.65357214E+02   # scharm_L decays
#          BR         NDA      ID1       ID2
     2.64828393E-03    2     1000022         4   # BR(~c_L -> ~chi_10 c)
     2.23918536E-04    2     1000023         4   # BR(~c_L -> ~chi_20 c)
     3.57537061E-06    2     1000025         4   # BR(~c_L -> ~chi_30 c)
     2.97818254E-02    2     1000035         4   # BR(~c_L -> ~chi_40 c)
     1.88403189E-04    2     1000024         3   # BR(~c_L -> ~chi_1+ s)
     5.95276889E-02    2     1000037         3   # BR(~c_L -> ~chi_2+ s)
     9.07626305E-01    2     1000021         4   # BR(~c_L -> ~g      c)
#
#         PDG            Width
DECAY   2000004     2.51299249E+02   # scharm_R decays
#          BR         NDA      ID1       ID2
     4.48212401E-02    2     1000022         4   # BR(~c_R -> ~chi_10 c)
     1.79035820E-03    2     1000023         4   # BR(~c_R -> ~chi_20 c)
     8.11239135E-04    2     1000025         4   # BR(~c_R -> ~chi_30 c)
     3.16081739E-09    2     1000035         4   # BR(~c_R -> ~chi_40 c)
     9.52577159E-01    2     1000021         4   # BR(~c_R -> ~g      c)
#
#         PDG            Width
DECAY   1000003     2.65370398E+02   # sstrange_L decays
#          BR         NDA      ID1       ID2
     2.67655946E-03    2     1000022         3   # BR(~s_L -> ~chi_10 s)
     3.20494217E-05    2     1000023         3   # BR(~s_L -> ~chi_20 s)
     1.43829484E-04    2     1000025         3   # BR(~s_L -> ~chi_30 s)
     2.97990870E-02    2     1000035         3   # BR(~s_L -> ~chi_40 s)
     3.36572930E-07    2    -1000024         4   # BR(~s_L -> ~chi_1- c)
     5.96190865E-02    2    -1000037         4   # BR(~s_L -> ~chi_2- c)
     9.07729051E-01    2     1000021         3   # BR(~s_L -> ~g      s)
#
#         PDG            Width
DECAY   2000003     2.42387064E+02   # sstrange_R decays
#          BR         NDA      ID1       ID2
     1.16180336E-02    2     1000022         3   # BR(~s_R -> ~chi_10 s)
     4.64075699E-04    2     1000023         3   # BR(~s_R -> ~chi_20 s)
     2.10279915E-04    2     1000025         3   # BR(~s_R -> ~chi_30 s)
     8.19426648E-10    2     1000035         3   # BR(~s_R -> ~chi_40 s)
     9.87707610E-01    2     1000021         3   # BR(~s_R -> ~g      s)
#
#         PDG            Width
DECAY   1000011     3.04174295E+01   # selectron_L decays
#          BR         NDA      ID1       ID2
     2.13244474E-01    2     1000022        11   # BR(~e_L -> ~chi_10 e-)
     1.12873852E-02    2     1000023        11   # BR(~e_L -> ~chi_20 e-)
     2.21751151E-03    2     1000025        11   # BR(~e_L -> ~chi_30 e-)
     2.57580260E-01    2     1000035        11   # BR(~e_L -> ~chi_40 e-)
     2.99935992E-06    2    -1000024        12   # BR(~e_L -> ~chi_1- nu_e)
     5.15667370E-01    2    -1000037        12   # BR(~e_L -> ~chi_2- nu_e)
#
#         PDG            Width
DECAY   2000011     2.74268340E+01   # selectron_R decays
#          BR         NDA      ID1       ID2
     9.45160941E-01    2     1000022        11   # BR(~e_R -> ~chi_10 e-)
     3.77389364E-02    2     1000023        11   # BR(~e_R -> ~chi_20 e-)
     1.71000580E-02    2     1000025        11   # BR(~e_R -> ~chi_30 e-)
     6.47944368E-08    2     1000035        11   # BR(~e_R -> ~chi_40 e-)
#
#         PDG            Width
DECAY   1000013     3.04174295E+01   # smuon_L decays
#          BR         NDA      ID1       ID2
     2.13244474E-01    2     1000022        13   # BR(~mu_L -> ~chi_10 mu-)
     1.12873852E-02    2     1000023        13   # BR(~mu_L -> ~chi_20 mu-)
     2.21751151E-03    2     1000025        13   # BR(~mu_L -> ~chi_30 mu-)
     2.57580260E-01    2     1000035        13   # BR(~mu_L -> ~chi_40 mu-)
     2.99935992E-06    2    -1000024        14   # BR(~mu_L -> ~chi_1- nu_mu)
     5.15667370E-01    2    -1000037        14   # BR(~mu_L -> ~chi_2- nu_mu)
#
#         PDG            Width
DECAY   2000013     2.74268340E+01   # smuon_R decays
#          BR         NDA      ID1       ID2
     9.45160941E-01    2     1000022        13   # BR(~mu_R -> ~chi_10 mu-)
     3.77389364E-02    2     1000023        13   # BR(~mu_R -> ~chi_20 mu-)
     1.71000580E-02    2     1000025        13   # BR(~mu_R -> ~chi_30 mu-)
     6.47944368E-08    2     1000035        13   # BR(~mu_R -> ~chi_40 mu-)
#
#         PDG            Width
DECAY   1000015     2.93025218E+01   # stau_1 decays
#          BR         NDA      ID1       ID2
     8.86700766E-01    2     1000022        15   # BR(~tau_1 -> ~chi_10  tau-)
     4.98526955E-02    2     1000023        15   # BR(~tau_1 -> ~chi_20  tau-)
     3.09759153E-02    2     1000025        15   # BR(~tau_1 -> ~chi_30  tau-)
     1.33157563E-04    2     1000035        15   # BR(~tau_1 -> ~chi_40  tau-)
     3.20710378E-02    2    -1000024        16   # BR(~tau_1 -> ~chi_1-  nu_tau)
     2.66427601E-04    2    -1000037        16   # BR(~tau_1 -> ~chi_2-  nu_tau)
#
#         PDG            Width
DECAY   2000015     3.13507618E+01   # stau_2 decays
#          BR         NDA      ID1       ID2
     2.07969621E-01    2     1000022        15   # BR(~tau_2 -> ~chi_10  tau-)
     2.54120695E-02    2     1000023        15   # BR(~tau_2 -> ~chi_20  tau-)
     1.70087578E-02    2     1000025        15   # BR(~tau_2 -> ~chi_30  tau-)
     2.49695745E-01    2     1000035        15   # BR(~tau_2 -> ~chi_40  tau-)
     3.08459020E-05    2    -1000024        16   # BR(~tau_2 -> ~chi_1-  nu_tau)
     4.99882961E-01    2    -1000037        16   # BR(~tau_2 -> ~chi_2-  nu_tau)
#
#         PDG            Width
DECAY   1000012     3.04203707E+01   # snu_eL decays
#          BR         NDA      ID1       ID2
     2.13936162E-01    2     1000022        12   # BR(~nu_eL -> ~chi_10 nu_e)
     6.15589299E-03    2     1000023        12   # BR(~nu_eL -> ~chi_20 nu_e)
     5.96534738E-03    2     1000025        12   # BR(~nu_eL -> ~chi_30 nu_e)
     2.57635374E-01    2     1000035        12   # BR(~nu_eL -> ~chi_40 nu_e)
     1.67854325E-03    2     1000024        11   # BR(~nu_eL -> ~chi_1+ e-)
     5.14628681E-01    2     1000037        11   # BR(~nu_eL -> ~chi_2+ e-)
#
#         PDG            Width
DECAY   1000014     3.04203707E+01   # snu_muL decays
#          BR         NDA      ID1       ID2
     2.13936162E-01    2     1000022        14   # BR(~nu_muL -> ~chi_10 nu_mu)
     6.15589299E-03    2     1000023        14   # BR(~nu_muL -> ~chi_20 nu_mu)
     5.96534738E-03    2     1000025        14   # BR(~nu_muL -> ~chi_30 nu_mu)
     2.57635374E-01    2     1000035        14   # BR(~nu_muL -> ~chi_40 nu_mu)
     1.67854325E-03    2     1000024        13   # BR(~nu_muL -> ~chi_1+ mu-)
     5.14628681E-01    2     1000037        13   # BR(~nu_muL -> ~chi_2+ mu-)
#
#         PDG            Width
DECAY   1000016     3.13538308E+01   # snu_tauL decays
#          BR         NDA      ID1       ID2
     2.07543929E-01    2     1000022        16   # BR(~nu_tauL -> ~chi_10 nu_tau)
     5.97195606E-03    2     1000023        16   # BR(~nu_tauL -> ~chi_20 nu_tau)
     5.78710388E-03    2     1000025        16   # BR(~nu_tauL -> ~chi_30 nu_tau)
     2.49871029E-01    2     1000035        16   # BR(~nu_tauL -> ~chi_40 nu_tau)
     3.17067988E-02    2     1000024        15   # BR(~nu_tauL -> ~chi_1+ tau-)
     4.99119183E-01    2     1000037        15   # BR(~nu_tauL -> ~chi_2+ tau-)
#
#         PDG            Width
DECAY   1000024     8.36030856E-02   # chargino1+ decays
#          BR         NDA      ID1       ID2
     1.00000000E+00    2     1000022        24   # BR(~chi_1+ -> ~chi_10  W+)
#
#         PDG            Width
DECAY   1000037     2.33023123E+01   # chargino2+ decays
#          BR         NDA      ID1       ID2
     2.53776970E-01    2     1000024        23   # BR(~chi_2+ -> ~chi_1+  Z )
     7.55884652E-04    2     1000022        24   # BR(~chi_2+ -> ~chi_10  W+)
     2.44848845E-01    2     1000023        24   # BR(~chi_2+ -> ~chi_20  W+)
     2.44873369E-01    2     1000025        24   # BR(~chi_2+ -> ~chi_30  W+)
     2.55707429E-01    2     1000024        25   # BR(~chi_2+ -> ~chi_1+  h )
     3.75028990E-05    2     1000022        37   # BR(~chi_2+ -> ~chi_10  H+)
#
#         PDG            Width
DECAY   1000022     0.00000000E+00   # neutralino1 decays
#
#         PDG            Width
DECAY   1000023     6.58743052E-02   # neutralino2 decays
#          BR         NDA      ID1       ID2
     5.81528339E-01    2     1000022        23   # BR(~chi_20 -> ~chi_10   Z )
     4.18471661E-01    2     1000022        25   # BR(~chi_20 -> ~chi_10   h )
#
#         PDG            Width
DECAY   1000025     4.88376938E-02   # neutralino3 decays
#          BR         NDA      ID1       ID2
     9.01902993E-01    2     1000022        23   # BR(~chi_30 -> ~chi_10   Z )
     9.80970068E-02    2     1000022        25   # BR(~chi_30 -> ~chi_10   h )
#
#         PDG            Width
DECAY   1000035     2.33045534E+01   # neutralino4 decays
#          BR         NDA      ID1       ID2
     7.78286679E-04    2     1000022        23   # BR(~chi_40 -> ~chi_10   Z )
     1.35969440E-01    2     1000023        23   # BR(~chi_40 -> ~chi_20   Z )
     1.16846590E-01    2     1000025        23   # BR(~chi_40 -> ~chi_30   Z )
     2.45452010E-01    2     1000024       -24   # BR(~chi_40 -> ~chi_1+   W-)
     2.45452010E-01    2    -1000024        24   # BR(~chi_40 -> ~chi_1-   W+)
     1.15540545E-05    2     1000022        25   # BR(~chi_40 -> ~chi_10   h )
     3.59792428E-05    2     1000022        35   # BR(~chi_40 -> ~chi_10   H )
     3.92739223E-06    2     1000022        36   # BR(~chi_40 -> ~chi_10   A )
     1.18321955E-01    2     1000023        25   # BR(~chi_40 -> ~chi_20   h )
     1.37128248E-01    2     1000025        25   # BR(~chi_40 -> ~chi_30   h )
#
#         PDG            Width
DECAY        25     4.08201475E-03   # h decays
#          BR         NDA      ID1       ID2
     6.09954031E-01    2           5        -5   # BR(h -> b       bb     )
     6.35371289E-02    2         -15        15   # BR(h -> tau+    tau-   )
     2.24944653E-04    2         -13        13   # BR(h -> mu+     mu-    )
     4.76887873E-04    2           3        -3   # BR(h -> s       sb     )
     2.06610822E-02    2           4        -4   # BR(h -> c       cb     )
     6.68042194E-02    2          21        21   # BR(h -> g       g      )
     2.29311593E-03    2          22        22   # BR(h -> gam     gam    )
     1.47816795E-03    2          22        23   # BR(h -> Z       gam    )
     2.08536952E-01    2          24       -24   # BR(h -> W+      W-     )
     2.48229063E-02    2          23        23   # BR(h -> Z       Z      )
     1.21056342E-03    2     1000022   1000022   # BR(h -> ~chi_10 ~chi_10)
#
#         PDG            Width
DECAY        35     8.81640582E+00   # H decays
#          BR         NDA      ID1       ID2
     3.59240521E-01    2           5        -5   # BR(H -> b       bb     )
     6.31772280E-02    2         -15        15   # BR(H -> tau+    tau-   )
     2.23399697E-04    2         -13        13   # BR(H -> mu+     mu-    )
     2.73853655E-04    2           3        -3   # BR(H -> s       sb     )
     1.53274190E-06    2           4        -4   # BR(H -> c       cb     )
     1.53133065E-01    2           6        -6   # BR(H -> t       tb     )
     5.09592784E-05    2          21        21   # BR(H -> g       g      )
     1.46745595E-07    2          22        22   # BR(H -> gam     gam    )
     9.03148300E-08    2          23        22   # BR(H -> Z       gam    )
     7.51507568E-05    2          24       -24   # BR(H -> W+      W-     )
     3.75277997E-05    2          23        23   # BR(H -> Z       Z      )
     2.66979677E-04    2          25        25   # BR(H -> h       h      )
     3.15081107E-23    2          36        36   # BR(H -> A       A      )
     7.99184068E-19    2          23        36   # BR(H -> Z       A      )
     3.48341874E-03    2     1000024  -1000024   # BR(H -> ~chi_1+ ~chi_1-)
     4.37313473E-02    2     1000022   1000022   # BR(H -> ~chi_10 ~chi_10)
     1.24626286E-02    2     1000023   1000023   # BR(H -> ~chi_20 ~chi_20)
     8.48922256E-03    2     1000025   1000025   # BR(H -> ~chi_30 ~chi_30)
     2.02394751E-01    2     1000022   1000023   # BR(H -> ~chi_10 ~chi_20)
     1.31750616E-01    2     1000022   1000025   # BR(H -> ~chi_10 ~chi_30)
     2.12075606E-02    2     1000023   1000025   # BR(H -> ~chi_20 ~chi_30)
#
#         PDG            Width
DECAY        36     8.82139716E+00   # A decays
#          BR         NDA      ID1       ID2
     3.59160354E-01    2           5        -5   # BR(A -> b       bb     )
     6.31433102E-02    2         -15        15   # BR(A -> tau+    tau-   )
     2.23279448E-04    2         -13        13   # BR(A -> mu+     mu-    )
     2.73906434E-04    2           3        -3   # BR(A -> s       sb     )
     1.53789517E-06    2           4        -4   # BR(A -> c       cb     )
     1.53563133E-01    2           6        -6   # BR(A -> t       tb     )
     1.51951791E-04    2          21        21   # BR(A -> g       g      )
     5.33682467E-07    2          22        22   # BR(A -> gam     gam    )
     1.83837279E-07    2          23        22   # BR(A -> Z       gam    )
     7.48237868E-05    2          23        25   # BR(A -> Z       h      )
     3.60845120E-03    2     1000024  -1000024   # BR(A -> ~chi_1+ ~chi_1-)
     4.02737645E-02    2     1000022   1000022   # BR(A -> ~chi_10 ~chi_10)
     8.19616565E-03    2     1000023   1000023   # BR(A -> ~chi_20 ~chi_20)
     1.33496915E-02    2     1000025   1000025   # BR(A -> ~chi_30 ~chi_30)
     1.28568927E-01    2     1000022   1000023   # BR(A -> ~chi_10 ~chi_20)
     2.08630287E-01    2     1000022   1000025   # BR(A -> ~chi_10 ~chi_30)
     2.07796999E-02    2     1000023   1000025   # BR(A -> ~chi_20 ~chi_30)
#
#         PDG            Width
DECAY        37     8.75622670E+00   # H+ decays
#          BR         NDA      ID1       ID2
     5.74970979E-04    2           4        -5   # BR(H+ -> c       bb     )
     6.36446986E-02    2         -15        16   # BR(H+ -> tau+    nu_tau )
     2.25052395E-04    2         -13        14   # BR(H+ -> mu+     nu_mu  )
     3.67979480E-06    2           2        -5   # BR(H+ -> u       bb     )
     1.32052587E-05    2           2        -3   # BR(H+ -> u       sb     )
     2.73086183E-04    2           4        -3   # BR(H+ -> c       sb     )
     5.10872530E-01    2           6        -5   # BR(H+ -> t       bb     )
     7.55411440E-05    2          24        25   # BR(H+ -> W+      h      )
     1.07337348E-12    2          24        36   # BR(H+ -> W+      A      )
     3.98282449E-01    2     1000024   1000022   # BR(H+ -> ~chi_1+ ~chi_10)
     2.17884897E-02    2     1000024   1000023   # BR(H+ -> ~chi_1+ ~chi_20)
     4.24629720E-03    2     1000024   1000025   # BR(H+ -> ~chi_1+ ~chi_30)
