# SUSY Les Houches Accord 2 - MSSM spectrum + Decays
# SPheno v3.3.6  
# W. Porod, Comput. Phys. Commun. 153 (2003) 275-315, hep-ph/0301101
# in case of problems send email to porod@physik.uni-wuerzburg.de
# Created: 06.12.2016,  13:43
Block SPINFO         # Program information
     1   SPheno      # spectrum calculator
     2   v3.3.6      # version number
#
Block SPhenoINFO     # SPheno specific information
    1      2         # using 2-loop RGEs
    2      1         # using running masses for boundary conditions at mZ
Block MODSEL  # Model selection
    1    2    # mGMSB model
Block MINPAR  # Input parameters
    1    1.30000000E+05  # Lambda, scale of SUSY breaking
    2    5.00000000E+05  # M_M, messenger mass scale
    3    1.00000000E+01  # tanb at m_Z   
    4    1.00000000E+00  # Sign(mu)
    5    3.00000000E+00  # N_5 number of effective five-plets
    6    1.00000000E+05  # c_grav, Gravitino mass factor
Block gauge Q=  5.00000000E+05  # (GMSB scale)
   1    4.96741027E-01  # g'(Q)^DRbar
   2    6.49920851E-01  # g(Q)^DRbar
   3    9.28874929E-01  # g3(Q)^DRbar
Block SMINPUTS  # SM parameters
         1     1.27931303E+02  # alpha_em^-1(MZ)^MSbar
         2     1.16637900E-05  # G_mu [GeV^-2]
         3     1.18400000E-01  # alpha_s(MZ)^MSbar
         4     9.11876000E+01  # m_Z(pole)
         5     4.18000000E+00  # m_b(m_b), MSbar
         6     1.73100000E+02  # m_t(pole)
         7     1.77682000E+00  # m_tau(pole)
         8     0.00000000E+00  # m_nu_3
        11     5.10998930E-04  # m_e(pole)
        12     0.00000000E+00  # m_nu_1
        13     1.05658372E-01  # m_muon(pole)
        14     0.00000000E+00  # m_nu_2
        21     5.00000000E-03  # m_d(2 GeV), MSbar
        22     2.50000000E-03  # m_u(2 GeV), MSbar
        23     9.50000000E-02  # m_s(2 GeV), MSbar
        24     1.27000000E+00  # m_c(m_c), MSbar
Block gauge Q=  2.37135362E+03  # (SUSY scale)
   1    3.64849373E-01  # g'(Q)^DRbar
   2    6.39154512E-01  # g(Q)^DRbar
   3    1.01953226E+00  # g3(Q)^DRbar
Block Yu Q=  2.37135362E+03  # (SUSY scale)
#   1  1     6.88237468E-06   # Y_u(Q)^DRbar
  1  1     0.0   # Y_u(Q)^DRbar
#   2  2     3.49624665E-03   # Y_c(Q)^DRbar
  2  2     0.0   # Y_c(Q)^DRbar
#   3  3     8.42980132E-01   # Y_t(Q)^DRbar
  3  3     0.0   # Y_t(Q)^DRbar
Block Yd Q=  2.37135362E+03  # (SUSY scale)
#   1  1     1.29701628E-04   # Y_d(Q)^DRbar
  1  1     0.0   # Y_d(Q)^DRbar
#   2  2     2.46433001E-03   # Y_s(Q)^DRbar
  2  2     0.0   # Y_s(Q)^DRbar
#   3  3     1.27443682E-01   # Y_b(Q)^DRbar
  3  3     0.0   # Y_b(Q)^DRbar
Block Ye Q=  2.37135362E+03  # (SUSY scale)
#   1  1     2.84963021E-05   # Y_e(Q)^DRbar
  1  1     0.0   # Y_e(Q)^DRbar
#   2  2     5.89213482E-03   # Y_mu(Q)^DRbar
  2  2     0.0   # Y_mu(Q)^DRbar
#   3  3     9.91020881E-02   # Y_tau(Q)^DRbar
  3  3     0.0   # Y_tau(Q)^DRbar
Block Au Q=  2.37135362E+03  # (SUSY scale)
#   1  1    -8.35901396E+02   # A_u(Q)^DRbar
  1  1    0.0   # A_u(Q)^DRbar
#   2  2    -8.35900342E+02   # A_c(Q)^DRbar
  2  2    0.0   # A_c(Q)^DRbar
#   3  3    -7.83627399E+02   # A_t(Q)^DRbar
  3  3    0.0   # A_t(Q)^DRbar
Block Ad Q=  2.37135362E+03  # (SUSY scale)
#   1  1    -8.94688408E+02   # A_d(Q)^DRbar
  1  1    0.0   # A_d(Q)^DRbar
#   2  2    -8.94687650E+02   # A_s(Q)^DRbar
  2  2    0.0   # A_s(Q)^DRbar
#   3  3    -8.76554232E+02   # A_b(Q)^DRbar
  3  3    0.0   # A_b(Q)^DRbar
Block Ae Q=  2.37135362E+03  # (SUSY scale)
#   1  1    -1.00711613E+02   # A_e(Q)^DRbar
  1  1    0.0   # A_e(Q)^DRbar
#   2  2    -1.00711225E+02   # A_mu(Q)^DRbar
  2  2    0.0   # A_mu(Q)^DRbar
#   3  3    -1.00601928E+02   # A_tau(Q)^DRbar
  3  3    0.0   # A_tau(Q)^DRbar
Block MSOFT Q=  2.37135362E+03  # soft SUSY breaking masses at Q
   1    5.50333674E+02  # M_1
   2    1.00956155E+03  # M_2
   3    2.58152340E+03  # M_3
  21    6.35568107E+05  # M^2_(H,d)
  22   -7.30256664E+05  # M^2_(H,u)
  31    8.17869886E+02  # M_(L,11)
  32    8.17867979E+02  # M_(L,22)
  33    8.17330356E+02  # M_(L,33)
  34    3.98416430E+02  # M_(E,11)
  35    3.98408472E+02  # M_(E,22)
  36    3.96158956E+02  # M_(E,33)
  41    2.55848136E+03  # M_(Q,11)
  42    2.55847916E+03  # M_(Q,22)
  43    2.47181827E+03  # M_(Q,33)
  44    2.45084849E+03  # M_(U,11)
  45    2.45084542E+03  # M_(U,22)
  46    2.26719278E+03  # M_(U,33)
  47    2.44019467E+03  # M_(D,11)
  48    2.44019309E+03  # M_(D,22)
  49    2.43601374E+03  # M_(D,33)
Block MASS  # Mass spectrum
#   PDG code      mass          particle
         6     1.73100000E+02  # m_t(pole)
        23     9.11876000E+01  # m_Z(pole)
        24     8.03990384E+01  # W+
        15     1.77682000E+00  # m_tau(pole)
        25     1.19308859E+02  # h0
        35     1.24584477E+03  # H0
        36     1.24561773E+03  # A0
        37     1.24856915E+03  # H+
   1000001     2.65890999E+03  # ~d_L
   2000001     2.53523804E+03  # ~d_R
   1000002     2.65773407E+03  # ~u_L
   2000002     2.54500852E+03  # ~u_R
   1000003     2.65890746E+03  # ~s_L
   2000003     2.53523612E+03  # ~s_R
   1000004     2.65773170E+03  # ~c_L
   2000004     2.54500488E+03  # ~c_R
   1000005     2.52947521E+03  # ~b_1
   2000005     2.55780243E+03  # ~b_2
   1000006     2.33269137E+03  # ~t_1
   2000006     2.56450883E+03  # ~t_2
   1000011     8.34646482E+02  # ~e_L-
   2000011     4.14357349E+02  # ~e_R-
   1000012     8.30519225E+02  # ~nu_eL
   1000013     8.34644993E+02  # ~mu_L-
   2000013     4.14345531E+02  # ~mu_R-
   1000014     8.30516638E+02  # ~nu_muL
   1000015     4.11004114E+02  # ~tau_1-
   2000015     8.34224671E+02  # ~tau_2-
   1000016     8.29787583E+02  # ~nu_tauL
   1000021     2.72321631E+03  # ~g
   1000022     5.36218050E+02  # ~chi_10
   1000023     9.12314395E+02  # ~chi_20
   1000025    -9.41374658E+02  # ~chi_30
   1000035     1.06306289E+03  # ~chi_40
   1000024     9.10821233E+02  # ~chi_1+
   1000037     1.06304854E+03  # ~chi_2+
   1000039     1.56000000E-03  # ~G
# Higgs mixing
Block alpha # Effective Higgs mixing angle
          -1.05999545E-01   # alpha
Block Hmix Q=  2.37135362E+03  # Higgs mixing parameters
   1    9.28545736E+02  # mu
   2    9.53559487E+00  # tan[beta](Q)
   3    2.43268918E+02  # v(Q)
   4    1.38818744E+06  # m^2_A(Q)
Block stopmix # stop mixing matrix
   1  1     1.33809670E-01   # Re[R_st(1,1)]
   1  2     9.91007050E-01   # Re[R_st(1,2)]
   2  1    -9.91007050E-01   # Re[R_st(2,1)]
   2  2     1.33809670E-01   # Re[R_st(2,2)]
Block sbotmix # sbottom mixing matrix
   1  1     1.70390237E-01   # Re[R_sb(1,1)]
   1  2     9.85376663E-01   # Re[R_sb(1,2)]
   2  1    -9.85376663E-01   # Re[R_sb(2,1)]
   2  2     1.70390237E-01   # Re[R_sb(2,2)]
Block staumix # stau mixing matrix
   1  1     3.09276233E-02   # Re[R_sta(1,1)]
   1  2     9.99521627E-01   # Re[R_sta(1,2)]
   2  1    -9.99521627E-01   # Re[R_sta(2,1)]
   2  2     3.09276233E-02   # Re[R_sta(2,2)]
Block Nmix # neutralino mixing matrix
   1  1    -9.95988109E-01   # Re[N(1,1)]
   1  2     8.70123521E-03   # Re[N(1,2)]
   1  3    -7.50163204E-02   # Re[N(1,3)]
   1  4     4.80054904E-02   # Re[N(1,4)]
   2  1     8.19617615E-02   # Re[N(2,1)]
   2  2     4.45388011E-01   # Re[N(2,2)]
   2  3    -6.37990193E-01   # Re[N(2,3)]
   2  4     6.22800372E-01   # Re[N(2,4)]
   3  1     1.88449863E-02   # Re[N(3,1)]
   3  2    -2.52481342E-02   # Re[N(3,2)]
   3  3    -7.05934494E-01   # Re[N(3,3)]
   3  4    -7.07576065E-01   # Re[N(3,4)]
   4  1    -3.05748765E-02   # Re[N(4,1)]
   4  2     8.94939294E-01   # Re[N(4,2)]
   4  3     2.98324580E-01   # Re[N(4,3)]
   4  4    -3.30380511E-01   # Re[N(4,4)]
Block Umix # chargino mixing matrix
   1  1    -4.19955896E-01   # Re[U(1,1)]
   1  2     9.07544515E-01   # Re[U(1,2)]
   2  1     9.07544515E-01   # Re[U(2,1)]
   2  2     4.19955896E-01   # Re[U(2,2)]
Block Vmix # chargino mixing matrix
   1  1    -4.65149127E-01   # Re[V(1,1)]
   1  2     8.85232337E-01   # Re[V(1,2)]
   2  1     8.85232337E-01   # Re[V(2,1)]
   2  2     4.65149127E-01   # Re[V(2,2)]
DECAY        23     2.49520000E+00   # Z
DECAY        24     2.08500000E+00   # W
DECAY   2000011     9.60226216E-14   # ~e^-_R
#    BR                NDA      ID1      ID2
     5.98970046E-08    2     1000039        11   # BR(~e^-_R -> ~G e^-)
#    BR                NDA      ID1      ID2       ID3
     3.71600248E-01    3     1000015        11       -15   # BR(~e^-_R -> ~tau^-_1 e^- tau^+)
     6.28399692E-01    3    -1000015        15        11   # BR(~e^-_R -> ~tau^+_1 tau^- e^-)
     5.61258797E-12    3     1000015        12       -16   # BR(~e^-_R -> ~tau^-_1 nu_e nu_bar_tau)
DECAY   1000011     3.66607517E-01   # ~e^-_L
#    BR                NDA      ID1      ID2
     9.99999963E-01    2     1000022        11   # BR(~e^-_L -> chi^0_1 e^-)
     1.61626601E-08    2     2000011        23   # BR(~e^-_L -> ~e^-_R Z)
     1.65536774E-08    2     2000011        25   # BR(~e^-_L -> ~e^-_R h^0)
#    BR                NDA      ID1      ID2       ID3
     2.61445324E-09    3     1000012         1        -2   # BR(~e^-_L -> ~nu_e d u_bar)
     1.65806952E-09    3     1000012         3        -4   # BR(~e^-_L -> ~nu_e s c_bar)
DECAY   2000013     9.21624301E-14   # ~mu^-_R
#    BR                NDA      ID1      ID2
     6.23968547E-08    2     1000039        13   # BR(~mu^-_R -> ~G mu^-)
#    BR                NDA      ID1      ID2       ID3
     3.71579108E-01    3     1000015        13       -15   # BR(~mu^-_R -> ~tau^-_1 mu^- tau^+)
     6.28420584E-01    3    -1000015        15        13   # BR(~mu^-_R -> ~tau^+_1 tau^- mu^-)
     2.45637530E-07    3     1000015        14       -16   # BR(~mu^-_R -> ~tau^-_1 nu_mu nu_bar_tau)
DECAY   1000013     3.67119947E-01   # ~mu^-_L
#    BR                NDA      ID1      ID2
     9.98603201E-01    2     1000022        13   # BR(~mu^-_L -> chi^0_1 mu^-)
     6.90055164E-04    2     2000013        23   # BR(~mu^-_L -> ~mu^-_R Z)
     7.06739752E-04    2     2000013        25   # BR(~mu^-_L -> ~mu^-_R h^0)
#    BR                NDA      ID1      ID2       ID3
     2.61426848E-09    3     1000014         1        -2   # BR(~mu^-_L -> ~nu_mu d u_bar)
     1.65835505E-09    3     1000014         3        -4   # BR(~mu^-_L -> ~nu_mu s c_bar)
DECAY   1000015     5.52206871E-21   # ~tau^-_1
#    BR                NDA      ID1      ID2
     1.00000000E+00    2     1000039        15   # BR(~tau^-_1 -> ~G tau^-)
DECAY   2000015     5.12154798E-01   # ~tau^-_2
#    BR                NDA      ID1      ID2
     7.15607611E-01    2     1000022        15   # BR(~tau^-_2 -> chi^0_1 tau^-)
     1.40769804E-01    2     1000015        23   # BR(~tau^-_2 -> ~tau^-_1 Z)
     1.43622580E-01    2     1000015        25   # BR(~tau^-_2 -> ~tau^-_1 h^0)
#    BR                NDA      ID1      ID2       ID3
     2.68414521E-09    3     1000016         1        -2   # BR(~tau^-_2 -> ~nu_tau d u_bar)
     1.81000543E-09    3     1000016         3        -4   # BR(~tau^-_2 -> ~nu_tau s c_bar)
DECAY   1000012     3.82413572E-01   # ~nu_e
#    BR                NDA      ID1      ID2
     9.99999970E-01    2     1000022        12   # BR(~nu_e -> chi^0_1 nu_e)
     2.98377374E-08    2     2000011        24   # BR(~nu_e -> ~e^-_R W^+)
DECAY   1000014     3.82896800E-01   # ~nu_mu
#    BR                NDA      ID1      ID2
     9.98725929E-01    2     1000022        14   # BR(~nu_mu -> chi^0_1 nu_mu)
     1.27407056E-03    2     2000013        24   # BR(~nu_mu -> ~mu^-_R W^+)
DECAY   1000016     5.19809224E-01   # ~nu_tau
#    BR                NDA      ID1      ID2
     7.33179735E-01    2     1000022        16   # BR(~nu_tau -> chi^0_1 nu_tau)
     2.66820265E-01    2     1000015        24   # BR(~nu_tau -> ~tau^-_1 W^+)
DECAY   2000001     1.35951600E+00   # ~d_R
#    BR                NDA      ID1      ID2
     9.93425944E-01    2     1000022         1   # BR(~d_R -> chi^0_1 d)
     5.58678991E-03    2     1000023         1   # BR(~d_R -> chi^0_2 d)
     2.89902871E-04    2     1000025         1   # BR(~d_R -> chi^0_3 d)
     6.96876738E-04    2     1000035         1   # BR(~d_R -> chi^0_4 d)
     4.59814372E-07    2    -1000024         2   # BR(~d_R -> chi^-_1 u)
     2.67875044E-08    2    -1000037         2   # BR(~d_R -> chi^-_2 u)
DECAY   1000001     2.36714558E+01   # ~d_L
#    BR                NDA      ID1      ID2
     1.65043824E-02    2     1000022         1   # BR(~d_L -> chi^0_1 d)
     6.56315789E-02    2     1000023         1   # BR(~d_L -> chi^0_2 d)
     2.90328465E-04    2     1000025         1   # BR(~d_L -> chi^0_3 d)
     2.61408827E-01    2     1000035         1   # BR(~d_L -> chi^0_4 d)
     1.25432862E-01    2    -1000024         2   # BR(~d_L -> chi^-_1 u)
     5.30732021E-01    2    -1000037         2   # BR(~d_L -> chi^-_2 u)
     5.66890328E-13    2     2000002       -24   # BR(~d_L -> ~u_R W^-)
     8.44948829E-11    2     2000001        23   # BR(~d_L -> ~d_R Z)
     6.46917372E-11    2     2000001        25   # BR(~d_L -> ~d_R h^0)
DECAY   2000003     1.35998571E+00   # ~s_R
#    BR                NDA      ID1      ID2
     9.93085003E-01    2     1000022         3   # BR(~s_R -> chi^0_1 s)
     5.66608048E-03    2     1000023         3   # BR(~s_R -> chi^0_2 s)
     3.71870884E-04    2     1000025         3   # BR(~s_R -> chi^0_3 s)
     7.01443530E-04    2     1000035         3   # BR(~s_R -> chi^0_4 s)
     1.65935313E-04    2    -1000024         4   # BR(~s_R -> chi^-_1 c)
     9.66685238E-06    2    -1000037         4   # BR(~s_R -> chi^-_2 c)
DECAY   1000003     2.36721408E+01   # ~s_L
#    BR                NDA      ID1      ID2
     1.65038368E-02    2     1000022         3   # BR(~s_L -> chi^0_1 s)
     6.56331045E-02    2     1000023         3   # BR(~s_L -> chi^0_2 s)
     2.95545644E-04    2     1000025         3   # BR(~s_L -> chi^0_3 s)
     2.61402255E-01    2     1000035         3   # BR(~s_L -> chi^0_4 s)
     1.25443023E-01    2    -1000024         4   # BR(~s_L -> chi^-_1 c)
     5.30722035E-01    2    -1000037         4   # BR(~s_L -> chi^-_2 c)
     1.46294211E-07    2     2000004       -24   # BR(~s_L -> ~c_R W^-)
     3.05011175E-08    2     2000003        23   # BR(~s_L -> ~s_R Z)
     2.33513670E-08    2     2000003        25   # BR(~s_L -> ~s_R h^0)
DECAY   1000005     3.89995443E+00   # ~b_1
#    BR                NDA      ID1      ID2
     3.48945001E-01    2     1000022         5   # BR(~b_1 -> chi^0_1 b)
     1.25161104E-01    2     1000023         5   # BR(~b_1 -> chi^0_2 b)
     7.29777803E-02    2     1000025         5   # BR(~b_1 -> chi^0_3 b)
     8.91863428E-03    2     1000035         5   # BR(~b_1 -> chi^0_4 b)
     3.79972794E-01    2    -1000024         6   # BR(~b_1 -> chi^-_1 t)
     6.05777821E-02    2    -1000037         6   # BR(~b_1 -> chi^-_2 t)
     3.44690351E-03    2     1000006       -24   # BR(~b_1 -> ~t_1 W^-)
DECAY   2000005     4.87620118E+01   # ~b_2
#    BR                NDA      ID1      ID2
     7.53576237E-03    2     1000022         5   # BR(~b_2 -> chi^0_1 b)
     3.04411170E-02    2     1000023         5   # BR(~b_2 -> chi^0_2 b)
     6.82011407E-03    2     1000025         5   # BR(~b_2 -> chi^0_3 b)
     1.19750853E-01    2     1000035         5   # BR(~b_2 -> chi^0_4 b)
     4.56467079E-01    2    -1000024         6   # BR(~b_2 -> chi^-_1 t)
     3.64427654E-01    2    -1000037         6   # BR(~b_2 -> chi^-_2 t)
     1.45574211E-02    2     1000006       -24   # BR(~b_2 -> ~t_1 W^-)
DECAY   2000002     5.46299538E+00   # ~u_R
#    BR                NDA      ID1      ID2
     9.93415954E-01    2     1000022         2   # BR(~u_R -> chi^0_1 u)
     5.59523595E-03    2     1000023         2   # BR(~u_R -> chi^0_2 u)
     2.90174234E-04    2     1000025         2   # BR(~u_R -> chi^0_3 u)
     6.98635251E-04    2     1000035         2   # BR(~u_R -> chi^0_4 u)
     3.24355553E-10    2     1000024         1   # BR(~u_R -> chi^+_1 d)
     2.24116160E-11    2     1000037         1   # BR(~u_R -> chi^+_2 d)
DECAY   1000002     2.37231556E+01   # ~u_L
#    BR                NDA      ID1      ID2
     1.36965465E-02    2     1000022         2   # BR(~u_L -> chi^0_1 u)
     7.52876039E-02    2     1000023         2   # BR(~u_L -> chi^0_2 u)
     1.63389105E-04    2     1000025         2   # BR(~u_L -> chi^0_3 u)
     2.53946007E-01    2     1000035         2   # BR(~u_L -> chi^0_4 u)
     1.53442850E-01    2     1000024         1   # BR(~u_L -> chi^+_1 d)
     5.03463603E-01    2     1000037         1   # BR(~u_L -> chi^+_2 d)
     2.21643724E-10    2     2000001        24   # BR(~u_L -> ~d_R W^+)
     1.61633621E-13    2     2000002        23   # BR(~u_L -> ~u_R Z)
DECAY   2000004     5.46394307E+00   # ~c_R
#    BR                NDA      ID1      ID2
     9.93241141E-01    2     1000022         4   # BR(~c_R -> chi^0_1 c)
     5.63496475E-03    2     1000023         4   # BR(~c_R -> chi^0_2 c)
     3.33130014E-04    2     1000025         4   # BR(~c_R -> chi^0_3 c)
     7.01292364E-04    2     1000035         4   # BR(~c_R -> chi^0_4 c)
     8.36895127E-05    2     1000024         3   # BR(~c_R -> chi^+_1 s)
     5.78271596E-06    2     1000037         3   # BR(~c_R -> chi^+_2 s)
DECAY   1000004     2.37238200E+01   # ~c_L
#    BR                NDA      ID1      ID2
     1.36962889E-02    2     1000022         4   # BR(~c_L -> chi^0_1 c)
     7.52912647E-02    2     1000023         4   # BR(~c_L -> chi^0_2 c)
     1.73685513E-04    2     1000025         4   # BR(~c_L -> chi^0_3 c)
     2.53942520E-01    2     1000035         4   # BR(~c_L -> chi^0_4 c)
     1.53442944E-01    2     1000024         3   # BR(~c_L -> chi^+_1 s)
     5.03453174E-01    2     1000037         3   # BR(~c_L -> chi^+_2 s)
     8.00104247E-08    2     2000003        24   # BR(~c_L -> ~s_R W^+)
     4.17135510E-08    2     2000004        23   # BR(~c_L -> ~c_R Z)
DECAY   1000006     5.09225275E+01   # ~t_1
#    BR                NDA      ID1      ID2
     1.59856612E-07    2     1000022         4   # BR(~t_1 -> chi^0_1 c)
     9.61829887E-02    2     1000022         6   # BR(~t_1 -> chi^0_1 t)
     8.30987583E-07    2     1000023         4   # BR(~t_1 -> chi^0_2 c)
     1.92560455E-01    2     1000023         6   # BR(~t_1 -> chi^0_2 t)
     2.29934672E-01    2     1000025         6   # BR(~t_1 -> chi^0_3 t)
     2.75879593E-02    2     1000035         6   # BR(~t_1 -> chi^0_4 t)
     3.97697146E-01    2     1000024         5   # BR(~t_1 -> chi^+_1 b)
     5.60281171E-02    2     1000037         5   # BR(~t_1 -> chi^+_2 b)
#    BR                NDA      ID1      ID2       ID3
     7.67110115E-06    3     1000022        24         5   # BR(~t_1 -> chi^0_1 W^+ b)
DECAY   2000006     5.01647458E+01   # ~t_2
#    BR                NDA      ID1      ID2
     6.87675524E-03    2     1000022         6   # BR(~t_2 -> chi^0_1 t)
     2.18728191E-01    2     1000023         6   # BR(~t_2 -> chi^0_2 t)
     2.62157619E-01    2     1000025         6   # BR(~t_2 -> chi^0_3 t)
     1.94803927E-01    2     1000035         6   # BR(~t_2 -> chi^0_4 t)
     3.96207568E-02    2     1000024         5   # BR(~t_2 -> chi^+_1 b)
     2.64306151E-01    2     1000037         5   # BR(~t_2 -> chi^+_2 b)
     7.65190213E-03    2     1000006        23   # BR(~t_2 -> ~t_1 Z)
     5.85469821E-03    2     1000006        25   # BR(~t_2 -> ~t_1 h^0)
DECAY   1000024     6.58022010E-01   # chi^+_1
#    BR                NDA      ID1      ID2
     6.91432996E-09    2    -2000011        12   # BR(chi^+_1 -> ~e^+_R nu_e)
     2.54815062E-02    2    -1000011        12   # BR(chi^+_1 -> ~e^+_L nu_e)
     2.95616766E-04    2    -2000013        14   # BR(chi^+_1 -> ~mu^+_R nu_mu)
     2.54804984E-02    2    -1000013        14   # BR(chi^+_1 -> ~mu^+_L nu_mu)
     8.42046702E-02    2    -1000015        16   # BR(chi^+_1 -> ~tau^+_1 nu_tau)
     2.51966891E-02    2    -2000015        16   # BR(chi^+_1 -> ~tau^+_2 nu_tau)
     3.45761490E-02    2     1000012       -11   # BR(chi^+_1 -> ~nu_e e^+)
     3.45911454E-02    2     1000014       -13   # BR(chi^+_1 -> ~nu_mu mu^+)
     3.88789725E-02    2     1000016       -15   # BR(chi^+_1 -> ~nu_tau tau^+)
     7.28784867E-01    2     1000022        24   # BR(chi^+_1 -> chi^0_1 W^+)
#    BR                NDA      ID1      ID2       ID3
     4.43184741E-08    3     1000022        -1         2   # BR(chi^+_1 -> chi^0_1 d_bar u)
     4.44864358E-08    3     1000022        -3         4   # BR(chi^+_1 -> chi^0_1 s_bar c)
     2.50151106E-03    3     1000022        -5         6   # BR(chi^+_1 -> chi^0_1 b_bar t)
     6.97845833E-13    3     1000022       -11        12   # BR(chi^+_1 -> chi^0_1 e^+ nu_e)
     2.98327131E-08    3     1000022       -13        14   # BR(chi^+_1 -> chi^0_1 mu^+ nu_mu)
     8.24858833E-06    3     1000022       -15        16   # BR(chi^+_1 -> chi^0_1 tau^+ nu_tau)
DECAY   1000037     5.08644686E+00   # chi^+_2
#    BR                NDA      ID1      ID2
     6.89311962E-11    2    -2000011        12   # BR(chi^+_2 -> ~e^+_R nu_e)
     1.02902705E-01    2    -1000011        12   # BR(chi^+_2 -> ~e^+_L nu_e)
     2.94712798E-06    2    -2000013        14   # BR(chi^+_2 -> ~mu^+_R nu_mu)
     1.02905155E-01    2    -1000013        14   # BR(chi^+_2 -> ~mu^+_L nu_mu)
     8.41759194E-04    2    -1000015        16   # BR(chi^+_2 -> ~tau^+_1 nu_tau)
     1.03596936E-01    2    -2000015        16   # BR(chi^+_2 -> ~tau^+_2 nu_tau)
     1.01034507E-01    2     1000012       -11   # BR(chi^+_2 -> ~nu_e e^+)
     1.01037953E-01    2     1000014       -13   # BR(chi^+_2 -> ~nu_mu mu^+)
     1.02012284E-01    2     1000016       -15   # BR(chi^+_2 -> ~nu_tau tau^+)
     1.63020489E-02    2     1000022        24   # BR(chi^+_2 -> chi^0_1 W^+)
     1.35748759E-01    2     1000023        24   # BR(chi^+_2 -> chi^0_2 W^+)
     6.25675641E-02    2     1000025        24   # BR(chi^+_2 -> chi^0_3 W^+)
     1.16897038E-01    2     1000024        23   # BR(chi^+_2 -> chi^+_1 Z)
     5.40188763E-02    2     1000024        25   # BR(chi^+_2 -> chi^+_1 h^0)
#    BR                NDA      ID1      ID2       ID3
     1.68871247E-09    3     1000024         2        -2   # BR(chi^+_2 -> chi^+_1 u u_bar)
     1.68664658E-09    3     1000024         4        -4   # BR(chi^+_2 -> chi^+_1 c c_bar)
     1.97517045E-09    3     1000024         1        -1   # BR(chi^+_2 -> chi^+_1 d d_bar)
     1.97703244E-09    3     1000024         3        -3   # BR(chi^+_2 -> chi^+_1 s s_bar)
     8.66435503E-09    3     1000024         5        -5   # BR(chi^+_2 -> chi^+_1 b b_bar)
     3.37438431E-07    3     1000024        11       -11   # BR(chi^+_2 -> chi^+_1 e^- e^+)
     3.37527786E-07    3     1000024        13       -13   # BR(chi^+_2 -> chi^+_1 mu^- mu^+)
     3.55287434E-07    3     1000024        15       -15   # BR(chi^+_2 -> chi^+_1 tau^- tau^+)
     9.06712479E-07    3     1000024        12       -12   # BR(chi^+_2 -> chi^+_1 nu_e nu_bar_e)
     1.11654259E-07    3     1000022        -1         2   # BR(chi^+_2 -> chi^0_1 d_bar u)
     1.11655690E-07    3     1000022        -3         4   # BR(chi^+_2 -> chi^0_1 s_bar c)
     1.28592531E-04    3     1000022        -5         6   # BR(chi^+_2 -> chi^0_1 b_bar t)
     6.07088497E-10    3     1000022       -13        14   # BR(chi^+_2 -> chi^0_1 mu^+ nu_mu)
     1.69345132E-07    3     1000022       -15        16   # BR(chi^+_2 -> chi^0_1 tau^+ nu_tau)
     8.91500036E-10    3     1000023        -1         2   # BR(chi^+_2 -> chi^0_2 d_bar u)
     8.92653143E-10    3     1000023        -3         4   # BR(chi^+_2 -> chi^0_2 s_bar c)
     1.72283168E-07    3     1000023       -11        12   # BR(chi^+_2 -> chi^0_2 e^+ nu_e)
     1.72311074E-07    3     1000023       -13        14   # BR(chi^+_2 -> chi^0_2 mu^+ nu_mu)
     1.75729929E-07    3     1000023       -15        16   # BR(chi^+_2 -> chi^0_2 tau^+ nu_tau)
     3.11891579E-12    3     1000025        -1         2   # BR(chi^+_2 -> chi^0_3 d_bar u)
     3.44685419E-12    3     1000025        -3         4   # BR(chi^+_2 -> chi^0_3 s_bar c)
     4.23630896E-10    3     1000025       -11        12   # BR(chi^+_2 -> chi^0_3 e^+ nu_e)
     4.41060925E-10    3     1000025       -13        14   # BR(chi^+_2 -> chi^0_3 mu^+ nu_mu)
     5.27985931E-09    3     1000025       -15        16   # BR(chi^+_2 -> chi^0_3 tau^+ nu_tau)
DECAY   1000022     1.39391820E+00   # chi^0_1
#    BR                NDA      ID1      ID2
     1.64022930E-01    2     2000011       -11   # BR(chi^0_1 -> ~e^-_R e^+)
     1.64022930E-01    2    -2000011        11   # BR(chi^0_1 -> ~e^+_R e^-)
     1.64050566E-01    2     2000013       -13   # BR(chi^0_1 -> ~mu^-_R mu^+)
     1.64050566E-01    2    -2000013        13   # BR(chi^0_1 -> ~mu^+_R mu^-)
     1.71926504E-01    2     1000015       -15   # BR(chi^0_1 -> ~tau^-_1 tau^+)
     1.71926504E-01    2    -1000015        15   # BR(chi^0_1 -> ~tau^+_1 tau^-)
DECAY   1000023     7.69252810E-01   # chi^0_2
#    BR                NDA      ID1      ID2
     1.32919306E-02    2     2000011       -11   # BR(chi^0_2 -> ~e^-_R e^+)
     1.32919306E-02    2    -2000011        11   # BR(chi^0_2 -> ~e^+_R e^-)
     1.55119635E-02    2     1000011       -11   # BR(chi^0_2 -> ~e^-_L e^+)
     1.55119635E-02    2    -1000011        11   # BR(chi^0_2 -> ~e^+_L e^-)
     1.34163668E-02    2     2000013       -13   # BR(chi^0_2 -> ~mu^-_R mu^+)
     1.34163668E-02    2    -2000013        13   # BR(chi^0_2 -> ~mu^+_R mu^-)
     1.55168748E-02    2     1000013       -13   # BR(chi^0_2 -> ~mu^-_L mu^+)
     1.55168748E-02    2    -1000013        13   # BR(chi^0_2 -> ~mu^+_L mu^-)
     4.87753273E-02    2     1000015       -15   # BR(chi^0_2 -> ~tau^-_1 tau^+)
     4.87753273E-02    2    -1000015        15   # BR(chi^0_2 -> ~tau^+_1 tau^-)
     1.69121924E-02    2     2000015       -15   # BR(chi^0_2 -> ~tau^-_2 tau^+)
     1.69121924E-02    2    -2000015        15   # BR(chi^0_2 -> ~tau^+_2 tau^-)
     1.12311600E-02    2     1000012       -12   # BR(chi^0_2 -> ~nu_e nu_bar_e)
     1.12311600E-02    2    -1000012        12   # BR(chi^0_2 -> ~nu^*_e nu_e)
     1.12318372E-02    2     1000014       -14   # BR(chi^0_2 -> ~nu_mu nu_bar_mu)
     1.12318372E-02    2    -1000014        14   # BR(chi^0_2 -> ~nu^*_mu nu_mu)
     1.14233825E-02    2     1000016       -16   # BR(chi^0_2 -> ~nu_tau nu_bar_tau)
     1.14233825E-02    2    -1000016        16   # BR(chi^0_2 -> ~nu^*_tau nu_tau)
     3.11830099E-02    2     1000022        23   # BR(chi^0_2 -> chi^0_1 Z)
     6.54164149E-01    2     1000022        25   # BR(chi^0_2 -> chi^0_1 h^0)
     9.33000759E-07    2     1000022        22   # BR(chi^0_2 -> chi^0_1 photon)
#    BR                NDA      ID1      ID2       ID3
     2.66216149E-08    3     1000022         2        -2   # BR(chi^0_2 -> chi^0_1 u u_bar)
     2.66587707E-08    3     1000022         4        -4   # BR(chi^0_2 -> chi^0_1 c c_bar)
     9.81934423E-06    3     1000022         6        -6   # BR(chi^0_2 -> chi^0_1 t t_bar)
     2.04631434E-08    3     1000022         1        -1   # BR(chi^0_2 -> chi^0_1 d d_bar)
     2.06443307E-08    3     1000022         3        -3   # BR(chi^0_2 -> chi^0_1 s s_bar)
     5.13278965E-07    3     1000022         5        -5   # BR(chi^0_2 -> chi^0_1 b b_bar)
     4.23918343E-06    3     1000022        11       -11   # BR(chi^0_2 -> chi^0_1 e^- e^+)
     4.26376041E-06    3     1000022        13       -13   # BR(chi^0_2 -> chi^0_1 mu^- mu^+)
     1.09075142E-05    3     1000022        15       -15   # BR(chi^0_2 -> chi^0_1 tau^- tau^+)
     5.52144286E-12    3     1000024         1        -2   # BR(chi^0_2 -> chi^+_1 d u_bar)
     5.52144286E-12    3    -1000024        -1         2   # BR(chi^0_2 -> chi^-_1 d_bar u)
     1.81167501E-12    3     1000024        11       -12   # BR(chi^0_2 -> chi^+_1 e^- nu_bar_e)
     1.81167501E-12    3    -1000024       -11        12   # BR(chi^0_2 -> chi^-_1 e^+ nu_e)
     1.76736619E-12    3     1000024        13       -14   # BR(chi^0_2 -> chi^+_1 mu^- nu_bar_mu)
     1.76736619E-12    3    -1000024       -13        14   # BR(chi^0_2 -> chi^-_1 mu^+ nu_mu)
DECAY   1000025     6.81817784E-01   # chi^0_3
#    BR                NDA      ID1      ID2
     8.44097203E-04    2     2000011       -11   # BR(chi^0_3 -> ~e^-_R e^+)
     8.44097203E-04    2    -2000011        11   # BR(chi^0_3 -> ~e^+_R e^-)
     2.69507580E-05    2     1000011       -11   # BR(chi^0_3 -> ~e^-_L e^+)
     2.69507580E-05    2    -1000011        11   # BR(chi^0_3 -> ~e^+_L e^-)
     9.96549259E-04    2     2000013       -13   # BR(chi^0_3 -> ~mu^-_R mu^+)
     9.96549259E-04    2    -2000013        13   # BR(chi^0_3 -> ~mu^+_R mu^-)
     3.80157775E-05    2     1000013       -13   # BR(chi^0_3 -> ~mu^-_L mu^+)
     3.80157775E-05    2    -1000013        13   # BR(chi^0_3 -> ~mu^+_L mu^-)
     4.42956853E-02    2     1000015       -15   # BR(chi^0_3 -> ~tau^-_1 tau^+)
     4.42956853E-02    2    -1000015        15   # BR(chi^0_3 -> ~tau^+_1 tau^-)
     3.18319116E-03    2     2000015       -15   # BR(chi^0_3 -> ~tau^-_2 tau^+)
     3.18319116E-03    2    -2000015        15   # BR(chi^0_3 -> ~tau^+_2 tau^-)
     1.78670024E-04    2     1000012       -12   # BR(chi^0_3 -> ~nu_e nu_bar_e)
     1.78670024E-04    2    -1000012        12   # BR(chi^0_3 -> ~nu^*_e nu_e)
     1.78677843E-04    2     1000014       -14   # BR(chi^0_3 -> ~nu_mu nu_bar_mu)
     1.78677843E-04    2    -1000014        14   # BR(chi^0_3 -> ~nu^*_mu nu_mu)
     1.80886764E-04    2     1000016       -16   # BR(chi^0_3 -> ~nu_tau nu_bar_tau)
     1.80886764E-04    2    -1000016        16   # BR(chi^0_3 -> ~nu^*_tau nu_tau)
     8.58944164E-01    2     1000022        23   # BR(chi^0_3 -> chi^0_1 Z)
     4.06932447E-02    2     1000022        25   # BR(chi^0_3 -> chi^0_1 h^0)
     8.59811666E-07    2     1000022        22   # BR(chi^0_3 -> chi^0_1 photon)
     4.05028553E-09    2     1000023        22   # BR(chi^0_3 -> chi^0_2 photon)
#    BR                NDA      ID1      ID2       ID3
     2.53540530E-10    3     1000022         2        -2   # BR(chi^0_3 -> chi^0_1 u u_bar)
     3.23266763E-10    3     1000022         4        -4   # BR(chi^0_3 -> chi^0_1 c c_bar)
     4.01917582E-04    3     1000022         6        -6   # BR(chi^0_3 -> chi^0_1 t t_bar)
     6.75928065E-11    3     1000022         1        -1   # BR(chi^0_3 -> chi^0_1 d d_bar)
     3.63875440E-10    3     1000022         3        -3   # BR(chi^0_3 -> chi^0_1 s s_bar)
     7.99524103E-07    3     1000022         5        -5   # BR(chi^0_3 -> chi^0_1 b b_bar)
     1.25161224E-07    3     1000022        11       -11   # BR(chi^0_3 -> chi^0_1 e^- e^+)
     1.61729831E-07    3     1000022        13       -13   # BR(chi^0_3 -> chi^0_1 mu^- mu^+)
     1.02661640E-05    3     1000022        15       -15   # BR(chi^0_3 -> chi^0_1 tau^- tau^+)
     2.92697412E-06    3     1000023         2        -2   # BR(chi^0_3 -> chi^0_2 u u_bar)
     2.89405053E-06    3     1000023         4        -4   # BR(chi^0_3 -> chi^0_2 c c_bar)
     3.79859395E-06    3     1000023         1        -1   # BR(chi^0_3 -> chi^0_2 d d_bar)
     3.79827879E-06    3     1000023         3        -3   # BR(chi^0_3 -> chi^0_2 s s_bar)
     3.20587154E-06    3     1000023         5        -5   # BR(chi^0_3 -> chi^0_2 b b_bar)
     8.72811467E-07    3     1000023        11       -11   # BR(chi^0_3 -> chi^0_2 e^- e^+)
     8.72740802E-07    3     1000023        13       -13   # BR(chi^0_3 -> chi^0_2 mu^- mu^+)
     8.52589433E-07    3     1000023        15       -15   # BR(chi^0_3 -> chi^0_2 tau^- tau^+)
     5.22631849E-06    3     1000023        12       -12   # BR(chi^0_3 -> chi^0_2 nu_e nu_bar_e)
     1.31548433E-05    3     1000024         1        -2   # BR(chi^0_3 -> chi^+_1 d u_bar)
     1.31548433E-05    3    -1000024        -1         2   # BR(chi^0_3 -> chi^-_1 d_bar u)
     1.30493734E-05    3     1000024         3        -4   # BR(chi^0_3 -> chi^+_1 s c_bar)
     1.30493734E-05    3    -1000024        -3         4   # BR(chi^0_3 -> chi^-_1 s_bar c)
     4.38290403E-06    3     1000024        11       -12   # BR(chi^0_3 -> chi^+_1 e^- nu_bar_e)
     4.38290403E-06    3    -1000024       -11        12   # BR(chi^0_3 -> chi^-_1 e^+ nu_e)
     4.38287773E-06    3     1000024        13       -14   # BR(chi^0_3 -> chi^+_1 mu^- nu_bar_mu)
     4.38287773E-06    3    -1000024       -13        14   # BR(chi^0_3 -> chi^-_1 mu^+ nu_mu)
     4.31000394E-06    3     1000024        15       -16   # BR(chi^0_3 -> chi^+_1 tau^- nu_bar_tau)
     4.31000394E-06    3    -1000024       -15        16   # BR(chi^0_3 -> chi^-_1 tau^+ nu_tau)
DECAY   1000035     5.09454117E+00   # chi^0_4
#    BR                NDA      ID1      ID2
     3.71542218E-04    2     2000011       -11   # BR(chi^0_4 -> ~e^-_R e^+)
     3.71542218E-04    2    -2000011        11   # BR(chi^0_4 -> ~e^+_R e^-)
     4.80280017E-02    2     1000011       -11   # BR(chi^0_4 -> ~e^-_L e^+)
     4.80280017E-02    2    -1000011        11   # BR(chi^0_4 -> ~e^+_L e^-)
     3.72955553E-04    2     2000013       -13   # BR(chi^0_4 -> ~mu^-_R mu^+)
     3.72955553E-04    2    -2000013        13   # BR(chi^0_4 -> ~mu^+_R mu^-)
     4.80299214E-02    2     1000013       -13   # BR(chi^0_4 -> ~mu^-_L mu^+)
     4.80299214E-02    2    -1000013        13   # BR(chi^0_4 -> ~mu^+_L mu^-)
     7.76874591E-04    2     1000015       -15   # BR(chi^0_4 -> ~tau^-_1 tau^+)
     7.76874591E-04    2    -1000015        15   # BR(chi^0_4 -> ~tau^+_1 tau^-)
     4.85720483E-02    2     2000015       -15   # BR(chi^0_4 -> ~tau^-_2 tau^+)
     4.85720483E-02    2    -2000015        15   # BR(chi^0_4 -> ~tau^+_2 tau^-)
     5.35846684E-02    2     1000012       -12   # BR(chi^0_4 -> ~nu_e nu_bar_e)
     5.35846684E-02    2    -1000012        12   # BR(chi^0_4 -> ~nu^*_e nu_e)
     5.35857144E-02    2     1000014       -14   # BR(chi^0_4 -> ~nu_mu nu_bar_mu)
     5.35857144E-02    2    -1000014        14   # BR(chi^0_4 -> ~nu^*_mu nu_mu)
     5.38807199E-02    2     1000016       -16   # BR(chi^0_4 -> ~nu_tau nu_bar_tau)
     5.38807199E-02    2    -1000016        16   # BR(chi^0_4 -> ~nu^*_tau nu_tau)
     1.33879975E-01    2     1000024       -24   # BR(chi^0_4 -> chi^+_1 W^-)
     1.33879975E-01    2    -1000024        24   # BR(chi^0_4 -> chi^-_1 W^+)
     1.39787905E-03    2     1000022        23   # BR(chi^0_4 -> chi^0_1 Z)
     4.57632161E-04    2     1000023        23   # BR(chi^0_4 -> chi^0_2 Z)
     4.41753696E-02    2     1000025        23   # BR(chi^0_4 -> chi^0_3 Z)
     1.70466417E-02    2     1000022        25   # BR(chi^0_4 -> chi^0_1 h^0)
     5.47288383E-02    2     1000023        25   # BR(chi^0_4 -> chi^0_2 h^0)
     2.86900951E-06    2     1000025        25   # BR(chi^0_4 -> chi^0_3 h^0)
     3.01383369E-07    2     1000022        22   # BR(chi^0_4 -> chi^0_1 photon)
     6.62752975E-07    2     1000023        22   # BR(chi^0_4 -> chi^0_2 photon)
     5.82360442E-07    2     1000025        22   # BR(chi^0_4 -> chi^0_3 photon)
#    BR                NDA      ID1      ID2       ID3
     5.05828388E-08    3     1000022         2        -2   # BR(chi^0_4 -> chi^0_1 u u_bar)
     5.05770167E-08    3     1000022         4        -4   # BR(chi^0_4 -> chi^0_1 c c_bar)
     2.07705446E-05    3     1000022         6        -6   # BR(chi^0_4 -> chi^0_1 t t_bar)
     6.14183918E-08    3     1000022         1        -1   # BR(chi^0_4 -> chi^0_1 d d_bar)
     6.14265958E-08    3     1000022         3        -3   # BR(chi^0_4 -> chi^0_1 s s_bar)
     9.37022271E-08    3     1000022         5        -5   # BR(chi^0_4 -> chi^0_1 b b_bar)
     2.41181195E-07    3     1000022        11       -11   # BR(chi^0_4 -> chi^0_1 e^- e^+)
     2.41712465E-07    3     1000022        13       -13   # BR(chi^0_4 -> chi^0_1 mu^- mu^+)
     3.86762924E-07    3     1000022        15       -15   # BR(chi^0_4 -> chi^0_1 tau^- tau^+)
     1.39661898E-09    3     1000023         2        -2   # BR(chi^0_4 -> chi^0_2 u u_bar)
     1.39489816E-09    3     1000023         4        -4   # BR(chi^0_4 -> chi^0_2 c c_bar)
     1.24342761E-09    3     1000023         1        -1   # BR(chi^0_4 -> chi^0_2 d d_bar)
     1.24402630E-09    3     1000023         3        -3   # BR(chi^0_4 -> chi^0_2 s s_bar)
     3.02140892E-09    3     1000023         5        -5   # BR(chi^0_4 -> chi^0_2 b b_bar)
     2.70242527E-07    3     1000023        11       -11   # BR(chi^0_4 -> chi^0_2 e^- e^+)
     2.70281832E-07    3     1000023        13       -13   # BR(chi^0_4 -> chi^0_2 mu^- mu^+)
     2.74530955E-07    3     1000023        15       -15   # BR(chi^0_4 -> chi^0_2 tau^- tau^+)
     5.43072603E-07    3     1000023        12       -12   # BR(chi^0_4 -> chi^0_2 nu_e nu_bar_e)
     3.74246960E-13    3     1000025         2        -2   # BR(chi^0_4 -> chi^0_3 u u_bar)
     4.08560147E-13    3     1000025         4        -4   # BR(chi^0_4 -> chi^0_3 c c_bar)
     6.80061949E-13    3     1000025         1        -1   # BR(chi^0_4 -> chi^0_3 d d_bar)
     1.10423647E-12    3     1000025         3        -3   # BR(chi^0_4 -> chi^0_3 s s_bar)
     1.15052554E-09    3     1000025         5        -5   # BR(chi^0_4 -> chi^0_3 b b_bar)
     2.30541000E-11    3     1000025        11       -11   # BR(chi^0_4 -> chi^0_3 e^- e^+)
     3.82346480E-11    3     1000025        13       -13   # BR(chi^0_4 -> chi^0_3 mu^- mu^+)
     4.27005406E-09    3     1000025        15       -15   # BR(chi^0_4 -> chi^0_3 tau^- tau^+)
     4.38203306E-10    3     1000025        12       -12   # BR(chi^0_4 -> chi^0_3 nu_e nu_bar_e)
     9.22482551E-10    3     1000024         1        -2   # BR(chi^0_4 -> chi^+_1 d u_bar)
     9.22482551E-10    3    -1000024        -1         2   # BR(chi^0_4 -> chi^-_1 d_bar u)
     9.23457207E-10    3     1000024         3        -4   # BR(chi^0_4 -> chi^+_1 s c_bar)
     9.23457207E-10    3    -1000024        -3         4   # BR(chi^0_4 -> chi^-_1 s_bar c)
     1.72748962E-07    3     1000024        11       -12   # BR(chi^0_4 -> chi^+_1 e^- nu_bar_e)
     1.72748962E-07    3    -1000024       -11        12   # BR(chi^0_4 -> chi^-_1 e^+ nu_e)
     1.72775904E-07    3     1000024        13       -14   # BR(chi^0_4 -> chi^+_1 mu^- nu_bar_mu)
     1.72775904E-07    3    -1000024       -13        14   # BR(chi^0_4 -> chi^-_1 mu^+ nu_mu)
     1.77956818E-07    3     1000024        15       -16   # BR(chi^0_4 -> chi^+_1 tau^- nu_bar_tau)
     1.77956818E-07    3    -1000024       -15        16   # BR(chi^0_4 -> chi^-_1 tau^+ nu_tau)
DECAY   1000021     9.78672298E+00   # ~g
#    BR                NDA      ID1      ID2
     4.61105547E-02    2     2000002        -2   # BR(~g -> ~u_R u_bar)
     4.61105547E-02    2    -2000002         2   # BR(~g -> ~u^*_R u)
     6.49506395E-03    2     1000002        -2   # BR(~g -> ~u_L u_bar)
     6.49506395E-03    2    -1000002         2   # BR(~g -> ~u^*_L u)
     4.61104762E-02    2     2000004        -4   # BR(~g -> ~c_R c_bar)
     4.61104762E-02    2    -2000004         4   # BR(~g -> ~c^*_R c)
     6.49463676E-03    2     1000004        -4   # BR(~g -> ~c_L c_bar)
     6.49463676E-03    2    -1000004         4   # BR(~g -> ~c^*_L c)
     5.97143824E-06    2     1000006        -4   # BR(~g -> ~t_1 c_bar)
     5.97143824E-06    2    -1000006         4   # BR(~g -> ~t^*_1 c)
     1.62344492E-01    2     1000006        -6   # BR(~g -> ~t_1 t_bar)
     1.62344492E-01    2    -1000006         6   # BR(~g -> ~t^*_1 t)
     5.11151771E-02    2     2000001        -1   # BR(~g -> ~d_R d_bar)
     5.11151771E-02    2    -2000001         1   # BR(~g -> ~d^*_R d)
     6.26662127E-03    2     1000001        -1   # BR(~g -> ~d_L d_bar)
     6.26662127E-03    2    -1000001         1   # BR(~g -> ~d^*_L d)
     5.11161436E-02    2     2000003        -3   # BR(~g -> ~s_R s_bar)
     5.11161436E-02    2    -2000003         3   # BR(~g -> ~s^*_R s)
     6.26711576E-03    2     1000003        -3   # BR(~g -> ~s_L s_bar)
     6.26711576E-03    2    -1000003         3   # BR(~g -> ~s^*_L s)
     5.37597440E-02    2     1000005        -5   # BR(~g -> ~b_1 b_bar)
     5.37597440E-02    2    -1000005         5   # BR(~g -> ~b^*_1 b)
     4.02579441E-02    2     2000005        -5   # BR(~g -> ~b_2 b_bar)
     4.02579441E-02    2    -2000005         5   # BR(~g -> ~b^*_2 b)
     7.20571088E-08    2     1000039        21   # BR(~g -> ~G g)
     6.55220136E-06    2     1000022        21   # BR(~g -> chi^0_1 g)
     1.44656159E-04    2     1000023        21   # BR(~g -> chi^0_2 g)
     1.75124868E-04    2     1000025        21   # BR(~g -> chi^0_3 g)
     3.77667525E-05    2     1000035        21   # BR(~g -> chi^0_4 g)
#    BR                NDA      ID1      ID2       ID3
     3.65467721E-04    3     1000022         6        -6   # BR(~g -> chi^0_1 t t_bar)
     1.00957959E-02    3     1000023         6        -6   # BR(~g -> chi^0_2 t t_bar)
     1.22905240E-02    3     1000025         6        -6   # BR(~g -> chi^0_3 t t_bar)
     1.01696100E-02    3     1000035         6        -6   # BR(~g -> chi^0_4 t t_bar)
     9.42669813E-04    3     1000024         5        -6   # BR(~g -> chi^+_1 b t_bar)
     9.42669813E-04    3    -1000024        -5         6   # BR(~g -> chi^-_1 b_bar t)
     6.07060508E-03    3     1000037         5        -6   # BR(~g -> chi^+_2 b t_bar)
     6.07060508E-03    3    -1000037        -5         6   # BR(~g -> chi^-_2 b_bar t)
DECAY        25     2.87641406E-03   # h^0
#    BR                NDA      ID1      ID2
     7.94611112E-09    2          11       -11   # BR(h^0 -> e^- e^+)
     3.39718468E-04    2          13       -13   # BR(h^0 -> mu^- mu^+)
     9.58659118E-02    2          15       -15   # BR(h^0 -> tau^- tau^+)
     6.80481283E-07    2           1        -1   # BR(h^0 -> d d_bar)
     2.45653299E-04    2           3        -3   # BR(h^0 -> s s_bar)
     6.35561681E-01    2           5        -5   # BR(h^0 -> b b_bar)
     1.56030965E-07    2           2        -2   # BR(h^0 -> u u_bar)
     4.02578321E-02    2           4        -4   # BR(h^0 -> c c_bar)
     9.20906951E-02    2          21        21   # BR(h^0 -> g g)
     3.14933747E-03    2          22        22   # BR(h^0 -> photon photon)
# writing decays into V V* as 3-body decays
#    BR                NDA      ID1      ID2       ID3
     6.06593835E-03    3          24        11        12   # BR(h^0 -> W^+ e^- nu_e)
     6.06593835E-03    3          24        13        14   # BR(h^0 -> W^+ mu^- nu_mu)
     6.06593835E-03    3          24        15        16   # BR(h^0 -> W^+ tau^- nu_tau)
     2.12307842E-02    3          24         1        -2   # BR(h^0 -> W^+ d u_bar)
     2.12307842E-02    3          24         3        -4   # BR(h^0 -> W^+ s c_bar)
     6.06593835E-03    3         -24       -11       -12   # BR(h^0 -> W^- e^+ nu_bar_e)
     6.06593835E-03    3         -24       -13       -14   # BR(h^0 -> W^- mu^+ nu_bar_mu)
     6.06593835E-03    3         -24       -15       -16   # BR(h^0 -> W^- tau^+ nu_bar_tau)
     2.12307842E-02    3         -24        -1         2   # BR(h^0 -> W^- d_bar u)
     2.12307842E-02    3         -24        -3         4   # BR(h^0 -> W^- s_bar c)
     3.75297208E-04    3          23        11       -11   # BR(h^0 -> Z e^- e^+)
     3.75297208E-04    3          23        13       -13   # BR(h^0 -> Z mu^- mu^+)
     3.77531120E-04    3          23        15       -15   # BR(h^0 -> Z tau^- tau^+)
     2.23391195E-03    3          23        12       -12   # BR(h^0 -> Z nu_e nu_bar_e)
     1.74245132E-03    3          23         1        -1   # BR(h^0 -> Z d d_bar)
     1.74245132E-03    3          23         3        -3   # BR(h^0 -> Z s s_bar)
     1.68660353E-03    3          23         5        -5   # BR(h^0 -> Z b b_bar)
     1.29566893E-03    3          23         2        -2   # BR(h^0 -> Z u u_bar)
     1.34034717E-03    3          23         4        -4   # BR(h^0 -> Z c c_bar)
DECAY        35     2.27152634E+00   # H^0
#    BR                NDA      ID1      ID2
     8.76121740E-09    2          11       -11   # BR(H^0 -> e^- e^+)
     3.74569815E-04    2          13       -13   # BR(H^0 -> mu^- mu^+)
     1.05961417E-01    2          15       -15   # BR(H^0 -> tau^- tau^+)
     6.19766892E-07    2           1        -1   # BR(H^0 -> d d_bar)
     2.23735701E-04    2           3        -3   # BR(H^0 -> s s_bar)
     5.98376692E-01    2           5        -5   # BR(H^0 -> b b_bar)
     1.97553091E-11    2           2        -2   # BR(H^0 -> u u_bar)
     5.09814202E-06    2           4        -4   # BR(H^0 -> c c_bar)
     2.75946108E-01    2           6        -6   # BR(H^0 -> t t_bar)
     6.26280236E-05    2     2000011  -2000011   # BR(H^0 -> ~e^-_R ~e^+_R)
     6.25988669E-05    2     2000013  -2000013   # BR(H^0 -> ~mu^-_R ~mu^+_R)
     5.46053520E-05    2     1000015  -1000015   # BR(H^0 -> ~tau^-_1 ~tau^+_1)
     3.47559439E-09    2     1000015  -2000015   # BR(H^0 -> ~tau^-_1 ~tau^+_2)
     3.47559439E-09    2    -1000015   2000015   # BR(H^0 -> ~tau^+_1 ~tau^-_2)
     9.46107506E-04    2     1000022   1000022   # BR(H^0 -> chi^0_1 chi^0_1)
     5.62829000E-03    2          23        23   # BR(H^0 -> Z Z)
     1.06724896E-02    2          24       -24   # BR(H^0 -> W^+ W^-)
     1.52802796E-03    2          25        25   # BR(H^0 -> h^0 h^0)
     1.55470251E-04    2          21        21   # BR(H^0 -> g g)
     1.52657745E-06    2          22        22   # BR(H^0 -> photon photon)
DECAY        36     2.25797167E+00   # A^0
#    BR                NDA      ID1      ID2
     8.81501905E-09    2          11       -11   # BR(A^0 -> e^- e^+)
     3.76870017E-04    2          13       -13   # BR(A^0 -> mu^- mu^+)
     1.06612981E-01    2          15       -15   # BR(A^0 -> tau^- tau^+)
     6.23571661E-07    2           1        -1   # BR(A^0 -> d d_bar)
     2.25109206E-04    2           3        -3   # BR(A^0 -> s s_bar)
     6.02052212E-01    2           5        -5   # BR(A^0 -> b b_bar)
     1.93097567E-11    2           2        -2   # BR(A^0 -> u u_bar)
     4.98315533E-06    2           4        -4   # BR(A^0 -> c c_bar)
     2.85208307E-01    2           6        -6   # BR(A^0 -> t t_bar)
     8.39853208E-09    2     1000015  -2000015   # BR(A^0 -> ~tau^-_1 ~tau^+_2)
     8.39853208E-09    2    -1000015   2000015   # BR(A^0 -> ~tau^+_1 ~tau^-_2)
     4.81650683E-03    2     1000022   1000022   # BR(A^0 -> chi^0_1 chi^0_1)
     6.05904308E-04    2          25        23   # BR(A^0 -> h^0 Z)
     9.57990109E-05    2          21        21   # BR(A^0 -> g g)
     6.78343859E-07    2          22        22   # BR(A^0 -> photon photon)
DECAY        37     1.94808845E+00   # H^+
#    BR                NDA      ID1      ID2
     1.02414368E-08    2         -11        12   # BR(H^+ -> e^+ nu_e)
     4.37853900E-04    2         -13        12   # BR(H^+ -> mu^+ nu_e)
     1.23864750E-01    2         -15        12   # BR(H^+ -> tau^+ nu_e)
     6.36516160E-07    2          -1         2   # BR(H^+ -> d_bar u)
     2.34860986E-04    2          -3         4   # BR(H^+ -> s_bar c)
     8.74772723E-01    2          -5         6   # BR(H^+ -> b_bar t)
     6.57326515E-10    2    -2000013   1000014   # BR(H^+ -> ~mu^+_R ~nu_mu)
     2.52688783E-07    2    -1000015   1000016   # BR(H^+ -> ~tau^+_1 ~nu_tau)
     6.88911695E-04    2          25        24   # BR(H^+ -> h^0 W^+)
DECAY         6     2.43000000E+00   # top
#    BR                NDA      ID1      ID2
     1.00000000E+00    2           5        24   # BR(t -> b W)
Block HiggsBoundsInputHiggsCouplingsFermions
# ScalarNormEffCoupSq PseudoSNormEffCoupSq NP IP1 IP2 IP2
    1.02902661E+00    0.00000000E+00        3  25   5   5  # h0-b-b eff. coupling^2, normalised to SM
    9.08985429E+01    0.00000000E+00        3  35   5   5  # H0-b-b eff. coupling^2, normalised to SM
    0.00000000E+00    9.09275695E+01        3  36   5   5  # A0-b-b eff. coupling^2, normalised to SM
#
    9.99680772E-01    0.00000000E+00        3  25   6   6  # h0-t-t eff. coupling^2, normalised to SM
    1.13169924E-02    0.00000000E+00        3  35   6   6  # H0-t-t eff. coupling^2, normalised to SM
    0.00000000E+00    1.09977645E-02        3  36   6   6  # A0-t-t eff. coupling^2, normalised to SM
#
    1.02902661E+00    0.00000000E+00        3  25  15  15  # h0-tau-tau eff. coupling^2, normalised to SM
    9.08985429E+01    0.00000000E+00        3  35  15  15  # H0-tau-tau eff. coupling^2, normalised to SM
    0.00000000E+00    9.09275695E+01        3  36  15  15  # A0-tau-tau eff. coupling^2, normalised to SM
#
Block HiggsBoundsInputHiggsCouplingsBosons
    9.99997716E-01        3  25  24  24  # h0-W-W eff. coupling^2, normalised to SM
    2.28386534E-06        3  35  24  24  # H0-W-W eff. coupling^2, normalised to SM
    0.00000000E+00        3  36  24  24  # A0-W-W eff. coupling^2, normalised to SM
#
    9.99997716E-01        3  25  23  23  # h0-Z-Z eff. coupling^2, normalised to SM
    2.28386534E-06        3  35  23  23  # H0-Z-Z eff. coupling^2, normalised to SM
    0.00000000E+00        3  36  23  23  # A0-Z-Z eff. coupling^2, normalised to SM
#
    1.15944212E+00        3  25  21  21  # h0-g-g eff. coupling^2, normalised to SM
    8.34056311E-03        3  35  21  21  # H0-g-g eff. coupling^2, normalised to SM
    1.28919920E-01        3  36  21  21  # A0-g-g eff. coupling^2, normalised to SM
#
    0.00000000E+00        3  25  25  23  # h0-h0-Z eff. coupling^2, normalised to SM
    0.00000000E+00        3  35  25  23  # H0-h0-Z eff. coupling^2, normalised to SM
    2.28386534E-06        3  36  25  23  # A0-h0-Z eff. coupling^2, normalised to SM
    0.00000000E+00        3  35  35  23  # H0-H0-Z eff. coupling^2, normalised to SM
    9.99997716E-01        3  36  35  23  # A0-H0-Z eff. coupling^2, normalised to SM
    0.00000000E+00        3  36  36  23  # A0-A0-Z eff. coupling^2, normalised to SM
#
    0.00000000E+00        4  25  21  21  23  # h0-g-g-Z eff. coupling^2, normalised to SM
    0.00000000E+00        4  35  21  21  23  # H0-g-g-Z eff. coupling^2, normalised to SM
    0.00000000E+00        4  36  21  21  23  # A0-g-g-Z eff. coupling^2, normalised to SM
Block SPhenoLowEnergy  # low energy observables
    1    3.35691269E-04   # BR(b -> s gamma)
    2    1.58896321E-06   # BR(b -> s mu+ mu-)
    3    3.52865873E-05   # BR(b -> s nu nu)
    4    2.09104989E-15   # BR(Bd -> e+ e-)
    5    8.93272819E-11   # BR(Bd -> mu+ mu-)
    6    1.86978839E-08   # BR(Bd -> tau+ tau-)
    7    7.04685682E-14   # BR(Bs -> e+ e-)
    8    3.01041514E-09   # BR(Bs -> mu+ mu-)
    9    6.38467495E-07   # BR(Bs -> tau+ tau-)
   10    9.65589549E-05   # BR(B_u -> tau nu)
   11    9.97566976E-01   # BR(B_u -> tau nu)/BR(B_u -> tau nu)_SM
   12    5.41931134E-01   # |Delta(M_Bd)| [ps^-1] 
   13    1.93632648E+01   # |Delta(M_Bs)| [ps^-1] 
   16    2.15666732E-03   # epsilon_K
   17    2.28165149E-15   # Delta(M_K)
   18    2.48216572E-11   # BR(K^0 -> pi^0 nu nu)
   19    8.29578949E-11   # BR(K^+ -> pi^+ nu nu)
   20    3.61833326E-15   # Delta(g-2)_electron/2
   21    1.54696734E-10   # Delta(g-2)_muon/2
   22    4.38847181E-08   # Delta(g-2)_tau/2
   23    0.00000000E+00   # electric dipole moment of the electron
   24    0.00000000E+00   # electric dipole moment of the muon
   25    0.00000000E+00   # electric dipole moment of the tau
   26    0.00000000E+00   # Br(mu -> e gamma)
   27    0.00000000E+00   # Br(tau -> e gamma)
   28    0.00000000E+00   # Br(tau -> mu gamma)
   29    0.00000000E+00   # Br(mu -> 3 e)
   30    0.00000000E+00   # Br(tau -> 3 e)
   31    0.00000000E+00   # Br(tau -> 3 mu)
   39   -4.54551880E-06   # Delta(rho_parameter)
   40    0.00000000E+00   # BR(Z -> e mu)
   41    0.00000000E+00   # BR(Z -> e tau)
   42    0.00000000E+00   # BR(Z -> mu tau)
Block FWCOEF Q=  1.60000000E+02  # Wilson coefficients at scale Q
#    id        order  M        value         comment
     0305 4422   00   0    -1.88864443E-01   # C7
     0305 4422   00   2    -2.04120966E-01   # C7
     0305 4322   00   2    -3.04507224E-04   # C7'
     0305 6421   00   0    -9.52422437E-02   # C8
     0305 6421   00   2    -1.15522188E-01   # C8
     0305 6321   00   2    -4.00301088E-04   # C8'
 03051111 4133   00   0     1.19130997E+00   # C9 e+e-
 03051111 4133   00   2     1.19215045E+00   # C9 e+e-
 03051111 4233   00   2    -1.19958010E-06   # C9' e+e-
 03051111 4137   00   0    -4.01629197E+00   # C10 e+e-
 03051111 4137   00   2    -4.01505615E+00   # C10 e+e-
 03051111 4237   00   2     2.93031410E-05   # C10' e+e-
 03051313 4133   00   0     1.19130997E+00   # C9 mu+mu-
 03051313 4133   00   2     1.19215031E+00   # C9 mu+mu-
 03051313 4233   00   2    -1.19960312E-06   # C9' mu+mu-
 03051313 4137   00   0    -4.01629197E+00   # C10 mu+mu-
 03051313 4137   00   2    -4.01505630E+00   # C10 mu+mu-
 03051313 4237   00   2     2.93031579E-05   # C10' mu+mu-
 03051212 4137   00   0     1.50600412E+00   # C11 nu_1 nu_1
 03051212 4137   00   2     1.50571353E+00   # C11 nu_1 nu_1
 03051212 4237   00   2    -7.02391248E-06   # C11' nu_1 nu_1
 03051414 4137   00   0     1.50600412E+00   # C11 nu_2 nu_2
 03051414 4137   00   2     1.50571353E+00   # C11 nu_2 nu_2
 03051414 4237   00   2    -7.02390739E-06   # C11' nu_2 nu_2
 03051616 4137   00   0     1.50600412E+00   # C11 nu_3 nu_3
 03051616 4137   00   2     1.50571355E+00   # C11 nu_3 nu_3
 03051616 4237   00   2    -7.02247064E-06   # C11' nu_3 nu_3
Block IMFWCOEF Q=  1.60000000E+02  # Im(Wilson coefficients) at scale Q
#    id        order  M        value         comment
     0305 4422   00   0     3.86123716E-07   # C7
     0305 4422   00   2     2.97916515E-06   # C7
     0305 4322   00   2     6.99323445E-07   # C7'
     0305 6421   00   0     3.30740352E-07   # C8
     0305 6421   00   2     4.09516779E-07   # C8
     0305 6321   00   2     2.69239590E-07   # C8'
 03051111 4133   00   2     3.71444649E-08   # C9 e+e-
 03051111 4233   00   2     2.47039556E-08   # C9' e+e-
 03051111 4137   00   2    -1.74852803E-06   # C10 e+e-
 03051111 4237   00   2    -5.95874285E-07   # C10' e+e-
 03051313 4133   00   2     3.71426763E-08   # C9 mu+mu-
 03051313 4233   00   2     2.47039262E-08   # C9' mu+mu-
 03051313 4137   00   2    -1.74852927E-06   # C10 mu+mu-
 03051313 4237   00   2    -5.95874365E-07   # C10' mu+mu-
 03051212 4137   00   2     5.17851335E-07   # C11 nu_1 nu_1
 03051212 4237   00   2     1.42830293E-07   # C11' nu_1 nu_1
 03051414 4137   00   2     5.17851305E-07   # C11 nu_2 nu_2
 03051414 4237   00   2     1.42830293E-07   # C11' nu_2 nu_2
 03051616 4137   00   2     5.17842712E-07   # C11 nu_3 nu_3
 03051616 4237   00   2     1.42830294E-07   # C11' nu_3 nu_3
