# SUSY Les Houches Accord 2 - MSSM spectrum + Decays
# SPheno v3.3.6  
# W. Porod, Comput. Phys. Commun. 153 (2003) 275-315, hep-ph/0301101
# in case of problems send email to porod@physik.uni-wuerzburg.de
# Created: 06.12.2016,  13:43
Block SPINFO         # Program information
     1   SPheno      # spectrum calculator
     2   v3.3.6      # version number
#
Block SPhenoINFO     # SPheno specific information
    1      2         # using 2-loop RGEs
    2      1         # using running masses for boundary conditions at mZ
Block MODSEL  # Model selection
    1    2    # mGMSB model
Block MINPAR  # Input parameters
    1    1.50000000E+05  # Lambda, scale of SUSY breaking
    2    5.00000000E+05  # M_M, messenger mass scale
    3    1.00000000E+01  # tanb at m_Z   
    4    1.00000000E+00  # Sign(mu)
    5    3.00000000E+00  # N_5 number of effective five-plets
    6    1.00000000E+05  # c_grav, Gravitino mass factor
Block gauge Q=  5.00000000E+05  # (GMSB scale)
   1    4.96477023E-01  # g'(Q)^DRbar
   2    6.48931088E-01  # g(Q)^DRbar
   3    9.26097058E-01  # g3(Q)^DRbar
Block SMINPUTS  # SM parameters
         1     1.27931273E+02  # alpha_em^-1(MZ)^MSbar
         2     1.16637900E-05  # G_mu [GeV^-2]
         3     1.18400000E-01  # alpha_s(MZ)^MSbar
         4     9.11876000E+01  # m_Z(pole)
         5     4.18000000E+00  # m_b(m_b), MSbar
         6     1.73100000E+02  # m_t(pole)
         7     1.77682000E+00  # m_tau(pole)
         8     0.00000000E+00  # m_nu_3
        11     5.10998930E-04  # m_e(pole)
        12     0.00000000E+00  # m_nu_1
        13     1.05658372E-01  # m_muon(pole)
        14     0.00000000E+00  # m_nu_2
        21     5.00000000E-03  # m_d(2 GeV), MSbar
        22     2.50000000E-03  # m_u(2 GeV), MSbar
        23     9.50000000E-02  # m_s(2 GeV), MSbar
        24     1.27000000E+00  # m_c(m_c), MSbar
Block gauge Q=  2.71002247E+03  # (SUSY scale)
   1    3.65136668E-01  # g'(Q)^DRbar
   2    6.38485435E-01  # g(Q)^DRbar
   3    1.01332164E+00  # g3(Q)^DRbar
Block Yu Q=  2.71002247E+03  # (SUSY scale)
#   1  1     6.84903723E-06   # Y_u(Q)^DRbar
  1  1     0.0   # Y_u(Q)^DRbar
#   2  2     3.47931127E-03   # Y_c(Q)^DRbar
  2  2     0.0   # Y_c(Q)^DRbar
#   3  3     8.39542001E-01   # Y_t(Q)^DRbar
  3  3     0.0   # Y_t(Q)^DRbar
Block Yd Q=  2.71002247E+03  # (SUSY scale)
#   1  1     1.29014708E-04   # Y_d(Q)^DRbar
  1  1     0.0   # Y_d(Q)^DRbar
#   2  2     2.45127848E-03   # Y_s(Q)^DRbar
  2  2     0.0   # Y_s(Q)^DRbar
#   3  3     1.26636969E-01   # Y_b(Q)^DRbar
  3  3     0.0   # Y_b(Q)^DRbar
Block Ye Q=  2.71002247E+03  # (SUSY scale)
#   1  1     2.84615791E-05   # Y_e(Q)^DRbar
  1  1     0.0   # Y_e(Q)^DRbar
#   2  2     5.88495517E-03   # Y_mu(Q)^DRbar
  2  2     0.0   # Y_mu(Q)^DRbar
#   3  3     9.89812335E-02   # Y_tau(Q)^DRbar
  3  3     0.0   # Y_tau(Q)^DRbar
Block Au Q=  2.71002247E+03  # (SUSY scale)
#   1  1    -9.30168991E+02   # A_u(Q)^DRbar
  1  1    0.0   # A_u(Q)^DRbar
#   2  2    -9.30167853E+02   # A_c(Q)^DRbar
  2  2    0.0   # A_c(Q)^DRbar
#   3  3    -8.73612095E+02   # A_t(Q)^DRbar
  3  3    0.0   # A_t(Q)^DRbar
Block Ad Q=  2.71002247E+03  # (SUSY scale)
#   1  1    -9.93785609E+02   # A_d(Q)^DRbar
  1  1    0.0   # A_d(Q)^DRbar
#   2  2    -9.93784792E+02   # A_s(Q)^DRbar
  2  2    0.0   # A_s(Q)^DRbar
#   3  3    -9.74177922E+02   # A_b(Q)^DRbar
  3  3    0.0   # A_b(Q)^DRbar
Block Ae Q=  2.71002247E+03  # (SUSY scale)
#   1  1    -1.13361887E+02   # A_e(Q)^DRbar
  1  1    0.0   # A_e(Q)^DRbar
#   2  2    -1.13361461E+02   # A_mu(Q)^DRbar
  2  2    0.0   # A_mu(Q)^DRbar
#   3  3    -1.13241482E+02   # A_tau(Q)^DRbar
  3  3    0.0   # A_tau(Q)^DRbar
Block MSOFT Q=  2.71002247E+03  # soft SUSY breaking masses at Q
   1    6.38690896E+02  # M_1
   2    1.16752564E+03  # M_2
   3    2.95479590E+03  # M_3
  21    8.41527170E+05  # M^2_(H,d)
  22   -8.98280661E+05  # M^2_(H,u)
  31    9.40107762E+02  # M_(L,11)
  32    9.40105624E+02  # M_(L,22)
  33    9.39502626E+02  # M_(L,33)
  34    4.59212910E+02  # M_(E,11)
  35    4.59204008E+02  # M_(E,22)
  36    4.56687948E+02  # M_(E,33)
  41    2.92208440E+03  # M_(Q,11)
  42    2.92208195E+03  # M_(Q,22)
  43    2.82540588E+03  # M_(Q,33)
  44    2.79747116E+03  # M_(U,11)
  45    2.79746774E+03  # M_(U,22)
  46    2.59255453E+03  # M_(U,33)
  47    2.78506239E+03  # M_(D,11)
  48    2.78506064E+03  # M_(D,22)
  49    2.78041713E+03  # M_(D,33)
Block MASS  # Mass spectrum
#   PDG code      mass          particle
         6     1.73100000E+02  # m_t(pole)
        23     9.11876000E+01  # m_Z(pole)
        24     8.04011917E+01  # W+
        15     1.77682000E+00  # m_tau(pole)
        25     1.20194380E+02  # h0
        35     1.40910436E+03  # H0
        36     1.40888332E+03  # A0
        37     1.41152712E+03  # H+
   1000001     3.03555508E+03  # ~d_L
   2000001     2.89251514E+03  # ~d_R
   1000002     3.03452390E+03  # ~u_L
   2000002     2.90401397E+03  # ~u_R
   1000003     3.03555224E+03  # ~s_L
   2000003     2.89251301E+03  # ~s_R
   1000004     3.03452120E+03  # ~c_L
   2000004     2.90400993E+03  # ~c_R
   1000005     2.88639258E+03  # ~b_1
   2000005     2.92236764E+03  # ~b_2
   1000006     2.66631771E+03  # ~t_1
   2000006     2.92808022E+03  # ~t_2
   1000011     9.59263932E+02  # ~e_L-
   2000011     4.76853851E+02  # ~e_R-
   1000012     9.55615728E+02  # ~nu_eL
   1000013     9.59261921E+02  # ~mu_L-
   2000013     4.76841221E+02  # ~mu_R-
   1000014     9.55612817E+02  # ~nu_muL
   1000015     4.73270636E+02  # ~tau_1-
   2000015     9.58694725E+02  # ~tau_2-
   1000016     9.54792585E+02  # ~nu_tauL
   1000021     3.11362829E+03  # ~g
   1000022     6.22752880E+02  # ~chi_10
   1000023     1.02877276E+03  # ~chi_20
   1000025    -1.04919797E+03  # ~chi_30
   1000035     1.21626972E+03  # ~chi_40
   1000024     1.02713726E+03  # ~chi_1+
   1000037     1.21635155E+03  # ~chi_2+
   1000039     1.80000000E-03  # ~G
# Higgs mixing
Block alpha # Effective Higgs mixing angle
          -1.05849069E-01   # alpha
Block Hmix Q=  2.71002247E+03  # Higgs mixing parameters
   1    1.03495371E+03  # mu
   2    9.52031809E+00  # tan[beta](Q)
   3    2.43183699E+02  # v(Q)
   4    1.77062875E+06  # m^2_A(Q)
Block stopmix # stop mixing matrix
   1  1     1.15241559E-01   # Re[R_st(1,1)]
   1  2     9.93337497E-01   # Re[R_st(1,2)]
   2  1    -9.93337497E-01   # Re[R_st(2,1)]
   2  2     1.15241559E-01   # Re[R_st(2,2)]
Block sbotmix # sbottom mixing matrix
   1  1     1.28708333E-01   # Re[R_sb(1,1)]
   1  2     9.91682492E-01   # Re[R_sb(1,2)]
   2  1    -9.91682492E-01   # Re[R_sb(2,1)]
   2  2     1.28708333E-01   # Re[R_sb(2,2)]
Block staumix # stau mixing matrix
   1  1     2.61058737E-02   # Re[R_sta(1,1)]
   1  2     9.99659184E-01   # Re[R_sta(1,2)]
   2  1    -9.99659184E-01   # Re[R_sta(2,1)]
   2  2     2.61058737E-02   # Re[R_sta(2,2)]
Block Nmix # neutralino mixing matrix
   1  1    -9.96422308E-01   # Re[N(1,1)]
   1  2     7.27406151E-03   # Re[N(1,2)]
   1  3    -7.02432100E-02   # Re[N(1,3)]
   1  4     4.64280506E-02   # Re[N(1,4)]
   2  1     8.01582251E-02   # Re[N(2,1)]
   2  2     3.40912524E-01   # Re[N(2,2)]
   2  3    -6.67319093E-01   # Re[N(2,3)]
   2  4     6.57296386E-01   # Re[N(2,4)]
   3  1     1.66561503E-02   # Re[N(3,1)]
   3  2    -2.21846201E-02   # Re[N(3,2)]
   3  3    -7.06187736E-01   # Re[N(3,3)]
   3  4    -7.07480951E-01   # Re[N(3,4)]
   4  1    -2.09717907E-02   # Re[N(4,1)]
   4  2     9.39805076E-01   # Re[N(4,2)]
   4  3     2.25942473E-01   # Re[N(4,3)]
   4  4    -2.55492860E-01   # Re[N(4,4)]
Block Umix # chargino mixing matrix
   1  1    -3.19000793E-01   # Re[U(1,1)]
   1  2     9.47754448E-01   # Re[U(1,2)]
   2  1     9.47754448E-01   # Re[U(2,1)]
   2  2     3.19000793E-01   # Re[U(2,2)]
Block Vmix # chargino mixing matrix
   1  1    -3.60669268E-01   # Re[V(1,1)]
   1  2     9.32693776E-01   # Re[V(1,2)]
   2  1     9.32693776E-01   # Re[V(2,1)]
   2  2     3.60669268E-01   # Re[V(2,2)]
DECAY        23     2.49520000E+00   # Z
DECAY        24     2.08500000E+00   # W
DECAY   2000011     8.58467452E-14   # ~e^-_R
#    BR                NDA      ID1      ID2
     1.01580479E-07    2     1000039        11   # BR(~e^-_R -> ~G e^-)
#    BR                NDA      ID1      ID2       ID3
     3.67643000E-01    3     1000015        11       -15   # BR(~e^-_R -> ~tau^-_1 e^- tau^+)
     6.32356899E-01    3    -1000015        15        11   # BR(~e^-_R -> ~tau^+_1 tau^- e^-)
     5.48308017E-12    3     1000015        12       -16   # BR(~e^-_R -> ~tau^-_1 nu_e nu_bar_tau)
DECAY   1000011     4.12045642E-01   # ~e^-_L
#    BR                NDA      ID1      ID2
     9.99999966E-01    2     1000022        11   # BR(~e^-_L -> chi^0_1 e^-)
     1.57899187E-08    2     2000011        23   # BR(~e^-_L -> ~e^-_R Z)
     1.60505210E-08    2     2000011        25   # BR(~e^-_L -> ~e^-_R h^0)
#    BR                NDA      ID1      ID2       ID3
     1.25158510E-09    3     1000012         1        -2   # BR(~e^-_L -> ~nu_e d u_bar)
     6.98038236E-10    3     1000012         3        -4   # BR(~e^-_L -> ~nu_e s c_bar)
DECAY   2000013     8.27622852E-14   # ~mu^-_R
#    BR                NDA      ID1      ID2
     1.05352299E-07    2     1000039        13   # BR(~mu^-_R -> ~G mu^-)
#    BR                NDA      ID1      ID2       ID3
     3.67622131E-01    3     1000015        13       -15   # BR(~mu^-_R -> ~tau^-_1 mu^- tau^+)
     6.32377525E-01    3    -1000015        15        13   # BR(~mu^-_R -> ~tau^+_1 tau^- mu^-)
     2.38905584E-07    3     1000015        14       -16   # BR(~mu^-_R -> ~tau^-_1 nu_mu nu_bar_tau)
DECAY   1000013     4.12604874E-01   # ~mu^-_L
#    BR                NDA      ID1      ID2
     9.98640544E-01    2     1000022        13   # BR(~mu^-_L -> chi^0_1 mu^-)
     6.74166913E-04    2     2000013        23   # BR(~mu^-_L -> ~mu^-_R Z)
     6.85287260E-04    2     2000013        25   # BR(~mu^-_L -> ~mu^-_R h^0)
#    BR                NDA      ID1      ID2       ID3
     1.25142738E-09    3     1000014         1        -2   # BR(~mu^-_L -> ~nu_mu d u_bar)
     6.98153975E-10    3     1000014         3        -4   # BR(~mu^-_L -> ~nu_mu s c_bar)
DECAY   1000015     8.39713104E-21   # ~tau^-_1
#    BR                NDA      ID1      ID2
     1.00000000E+00    2     1000039        15   # BR(~tau^-_1 -> ~G tau^-)
DECAY   2000015     5.70886874E-01   # ~tau^-_2
#    BR                NDA      ID1      ID2
     7.20927481E-01    2     1000022        15   # BR(~tau^-_2 -> chi^0_1 tau^-)
     1.38575593E-01    2     1000015        23   # BR(~tau^-_2 -> ~tau^-_1 Z)
     1.40496924E-01    2     1000015        25   # BR(~tau^-_2 -> ~tau^-_1 h^0)
#    BR                NDA      ID1      ID2       ID3
     1.26350902E-09    3     1000016         1        -2   # BR(~tau^-_2 -> ~nu_tau d u_bar)
     7.58957503E-10    3     1000016         3        -4   # BR(~tau^-_2 -> ~nu_tau s c_bar)
DECAY   1000012     4.27182222E-01   # ~nu_e
#    BR                NDA      ID1      ID2
     9.99999971E-01    2     1000022        12   # BR(~nu_e -> chi^0_1 nu_e)
     2.93497952E-08    2     2000011        24   # BR(~nu_e -> ~e^-_R W^+)
DECAY   1000014     4.27713101E-01   # ~nu_mu
#    BR                NDA      ID1      ID2
     9.98746740E-01    2     1000022        14   # BR(~nu_mu -> chi^0_1 nu_mu)
     1.25326001E-03    2     2000013        24   # BR(~nu_mu -> ~mu^-_R W^+)
DECAY   1000016     5.78073156E-01   # ~nu_tau
#    BR                NDA      ID1      ID2
     7.36460397E-01    2     1000022        16   # BR(~nu_tau -> chi^0_1 nu_tau)
     2.63539603E-01    2     1000015        24   # BR(~nu_tau -> ~tau^-_1 W^+)
DECAY   2000001     1.54867667E+00   # ~d_R
#    BR                NDA      ID1      ID2
     9.94043437E-01    2     1000022         1   # BR(~d_R -> chi^0_1 d)
     5.39740335E-03    2     1000023         1   # BR(~d_R -> chi^0_2 d)
     2.30565461E-04    2     1000025         1   # BR(~d_R -> chi^0_3 d)
     3.28111812E-04    2     1000035         1   # BR(~d_R -> chi^0_4 d)
     4.70139709E-07    2    -1000024         2   # BR(~d_R -> chi^-_1 u)
     1.22098747E-08    2    -1000037         2   # BR(~d_R -> chi^-_2 u)
DECAY   1000001     2.67419711E+01   # ~d_L
#    BR                NDA      ID1      ID2
     1.64283425E-02    2     1000022         1   # BR(~d_L -> chi^0_1 d)
     3.82408297E-02    2     1000023         1   # BR(~d_L -> chi^0_2 d)
     2.29539495E-04    2     1000025         1   # BR(~d_L -> chi^0_3 d)
     2.88941098E-01    2     1000035         1   # BR(~d_L -> chi^0_4 d)
     7.34588082E-02    2    -1000024         2   # BR(~d_L -> chi^-_1 u)
     5.82701382E-01    2    -1000037         2   # BR(~d_L -> chi^-_2 u)
     7.54695469E-13    2     2000002       -24   # BR(~d_L -> ~u_R W^-)
     1.20561225E-10    2     2000001        23   # BR(~d_L -> ~d_R Z)
     1.29058536E-10    2     2000001        25   # BR(~d_L -> ~d_R h^0)
DECAY   2000003     1.54920888E+00   # ~s_R
#    BR                NDA      ID1      ID2
     9.93703583E-01    2     1000022         3   # BR(~s_R -> chi^0_1 s)
     5.47882357E-03    2     1000023         3   # BR(~s_R -> chi^0_2 s)
     3.13359026E-04    2     1000025         3   # BR(~s_R -> chi^0_3 s)
     3.30166825E-04    2     1000035         3   # BR(~s_R -> chi^0_4 s)
     1.69661766E-04    2    -1000024         4   # BR(~s_R -> chi^-_1 c)
     4.40619765E-06    2    -1000037         4   # BR(~s_R -> chi^-_2 c)
DECAY   1000003     2.67427655E+01   # ~s_L
#    BR                NDA      ID1      ID2
     1.64278019E-02    2     1000022         3   # BR(~s_L -> chi^0_1 s)
     3.82438642E-02    2     1000023         3   # BR(~s_L -> chi^0_2 s)
     2.34814658E-04    2     1000025         3   # BR(~s_L -> chi^0_3 s)
     2.88932895E-01    2     1000035         3   # BR(~s_L -> chi^0_4 s)
     7.34733569E-02    2    -1000024         4   # BR(~s_L -> chi^-_1 c)
     5.82686982E-01    2    -1000037         4   # BR(~s_L -> chi^-_2 c)
     1.94757712E-07    2     2000004       -24   # BR(~s_L -> ~c_R W^-)
     4.35206893E-08    2     2000003        23   # BR(~s_L -> ~s_R Z)
     4.65879353E-08    2     2000003        25   # BR(~s_L -> ~s_R h^0)
DECAY   1000005     3.79578658E+00   # ~b_1
#    BR                NDA      ID1      ID2
     4.08808033E-01    2     1000022         5   # BR(~b_1 -> chi^0_1 b)
     1.21756073E-01    2     1000023         5   # BR(~b_1 -> chi^0_2 b)
     8.75416072E-02    2     1000025         5   # BR(~b_1 -> chi^0_3 b)
     7.16908018E-03    2     1000035         5   # BR(~b_1 -> chi^0_4 b)
     3.40798969E-01    2    -1000024         6   # BR(~b_1 -> chi^-_1 t)
     3.17013600E-02    2    -1000037         6   # BR(~b_1 -> chi^-_2 t)
     2.22487662E-03    2     1000006       -24   # BR(~b_1 -> ~t_1 W^-)
DECAY   2000005     5.64268376E+01   # ~b_2
#    BR                NDA      ID1      ID2
     7.29790220E-03    2     1000022         5   # BR(~b_2 -> chi^0_1 b)
     2.01647411E-02    2     1000023         5   # BR(~b_2 -> chi^0_2 b)
     6.60550018E-03    2     1000025         5   # BR(~b_2 -> chi^0_3 b)
     1.28571491E-01    2     1000035         5   # BR(~b_2 -> chi^0_4 b)
     4.89362915E-01    2    -1000024         6   # BR(~b_2 -> chi^-_1 t)
     3.33412831E-01    2    -1000037         6   # BR(~b_2 -> chi^-_2 t)
     1.45846198E-02    2     1000006       -24   # BR(~b_2 -> ~t_1 W^-)
DECAY   2000002     6.22416520E+00   # ~u_R
#    BR                NDA      ID1      ID2
     9.94034992E-01    2     1000022         2   # BR(~u_R -> chi^0_1 u)
     5.40533443E-03    2     1000023         2   # BR(~u_R -> chi^0_2 u)
     2.30708048E-04    2     1000025         2   # BR(~u_R -> chi^0_3 u)
     3.28965120E-04    2     1000035         2   # BR(~u_R -> chi^0_4 u)
     3.32156370E-10    2     1000024         1   # BR(~u_R -> chi^+_1 d)
     1.08020380E-11    2     1000037         1   # BR(~u_R -> chi^+_2 d)
DECAY   1000002     2.67871729E+01   # ~u_L
#    BR                NDA      ID1      ID2
     1.40646116E-02    2     1000022         2   # BR(~u_L -> chi^0_1 u)
     4.56546492E-02    2     1000023         2   # BR(~u_L -> chi^0_2 u)
     1.28683189E-04    2     1000025         2   # BR(~u_L -> chi^0_3 u)
     2.83416843E-01    2     1000035         2   # BR(~u_L -> chi^0_4 u)
     9.36960761E-02    2     1000024         1   # BR(~u_L -> chi^+_1 d)
     5.63039136E-01    2     1000037         1   # BR(~u_L -> chi^+_2 d)
     2.79761538E-10    2     2000001        24   # BR(~u_L -> ~d_R W^+)
     2.80455213E-13    2     2000002        23   # BR(~u_L -> ~u_R Z)
     2.03178139E-13    2     2000002        25   # BR(~u_L -> ~u_R h^0)
DECAY   2000004     6.22523997E+00   # ~c_R
#    BR                NDA      ID1      ID2
     9.93861222E-01    2     1000022         4   # BR(~c_R -> chi^0_1 c)
     5.44630682E-03    2     1000023         4   # BR(~c_R -> chi^0_2 c)
     2.73740430E-04    2     1000025         4   # BR(~c_R -> chi^0_3 c)
     3.30240641E-04    2     1000035         4   # BR(~c_R -> chi^0_4 c)
     8.57024568E-05    2     1000024         3   # BR(~c_R -> chi^+_1 s)
     2.78718546E-06    2     1000037         3   # BR(~c_R -> chi^+_2 s)
DECAY   1000004     2.67879506E+01   # ~c_L
#    BR                NDA      ID1      ID2
     1.40642789E-02    2     1000022         4   # BR(~c_L -> chi^0_1 c)
     4.56609434E-02    2     1000023         4   # BR(~c_L -> chi^0_2 c)
     1.39166734E-04    2     1000025         4   # BR(~c_L -> chi^0_3 c)
     2.83410687E-01    2     1000035         4   # BR(~c_L -> chi^0_4 c)
     9.36999841E-02    2     1000024         3   # BR(~c_L -> chi^+_1 s)
     5.63024714E-01    2     1000037         3   # BR(~c_L -> chi^+_2 s)
     1.00990225E-07    2     2000003        24   # BR(~c_L -> ~s_R W^+)
     7.23758385E-08    2     2000004        23   # BR(~c_L -> ~c_R Z)
     5.24347446E-08    2     2000004        25   # BR(~c_L -> ~c_R h^0)
DECAY   1000006     5.88162953E+01   # ~t_1
#    BR                NDA      ID1      ID2
     1.14366361E-07    2     1000022         4   # BR(~t_1 -> chi^0_1 c)
     9.53387679E-02    2     1000022         6   # BR(~t_1 -> chi^0_1 t)
     3.52396521E-07    2     1000023         4   # BR(~t_1 -> chi^0_2 c)
     2.06646974E-01    2     1000023         6   # BR(~t_1 -> chi^0_2 t)
     2.29239186E-01    2     1000025         6   # BR(~t_1 -> chi^0_3 t)
     1.50072732E-02    2     1000035         6   # BR(~t_1 -> chi^0_4 t)
     4.23270071E-01    2     1000024         5   # BR(~t_1 -> chi^+_1 b)
     3.04900229E-02    2     1000037         5   # BR(~t_1 -> chi^+_2 b)
#    BR                NDA      ID1      ID2       ID3
     7.23794720E-06    3     1000022        24         5   # BR(~t_1 -> chi^0_1 W^+ b)
DECAY   2000006     5.73266293E+01   # ~t_2
#    BR                NDA      ID1      ID2
     6.86126819E-03    2     1000022         6   # BR(~t_2 -> chi^0_1 t)
     2.38417506E-01    2     1000023         6   # BR(~t_2 -> chi^0_2 t)
     2.65768103E-01    2     1000025         6   # BR(~t_2 -> chi^0_3 t)
     1.75314438E-01    2     1000035         6   # BR(~t_2 -> chi^0_4 t)
     2.60698560E-02    2     1000024         5   # BR(~t_2 -> chi^+_1 b)
     2.74180734E-01    2     1000037         5   # BR(~t_2 -> chi^+_2 b)
     7.61768188E-03    2     1000006        23   # BR(~t_2 -> ~t_1 Z)
     5.77041378E-03    2     1000006        25   # BR(~t_2 -> ~t_1 h^0)
DECAY   1000024     6.95326541E-01   # chi^+_1
#    BR                NDA      ID1      ID2
     7.34912185E-09    2    -2000011        12   # BR(chi^+_1 -> ~e^+_R nu_e)
     9.95505491E-03    2    -1000011        12   # BR(chi^+_1 -> ~e^+_L nu_e)
     3.14206307E-04    2    -2000013        14   # BR(chi^+_1 -> ~mu^+_R nu_mu)
     9.95475156E-03    2    -1000013        14   # BR(chi^+_1 -> ~mu^+_L nu_mu)
     8.95281054E-02    2    -1000015        16   # BR(chi^+_1 -> ~tau^+_1 nu_tau)
     9.86828841E-03    2    -2000015        16   # BR(chi^+_1 -> ~tau^+_2 nu_tau)
     1.40785211E-02    2     1000012       -11   # BR(chi^+_1 -> ~nu_e e^+)
     1.40889146E-02    2     1000014       -13   # BR(chi^+_1 -> ~nu_mu mu^+)
     1.70746431E-02    2     1000016       -15   # BR(chi^+_1 -> ~nu_tau tau^+)
     8.31521918E-01    2     1000022        24   # BR(chi^+_1 -> chi^0_1 W^+)
#    BR                NDA      ID1      ID2       ID3
     2.21600506E-08    3     1000022        -1         2   # BR(chi^+_1 -> chi^0_1 d_bar u)
     2.23100109E-08    3     1000022        -3         4   # BR(chi^+_1 -> chi^0_1 s_bar c)
     3.60835688E-03    3     1000022        -5         6   # BR(chi^+_1 -> chi^0_1 b_bar t)
     6.04701980E-13    3     1000022       -11        12   # BR(chi^+_1 -> chi^0_1 e^+ nu_e)
     2.58510297E-08    3     1000022       -13        14   # BR(chi^+_1 -> chi^0_1 mu^+ nu_mu)
     7.16239245E-06    3     1000022       -15        16   # BR(chi^+_1 -> chi^0_1 tau^+ nu_tau)
DECAY   1000037     7.21524020E+00   # chi^+_2
#    BR                NDA      ID1      ID2
     2.45625710E-11    2    -2000011        12   # BR(chi^+_2 -> ~e^+_R nu_e)
     8.77591230E-02    2    -1000011        12   # BR(chi^+_2 -> ~e^+_L nu_e)
     1.05016690E-06    2    -2000013        14   # BR(chi^+_2 -> ~mu^+_R nu_mu)
     8.77609688E-02    2    -1000013        14   # BR(chi^+_2 -> ~mu^+_L nu_mu)
     3.00205655E-04    2    -1000015        16   # BR(chi^+_2 -> ~tau^+_1 nu_tau)
     8.82821035E-02    2    -2000015        16   # BR(chi^+_2 -> ~tau^+_2 nu_tau)
     8.71284779E-02    2     1000012       -11   # BR(chi^+_2 -> ~nu_e e^+)
     8.71308009E-02    2     1000014       -13   # BR(chi^+_2 -> ~nu_mu mu^+)
     8.77870531E-02    2     1000016       -15   # BR(chi^+_2 -> ~nu_tau tau^+)
     6.50226530E-03    2     1000022        24   # BR(chi^+_2 -> chi^0_1 W^+)
     1.40111786E-01    2     1000023        24   # BR(chi^+_2 -> chi^0_2 W^+)
     1.03132861E-01    2     1000025        24   # BR(chi^+_2 -> chi^0_3 W^+)
     1.31826206E-01    2     1000024        23   # BR(chi^+_2 -> chi^+_1 Z)
     9.22101501E-02    2     1000024        25   # BR(chi^+_2 -> chi^+_1 h^0)
#    BR                NDA      ID1      ID2       ID3
     1.27303398E-09    3     1000024         2        -2   # BR(chi^+_2 -> chi^+_1 u u_bar)
     1.27196184E-09    3     1000024         4        -4   # BR(chi^+_2 -> chi^+_1 c c_bar)
     1.57851092E-09    3     1000024         1        -1   # BR(chi^+_2 -> chi^+_1 d d_bar)
     1.58125268E-09    3     1000024         3        -3   # BR(chi^+_2 -> chi^+_1 s s_bar)
     1.01794942E-08    3     1000024         5        -5   # BR(chi^+_2 -> chi^+_1 b b_bar)
     3.26805725E-07    3     1000024        11       -11   # BR(chi^+_2 -> chi^+_1 e^- e^+)
     3.26965024E-07    3     1000024        13       -13   # BR(chi^+_2 -> chi^+_1 mu^- mu^+)
     3.65543574E-07    3     1000024        15       -15   # BR(chi^+_2 -> chi^+_1 tau^- tau^+)
     8.21381330E-07    3     1000024        12       -12   # BR(chi^+_2 -> chi^+_1 nu_e nu_bar_e)
     9.44578995E-08    3     1000022        -1         2   # BR(chi^+_2 -> chi^0_1 d_bar u)
     9.44566197E-08    3     1000022        -3         4   # BR(chi^+_2 -> chi^0_1 s_bar c)
     6.38421585E-05    3     1000022        -5         6   # BR(chi^+_2 -> chi^0_1 b_bar t)
     1.99985160E-10    3     1000022       -13        14   # BR(chi^+_2 -> chi^0_1 mu^+ nu_mu)
     5.59483034E-08    3     1000022       -15        16   # BR(chi^+_2 -> chi^0_1 tau^+ nu_tau)
     6.94944325E-10    3     1000023        -1         2   # BR(chi^+_2 -> chi^0_2 d_bar u)
     6.96478348E-10    3     1000023        -3         4   # BR(chi^+_2 -> chi^0_2 s_bar c)
     4.70546110E-07    3     1000023        -5         6   # BR(chi^+_2 -> chi^0_2 b_bar t)
     1.67870990E-07    3     1000023       -11        12   # BR(chi^+_2 -> chi^0_2 e^+ nu_e)
     1.67935026E-07    3     1000023       -13        14   # BR(chi^+_2 -> chi^0_2 mu^+ nu_mu)
     1.81291109E-07    3     1000023       -15        16   # BR(chi^+_2 -> chi^0_2 tau^+ nu_tau)
     5.11603086E-12    3     1000025        -1         2   # BR(chi^+_2 -> chi^0_3 d_bar u)
     5.84122535E-12    3     1000025        -3         4   # BR(chi^+_2 -> chi^0_3 s_bar c)
     9.00379865E-10    3     1000025       -11        12   # BR(chi^+_2 -> chi^0_3 e^+ nu_e)
     9.47709491E-10    3     1000025       -13        14   # BR(chi^+_2 -> chi^0_3 mu^+ nu_mu)
     1.41034867E-08    3     1000025       -15        16   # BR(chi^+_2 -> chi^0_3 tau^+ nu_tau)
DECAY   1000022     1.70803401E+00   # chi^0_1
#    BR                NDA      ID1      ID2
     1.64309910E-01    2     2000011       -11   # BR(chi^0_1 -> ~e^-_R e^+)
     1.64309910E-01    2    -2000011        11   # BR(chi^0_1 -> ~e^+_R e^-)
     1.64334574E-01    2     2000013       -13   # BR(chi^0_1 -> ~mu^-_R mu^+)
     1.64334574E-01    2    -2000013        13   # BR(chi^0_1 -> ~mu^+_R mu^-)
     1.71355516E-01    2     1000015       -15   # BR(chi^0_1 -> ~tau^-_1 tau^+)
     1.71355516E-01    2    -1000015        15   # BR(chi^0_1 -> ~tau^+_1 tau^-)
DECAY   1000023     8.13592069E-01   # chi^0_2
#    BR                NDA      ID1      ID2
     1.32848716E-02    2     2000011       -11   # BR(chi^0_2 -> ~e^-_R e^+)
     1.32848716E-02    2    -2000011        11   # BR(chi^0_2 -> ~e^+_R e^-)
     6.53738381E-03    2     1000011       -11   # BR(chi^0_2 -> ~e^-_L e^+)
     6.53738381E-03    2    -1000011        11   # BR(chi^0_2 -> ~e^+_L e^-)
     1.34173104E-02    2     2000013       -13   # BR(chi^0_2 -> ~mu^-_R mu^+)
     1.34173104E-02    2    -2000013        13   # BR(chi^0_2 -> ~mu^+_R mu^-)
     6.54115469E-03    2     1000013       -13   # BR(chi^0_2 -> ~mu^-_L mu^+)
     6.54115469E-03    2    -1000013        13   # BR(chi^0_2 -> ~mu^+_L mu^-)
     5.10528525E-02    2     1000015       -15   # BR(chi^0_2 -> ~tau^-_1 tau^+)
     5.10528525E-02    2    -1000015        15   # BR(chi^0_2 -> ~tau^+_1 tau^-)
     7.61744620E-03    2     2000015       -15   # BR(chi^0_2 -> ~tau^-_2 tau^+)
     7.61744620E-03    2    -2000015        15   # BR(chi^0_2 -> ~tau^+_2 tau^-)
     4.19979112E-03    2     1000012       -12   # BR(chi^0_2 -> ~nu_e nu_bar_e)
     4.19979112E-03    2    -1000012        12   # BR(chi^0_2 -> ~nu^*_e nu_e)
     4.20011304E-03    2     1000014       -14   # BR(chi^0_2 -> ~nu_mu nu_bar_mu)
     4.20011304E-03    2    -1000014        14   # BR(chi^0_2 -> ~nu^*_mu nu_mu)
     4.29127031E-03    2     1000016       -16   # BR(chi^0_2 -> ~nu_tau nu_bar_tau)
     4.29127031E-03    2    -1000016        16   # BR(chi^0_2 -> ~nu^*_tau nu_tau)
     3.14682946E-02    2     1000022        23   # BR(chi^0_2 -> chi^0_1 Z)
     7.46157893E-01    2     1000022        25   # BR(chi^0_2 -> chi^0_1 h^0)
     7.55784538E-07    2     1000022        22   # BR(chi^0_2 -> chi^0_1 photon)
#    BR                NDA      ID1      ID2       ID3
     1.59260058E-08    3     1000022         2        -2   # BR(chi^0_2 -> chi^0_1 u u_bar)
     1.59583247E-08    3     1000022         4        -4   # BR(chi^0_2 -> chi^0_1 c c_bar)
     7.18859565E-05    3     1000022         6        -6   # BR(chi^0_2 -> chi^0_1 t t_bar)
     9.97009130E-09    3     1000022         1        -1   # BR(chi^0_2 -> chi^0_1 d d_bar)
     1.01302077E-08    3     1000022         3        -3   # BR(chi^0_2 -> chi^0_1 s s_bar)
     4.42815269E-07    3     1000022         5        -5   # BR(chi^0_2 -> chi^0_1 b b_bar)
     3.47635822E-06    3     1000022        11       -11   # BR(chi^0_2 -> chi^0_1 e^- e^+)
     3.49779720E-06    3     1000022        13       -13   # BR(chi^0_2 -> chi^0_1 mu^- mu^+)
     9.31455445E-06    3     1000022        15       -15   # BR(chi^0_2 -> chi^0_1 tau^- tau^+)
     7.11942829E-12    3     1000024         1        -2   # BR(chi^0_2 -> chi^+_1 d u_bar)
     7.11942829E-12    3    -1000024        -1         2   # BR(chi^0_2 -> chi^-_1 d_bar u)
     1.58613967E-13    3     1000024         3        -4   # BR(chi^0_2 -> chi^+_1 s c_bar)
     1.58613967E-13    3    -1000024        -3         4   # BR(chi^0_2 -> chi^-_1 s_bar c)
     2.35025973E-12    3     1000024        11       -12   # BR(chi^0_2 -> chi^+_1 e^- nu_bar_e)
     2.35025973E-12    3    -1000024       -11        12   # BR(chi^0_2 -> chi^-_1 e^+ nu_e)
     2.30218624E-12    3     1000024        13       -14   # BR(chi^0_2 -> chi^+_1 mu^- nu_bar_mu)
     2.30218624E-12    3    -1000024       -13        14   # BR(chi^0_2 -> chi^-_1 mu^+ nu_mu)
DECAY   1000025     7.44101750E-01   # chi^0_3
#    BR                NDA      ID1      ID2
     6.53192235E-04    2     2000011       -11   # BR(chi^0_3 -> ~e^-_R e^+)
     6.53192235E-04    2    -2000011        11   # BR(chi^0_3 -> ~e^+_R e^-)
     1.23358317E-05    2     1000011       -11   # BR(chi^0_3 -> ~e^-_L e^+)
     1.23358317E-05    2    -1000011        11   # BR(chi^0_3 -> ~e^+_L e^-)
     8.04235622E-04    2     2000013       -13   # BR(chi^0_3 -> ~mu^-_R mu^+)
     8.04235622E-04    2    -2000013        13   # BR(chi^0_3 -> ~mu^+_R mu^-)
     1.89508484E-05    2     1000013       -13   # BR(chi^0_3 -> ~mu^-_L mu^+)
     1.89508484E-05    2    -1000013        13   # BR(chi^0_3 -> ~mu^+_L mu^-)
     4.37073237E-02    2     1000015       -15   # BR(chi^0_3 -> ~tau^-_1 tau^+)
     4.37073237E-02    2    -1000015        15   # BR(chi^0_3 -> ~tau^+_1 tau^-)
     1.90786964E-03    2     2000015       -15   # BR(chi^0_3 -> ~tau^-_2 tau^+)
     1.90786964E-03    2    -2000015        15   # BR(chi^0_3 -> ~tau^+_2 tau^-)
     8.35012471E-05    2     1000012       -12   # BR(chi^0_3 -> ~nu_e nu_bar_e)
     8.35012471E-05    2    -1000012        12   # BR(chi^0_3 -> ~nu^*_e nu_e)
     8.35061996E-05    2     1000014       -14   # BR(chi^0_3 -> ~nu_mu nu_bar_mu)
     8.35061996E-05    2    -1000014        14   # BR(chi^0_3 -> ~nu^*_mu nu_mu)
     8.49068845E-05    2     1000016       -16   # BR(chi^0_3 -> ~nu_tau nu_bar_tau)
     8.49068845E-05    2    -1000016        16   # BR(chi^0_3 -> ~nu^*_tau nu_tau)
     8.68725779E-01    2     1000022        23   # BR(chi^0_3 -> chi^0_1 Z)
     3.58329610E-02    2     1000022        25   # BR(chi^0_3 -> chi^0_1 h^0)
     7.90033609E-07    2     1000022        22   # BR(chi^0_3 -> chi^0_1 photon)
     2.25152674E-09    2     1000023        22   # BR(chi^0_3 -> chi^0_2 photon)
#    BR                NDA      ID1      ID2       ID3
     1.43906197E-10    3     1000022         2        -2   # BR(chi^0_3 -> chi^0_1 u u_bar)
     1.94638792E-10    3     1000022         4        -4   # BR(chi^0_3 -> chi^0_1 c c_bar)
     7.01112145E-04    3     1000022         6        -6   # BR(chi^0_3 -> chi^0_1 t t_bar)
     3.76504400E-11    3     1000022         1        -1   # BR(chi^0_3 -> chi^0_1 d d_bar)
     2.55855929E-10    3     1000022         3        -3   # BR(chi^0_3 -> chi^0_1 s s_bar)
     5.87458183E-07    3     1000022         5        -5   # BR(chi^0_3 -> chi^0_1 b b_bar)
     7.41219590E-08    3     1000022        11       -11   # BR(chi^0_3 -> chi^0_1 e^- e^+)
     1.02217766E-07    3     1000022        13       -13   # BR(chi^0_3 -> chi^0_1 mu^- mu^+)
     7.87447083E-06    3     1000022        15       -15   # BR(chi^0_3 -> chi^0_1 tau^- tau^+)
     4.99128654E-07    3     1000023         2        -2   # BR(chi^0_3 -> chi^0_2 u u_bar)
     4.87519411E-07    3     1000023         4        -4   # BR(chi^0_3 -> chi^0_2 c c_bar)
     6.47960737E-07    3     1000023         1        -1   # BR(chi^0_3 -> chi^0_2 d d_bar)
     6.47849448E-07    3     1000023         3        -3   # BR(chi^0_3 -> chi^0_2 s s_bar)
     4.50324831E-07    3     1000023         5        -5   # BR(chi^0_3 -> chi^0_2 b b_bar)
     1.48965730E-07    3     1000023        11       -11   # BR(chi^0_3 -> chi^0_2 e^- e^+)
     1.48943596E-07    3     1000023        13       -13   # BR(chi^0_3 -> chi^0_2 mu^- mu^+)
     1.42523355E-07    3     1000023        15       -15   # BR(chi^0_3 -> chi^0_2 tau^- tau^+)
     8.92607843E-07    3     1000023        12       -12   # BR(chi^0_3 -> chi^0_2 nu_e nu_bar_e)
     2.52346023E-06    3     1000024         1        -2   # BR(chi^0_3 -> chi^+_1 d u_bar)
     2.52346023E-06    3    -1000024        -1         2   # BR(chi^0_3 -> chi^-_1 d_bar u)
     2.48349789E-06    3     1000024         3        -4   # BR(chi^0_3 -> chi^+_1 s c_bar)
     2.48349789E-06    3    -1000024        -3         4   # BR(chi^0_3 -> chi^-_1 s_bar c)
     8.40891248E-07    3     1000024        11       -12   # BR(chi^0_3 -> chi^+_1 e^- nu_bar_e)
     8.40891248E-07    3    -1000024       -11        12   # BR(chi^0_3 -> chi^-_1 e^+ nu_e)
     8.40883719E-07    3     1000024        13       -14   # BR(chi^0_3 -> chi^+_1 mu^- nu_bar_mu)
     8.40883719E-07    3    -1000024       -13        14   # BR(chi^0_3 -> chi^-_1 mu^+ nu_mu)
     8.14377730E-07    3     1000024        15       -16   # BR(chi^0_3 -> chi^+_1 tau^- nu_bar_tau)
     8.14377730E-07    3    -1000024       -15        16   # BR(chi^0_3 -> chi^-_1 tau^+ nu_tau)
DECAY   1000035     7.22548764E+00   # chi^0_4
#    BR                NDA      ID1      ID2
     1.40640403E-04    2     2000011       -11   # BR(chi^0_4 -> ~e^-_R e^+)
     1.40640403E-04    2    -2000011        11   # BR(chi^0_4 -> ~e^+_R e^-)
     4.19713010E-02    2     1000011       -11   # BR(chi^0_4 -> ~e^-_L e^+)
     4.19713010E-02    2    -1000011        11   # BR(chi^0_4 -> ~e^+_L e^-)
     1.41135698E-04    2     2000013       -13   # BR(chi^0_4 -> ~mu^-_R mu^+)
     1.41135698E-04    2    -2000013        13   # BR(chi^0_4 -> ~mu^+_R mu^-)
     4.19725003E-02    2     1000013       -13   # BR(chi^0_4 -> ~mu^-_L mu^+)
     4.19725003E-02    2    -1000013        13   # BR(chi^0_4 -> ~mu^+_L mu^-)
     2.82786370E-04    2     1000015       -15   # BR(chi^0_4 -> ~tau^-_1 tau^+)
     2.82786370E-04    2    -1000015        15   # BR(chi^0_4 -> ~tau^+_1 tau^-)
     4.23112614E-02    2     2000015       -15   # BR(chi^0_4 -> ~tau^-_2 tau^+)
     4.23112614E-02    2    -2000015        15   # BR(chi^0_4 -> ~tau^+_2 tau^-)
     4.52801470E-02    2     1000012       -12   # BR(chi^0_4 -> ~nu_e nu_bar_e)
     4.52801470E-02    2    -1000012        12   # BR(chi^0_4 -> ~nu^*_e nu_e)
     4.52810370E-02    2     1000014       -14   # BR(chi^0_4 -> ~nu_mu nu_bar_mu)
     4.52810370E-02    2    -1000014        14   # BR(chi^0_4 -> ~nu^*_mu nu_mu)
     4.55320543E-02    2     1000016       -16   # BR(chi^0_4 -> ~nu_tau nu_bar_tau)
     4.55320543E-02    2    -1000016        16   # BR(chi^0_4 -> ~nu^*_tau nu_tau)
     1.40305187E-01    2     1000024       -24   # BR(chi^0_4 -> chi^+_1 W^-)
     1.40305187E-01    2    -1000024        24   # BR(chi^0_4 -> chi^-_1 W^+)
     5.36267037E-04    2     1000022        23   # BR(chi^0_4 -> chi^0_1 Z)
     7.01779307E-04    2     1000023        23   # BR(chi^0_4 -> chi^0_2 Z)
     9.21779082E-02    2     1000025        23   # BR(chi^0_4 -> chi^0_3 Z)
     6.70338578E-03    2     1000022        25   # BR(chi^0_4 -> chi^0_1 h^0)
     9.32321330E-02    2     1000023        25   # BR(chi^0_4 -> chi^0_2 h^0)
     1.91786522E-04    2     1000025        25   # BR(chi^0_4 -> chi^0_3 h^0)
     2.31193682E-07    2     1000022        22   # BR(chi^0_4 -> chi^0_1 photon)
     4.93050136E-07    2     1000023        22   # BR(chi^0_4 -> chi^0_2 photon)
     5.72792387E-07    2     1000025        22   # BR(chi^0_4 -> chi^0_3 photon)
#    BR                NDA      ID1      ID2       ID3
     4.34208617E-08    3     1000022         2        -2   # BR(chi^0_4 -> chi^0_1 u u_bar)
     4.34170099E-08    3     1000022         4        -4   # BR(chi^0_4 -> chi^0_1 c c_bar)
     1.51380923E-05    3     1000022         6        -6   # BR(chi^0_4 -> chi^0_1 t t_bar)
     5.11068069E-08    3     1000022         1        -1   # BR(chi^0_4 -> chi^0_1 d d_bar)
     5.11091258E-08    3     1000022         3        -3   # BR(chi^0_4 -> chi^0_1 s s_bar)
     6.58270069E-08    3     1000022         5        -5   # BR(chi^0_4 -> chi^0_1 b b_bar)
     8.40519870E-08    3     1000022        11       -11   # BR(chi^0_4 -> chi^0_1 e^- e^+)
     8.42242699E-08    3     1000022        13       -13   # BR(chi^0_4 -> chi^0_1 mu^- mu^+)
     1.31476845E-07    3     1000022        15       -15   # BR(chi^0_4 -> chi^0_1 tau^- tau^+)
     1.10932913E-09    3     1000023         2        -2   # BR(chi^0_4 -> chi^0_2 u u_bar)
     1.10830596E-09    3     1000023         4        -4   # BR(chi^0_4 -> chi^0_2 c c_bar)
     9.41559435E-10    3     1000023         1        -1   # BR(chi^0_4 -> chi^0_2 d d_bar)
     9.42667257E-10    3     1000023         3        -3   # BR(chi^0_4 -> chi^0_2 s s_bar)
     4.07950033E-09    3     1000023         5        -5   # BR(chi^0_4 -> chi^0_2 b b_bar)
     2.67088410E-07    3     1000023        11       -11   # BR(chi^0_4 -> chi^0_2 e^- e^+)
     2.67158889E-07    3     1000023        13       -13   # BR(chi^0_4 -> chi^0_2 mu^- mu^+)
     2.80185549E-07    3     1000023        15       -15   # BR(chi^0_4 -> chi^0_2 tau^- tau^+)
     4.66664125E-07    3     1000023        12       -12   # BR(chi^0_4 -> chi^0_2 nu_e nu_bar_e)
     6.16910495E-13    3     1000025         2        -2   # BR(chi^0_4 -> chi^0_3 u u_bar)
     6.91151652E-13    3     1000025         4        -4   # BR(chi^0_4 -> chi^0_3 c c_bar)
     1.11734509E-12    3     1000025         1        -1   # BR(chi^0_4 -> chi^0_3 d d_bar)
     2.02633511E-12    3     1000025         3        -3   # BR(chi^0_4 -> chi^0_3 s s_bar)
     2.47888427E-09    3     1000025         5        -5   # BR(chi^0_4 -> chi^0_3 b b_bar)
     5.04200603E-11    3     1000025        11       -11   # BR(chi^0_4 -> chi^0_3 e^- e^+)
     9.37673218E-11    3     1000025        13       -13   # BR(chi^0_4 -> chi^0_3 mu^- mu^+)
     1.21715248E-08    3     1000025        15       -15   # BR(chi^0_4 -> chi^0_3 tau^- tau^+)
     9.50834605E-10    3     1000025        12       -12   # BR(chi^0_4 -> chi^0_3 nu_e nu_bar_e)
     7.20406059E-10    3     1000024         1        -2   # BR(chi^0_4 -> chi^+_1 d u_bar)
     7.20406059E-10    3    -1000024        -1         2   # BR(chi^0_4 -> chi^-_1 d_bar u)
     7.21972892E-10    3     1000024         3        -4   # BR(chi^0_4 -> chi^+_1 s c_bar)
     7.21972892E-10    3    -1000024        -3         4   # BR(chi^0_4 -> chi^-_1 s_bar c)
     6.55823306E-07    3     1000024         5        -6   # BR(chi^0_4 -> chi^+_1 b t_bar)
     6.55823306E-07    3    -1000024        -5         6   # BR(chi^0_4 -> chi^-_1 b_bar t)
     1.66551850E-07    3     1000024        11       -12   # BR(chi^0_4 -> chi^+_1 e^- nu_bar_e)
     1.66551850E-07    3    -1000024       -11        12   # BR(chi^0_4 -> chi^-_1 e^+ nu_e)
     1.66615823E-07    3     1000024        13       -14   # BR(chi^0_4 -> chi^+_1 mu^- nu_bar_mu)
     1.66615823E-07    3    -1000024       -13        14   # BR(chi^0_4 -> chi^-_1 mu^+ nu_mu)
     1.81855900E-07    3     1000024        15       -16   # BR(chi^0_4 -> chi^+_1 tau^- nu_bar_tau)
     1.81855900E-07    3    -1000024       -15        16   # BR(chi^0_4 -> chi^-_1 tau^+ nu_tau)
DECAY   1000021     1.15371563E+01   # ~g
#    BR                NDA      ID1      ID2
     4.66648997E-02    2     2000002        -2   # BR(~g -> ~u_R u_bar)
     4.66648997E-02    2    -2000002         2   # BR(~g -> ~u^*_R u)
     6.93722933E-03    2     1000002        -2   # BR(~g -> ~u_L u_bar)
     6.93722933E-03    2    -1000002         2   # BR(~g -> ~u^*_L u)
     4.66652586E-02    2     2000004        -4   # BR(~g -> ~c_R c_bar)
     4.66652586E-02    2    -2000004         4   # BR(~g -> ~c^*_R c)
     6.93704994E-03    2     1000004        -4   # BR(~g -> ~c_L c_bar)
     6.93704994E-03    2    -1000004         4   # BR(~g -> ~c^*_L c)
     4.08910801E-06    2     1000006        -4   # BR(~g -> ~t_1 c_bar)
     4.08910801E-06    2    -1000006         4   # BR(~g -> ~t^*_1 c)
     1.65538374E-01    2     1000006        -6   # BR(~g -> ~t_1 t_bar)
     1.65538374E-01    2    -1000006         6   # BR(~g -> ~t^*_1 t)
     1.65425290E-02    2     2000006        -6   # BR(~g -> ~t_2 t_bar)
     1.65425290E-02    2    -2000006         6   # BR(~g -> ~t^*_2 t)
     5.17268747E-02    2     2000001        -1   # BR(~g -> ~d_R d_bar)
     5.17268747E-02    2    -2000001         1   # BR(~g -> ~d^*_R d)
     6.75981187E-03    2     1000001        -1   # BR(~g -> ~d_L d_bar)
     6.75981187E-03    2    -1000001         1   # BR(~g -> ~d^*_L d)
     5.17278044E-02    2     2000003        -3   # BR(~g -> ~s_R s_bar)
     5.17278044E-02    2    -2000003         3   # BR(~g -> ~s^*_R s)
     6.76030360E-03    2     1000003        -3   # BR(~g -> ~s_L s_bar)
     6.76030360E-03    2    -1000003         3   # BR(~g -> ~s^*_L s)
     5.42456108E-02    2     1000005        -5   # BR(~g -> ~b_1 b_bar)
     5.42456108E-02    2    -1000005         5   # BR(~g -> ~b^*_1 b)
     3.93043016E-02    2     2000005        -5   # BR(~g -> ~b_2 b_bar)
     3.93043016E-02    2    -2000005         5   # BR(~g -> ~b^*_2 b)
     8.97103731E-08    2     1000039        21   # BR(~g -> ~G g)
     6.24750579E-06    2     1000022        21   # BR(~g -> chi^0_1 g)
     1.54882311E-04    2     1000023        21   # BR(~g -> chi^0_2 g)
     1.80560686E-04    2     1000025        21   # BR(~g -> chi^0_3 g)
     2.99454882E-05    2     1000035        21   # BR(~g -> chi^0_4 g)
DECAY        25     2.92472012E-03   # h^0
#    BR                NDA      ID1      ID2
     7.84987501E-09    2          11       -11   # BR(h^0 -> e^- e^+)
     3.35604070E-04    2          13       -13   # BR(h^0 -> mu^- mu^+)
     9.47020735E-02    2          15       -15   # BR(h^0 -> tau^- tau^+)
     6.70610977E-07    2           1        -1   # BR(h^0 -> d d_bar)
     2.42090096E-04    2           3        -3   # BR(h^0 -> s s_bar)
     6.24404571E-01    2           5        -5   # BR(h^0 -> b b_bar)
     1.53913713E-07    2           2        -2   # BR(h^0 -> u u_bar)
     3.97115707E-02    2           4        -4   # BR(h^0 -> c c_bar)
     9.23503444E-02    2          21        21   # BR(h^0 -> g g)
     3.19478019E-03    2          22        22   # BR(h^0 -> photon photon)
# writing decays into V V* as 3-body decays
#    BR                NDA      ID1      ID2       ID3
     6.62045669E-03    3          24        11        12   # BR(h^0 -> W^+ e^- nu_e)
     6.62045669E-03    3          24        13        14   # BR(h^0 -> W^+ mu^- nu_mu)
     6.62045669E-03    3          24        15        16   # BR(h^0 -> W^+ tau^- nu_tau)
     2.31715984E-02    3          24         1        -2   # BR(h^0 -> W^+ d u_bar)
     2.31715984E-02    3          24         3        -4   # BR(h^0 -> W^+ s c_bar)
     6.62045669E-03    3         -24       -11       -12   # BR(h^0 -> W^- e^+ nu_bar_e)
     6.62045669E-03    3         -24       -13       -14   # BR(h^0 -> W^- mu^+ nu_bar_mu)
     6.62045669E-03    3         -24       -15       -16   # BR(h^0 -> W^- tau^+ nu_bar_tau)
     2.31715984E-02    3         -24        -1         2   # BR(h^0 -> W^- d_bar u)
     2.31715984E-02    3         -24        -3         4   # BR(h^0 -> W^- s_bar c)
     4.25006389E-04    3          23        11       -11   # BR(h^0 -> Z e^- e^+)
     4.25006389E-04    3          23        13       -13   # BR(h^0 -> Z mu^- mu^+)
     4.27536189E-04    3          23        15       -15   # BR(h^0 -> Z tau^- tau^+)
     2.52979993E-03    3          23        12       -12   # BR(h^0 -> Z nu_e nu_bar_e)
     1.97324395E-03    3          23         1        -1   # BR(h^0 -> Z d d_bar)
     1.97324395E-03    3          23         3        -3   # BR(h^0 -> Z s s_bar)
     1.90999895E-03    3          23         5        -5   # BR(h^0 -> Z b b_bar)
     1.46728396E-03    3          23         2        -2   # BR(h^0 -> Z u u_bar)
     1.51787996E-03    3          23         4        -4   # BR(h^0 -> Z c c_bar)
DECAY        35     2.56206695E+00   # H^0
#    BR                NDA      ID1      ID2
     8.76447391E-09    2          11       -11   # BR(H^0 -> e^- e^+)
     3.74709042E-04    2          13       -13   # BR(H^0 -> mu^- mu^+)
     1.06000875E-01    2          15       -15   # BR(H^0 -> tau^- tau^+)
     6.15002858E-07    2           1        -1   # BR(H^0 -> d d_bar)
     2.22015850E-04    2           3        -3   # BR(H^0 -> s s_bar)
     5.92543917E-01    2           5        -5   # BR(H^0 -> b b_bar)
     1.95651974E-11    2           2        -2   # BR(H^0 -> u u_bar)
     5.04907959E-06    2           4        -4   # BR(H^0 -> c c_bar)
     2.78700613E-01    2           6        -6   # BR(H^0 -> t t_bar)
     4.86233568E-05    2     2000011  -2000011   # BR(H^0 -> ~e^-_R ~e^+_R)
     4.86011903E-05    2     2000013  -2000013   # BR(H^0 -> ~mu^-_R ~mu^+_R)
     4.25204497E-05    2     1000015  -1000015   # BR(H^0 -> ~tau^-_1 ~tau^+_1)
     6.40957232E-04    2     1000022   1000022   # BR(H^0 -> chi^0_1 chi^0_1)
     6.93290022E-03    2          23        23   # BR(H^0 -> Z Z)
     1.31007094E-02    2          24       -24   # BR(H^0 -> W^+ W^-)
     1.20037189E-03    2          25        25   # BR(H^0 -> h^0 h^0)
     1.36038902E-04    2          21        21   # BR(H^0 -> g g)
     1.47454036E-06    2          22        22   # BR(H^0 -> photon photon)
DECAY        36     2.53064469E+00   # A^0
#    BR                NDA      ID1      ID2
     8.87414683E-09    2          11       -11   # BR(A^0 -> e^- e^+)
     3.79397916E-04    2          13       -13   # BR(A^0 -> mu^- mu^+)
     1.07327983E-01    2          15       -15   # BR(A^0 -> tau^- tau^+)
     6.22697542E-07    2           1        -1   # BR(A^0 -> d d_bar)
     2.24793641E-04    2           3        -3   # BR(A^0 -> s s_bar)
     5.99958844E-01    2           5        -5   # BR(A^0 -> b b_bar)
     1.93622131E-11    2           2        -2   # BR(A^0 -> u u_bar)
     4.99669292E-06    2           4        -4   # BR(A^0 -> c c_bar)
     2.87600487E-01    2           6        -6   # BR(A^0 -> t t_bar)
     3.92317740E-03    2     1000022   1000022   # BR(A^0 -> chi^0_1 chi^0_1)
     4.92625481E-04    2          25        23   # BR(A^0 -> h^0 Z)
     8.64323198E-05    2          21        21   # BR(A^0 -> g g)
     6.31018231E-07    2          22        22   # BR(A^0 -> photon photon)
DECAY        37     2.19846320E+00   # H^+
#    BR                NDA      ID1      ID2
     1.02341737E-08    2         -11        12   # BR(H^+ -> e^+ nu_e)
     4.37543378E-04    2         -13        12   # BR(H^+ -> mu^+ nu_e)
     1.23776771E-01    2         -15        12   # BR(H^+ -> tau^+ nu_e)
     6.30881811E-07    2          -1         2   # BR(H^+ -> d_bar u)
     2.32802890E-04    2          -3         4   # BR(H^+ -> s_bar c)
     8.74997832E-01    2          -5         6   # BR(H^+ -> b_bar t)
     5.54409956E-04    2          25        24   # BR(H^+ -> h^0 W^+)
DECAY         6     2.43000000E+00   # top
#    BR                NDA      ID1      ID2
     1.00000000E+00    2           5        24   # BR(t -> b W)
Block HiggsBoundsInputHiggsCouplingsFermions
# ScalarNormEffCoupSq PseudoSNormEffCoupSq NP IP1 IP2 IP2
    1.02286853E+00    0.00000000E+00        3  25   5   5  # h0-b-b eff. coupling^2, normalised to SM
    9.06135880E+01    0.00000000E+00        3  35   5   5  # H0-b-b eff. coupling^2, normalised to SM
    0.00000000E+00    9.06364566E+01        3  36   5   5  # A0-b-b eff. coupling^2, normalised to SM
#
    9.99747689E-01    0.00000000E+00        3  25   6   6  # h0-t-t eff. coupling^2, normalised to SM
    1.12853985E-02    0.00000000E+00        3  35   6   6  # H0-t-t eff. coupling^2, normalised to SM
    0.00000000E+00    1.10330880E-02        3  36   6   6  # A0-t-t eff. coupling^2, normalised to SM
#
    1.02286853E+00    0.00000000E+00        3  25  15  15  # h0-tau-tau eff. coupling^2, normalised to SM
    9.06135880E+01    0.00000000E+00        3  35  15  15  # H0-tau-tau eff. coupling^2, normalised to SM
    0.00000000E+00    9.06364566E+01        3  36  15  15  # A0-tau-tau eff. coupling^2, normalised to SM
#
Block HiggsBoundsInputHiggsCouplingsBosons
    9.99998574E-01        3  25  24  24  # h0-W-W eff. coupling^2, normalised to SM
    1.42641032E-06        3  35  24  24  # H0-W-W eff. coupling^2, normalised to SM
    0.00000000E+00        3  36  24  24  # A0-W-W eff. coupling^2, normalised to SM
#
    9.99998574E-01        3  25  23  23  # h0-Z-Z eff. coupling^2, normalised to SM
    1.42641032E-06        3  35  23  23  # H0-Z-Z eff. coupling^2, normalised to SM
    0.00000000E+00        3  36  23  23  # A0-Z-Z eff. coupling^2, normalised to SM
#
    1.15736689E+00        3  25  21  21  # h0-g-g eff. coupling^2, normalised to SM
    8.00156102E-03        3  35  21  21  # H0-g-g eff. coupling^2, normalised to SM
    1.28994201E-01        3  36  21  21  # A0-g-g eff. coupling^2, normalised to SM
#
    0.00000000E+00        3  25  25  23  # h0-h0-Z eff. coupling^2, normalised to SM
    0.00000000E+00        3  35  25  23  # H0-h0-Z eff. coupling^2, normalised to SM
    1.42641032E-06        3  36  25  23  # A0-h0-Z eff. coupling^2, normalised to SM
    0.00000000E+00        3  35  35  23  # H0-H0-Z eff. coupling^2, normalised to SM
    9.99998574E-01        3  36  35  23  # A0-H0-Z eff. coupling^2, normalised to SM
    0.00000000E+00        3  36  36  23  # A0-A0-Z eff. coupling^2, normalised to SM
#
    0.00000000E+00        4  25  21  21  23  # h0-g-g-Z eff. coupling^2, normalised to SM
    0.00000000E+00        4  35  21  21  23  # H0-g-g-Z eff. coupling^2, normalised to SM
    0.00000000E+00        4  36  21  21  23  # A0-g-g-Z eff. coupling^2, normalised to SM
Block SPhenoLowEnergy  # low energy observables
    1    3.33248541E-04   # BR(b -> s gamma)
    2    1.58932031E-06   # BR(b -> s mu+ mu-)
    3    3.52889667E-05   # BR(b -> s nu nu)
    4    2.08524391E-15   # BR(Bd -> e+ e-)
    5    8.90792554E-11   # BR(Bd -> mu+ mu-)
    6    1.86458731E-08   # BR(Bd -> tau+ tau-)
    7    7.02760839E-14   # BR(Bs -> e+ e-)
    8    3.00219217E-09   # BR(Bs -> mu+ mu-)
    9    6.36720246E-07   # BR(Bs -> tau+ tau-)
   10    9.66108850E-05   # BR(B_u -> tau nu)
   11    9.98103475E-01   # BR(B_u -> tau nu)/BR(B_u -> tau nu)_SM
   12    5.41788737E-01   # |Delta(M_Bd)| [ps^-1] 
   13    1.93582948E+01   # |Delta(M_Bs)| [ps^-1] 
   16    2.15608365E-03   # epsilon_K
   17    2.28164547E-15   # Delta(M_K)
   18    2.48235796E-11   # BR(K^0 -> pi^0 nu nu)
   19    8.29622214E-11   # BR(K^+ -> pi^+ nu nu)
   20    2.71020237E-15   # Delta(g-2)_electron/2
   21    1.15870805E-10   # Delta(g-2)_muon/2
   22    3.28644565E-08   # Delta(g-2)_tau/2
   23    0.00000000E+00   # electric dipole moment of the electron
   24    0.00000000E+00   # electric dipole moment of the muon
   25    0.00000000E+00   # electric dipole moment of the tau
   26    0.00000000E+00   # Br(mu -> e gamma)
   27    0.00000000E+00   # Br(tau -> e gamma)
   28    0.00000000E+00   # Br(tau -> mu gamma)
   29    0.00000000E+00   # Br(mu -> 3 e)
   30    0.00000000E+00   # Br(tau -> 3 e)
   31    0.00000000E+00   # Br(tau -> 3 mu)
   39   -1.51701078E-05   # Delta(rho_parameter)
   40    0.00000000E+00   # BR(Z -> e mu)
   41    0.00000000E+00   # BR(Z -> e tau)
   42    0.00000000E+00   # BR(Z -> mu tau)
Block FWCOEF Q=  1.60000000E+02  # Wilson coefficients at scale Q
#    id        order  M        value         comment
     0305 4422   00   0    -1.88861289E-01   # C7
     0305 4422   00   2    -2.01760997E-01   # C7
     0305 4322   00   2    -2.57372494E-04   # C7'
     0305 6421   00   0    -9.52412414E-02   # C8
     0305 6421   00   2    -1.12431371E-01   # C8
     0305 6321   00   2    -3.39589969E-04   # C8'
 03051111 4133   00   0     1.18532722E+00   # C9 e+e-
 03051111 4133   00   2     1.18596247E+00   # C9 e+e-
 03051111 4233   00   2    -7.04121330E-07   # C9' e+e-
 03051111 4137   00   0    -4.01014986E+00   # C10 e+e-
 03051111 4137   00   2    -4.00932287E+00   # C10 e+e-
 03051111 4237   00   2     1.78606450E-05   # C10' e+e-
 03051313 4133   00   0     1.18532722E+00   # C9 mu+mu-
 03051313 4133   00   2     1.18596236E+00   # C9 mu+mu-
 03051313 4233   00   2    -7.04136613E-07   # C9' mu+mu-
 03051313 4137   00   0    -4.01014986E+00   # C10 mu+mu-
 03051313 4137   00   2    -4.00932298E+00   # C10 mu+mu-
 03051313 4237   00   2     1.78606555E-05   # C10' mu+mu-
 03051212 4137   00   0     1.50595861E+00   # C11 nu_1 nu_1
 03051212 4137   00   2     1.50576440E+00   # C11 nu_1 nu_1
 03051212 4237   00   2    -4.28754559E-06   # C11' nu_1 nu_1
 03051414 4137   00   0     1.50595861E+00   # C11 nu_2 nu_2
 03051414 4137   00   2     1.50576440E+00   # C11 nu_2 nu_2
 03051414 4237   00   2    -4.28754225E-06   # C11' nu_2 nu_2
 03051616 4137   00   0     1.50595861E+00   # C11 nu_3 nu_3
 03051616 4137   00   2     1.50576442E+00   # C11 nu_3 nu_3
 03051616 4237   00   2    -4.28660053E-06   # C11' nu_3 nu_3
Block IMFWCOEF Q=  1.60000000E+02  # Im(Wilson coefficients) at scale Q
#    id        order  M        value         comment
     0305 4422   00   0     3.86102947E-07   # C7
     0305 4422   00   2     2.41790849E-06   # C7
     0305 4322   00   2     5.31831411E-07   # C7'
     0305 6421   00   0     3.30722572E-07   # C8
     0305 6421   00   2     3.98510652E-07   # C8
     0305 6321   00   2     2.04045319E-07   # C8'
 03051111 4133   00   2     2.50566881E-08   # C9 e+e-
 03051111 4233   00   2     2.46630387E-08   # C9' e+e-
 03051111 4137   00   2    -1.32725190E-06   # C10 e+e-
 03051111 4237   00   2    -6.17047195E-07   # C10' e+e-
 03051313 4133   00   2     2.50555721E-08   # C9 mu+mu-
 03051313 4233   00   2     2.46630154E-08   # C9' mu+mu-
 03051313 4137   00   2    -1.32725252E-06   # C10 mu+mu-
 03051313 4237   00   2    -6.17047258E-07   # C10' mu+mu-
 03051212 4137   00   2     3.94639325E-07   # C11 nu_1 nu_1
 03051212 4237   00   2     1.48125717E-07   # C11' nu_1 nu_1
 03051414 4137   00   2     3.94639300E-07   # C11 nu_2 nu_2
 03051414 4237   00   2     1.48125717E-07   # C11' nu_2 nu_2
 03051616 4137   00   2     3.94632396E-07   # C11 nu_3 nu_3
 03051616 4237   00   2     1.48125717E-07   # C11' nu_3 nu_3
