# SUSY Les Houches Accord 2 - MSSM spectrum + Decays
# SPheno v3.3.6  
# W. Porod, Comput. Phys. Commun. 153 (2003) 275-315, hep-ph/0301101
# in case of problems send email to porod@physik.uni-wuerzburg.de
# Created: 06.12.2016,  13:43
Block SPINFO         # Program information
     1   SPheno      # spectrum calculator
     2   v3.3.6      # version number
#
Block SPhenoINFO     # SPheno specific information
    1      2         # using 2-loop RGEs
    2      1         # using running masses for boundary conditions at mZ
Block MODSEL  # Model selection
    1    2    # mGMSB model
Block MINPAR  # Input parameters
    1    2.40000000E+05  # Lambda, scale of SUSY breaking
    2    5.00000000E+05  # M_M, messenger mass scale
    3    1.00000000E+01  # tanb at m_Z   
    4    1.00000000E+00  # Sign(mu)
    5    3.00000000E+00  # N_5 number of effective five-plets
    6    1.00000000E+05  # c_grav, Gravitino mass factor
Block gauge Q=  5.00000000E+05  # (GMSB scale)
   1    4.95605191E-01  # g'(Q)^DRbar
   2    6.45686831E-01  # g(Q)^DRbar
   3    9.16951019E-01  # g3(Q)^DRbar
Block SMINPUTS  # SM parameters
         1     1.27931161E+02  # alpha_em^-1(MZ)^MSbar
         2     1.16637900E-05  # G_mu [GeV^-2]
         3     1.18400000E-01  # alpha_s(MZ)^MSbar
         4     9.11876000E+01  # m_Z(pole)
         5     4.18000000E+00  # m_b(m_b), MSbar
         6     1.73100000E+02  # m_t(pole)
         7     1.77682000E+00  # m_tau(pole)
         8     0.00000000E+00  # m_nu_3
        11     5.10998930E-04  # m_e(pole)
        12     0.00000000E+00  # m_nu_1
        13     1.05658372E-01  # m_muon(pole)
        14     0.00000000E+00  # m_nu_2
        21     5.00000000E-03  # m_d(2 GeV), MSbar
        22     2.50000000E-03  # m_u(2 GeV), MSbar
        23     9.50000000E-02  # m_s(2 GeV), MSbar
        24     1.27000000E+00  # m_c(m_c), MSbar
Block gauge Q=  4.22130713E+03  # (SUSY scale)
   1    3.66095360E-01  # g'(Q)^DRbar
   2    6.36283161E-01  # g(Q)^DRbar
   3    9.93351949E-01  # g3(Q)^DRbar
Block Yu Q=  4.22130713E+03  # (SUSY scale)
#   1  1     6.74358147E-06   # Y_u(Q)^DRbar
  1  1     0.0   # Y_u(Q)^DRbar
#   2  2     3.42573986E-03   # Y_c(Q)^DRbar
  2  2     0.0   # Y_c(Q)^DRbar
#   3  3     8.28675710E-01   # Y_t(Q)^DRbar
  3  3     0.0   # Y_t(Q)^DRbar
Block Yd Q=  4.22130713E+03  # (SUSY scale)
#   1  1     1.26842385E-04   # Y_d(Q)^DRbar
  1  1     0.0   # Y_d(Q)^DRbar
#   2  2     2.41000417E-03   # Y_s(Q)^DRbar
  2  2     0.0   # Y_s(Q)^DRbar
#   3  3     1.24082188E-01   # Y_b(Q)^DRbar
  3  3     0.0   # Y_b(Q)^DRbar
Block Ye Q=  4.22130713E+03  # (SUSY scale)
#   1  1     2.83424271E-05   # Y_e(Q)^DRbar
  1  1     0.0   # Y_e(Q)^DRbar
#   2  2     5.86031826E-03   # Y_mu(Q)^DRbar
  2  2     0.0   # Y_mu(Q)^DRbar
#   3  3     9.85665673E-02   # Y_tau(Q)^DRbar
  3  3     0.0   # Y_tau(Q)^DRbar
Block Au Q=  4.22130713E+03  # (SUSY scale)
#   1  1    -1.33136128E+03   # A_u(Q)^DRbar
  1  1    0.0   # A_u(Q)^DRbar
#   2  2    -1.33135981E+03   # A_c(Q)^DRbar
  2  2    0.0   # A_c(Q)^DRbar
#   3  3    -1.25793605E+03   # A_t(Q)^DRbar
  3  3    0.0   # A_t(Q)^DRbar
Block Ad Q=  4.22130713E+03  # (SUSY scale)
#   1  1    -1.41402626E+03   # A_d(Q)^DRbar
  1  1    0.0   # A_d(Q)^DRbar
#   2  2    -1.41402520E+03   # A_s(Q)^DRbar
  2  2    0.0   # A_s(Q)^DRbar
#   3  3    -1.38862651E+03   # A_b(Q)^DRbar
  3  3    0.0   # A_b(Q)^DRbar
Block Ae Q=  4.22130713E+03  # (SUSY scale)
#   1  1    -1.68425954E+02   # A_e(Q)^DRbar
  1  1    0.0   # A_e(Q)^DRbar
#   2  2    -1.68425375E+02   # A_mu(Q)^DRbar
  2  2    0.0   # A_mu(Q)^DRbar
#   3  3    -1.68262050E+02   # A_tau(Q)^DRbar
  3  3    0.0   # A_tau(Q)^DRbar
Block MSOFT Q=  4.22130713E+03  # soft SUSY breaking masses at Q
   1    1.05542403E+03  # M_1
   2    1.90686566E+03  # M_2
   3    4.66690424E+03  # M_3
  21    2.12199984E+06  # M^2_(H,d)
  22   -1.73262606E+06  # M^2_(H,u)
  31    1.48804069E+03  # M_(L,11)
  32    1.48803759E+03  # M_(L,22)
  33    1.48716356E+03  # M_(L,33)
  34    7.32922861E+02  # M_(E,11)
  35    7.32910060E+02  # M_(E,22)
  36    7.29292868E+02  # M_(E,33)
  41    4.53858372E+03  # M_(Q,11)
  42    4.53858024E+03  # M_(Q,22)
  43    4.40070695E+03  # M_(Q,33)
  44    4.33721153E+03  # M_(U,11)
  45    4.33720666E+03  # M_(U,22)
  46    4.04486726E+03  # M_(U,33)
  47    4.31680326E+03  # M_(D,11)
  48    4.31680078E+03  # M_(D,22)
  49    4.31026378E+03  # M_(D,33)
Block MASS  # Mass spectrum
#   PDG code      mass          particle
         6     1.73100000E+02  # m_t(pole)
        23     9.11876000E+01  # m_Z(pole)
        24     8.04093057E+01  # W+
        15     1.77682000E+00  # m_tau(pole)
        25     1.22945015E+02  # h0
        35     2.10871591E+03  # H0
        36     2.10855593E+03  # A0
        37     2.10992263E+03  # H+
   1000001     4.71081636E+03  # ~d_L
   2000001     4.47940629E+03  # ~d_R
   1000002     4.71014786E+03  # ~u_L
   2000002     4.49874247E+03  # ~u_R
   1000003     4.71081222E+03  # ~s_L
   2000003     4.47940328E+03  # ~s_R
   1000004     4.71014381E+03  # ~c_L
   2000004     4.49873670E+03  # ~c_R
   1000005     4.47127119E+03  # ~b_1
   2000005     4.54645372E+03  # ~b_2
   1000006     4.15470830E+03  # ~t_1
   2000006     4.54987858E+03  # ~t_2
   1000011     1.51882785E+03  # ~e_L-
   2000011     7.58947247E+02  # ~e_R-
   1000012     1.51636025E+03  # ~nu_eL
   1000013     1.51882399E+03  # ~mu_L-
   2000013     7.58930412E+02  # ~mu_R-
   1000014     1.51635593E+03  # ~nu_muL
   1000015     7.54172932E+02  # ~tau_1-
   2000015     1.51773543E+03  # ~tau_2-
   1000016     1.51513832E+03  # ~nu_tauL
   1000021     4.89237227E+03  # ~g
   1000022     1.03036171E+03  # ~chi_10
   1000023     1.48039536E+03  # ~chi_20
   1000025    -1.48634572E+03  # ~chi_30
   1000035     1.95746659E+03  # ~chi_40
   1000024     1.47835982E+03  # ~chi_1+
   1000037     1.95757661E+03  # ~chi_2+
   1000039     2.88000000E-03  # ~G
# Higgs mixing
Block alpha # Effective Higgs mixing angle
          -1.05746787E-01   # alpha
Block Hmix Q=  4.22130713E+03  # Higgs mixing parameters
   1    1.46564846E+03  # mu
   2    9.47103156E+00  # tan[beta](Q)
   3    2.42943403E+02  # v(Q)
   4    3.93358784E+06  # m^2_A(Q)
Block stopmix # stop mixing matrix
   1  1     6.97451841E-02   # Re[R_st(1,1)]
   1  2     9.97564840E-01   # Re[R_st(1,2)]
   2  1    -9.97564840E-01   # Re[R_st(2,1)]
   2  2     6.97451841E-02   # Re[R_st(2,2)]
Block sbotmix # sbottom mixing matrix
   1  1     5.36347476E-02   # Re[R_sb(1,1)]
   1  2     9.98560621E-01   # Re[R_sb(1,2)]
   2  1    -9.98560621E-01   # Re[R_sb(2,1)]
   2  2     5.36347476E-02   # Re[R_sb(2,2)]
Block staumix # stau mixing matrix
   1  1     1.47657781E-02   # Re[R_sta(1,1)]
   1  2     9.99890980E-01   # Re[R_sta(1,2)]
   2  1    -9.99890980E-01   # Re[R_sta(2,1)]
   2  2     1.47657781E-02   # Re[R_sta(2,2)]
Block Nmix # neutralino mixing matrix
   1  1    -9.96957707E-01   # Re[N(1,1)]
   1  2     4.46097218E-03   # Re[N(1,2)]
   1  3    -6.23302916E-02   # Re[N(1,3)]
   1  4     4.65871660E-02   # Re[N(1,4)]
   2  1    -7.69750271E-02   # Re[N(2,1)]
   2  2    -1.27644358E-01   # Re[N(2,2)]
   2  3     7.00198877E-01   # Re[N(2,3)]
   2  4    -6.98214362E-01   # Re[N(2,4)]
   3  1    -1.10673146E-02   # Re[N(3,1)]
   3  2     1.44218903E-02   # Re[N(3,2)]
   3  3     7.06693772E-01   # Re[N(3,3)]
   3  4     7.07285965E-01   # Re[N(3,4)]
   4  1    -5.26206396E-03   # Re[N(4,1)]
   4  2     9.91705111E-01   # Re[N(4,2)]
   4  3     8.01272767E-02   # Re[N(4,3)]
   4  4    -1.00363856E-01   # Re[N(4,4)]
Block Umix # chargino mixing matrix
   1  1    -1.13382411E-01   # Re[U(1,1)]
   1  2     9.93551422E-01   # Re[U(1,2)]
   2  1     9.93551422E-01   # Re[U(2,1)]
   2  2     1.13382411E-01   # Re[U(2,2)]
Block Vmix # chargino mixing matrix
   1  1    -1.41979764E-01   # Re[V(1,1)]
   1  2     9.89869560E-01   # Re[V(1,2)]
   2  1     9.89869560E-01   # Re[V(2,1)]
   2  2     1.41979764E-01   # Re[V(2,2)]
DECAY        23     2.49520000E+00   # Z
DECAY        24     2.08500000E+00   # W
DECAY   2000011     7.26944052E-14   # ~e^-_R
#    BR                NDA      ID1      ID2
     4.78547018E-07    2     1000039        11   # BR(~e^-_R -> ~G e^-)
#    BR                NDA      ID1      ID2       ID3
     3.50369676E-01    3     1000015        11       -15   # BR(~e^-_R -> ~tau^-_1 e^- tau^+)
     6.49629846E-01    3    -1000015        15        11   # BR(~e^-_R -> ~tau^+_1 tau^- e^-)
     6.93212658E-12    3     1000015        12       -16   # BR(~e^-_R -> ~tau^-_1 nu_e nu_bar_tau)
DECAY   1000011     5.78195809E-01   # ~e^-_L
#    BR                NDA      ID1      ID2
     9.98466028E-01    2     1000022        11   # BR(~e^-_L -> chi^0_1 e^-)
     7.80789970E-04    2     1000023        11   # BR(~e^-_L -> chi^0_2 e^-)
     1.22879719E-06    2     1000025        11   # BR(~e^-_L -> chi^0_3 e^-)
     7.51923867E-04    2    -1000024        12   # BR(~e^-_L -> chi^-_1 nu_e)
     1.45870223E-08    2     2000011        23   # BR(~e^-_L -> ~e^-_R Z)
     1.46399293E-08    2     2000011        25   # BR(~e^-_L -> ~e^-_R h^0)
#    BR                NDA      ID1      ID2       ID3
     1.24816904E-10    3     1000012         1        -2   # BR(~e^-_L -> ~nu_e d u_bar)
     3.31565379E-11    3     1000012         3        -4   # BR(~e^-_L -> ~nu_e s c_bar)
DECAY   2000013     7.08059886E-14   # ~mu^-_R
#    BR                NDA      ID1      ID2
     4.91255481E-07    2     1000039        13   # BR(~mu^-_R -> ~G mu^-)
#    BR                NDA      ID1      ID2       ID3
     3.50351531E-01    3     1000015        13       -15   # BR(~mu^-_R -> ~tau^-_1 mu^- tau^+)
     6.49647679E-01    3    -1000015        15        13   # BR(~mu^-_R -> ~tau^+_1 tau^- mu^-)
     2.98952680E-07    3     1000015        14       -16   # BR(~mu^-_R -> ~tau^-_1 nu_mu nu_bar_tau)
DECAY   1000013     5.78914603E-01   # ~mu^-_L
#    BR                NDA      ID1      ID2
     9.97216823E-01    2     1000022        13   # BR(~mu^-_L -> chi^0_1 mu^-)
     7.81596342E-04    2     1000023        13   # BR(~mu^-_L -> chi^0_2 mu^-)
     2.82684852E-06    2     1000025        13   # BR(~mu^-_L -> chi^0_3 mu^-)
     7.50743478E-04    2    -1000024        14   # BR(~mu^-_L -> chi^-_1 nu_mu)
     6.22876222E-04    2     2000013        23   # BR(~mu^-_L -> ~mu^-_R Z)
     6.25134300E-04    2     2000013        25   # BR(~mu^-_L -> ~mu^-_R h^0)
#    BR                NDA      ID1      ID2       ID3
     1.24777759E-10    3     1000014         1        -2   # BR(~mu^-_L -> ~nu_mu d u_bar)
     3.31641717E-11    3     1000014         3        -4   # BR(~mu^-_L -> ~nu_mu s c_bar)
DECAY   1000015     3.37064268E-20   # ~tau^-_1
#    BR                NDA      ID1      ID2
     1.00000000E+00    2     1000039        15   # BR(~tau^-_1 -> ~G tau^-)
DECAY   2000015     7.82297332E-01   # ~tau^-_2
#    BR                NDA      ID1      ID2
     7.35978936E-01    2     1000022        15   # BR(~tau^-_2 -> chi^0_1 tau^-)
     9.26106848E-04    2     1000023        15   # BR(~tau^-_2 -> chi^0_2 tau^-)
     3.13056829E-04    2     1000025        15   # BR(~tau^-_2 -> chi^0_3 tau^-)
     5.05876976E-04    2    -1000024        16   # BR(~tau^-_2 -> chi^-_1 nu_tau)
     1.30932764E-01    2     1000015        23   # BR(~tau^-_2 -> ~tau^-_1 Z)
     1.31343259E-01    2     1000015        25   # BR(~tau^-_2 -> ~tau^-_1 h^0)
#    BR                NDA      ID1      ID2       ID3
     1.19106003E-10    3     1000016         1        -2   # BR(~tau^-_2 -> ~nu_tau d u_bar)
     3.64047576E-11    3     1000016         3        -4   # BR(~tau^-_2 -> ~nu_tau s c_bar)
DECAY   1000012     5.91985172E-01   # ~nu_e
#    BR                NDA      ID1      ID2
     9.98816926E-01    2     1000022        12   # BR(~nu_e -> chi^0_1 nu_e)
     1.57475307E-04    2     1000023        12   # BR(~nu_e -> chi^0_2 nu_e)
     6.84960763E-06    2     1000025        12   # BR(~nu_e -> chi^0_3 nu_e)
     1.01872138E-03    2     1000024        11   # BR(~nu_e -> chi^+_1 e^-)
     2.74531124E-08    2     2000011        24   # BR(~nu_e -> ~e^-_R W^+)
DECAY   1000014     5.92674648E-01   # ~nu_mu
#    BR                NDA      ID1      ID2
     9.97642374E-01    2     1000022        14   # BR(~nu_mu -> chi^0_1 nu_mu)
     1.57255206E-04    2     1000023        14   # BR(~nu_mu -> chi^0_2 nu_mu)
     6.83970818E-06    2     1000025        14   # BR(~nu_mu -> chi^0_3 nu_mu)
     1.02117239E-03    2     1000024        13   # BR(~nu_mu -> chi^+_1 mu^-)
     1.17235842E-03    2     2000013        24   # BR(~nu_mu -> ~mu^-_R W^+)
DECAY   1000016     7.87763345E-01   # ~nu_tau
#    BR                NDA      ID1      ID2
     7.47907358E-01    2     1000022        16   # BR(~nu_tau -> chi^0_1 nu_tau)
     1.10611337E-04    2     1000023        16   # BR(~nu_tau -> chi^0_2 nu_tau)
     4.74434287E-06    2     1000025        16   # BR(~nu_tau -> chi^0_3 nu_tau)
     1.48620353E-03    2     1000024        15   # BR(~nu_tau -> chi^+_1 tau^-)
     2.50491083E-01    2     1000015        24   # BR(~nu_tau -> ~tau^-_1 W^+)
DECAY   2000001     2.37904619E+00   # ~d_R
#    BR                NDA      ID1      ID2
     9.94625417E-01    2     1000022         1   # BR(~d_R -> chi^0_1 d)
     5.24542833E-03    2     1000023         1   # BR(~d_R -> chi^0_2 d)
     1.08452542E-04    2     1000025         1   # BR(~d_R -> chi^0_3 d)
     2.02197600E-05    2     1000035         1   # BR(~d_R -> chi^0_4 d)
     4.81928677E-07    2    -1000024         2   # BR(~d_R -> chi^-_1 u)
     2.62354729E-10    2    -1000037         2   # BR(~d_R -> chi^-_2 u)
DECAY   1000001     3.96887832E+01   # ~d_L
#    BR                NDA      ID1      ID2
     1.65912973E-02    2     1000022         1   # BR(~d_L -> chi^0_1 d)
     4.94721292E-03    2     1000023         1   # BR(~d_L -> chi^0_2 d)
     1.06100244E-04    2     1000025         1   # BR(~d_L -> chi^0_3 d)
     3.22436410E-01    2     1000035         1   # BR(~d_L -> chi^0_4 d)
     9.98842760E-03    2    -1000024         2   # BR(~d_L -> chi^-_1 u)
     6.45930552E-01    2    -1000037         2   # BR(~d_L -> chi^-_2 u)
     1.05846695E-12    2     2000002       -24   # BR(~d_L -> ~u_R W^-)
     1.79163592E-10    2     2000001        23   # BR(~d_L -> ~d_R Z)
     1.78405736E-10    2     2000001        25   # BR(~d_L -> ~d_R h^0)
DECAY   2000003     2.37986817E+00   # ~s_R
#    BR                NDA      ID1      ID2
     9.94282591E-01    2     1000022         3   # BR(~s_R -> chi^0_1 s)
     5.32926677E-03    2     1000023         3   # BR(~s_R -> chi^0_2 s)
     1.93874375E-04    2     1000025         3   # BR(~s_R -> chi^0_3 s)
     2.02571691E-05    2     1000035         3   # BR(~s_R -> chi^0_4 s)
     1.73915793E-04    2    -1000024         4   # BR(~s_R -> chi^-_1 c)
     9.46739748E-08    2    -1000037         4   # BR(~s_R -> chi^-_2 c)
DECAY   1000003     3.96900588E+01   # ~s_L
#    BR                NDA      ID1      ID2
     1.65907439E-02    2     1000022         3   # BR(~s_L -> chi^0_1 s)
     4.95240800E-03    2     1000023         3   # BR(~s_L -> chi^0_2 s)
     1.11654347E-04    2     1000025         3   # BR(~s_L -> chi^0_3 s)
     3.22425650E-01    2     1000035         3   # BR(~s_L -> chi^0_4 s)
     1.00097616E-02    2    -1000024         4   # BR(~s_L -> chi^-_1 c)
     6.45909380E-01    2    -1000037         4   # BR(~s_L -> chi^-_2 c)
     2.73145937E-07    2     2000004       -24   # BR(~s_L -> ~c_R W^-)
     6.46755408E-08    2     2000003        23   # BR(~s_L -> ~s_R Z)
     6.44019866E-08    2     2000003        25   # BR(~s_L -> ~s_R h^0)
DECAY   1000005     4.76884680E+00   # ~b_1
#    BR                NDA      ID1      ID2
     4.98607542E-01    2     1000022         5   # BR(~b_1 -> chi^0_1 b)
     1.19513035E-01    2     1000023         5   # BR(~b_1 -> chi^0_2 b)
     1.12243670E-01    2     1000025         5   # BR(~b_1 -> chi^0_3 b)
     2.39983281E-03    2     1000035         5   # BR(~b_1 -> chi^0_4 b)
     2.61464305E-01    2    -1000024         6   # BR(~b_1 -> chi^-_1 t)
     5.39499518E-03    2    -1000037         6   # BR(~b_1 -> chi^-_2 t)
     3.76620106E-04    2     1000006       -24   # BR(~b_1 -> ~t_1 W^-)
DECAY   2000005     8.85642886E+01   # ~b_2
#    BR                NDA      ID1      ID2
     7.03756572E-03    2     1000022         5   # BR(~b_2 -> chi^0_1 b)
     7.97142363E-03    2     1000023         5   # BR(~b_2 -> chi^0_2 b)
     6.37932292E-03    2     1000025         5   # BR(~b_2 -> chi^0_3 b)
     1.35208527E-01    2     1000035         5   # BR(~b_2 -> chi^0_4 b)
     5.47043058E-01    2    -1000024         6   # BR(~b_2 -> chi^-_1 t)
     2.82884890E-01    2    -1000037         6   # BR(~b_2 -> chi^-_2 t)
     1.34752127E-02    2     1000006       -24   # BR(~b_2 -> ~t_1 W^-)
DECAY   2000002     9.56647514E+00   # ~u_R
#    BR                NDA      ID1      ID2
     9.94620209E-01    2     1000022         2   # BR(~u_R -> chi^0_1 u)
     5.25116826E-03    2     1000023         2   # BR(~u_R -> chi^0_2 u)
     1.08340632E-04    2     1000025         2   # BR(~u_R -> chi^0_3 u)
     2.02820464E-05    2     1000035         2   # BR(~u_R -> chi^0_4 u)
     3.41586845E-10    2     1000024         1   # BR(~u_R -> chi^+_1 d)
     4.45058403E-13    2     1000037         1   # BR(~u_R -> chi^+_2 d)
DECAY   1000002     3.97176857E+01   # ~u_L
#    BR                NDA      ID1      ID2
     1.50991677E-02    2     1000022         2   # BR(~u_L -> chi^0_1 u)
     7.86636070E-03    2     1000023         2   # BR(~u_L -> chi^0_2 u)
     5.85738550E-05    2     1000025         2   # BR(~u_L -> chi^0_3 u)
     3.20809339E-01    2     1000035         2   # BR(~u_L -> chi^0_4 u)
     1.56478544E-02    2     1000024         1   # BR(~u_L -> chi^+_1 d)
     6.40518704E-01    2     1000037         1   # BR(~u_L -> chi^+_2 d)
     3.63873706E-10    2     2000001        24   # BR(~u_L -> ~d_R W^+)
     5.02606149E-13    2     2000002        23   # BR(~u_L -> ~u_R Z)
     3.78687254E-13    2     2000002        25   # BR(~u_L -> ~u_R h^0)
DECAY   2000004     9.56814074E+00   # ~c_R
#    BR                NDA      ID1      ID2
     9.94445555E-01    2     1000022         4   # BR(~c_R -> chi^0_1 c)
     5.29374448E-03    2     1000023         4   # BR(~c_R -> chi^0_2 c)
     1.52117589E-04    2     1000025         4   # BR(~c_R -> chi^0_3 c)
     2.03318946E-05    2     1000035         4   # BR(~c_R -> chi^0_4 c)
     8.81357416E-05    2     1000024         3   # BR(~c_R -> chi^+_1 s)
     1.14838447E-07    2     1000037         3   # BR(~c_R -> chi^+_2 s)
DECAY   1000004     3.97189519E+01   # ~c_L
#    BR                NDA      ID1      ID2
     1.50986963E-02    2     1000022         4   # BR(~c_L -> chi^0_1 c)
     7.87675725E-03    2     1000023         4   # BR(~c_L -> chi^0_2 c)
     6.97627752E-05    2     1000025         4   # BR(~c_L -> chi^0_3 c)
     3.20799040E-01    2     1000035         4   # BR(~c_L -> chi^0_4 c)
     1.56576297E-02    2     1000024         3   # BR(~c_L -> chi^+_1 s)
     6.40497756E-01    2     1000037         3   # BR(~c_L -> chi^+_2 s)
     1.31353543E-07    2     2000003        24   # BR(~c_L -> ~s_R W^+)
     1.29701956E-07    2     2000004        23   # BR(~c_L -> ~c_R Z)
     9.77234920E-08    2     2000004        25   # BR(~c_L -> ~c_R h^0)
DECAY   1000006     9.48463754E+01   # ~t_1
#    BR                NDA      ID1      ID2
     3.69999556E-08    2     1000022         4   # BR(~t_1 -> chi^0_1 c)
     9.19422321E-02    2     1000022         6   # BR(~t_1 -> chi^0_1 t)
     1.86188893E-08    2     1000023         4   # BR(~t_1 -> chi^0_2 c)
     2.23462279E-01    2     1000023         6   # BR(~t_1 -> chi^0_2 t)
     2.28300570E-01    2     1000025         6   # BR(~t_1 -> chi^0_3 t)
     1.40898759E-03    2     1000035         6   # BR(~t_1 -> chi^0_4 t)
     4.52034575E-01    2     1000024         5   # BR(~t_1 -> chi^+_1 b)
     2.84538433E-03    2     1000037         5   # BR(~t_1 -> chi^+_2 b)
#    BR                NDA      ID1      ID2       ID3
     5.91540111E-06    3     1000022        24         5   # BR(~t_1 -> chi^0_1 W^+ b)
DECAY   2000006     8.87322866E+01   # ~t_2
#    BR                NDA      ID1      ID2
     7.08364466E-03    2     1000022         6   # BR(~t_2 -> chi^0_1 t)
     2.72289766E-01    2     1000023         6   # BR(~t_2 -> chi^0_2 t)
     2.77088347E-01    2     1000025         6   # BR(~t_2 -> chi^0_3 t)
     1.43543727E-01    2     1000035         6   # BR(~t_2 -> chi^0_4 t)
     1.32222954E-02    2     1000024         5   # BR(~t_2 -> chi^+_1 b)
     2.74587575E-01    2     1000037         5   # BR(~t_2 -> chi^+_2 b)
     6.99845442E-03    2     1000006        23   # BR(~t_2 -> ~t_1 Z)
     5.18619097E-03    2     1000006        25   # BR(~t_2 -> ~t_1 h^0)
DECAY   1000024     8.85677036E-01   # chi^+_1
#    BR                NDA      ID1      ID2
     7.29736036E-09    2    -2000011        12   # BR(chi^+_1 -> ~e^+_R nu_e)
     3.11994902E-04    2    -2000013        14   # BR(chi^+_1 -> ~mu^+_R nu_mu)
     8.90276114E-02    2    -1000015        16   # BR(chi^+_1 -> ~tau^+_1 nu_tau)
     9.05441877E-01    2     1000022        24   # BR(chi^+_1 -> chi^0_1 W^+)
#    BR                NDA      ID1      ID2       ID3
     8.44703725E-10    3     1000022        -1         2   # BR(chi^+_1 -> chi^0_1 d_bar u)
     8.88010509E-10    3     1000022        -3         4   # BR(chi^+_1 -> chi^0_1 s_bar c)
     5.20789409E-03    3     1000022        -5         6   # BR(chi^+_1 -> chi^0_1 b_bar t)
     2.89492229E-06    3     1000022       -11        12   # BR(chi^+_1 -> chi^0_1 e^+ nu_e)
     2.90161248E-06    3     1000022       -13        14   # BR(chi^+_1 -> chi^0_1 mu^+ nu_mu)
     4.81689073E-06    3     1000022       -15        16   # BR(chi^+_1 -> chi^0_1 tau^+ nu_tau)
DECAY   1000037     1.89804298E+01   # chi^+_2
#    BR                NDA      ID1      ID2
     2.02585962E-13    2    -2000011        12   # BR(chi^+_2 -> ~e^+_R nu_e)
     6.49548755E-02    2    -1000011        12   # BR(chi^+_2 -> ~e^+_L nu_e)
     8.66204017E-09    2    -2000013        14   # BR(chi^+_2 -> ~mu^+_R nu_mu)
     6.49559446E-02    2    -1000013        14   # BR(chi^+_2 -> ~mu^+_L nu_mu)
     2.51844358E-06    2    -1000015        16   # BR(chi^+_2 -> ~tau^+_1 nu_tau)
     6.52575497E-02    2    -2000015        16   # BR(chi^+_2 -> ~tau^+_2 nu_tau)
     6.51090948E-02    2     1000012       -11   # BR(chi^+_2 -> ~nu_e e^+)
     6.51102422E-02    2     1000014       -13   # BR(chi^+_2 -> ~nu_mu mu^+)
     6.54338647E-02    2     1000016       -15   # BR(chi^+_2 -> ~nu_tau tau^+)
     3.57705986E-05    2     1000022        24   # BR(chi^+_2 -> chi^0_1 W^+)
     1.51244142E-01    2     1000023        24   # BR(chi^+_2 -> chi^0_2 W^+)
     1.47986349E-01    2     1000025        24   # BR(chi^+_2 -> chi^0_3 W^+)
     1.55470901E-01    2     1000024        23   # BR(chi^+_2 -> chi^+_1 Z)
     1.52040696E-01    2     1000024        25   # BR(chi^+_2 -> chi^+_1 h^0)
#    BR                NDA      ID1      ID2       ID3
     1.01427186E-09    3     1000024         2        -2   # BR(chi^+_2 -> chi^+_1 u u_bar)
     1.01613711E-09    3     1000024         4        -4   # BR(chi^+_2 -> chi^+_1 c c_bar)
     3.97169175E-04    3     1000024         6        -6   # BR(chi^+_2 -> chi^+_1 t t_bar)
     1.57976849E-09    3     1000024         1        -1   # BR(chi^+_2 -> chi^+_1 d d_bar)
     1.60236887E-09    3     1000024         3        -3   # BR(chi^+_2 -> chi^+_1 s s_bar)
     6.36538040E-08    3     1000024         5        -5   # BR(chi^+_2 -> chi^+_1 b b_bar)
     3.40289484E-11    3     1000024        13       -13   # BR(chi^+_2 -> chi^+_1 mu^- mu^+)
     9.62514158E-09    3     1000024        15       -15   # BR(chi^+_2 -> chi^+_1 tau^- tau^+)
     3.61441770E-13    3     1000024        12       -12   # BR(chi^+_2 -> chi^+_1 nu_e nu_bar_e)
     6.74588515E-08    3     1000022        -1         2   # BR(chi^+_2 -> chi^0_1 d_bar u)
     6.74583173E-08    3     1000022        -3         4   # BR(chi^+_2 -> chi^0_1 s_bar c)
     6.07614278E-07    3     1000022        -5         6   # BR(chi^+_2 -> chi^0_1 b_bar t)
     2.33085136E-12    3     1000022       -13        14   # BR(chi^+_2 -> chi^0_1 mu^+ nu_mu)
     6.65167087E-10    3     1000022       -15        16   # BR(chi^+_2 -> chi^0_1 tau^+ nu_tau)
     6.65394051E-10    3     1000023        -1         2   # BR(chi^+_2 -> chi^0_2 d_bar u)
     6.75334773E-10    3     1000023        -3         4   # BR(chi^+_2 -> chi^0_2 s_bar c)
     1.02982288E-03    3     1000023        -5         6   # BR(chi^+_2 -> chi^0_2 b_bar t)
     1.72698511E-11    3     1000023       -13        14   # BR(chi^+_2 -> chi^0_2 mu^+ nu_mu)
     4.88532751E-09    3     1000023       -15        16   # BR(chi^+_2 -> chi^0_2 tau^+ nu_tau)
     2.28109769E-11    3     1000025        -1         2   # BR(chi^+_2 -> chi^0_3 d_bar u)
     3.17628212E-11    3     1000025        -3         4   # BR(chi^+_2 -> chi^0_3 s_bar c)
     9.70218144E-04    3     1000025        -5         6   # BR(chi^+_2 -> chi^0_3 b_bar t)
     1.59603575E-11    3     1000025       -13        14   # BR(chi^+_2 -> chi^0_3 mu^+ nu_mu)
     4.51548131E-09    3     1000025       -15        16   # BR(chi^+_2 -> chi^0_3 tau^+ nu_tau)
DECAY   1000022     3.46301217E+00   # chi^0_1
#    BR                NDA      ID1      ID2
     1.65000616E-01    2     2000011       -11   # BR(chi^0_1 -> ~e^-_R e^+)
     1.65000616E-01    2    -2000011        11   # BR(chi^0_1 -> ~e^+_R e^-)
     1.65018102E-01    2     2000013       -13   # BR(chi^0_1 -> ~mu^-_R mu^+)
     1.65018102E-01    2    -2000013        13   # BR(chi^0_1 -> ~mu^+_R mu^-)
     1.69981282E-01    2     1000015       -15   # BR(chi^0_1 -> ~tau^-_1 tau^+)
     1.69981282E-01    2    -1000015        15   # BR(chi^0_1 -> ~tau^+_1 tau^-)
DECAY   1000023     1.02605019E+00   # chi^0_2
#    BR                NDA      ID1      ID2
     1.23870515E-02    2     2000011       -11   # BR(chi^0_2 -> ~e^-_R e^+)
     1.23870515E-02    2    -2000011        11   # BR(chi^0_2 -> ~e^+_R e^-)
     1.25204025E-02    2     2000013       -13   # BR(chi^0_2 -> ~mu^-_R mu^+)
     1.25204025E-02    2    -2000013        13   # BR(chi^0_2 -> ~mu^+_R mu^-)
     5.04503747E-02    2     1000015       -15   # BR(chi^0_2 -> ~tau^-_1 tau^+)
     5.04503747E-02    2    -1000015        15   # BR(chi^0_2 -> ~tau^+_1 tau^-)
     1.82527419E-02    2     1000022        23   # BR(chi^0_2 -> chi^0_1 Z)
     8.30702352E-01    2     1000022        25   # BR(chi^0_2 -> chi^0_1 h^0)
     2.63958453E-07    2     1000022        22   # BR(chi^0_2 -> chi^0_1 photon)
#    BR                NDA      ID1      ID2       ID3
     2.00128345E-09    3     1000022         2        -2   # BR(chi^0_2 -> chi^0_1 u u_bar)
     2.00945201E-09    3     1000022         4        -4   # BR(chi^0_2 -> chi^0_1 c c_bar)
     3.16010224E-04    3     1000022         6        -6   # BR(chi^0_2 -> chi^0_1 t t_bar)
     4.04727219E-10    3     1000022         1        -1   # BR(chi^0_2 -> chi^0_1 d d_bar)
     4.50909773E-10    3     1000022         3        -3   # BR(chi^0_2 -> chi^0_1 s s_bar)
     1.23783251E-07    3     1000022         5        -5   # BR(chi^0_2 -> chi^0_1 b b_bar)
     3.25158116E-06    3     1000022        11       -11   # BR(chi^0_2 -> chi^0_1 e^- e^+)
     3.25651180E-06    3     1000022        13       -13   # BR(chi^0_2 -> chi^0_1 mu^- mu^+)
     4.63793614E-06    3     1000022        15       -15   # BR(chi^0_2 -> chi^0_1 tau^- tau^+)
     1.70022887E-06    3     1000022        12       -12   # BR(chi^0_2 -> chi^0_1 nu_e nu_bar_e)
     1.37935609E-11    3     1000024         1        -2   # BR(chi^0_2 -> chi^+_1 d u_bar)
     1.37935609E-11    3    -1000024        -1         2   # BR(chi^0_2 -> chi^-_1 d_bar u)
     1.74092462E-12    3     1000024         3        -4   # BR(chi^0_2 -> chi^+_1 s c_bar)
     1.74092462E-12    3    -1000024        -3         4   # BR(chi^0_2 -> chi^-_1 s_bar c)
     4.60594952E-12    3     1000024        11       -12   # BR(chi^0_2 -> chi^+_1 e^- nu_bar_e)
     4.60594952E-12    3    -1000024       -11        12   # BR(chi^0_2 -> chi^-_1 e^+ nu_e)
     4.54475767E-12    3     1000024        13       -14   # BR(chi^0_2 -> chi^+_1 mu^- nu_bar_mu)
     4.54475767E-12    3    -1000024       -13        14   # BR(chi^0_2 -> chi^-_1 mu^+ nu_mu)
DECAY   1000025     9.28118093E-01   # chi^0_3
#    BR                NDA      ID1      ID2
     2.85848846E-04    2     2000011       -11   # BR(chi^0_3 -> ~e^-_R e^+)
     2.85848846E-04    2    -2000011        11   # BR(chi^0_3 -> ~e^+_R e^-)
     4.34669820E-04    2     2000013       -13   # BR(chi^0_3 -> ~mu^-_R mu^+)
     4.34669820E-04    2    -2000013        13   # BR(chi^0_3 -> ~mu^+_R mu^-)
     4.27548658E-02    2     1000015       -15   # BR(chi^0_3 -> ~tau^-_1 tau^+)
     4.27548658E-02    2    -1000015        15   # BR(chi^0_3 -> ~tau^+_1 tau^-)
     8.93122963E-01    2     1000022        23   # BR(chi^0_3 -> chi^0_1 Z)
     1.86872095E-02    2     1000022        25   # BR(chi^0_3 -> chi^0_1 h^0)
     5.61617794E-07    2     1000022        22   # BR(chi^0_3 -> chi^0_1 photon)
     6.48755623E-11    2     1000023        22   # BR(chi^0_3 -> chi^0_2 photon)
#    BR                NDA      ID1      ID2       ID3
     1.45066297E-11    3     1000022         2        -2   # BR(chi^0_3 -> chi^0_1 u u_bar)
     2.60808396E-11    3     1000022         4        -4   # BR(chi^0_3 -> chi^0_1 c c_bar)
     1.23643031E-03    3     1000022         6        -6   # BR(chi^0_3 -> chi^0_1 t t_bar)
     3.66440911E-12    3     1000022         1        -1   # BR(chi^0_3 -> chi^0_1 d d_bar)
     5.71650520E-11    3     1000022         3        -3   # BR(chi^0_3 -> chi^0_1 s s_bar)
     1.42936174E-07    3     1000022         5        -5   # BR(chi^0_3 -> chi^0_1 b b_bar)
     1.17502265E-08    3     1000022        11       -11   # BR(chi^0_3 -> chi^0_1 e^- e^+)
     1.78843595E-08    3     1000022        13       -13   # BR(chi^0_3 -> chi^0_1 mu^- mu^+)
     1.74408158E-06    3     1000022        15       -15   # BR(chi^0_3 -> chi^0_1 tau^- tau^+)
     6.67127342E-08    3     1000022        12       -12   # BR(chi^0_3 -> chi^0_1 nu_e nu_bar_e)
     9.22357919E-10    3     1000023         2        -2   # BR(chi^0_3 -> chi^0_2 u u_bar)
     6.64095428E-10    3     1000023         4        -4   # BR(chi^0_3 -> chi^0_2 c c_bar)
     1.19848250E-09    3     1000023         1        -1   # BR(chi^0_3 -> chi^0_2 d d_bar)
     1.19601813E-09    3     1000023         3        -3   # BR(chi^0_3 -> chi^0_2 s s_bar)
     2.76093874E-10    3     1000023        11       -11   # BR(chi^0_3 -> chi^0_2 e^- e^+)
     2.75651241E-10    3     1000023        13       -13   # BR(chi^0_3 -> chi^0_2 mu^- mu^+)
     1.37267118E-10    3     1000023        15       -15   # BR(chi^0_3 -> chi^0_2 tau^- tau^+)
     1.65717881E-09    3     1000023        12       -12   # BR(chi^0_3 -> chi^0_2 nu_e nu_bar_e)
     1.35750057E-08    3     1000024         1        -2   # BR(chi^0_3 -> chi^+_1 d u_bar)
     1.35750057E-08    3    -1000024        -1         2   # BR(chi^0_3 -> chi^-_1 d_bar u)
     1.20036642E-08    3     1000024         3        -4   # BR(chi^0_3 -> chi^+_1 s c_bar)
     1.20036642E-08    3    -1000024        -3         4   # BR(chi^0_3 -> chi^-_1 s_bar c)
     4.52561703E-09    3     1000024        11       -12   # BR(chi^0_3 -> chi^+_1 e^- nu_bar_e)
     4.52561703E-09    3    -1000024       -11        12   # BR(chi^0_3 -> chi^-_1 e^+ nu_e)
     4.52164379E-09    3     1000024        13       -14   # BR(chi^0_3 -> chi^+_1 mu^- nu_bar_mu)
     4.52164379E-09    3    -1000024       -13        14   # BR(chi^0_3 -> chi^-_1 mu^+ nu_mu)
     3.56407641E-09    3     1000024        15       -16   # BR(chi^0_3 -> chi^+_1 tau^- nu_bar_tau)
     3.56407641E-09    3    -1000024       -15        16   # BR(chi^0_3 -> chi^-_1 tau^+ nu_tau)
DECAY   1000035     1.90041762E+01   # chi^0_4
#    BR                NDA      ID1      ID2
     5.49010544E-06    2     2000011       -11   # BR(chi^0_4 -> ~e^-_R e^+)
     5.49010544E-06    2    -2000011        11   # BR(chi^0_4 -> ~e^+_R e^-)
     3.21066704E-02    2     1000011       -11   # BR(chi^0_4 -> ~e^-_L e^+)
     3.21066704E-02    2    -1000011        11   # BR(chi^0_4 -> ~e^+_L e^-)
     5.49299687E-06    2     2000013       -13   # BR(chi^0_4 -> ~mu^-_R mu^+)
     5.49299687E-06    2    -2000013        13   # BR(chi^0_4 -> ~mu^+_R mu^-)
     3.21072162E-02    2     1000013       -13   # BR(chi^0_4 -> ~mu^-_L mu^+)
     3.21072162E-02    2    -1000013        13   # BR(chi^0_4 -> ~mu^+_L mu^-)
     6.35226717E-06    2     1000015       -15   # BR(chi^0_4 -> ~tau^-_1 tau^+)
     6.35226717E-06    2    -1000015        15   # BR(chi^0_4 -> ~tau^+_1 tau^-)
     3.22612195E-02    2     2000015       -15   # BR(chi^0_4 -> ~tau^-_2 tau^+)
     3.22612195E-02    2    -2000015        15   # BR(chi^0_4 -> ~tau^+_2 tau^-)
     3.28212137E-02    2     1000012       -12   # BR(chi^0_4 -> ~nu_e nu_bar_e)
     3.28212137E-02    2    -1000012        12   # BR(chi^0_4 -> ~nu^*_e nu_e)
     3.28217751E-02    2     1000014       -14   # BR(chi^0_4 -> ~nu_mu nu_bar_mu)
     3.28217751E-02    2    -1000014        14   # BR(chi^0_4 -> ~nu^*_mu nu_mu)
     3.29800915E-02    2     1000016       -16   # BR(chi^0_4 -> ~nu_tau nu_bar_tau)
     3.29800915E-02    2    -1000016        16   # BR(chi^0_4 -> ~nu^*_tau nu_tau)
     1.52115933E-01    2     1000024       -24   # BR(chi^0_4 -> chi^+_1 W^-)
     1.52115933E-01    2    -1000024        24   # BR(chi^0_4 -> chi^-_1 W^+)
     4.94483982E-06    2     1000022        23   # BR(chi^0_4 -> chi^0_1 Z)
     2.04872522E-03    2     1000023        23   # BR(chi^0_4 -> chi^0_2 Z)
     1.48674580E-01    2     1000025        23   # BR(chi^0_4 -> chi^0_3 Z)
     3.42309527E-05    2     1000022        25   # BR(chi^0_4 -> chi^0_1 h^0)
     1.50590258E-01    2     1000023        25   # BR(chi^0_4 -> chi^0_2 h^0)
     1.77615165E-03    2     1000025        25   # BR(chi^0_4 -> chi^0_3 h^0)
     1.02967816E-07    2     1000022        22   # BR(chi^0_4 -> chi^0_1 photon)
     3.07213531E-07    2     1000023        22   # BR(chi^0_4 -> chi^0_2 photon)
     4.96372163E-07    2     1000025        22   # BR(chi^0_4 -> chi^0_3 photon)
#    BR                NDA      ID1      ID2       ID3
     3.20616487E-08    3     1000022         2        -2   # BR(chi^0_4 -> chi^0_1 u u_bar)
     3.20608516E-08    3     1000022         4        -4   # BR(chi^0_4 -> chi^0_1 c c_bar)
     3.13198207E-07    3     1000022         6        -6   # BR(chi^0_4 -> chi^0_1 t t_bar)
     3.53081902E-08    3     1000022         1        -1   # BR(chi^0_4 -> chi^0_1 d d_bar)
     3.53084566E-08    3     1000022         3        -3   # BR(chi^0_4 -> chi^0_1 s s_bar)
     4.17238956E-08    3     1000022         5        -5   # BR(chi^0_4 -> chi^0_1 b b_bar)
     2.65039099E-09    3     1000022        11       -11   # BR(chi^0_4 -> chi^0_1 e^- e^+)
     2.65185649E-09    3     1000022        13       -13   # BR(chi^0_4 -> chi^0_1 mu^- mu^+)
     3.06835456E-09    3     1000022        15       -15   # BR(chi^0_4 -> chi^0_1 tau^- tau^+)
     1.16064572E-09    3     1000023         2        -2   # BR(chi^0_4 -> chi^0_2 u u_bar)
     1.16081423E-09    3     1000023         4        -4   # BR(chi^0_4 -> chi^0_2 c c_bar)
     9.78585303E-05    3     1000023         6        -6   # BR(chi^0_4 -> chi^0_2 t t_bar)
     7.31779037E-10    3     1000023         1        -1   # BR(chi^0_4 -> chi^0_2 d d_bar)
     7.42695208E-10    3     1000023         3        -3   # BR(chi^0_4 -> chi^0_2 s s_bar)
     3.05297352E-08    3     1000023         5        -5   # BR(chi^0_4 -> chi^0_2 b b_bar)
     3.75748087E-13    3     1000023        11       -11   # BR(chi^0_4 -> chi^0_2 e^- e^+)
     1.64818086E-11    3     1000023        13       -13   # BR(chi^0_4 -> chi^0_2 mu^- mu^+)
     4.55906441E-09    3     1000023        15       -15   # BR(chi^0_4 -> chi^0_2 tau^- tau^+)
     2.80098339E-12    3     1000025         2        -2   # BR(chi^0_4 -> chi^0_3 u u_bar)
     3.59747669E-12    3     1000025         4        -4   # BR(chi^0_4 -> chi^0_3 c c_bar)
     2.58225789E-04    3     1000025         6        -6   # BR(chi^0_4 -> chi^0_3 t t_bar)
     5.11535453E-12    3     1000025         1        -1   # BR(chi^0_4 -> chi^0_3 d d_bar)
     1.58670288E-11    3     1000025         3        -3   # BR(chi^0_4 -> chi^0_3 s s_bar)
     2.92582683E-08    3     1000025         5        -5   # BR(chi^0_4 -> chi^0_3 b b_bar)
     1.59268047E-11    3     1000025        13       -13   # BR(chi^0_4 -> chi^0_3 mu^- mu^+)
     4.50808627E-09    3     1000025        15       -15   # BR(chi^0_4 -> chi^0_3 tau^- tau^+)
     6.76045687E-10    3     1000024         1        -2   # BR(chi^0_4 -> chi^+_1 d u_bar)
     6.76045687E-10    3    -1000024        -1         2   # BR(chi^0_4 -> chi^-_1 d_bar u)
     6.88428483E-10    3     1000024         3        -4   # BR(chi^0_4 -> chi^+_1 s c_bar)
     6.88428483E-10    3    -1000024        -3         4   # BR(chi^0_4 -> chi^-_1 s_bar c)
     1.02531284E-03    3     1000024         5        -6   # BR(chi^0_4 -> chi^+_1 b t_bar)
     1.02531284E-03    3    -1000024        -5         6   # BR(chi^0_4 -> chi^-_1 b_bar t)
     1.75498269E-11    3     1000024        13       -14   # BR(chi^0_4 -> chi^+_1 mu^- nu_bar_mu)
     1.75498269E-11    3    -1000024       -13        14   # BR(chi^0_4 -> chi^-_1 mu^+ nu_mu)
     4.96131559E-09    3     1000024        15       -16   # BR(chi^0_4 -> chi^+_1 tau^- nu_bar_tau)
     4.96131559E-09    3    -1000024       -15        16   # BR(chi^0_4 -> chi^-_1 tau^+ nu_tau)
DECAY   1000021     2.47157891E+01   # ~g
#    BR                NDA      ID1      ID2
     4.63429540E-02    2     2000002        -2   # BR(~g -> ~u_R u_bar)
     4.63429540E-02    2    -2000002         2   # BR(~g -> ~u^*_R u)
     1.03838171E-02    2     1000002        -2   # BR(~g -> ~u_L u_bar)
     1.03838171E-02    2    -1000002         2   # BR(~g -> ~u^*_L u)
     4.63438617E-02    2     2000004        -4   # BR(~g -> ~c_R c_bar)
     4.63438617E-02    2    -2000004         4   # BR(~g -> ~c^*_R c)
     1.03841094E-02    2     1000004        -4   # BR(~g -> ~c_L c_bar)
     1.03841094E-02    2    -1000004         4   # BR(~g -> ~c^*_L c)
     1.03140099E-06    2     1000006        -4   # BR(~g -> ~t_1 c_bar)
     1.03140099E-06    2    -1000006         4   # BR(~g -> ~t^*_1 c)
     1.42275742E-01    2     1000006        -6   # BR(~g -> ~t_1 t_bar)
     1.42275742E-01    2    -1000006         6   # BR(~g -> ~t^*_1 t)
     3.31124909E-02    2     2000006        -6   # BR(~g -> ~t_2 t_bar)
     3.31124909E-02    2    -2000006         6   # BR(~g -> ~t^*_2 t)
     5.07979347E-02    2     2000001        -1   # BR(~g -> ~d_R d_bar)
     5.07979347E-02    2    -2000001         1   # BR(~g -> ~d^*_R d)
     1.03092054E-02    2     1000001        -1   # BR(~g -> ~d_L d_bar)
     1.03092054E-02    2    -1000001         1   # BR(~g -> ~d^*_L d)
     5.07986350E-02    2     2000003        -3   # BR(~g -> ~s_R s_bar)
     5.07986350E-02    2    -2000003         3   # BR(~g -> ~s^*_R s)
     1.03096684E-02    2     1000003        -3   # BR(~g -> ~s_L s_bar)
     1.03096684E-02    2    -1000003         3   # BR(~g -> ~s^*_L s)
     5.26663965E-02    2     1000005        -5   # BR(~g -> ~b_1 b_bar)
     5.26663965E-02    2    -1000005         5   # BR(~g -> ~b^*_1 b)
     3.62001230E-02    2     2000005        -5   # BR(~g -> ~b_2 b_bar)
     3.62001230E-02    2    -2000005         5   # BR(~g -> ~b^*_2 b)
     1.56671734E-07    2     1000039        21   # BR(~g -> ~G g)
     3.76437280E-06    2     1000022        21   # BR(~g -> chi^0_1 g)
     7.02462830E-05    2     1000023        21   # BR(~g -> chi^0_2 g)
     7.19446365E-05    2     1000025        21   # BR(~g -> chi^0_3 g)
     1.94946581E-06    2     1000035        21   # BR(~g -> chi^0_4 g)
DECAY        25     3.11327112E-03   # h^0
#    BR                NDA      ID1      ID2
     7.52401692E-09    2          11       -11   # BR(h^0 -> e^- e^+)
     3.21672609E-04    2          13       -13   # BR(h^0 -> mu^- mu^+)
     9.07614610E-02    2          15       -15   # BR(h^0 -> tau^- tau^+)
     6.38067573E-07    2           1        -1   # BR(h^0 -> d d_bar)
     2.30341860E-04    2           3        -3   # BR(h^0 -> s s_bar)
     5.88112054E-01    2           5        -5   # BR(h^0 -> b b_bar)
     1.45815286E-07    2           2        -2   # BR(h^0 -> u u_bar)
     3.76221031E-02    2           4        -4   # BR(h^0 -> c c_bar)
     9.20636519E-02    2          21        21   # BR(h^0 -> g g)
     3.29838323E-03    2          22        22   # BR(h^0 -> photon photon)
# writing decays into V V* as 3-body decays
#    BR                NDA      ID1      ID2       ID3
     8.48342164E-03    3          24        11        12   # BR(h^0 -> W^+ e^- nu_e)
     8.48342164E-03    3          24        13        14   # BR(h^0 -> W^+ mu^- nu_mu)
     8.48342164E-03    3          24        15        16   # BR(h^0 -> W^+ tau^- nu_tau)
     2.96919757E-02    3          24         1        -2   # BR(h^0 -> W^+ d u_bar)
     2.96919757E-02    3          24         3        -4   # BR(h^0 -> W^+ s c_bar)
     8.48342164E-03    3         -24       -11       -12   # BR(h^0 -> W^- e^+ nu_bar_e)
     8.48342164E-03    3         -24       -13       -14   # BR(h^0 -> W^- mu^+ nu_bar_mu)
     8.48342164E-03    3         -24       -15       -16   # BR(h^0 -> W^- tau^+ nu_bar_tau)
     2.96919757E-02    3         -24        -1         2   # BR(h^0 -> W^- d_bar u)
     2.96919757E-02    3         -24        -3         4   # BR(h^0 -> W^- s_bar c)
     6.02149216E-04    3          23        11       -11   # BR(h^0 -> Z e^- e^+)
     6.02149216E-04    3          23        13       -13   # BR(h^0 -> Z mu^- mu^+)
     6.05733438E-04    3          23        15       -15   # BR(h^0 -> Z tau^- tau^+)
     3.58422152E-03    3          23        12       -12   # BR(h^0 -> Z nu_e nu_bar_e)
     2.79569279E-03    3          23         1        -1   # BR(h^0 -> Z d d_bar)
     2.79569279E-03    3          23         3        -3   # BR(h^0 -> Z s s_bar)
     2.70608725E-03    3          23         5        -5   # BR(h^0 -> Z b b_bar)
     2.07884848E-03    3          23         2        -2   # BR(h^0 -> Z u u_bar)
     2.15053291E-03    3          23         4        -4   # BR(h^0 -> Z c c_bar)
DECAY        35     3.83165685E+00   # H^0
#    BR                NDA      ID1      ID2
     8.69701387E-09    2          11       -11   # BR(H^0 -> e^- e^+)
     3.71824911E-04    2          13       -13   # BR(H^0 -> mu^- mu^+)
     1.05184924E-01    2          15       -15   # BR(H^0 -> tau^- tau^+)
     5.94993174E-07    2           1        -1   # BR(H^0 -> d d_bar)
     2.14792332E-04    2           3        -3   # BR(H^0 -> s s_bar)
     5.69381220E-01    2           5        -5   # BR(H^0 -> b b_bar)
     1.89471925E-11    2           2        -2   # BR(H^0 -> u u_bar)
     4.88959277E-06    2           4        -4   # BR(H^0 -> c c_bar)
     2.80272827E-01    2           6        -6   # BR(H^0 -> t t_bar)
     2.08805053E-05    2     2000011  -2000011   # BR(H^0 -> ~e^-_R ~e^+_R)
     2.08717367E-05    2     2000013  -2000013   # BR(H^0 -> ~mu^-_R ~mu^+_R)
     1.84598240E-05    2     1000015  -1000015   # BR(H^0 -> ~tau^-_1 ~tau^+_1)
     4.60459835E-05    2     1000022   1000022   # BR(H^0 -> chi^0_1 chi^0_1)
     1.52631346E-02    2          23        23   # BR(H^0 -> Z Z)
     2.85686468E-02    2          24       -24   # BR(H^0 -> W^+ W^-)
     5.40716732E-04    2          25        25   # BR(H^0 -> h^0 h^0)
     8.88815839E-05    2          21        21   # BR(H^0 -> g g)
     1.28016440E-06    2          22        22   # BR(H^0 -> photon photon)
DECAY        36     3.67388259E+00   # A^0
#    BR                NDA      ID1      ID2
     9.07087652E-09    2          11       -11   # BR(A^0 -> e^- e^+)
     3.87808728E-04    2          13       -13   # BR(A^0 -> mu^- mu^+)
     1.09706870E-01    2          15       -15   # BR(A^0 -> tau^- tau^+)
     6.20570246E-07    2           1        -1   # BR(A^0 -> d d_bar)
     2.24025532E-04    2           3        -3   # BR(A^0 -> s s_bar)
     5.93856914E-01    2           5        -5   # BR(A^0 -> b b_bar)
     1.95545938E-11    2           2        -2   # BR(A^0 -> u u_bar)
     5.04633727E-06    2           4        -4   # BR(A^0 -> c c_bar)
     2.94049218E-01    2           6        -6   # BR(A^0 -> t t_bar)
     1.46327902E-03    2     1000022   1000022   # BR(A^0 -> chi^0_1 chi^0_1)
     2.46147321E-04    2          25        23   # BR(A^0 -> h^0 Z)
     5.95844716E-05    2          21        21   # BR(A^0 -> g g)
     4.77876637E-07    2          22        22   # BR(A^0 -> photon photon)
DECAY        37     3.23779074E+00   # H^+
#    BR                NDA      ID1      ID2
     1.02992869E-08    2         -11        12   # BR(H^+ -> e^+ nu_e)
     4.40327166E-04    2         -13        12   # BR(H^+ -> mu^+ nu_e)
     1.24563765E-01    2         -15        12   # BR(H^+ -> tau^+ nu_e)
     6.18866275E-07    2          -1         2   # BR(H^+ -> d_bar u)
     2.28435627E-04    2          -3         4   # BR(H^+ -> s_bar c)
     8.74496112E-01    2          -5         6   # BR(H^+ -> b_bar t)
     2.70731411E-04    2          25        24   # BR(H^+ -> h^0 W^+)
DECAY         6     2.43000000E+00   # top
#    BR                NDA      ID1      ID2
     1.00000000E+00    2           5        24   # BR(t -> b W)
Block HiggsBoundsInputHiggsCouplingsFermions
# ScalarNormEffCoupSq PseudoSNormEffCoupSq NP IP1 IP2 IP2
    1.01047211E+00    0.00000000E+00        3  25   5   5  # h0-b-b eff. coupling^2, normalised to SM
    8.96899667E+01    0.00000000E+00        3  35   5   5  # H0-b-b eff. coupling^2, normalised to SM
    0.00000000E+00    8.97004388E+01        3  36   5   5  # A0-b-b eff. coupling^2, normalised to SM
#
    9.99883255E-01    0.00000000E+00        3  25   6   6  # h0-t-t eff. coupling^2, normalised to SM
    1.12649628E-02    0.00000000E+00        3  35   6   6  # H0-t-t eff. coupling^2, normalised to SM
    0.00000000E+00    1.11482175E-02        3  36   6   6  # A0-t-t eff. coupling^2, normalised to SM
#
    1.01047211E+00    0.00000000E+00        3  25  15  15  # h0-tau-tau eff. coupling^2, normalised to SM
    8.96899667E+01    0.00000000E+00        3  35  15  15  # H0-tau-tau eff. coupling^2, normalised to SM
    0.00000000E+00    8.97004388E+01        3  36  15  15  # A0-tau-tau eff. coupling^2, normalised to SM
#
Block HiggsBoundsInputHiggsCouplingsBosons
    9.99999696E-01        3  25  24  24  # h0-W-W eff. coupling^2, normalised to SM
    3.04070190E-07        3  35  24  24  # H0-W-W eff. coupling^2, normalised to SM
    0.00000000E+00        3  36  24  24  # A0-W-W eff. coupling^2, normalised to SM
#
    9.99999696E-01        3  25  23  23  # h0-Z-Z eff. coupling^2, normalised to SM
    3.04070190E-07        3  35  23  23  # H0-Z-Z eff. coupling^2, normalised to SM
    0.00000000E+00        3  36  23  23  # A0-Z-Z eff. coupling^2, normalised to SM
#
    1.15134569E+00        3  25  21  21  # h0-g-g eff. coupling^2, normalised to SM
    7.45600724E-03        3  35  21  21  # H0-g-g eff. coupling^2, normalised to SM
    1.28638883E-01        3  36  21  21  # A0-g-g eff. coupling^2, normalised to SM
#
    0.00000000E+00        3  25  25  23  # h0-h0-Z eff. coupling^2, normalised to SM
    0.00000000E+00        3  35  25  23  # H0-h0-Z eff. coupling^2, normalised to SM
    3.04070190E-07        3  36  25  23  # A0-h0-Z eff. coupling^2, normalised to SM
    0.00000000E+00        3  35  35  23  # H0-H0-Z eff. coupling^2, normalised to SM
    9.99999696E-01        3  36  35  23  # A0-H0-Z eff. coupling^2, normalised to SM
    0.00000000E+00        3  36  36  23  # A0-A0-Z eff. coupling^2, normalised to SM
#
    0.00000000E+00        4  25  21  21  23  # h0-g-g-Z eff. coupling^2, normalised to SM
    0.00000000E+00        4  35  21  21  23  # H0-g-g-Z eff. coupling^2, normalised to SM
    0.00000000E+00        4  36  21  21  23  # A0-g-g-Z eff. coupling^2, normalised to SM
Block SPhenoLowEnergy  # low energy observables
    1    3.27389781E-04   # BR(b -> s gamma)
    2    1.59012050E-06   # BR(b -> s mu+ mu-)
    3    3.52883293E-05   # BR(b -> s nu nu)
    4    2.06657921E-15   # BR(Bd -> e+ e-)
    5    8.82819177E-11   # BR(Bd -> mu+ mu-)
    6    1.84787924E-08   # BR(Bd -> tau+ tau-)
    7    6.96523696E-14   # BR(Bs -> e+ e-)
    8    2.97554700E-09   # BR(Bs -> mu+ mu-)
    9    6.31062874E-07   # BR(Bs -> tau+ tau-)
   10    9.67133584E-05   # BR(B_u -> tau nu)
   11    9.99162145E-01   # BR(B_u -> tau nu)/BR(B_u -> tau nu)_SM
   12    5.41518580E-01   # |Delta(M_Bd)| [ps^-1] 
   13    1.93488866E+01   # |Delta(M_Bs)| [ps^-1] 
   16    2.15497195E-03   # epsilon_K
   17    2.28163392E-15   # Delta(M_K)
   18    2.48236030E-11   # BR(K^0 -> pi^0 nu nu)
   19    8.29618067E-11   # BR(K^+ -> pi^+ nu nu)
   20    1.03585345E-15   # Delta(g-2)_electron/2
   21    4.42863503E-11   # Delta(g-2)_muon/2
   22    1.25548863E-08   # Delta(g-2)_tau/2
   23    0.00000000E+00   # electric dipole moment of the electron
   24    0.00000000E+00   # electric dipole moment of the muon
   25    0.00000000E+00   # electric dipole moment of the tau
   26    0.00000000E+00   # Br(mu -> e gamma)
   27    0.00000000E+00   # Br(tau -> e gamma)
   28    0.00000000E+00   # Br(tau -> mu gamma)
   29    0.00000000E+00   # Br(mu -> 3 e)
   30    0.00000000E+00   # Br(tau -> 3 e)
   31    0.00000000E+00   # Br(tau -> 3 mu)
   39   -4.59002450E-05   # Delta(rho_parameter)
   40    0.00000000E+00   # BR(Z -> e mu)
   41    0.00000000E+00   # BR(Z -> e tau)
   42    0.00000000E+00   # BR(Z -> mu tau)
Block FWCOEF Q=  1.60000000E+02  # Wilson coefficients at scale Q
#    id        order  M        value         comment
     0305 4422   00   0    -1.88849406E-01   # C7
     0305 4422   00   2    -1.96063486E-01   # C7
     0305 4322   00   2    -1.43976636E-04   # C7'
     0305 6421   00   0    -9.52374645E-02   # C8
     0305 6421   00   2    -1.04936126E-01   # C8
     0305 6321   00   2    -1.92222092E-04   # C8'
 03051111 4133   00   0     1.16577024E+00   # C9 e+e-
 03051111 4133   00   2     1.16601829E+00   # C9 e+e-
 03051111 4233   00   2     3.45157894E-07   # C9' e+e-
 03051111 4137   00   0    -3.98999248E+00   # C10 e+e-
 03051111 4137   00   2    -3.98983559E+00   # C10 e+e-
 03051111 4237   00   2    -9.75599619E-06   # C10' e+e-
 03051313 4133   00   0     1.16577024E+00   # C9 mu+mu-
 03051313 4133   00   2     1.16601825E+00   # C9 mu+mu-
 03051313 4233   00   2     3.45153899E-07   # C9' mu+mu-
 03051313 4137   00   0    -3.98999248E+00   # C10 mu+mu-
 03051313 4137   00   2    -3.98983563E+00   # C10 mu+mu-
 03051313 4237   00   2    -9.75599439E-06   # C10' mu+mu-
 03051212 4137   00   0     1.50578714E+00   # C11 nu_1 nu_1
 03051212 4137   00   2     1.50575107E+00   # C11 nu_1 nu_1
 03051212 4237   00   2     2.35344444E-06   # C11' nu_1 nu_1
 03051414 4137   00   0     1.50578714E+00   # C11 nu_2 nu_2
 03051414 4137   00   2     1.50575107E+00   # C11 nu_2 nu_2
 03051414 4237   00   2     2.35344526E-06   # C11' nu_2 nu_2
 03051616 4137   00   0     1.50578714E+00   # C11 nu_3 nu_3
 03051616 4137   00   2     1.50575108E+00   # C11 nu_3 nu_3
 03051616 4237   00   2     2.35367587E-06   # C11' nu_3 nu_3
Block IMFWCOEF Q=  1.60000000E+02  # Im(Wilson coefficients) at scale Q
#    id        order  M        value         comment
     0305 4422   00   0     3.86024777E-07   # C7
     0305 4422   00   2     1.27834978E-06   # C7
     0305 4322   00   2     2.14964370E-07   # C7'
     0305 6421   00   0     3.30655653E-07   # C8
     0305 6421   00   2     3.74778065E-07   # C8
     0305 6321   00   2     8.16555150E-08   # C8'
 03051111 4133   00   2     6.39011809E-09   # C9 e+e-
 03051111 4233   00   2     2.40293399E-08   # C9' e+e-
 03051111 4137   00   2    -5.35283941E-07   # C10 e+e-
 03051111 4237   00   2    -6.83511411E-07   # C10' e+e-
 03051313 4133   00   2     6.38984965E-09   # C9 mu+mu-
 03051313 4233   00   2     2.40293293E-08   # C9' mu+mu-
 03051313 4137   00   2    -5.35283957E-07   # C10 mu+mu-
 03051313 4237   00   2    -6.83511440E-07   # C10' mu+mu-
 03051212 4137   00   2     1.60694156E-07   # C11 nu_1 nu_1
 03051212 4237   00   2     1.64883853E-07   # C11' nu_1 nu_1
 03051414 4137   00   2     1.60694144E-07   # C11 nu_2 nu_2
 03051414 4237   00   2     1.64883853E-07   # C11' nu_2 nu_2
 03051616 4137   00   2     1.60690935E-07   # C11 nu_3 nu_3
 03051616 4237   00   2     1.64883853E-07   # C11' nu_3 nu_3
