#  ISAJET SUSY parameters in SUSY Les Houches Accord 2 format
#  Created by ISALHA 2.0 Last revision: C. Balazs 21 Apr 2009
Block SPINFO   # Program information
     1   ISASUGRA from ISAJET          # Spectrum Calculator
     2   7.80   29-OCT-2009 12:50:36   # Version number
Block MODSEL   # Model selection
     1     3   # Minimal anomaly mediated (AMSB) model             
Block SMINPUTS   # Standard Model inputs
     1     1.27836258E+02   # alpha_em^(-1)
     2     1.16570000E-05   # G_Fermi
     3     1.17200002E-01   # alpha_s(M_Z)
     4     9.11699982E+01   # m_{Z}(pole)
     5     4.19999981E+00   # m_{b}(m_{b})
     6     1.72500000E+02   # m_{top}(pole)
     7     1.77699995E+00   # m_{tau}(pole)
Block MINPAR   # SUSY breaking input parameters
     1     5.00000000E+03   # m_0
     2     1.90200000E+05   # m_{3/2}
     3     5.00000000E+00   # tan(beta)
     4     1.00000000E+00   # sign(mu)
Block EXTPAR   # Non-universal SUSY breaking parameters
     0     8.56621349E+15   # Input scale
Block MASS   # Scalar and gaugino mass spectrum
#  PDG code   mass                 particle
         5     4.80000000E+00   # b-quark pole mass calculated from mb(mb)_Msbar
         6     1.72500000E+02   # t-quark pole mass (not read by ME)
        15     1.77682000E+00   # tau pole mass (not read by ME)
        23     9.11876000E+01   # Z pole mass (not read by ME)
        24     8.04229965E+01   #  W^+
        25     1.16232529E+02   #  h^0            
        35     5.92299658E+03   #  H^0            
        36     5.88415820E+03   #  A^0            
        37     5.92340283E+03   #  H^+            
   1000001     6.02718408E+03   #  dnl            
   1000002     6.02668506E+03   #  upl            
   1000003     6.02718408E+03   #  stl            
   1000004     6.02668506E+03   #  chl            
   1000005     5.09038818E+03   #  b1             
   1000006     3.93281006E+03   #  t1             
   1000011     4.93572363E+03   #  el-            
   1000012     4.93596338E+03   #  nuel           
   1000013     4.93572363E+03   #  mul-           
   1000014     4.93596338E+03   #  numl           
   1000015     4.91139697E+03   #  tau1           
   1000016     4.92974170E+03   #  nutl           
   1000021     3.91091406E+03   #  glss           
   1000022     5.49669434E+02   #  z1ss           
   1000023     1.77070752E+03   #  z2ss           
   1000024     5.49842651E+02   #  w1ss           
   1000025    -3.03930640E+03   #  z3ss           
   1000035     3.04115991E+03   #  z4ss           
   1000037     3.04425684E+03   #  w2ss           
   2000001     6.07622949E+03   #  dnr            
   2000002     6.05465674E+03   #  upr            
   2000003     6.07622949E+03   #  str            
   2000004     6.05465674E+03   #  chr            
   2000005     6.04247119E+03   #  b2             
   2000006     5.11868213E+03   #  t2             
   2000011     4.92477344E+03   #  er-            
   2000013     4.92477344E+03   #  mur-           
   2000015     4.92979932E+03   #  tau2           
Block ALPHA   # Effective Higgs mixing parameter
         -1.97520658E-01   # alpha
Block STOPMIX   # stop mixing matrix
  1  1     2.64734849E-02   # O_{11}
  1  2    -9.99649525E-01   # O_{12}
  2  1     9.99649525E-01   # O_{21}
  2  2     2.64734849E-02   # O_{22}
Block SBOTMIX   # sbottom mixing matrix
  1  1     9.99996185E-01   # O_{11}
  1  2     2.76837661E-03   # O_{12}
  2  1    -2.76837661E-03   # O_{21}
  2  2     9.99996185E-01   # O_{22}
Block STAUMIX   # stau mixing matrix
  1  1     1.75156936E-01   # O_{11}
  1  2     9.84540522E-01   # O_{12}
  2  1    -9.84540522E-01   # O_{21}
  2  2     1.75156936E-01   # O_{22}
Block NMIX   # neutralino mixing matrix
  1  1     3.48136789E-04   #
  1  2    -9.99623001E-01   #
  1  3     2.61732489E-02   #
  1  4    -8.27628933E-03   #
  2  1    -9.99656916E-01   #
  2  2    -1.03847543E-03   #
  2  3    -2.17688978E-02   #
  2  4     1.45358443E-02   #
  3  1     5.12409210E-03   #
  3  2    -1.26522211E-02   #
  3  3    -7.06906915E-01   #
  3  4    -7.07174838E-01   #
  4  1     2.56880559E-02   #
  4  2    -2.43413467E-02   #
  4  3    -7.06486702E-01   #
  4  4     7.06840754E-01   #
Block UMIX   # chargino U mixing matrix
  1  1    -9.99293983E-01   # U_{11}
  1  2     3.75710912E-02   # U_{12}
  2  1    -3.75710912E-02   # U_{21}
  2  2    -9.99293983E-01   # U_{22}
Block VMIX   # chargino V mixing matrix
  1  1    -9.99895692E-01   # V_{11}
  1  2     1.44435354E-02   # V_{12}
  2  1    -1.44435354E-02   # V_{21}
  2  2    -9.99895692E-01   # V_{22}
Block GAUGE Q=  4.33790820E+03   #
     1     3.57524991E-01   # g`
     2     6.52378619E-01   # g_2
     3     1.21928012E+00   # g_3
Block YU Q=  4.33790820E+03   #
  3  3     8.32094014E-01   # y_t
Block YD Q=  4.33790820E+03   #
  3  3     6.39830828E-02   # y_b
Block YE Q=  4.33790820E+03   #
  3  3     5.14748730E-02   # y_tau
Block HMIX Q=  4.33790820E+03   # Higgs mixing parameters
     1     3.01653735E+03   # mu(Q)
     2     5.00000000E+00   # tan(beta)(M_GUT)
     3     2.52264847E+02   # Higgs vev at Q
     4     3.46233160E+07   # m_A^2(Q)
Block MSOFT Q=  4.33790820E+03   # DRbar SUSY breaking parameters
     1     1.77673877E+03   # M_1(Q)          
     2     5.11414215E+02   # M_2(Q)          
     3    -3.54114453E+03   # M_3(Q)          
    21     3.23374943E+04   # mH1^2(Q)            
    22    -1.28800134E+05   # mH2^2(Q)            
    31     4.91846875E+03   # MeL(Q)          
    32     4.91846875E+03   # MmuL(Q)         
    33     4.91243555E+03   # MtauL(Q)        
    34     4.91856885E+03   # MeR(Q)          
    35     4.91856885E+03   # MmuR(Q)         
    36     4.90664648E+03   # MtauR(Q)        
    41     5.85902686E+03   # MqL1(Q)         
    42     5.85902686E+03   # MqL2(Q)         
    43     4.93940625E+03   # MqL3(Q)         
    44     5.88708252E+03   # MuR(Q)          
    45     5.88708252E+03   # McR(Q)          
    46     3.80965796E+03   # MtR(Q)          
    47     5.90866162E+03   # MdR(Q)          
    48     5.90866162E+03   # MsR(Q)          
    49     5.91416846E+03   # MbR(Q)          
Block AU Q=  4.33790820E+03   #
  1  1     2.96879395E+03   # A_u
  2  2     2.96879395E+03   # A_c
  3  3     2.96879395E+03   # A_t
Block AD Q=  4.33790820E+03   #
  1  1     7.06487158E+03   # A_d
  2  2     7.06487158E+03   # A_s
  3  3     7.06487158E+03   # A_b
Block AE Q=  4.33790820E+03   #
  1  1     1.98296484E+03   # A_e
  2  2     1.98296484E+03   # A_mu
  3  3     1.98296484E+03   # A_tau
#
#  ISAJET decay tables in SUSY Les Houches accord format
#  Created by ISALHD. Last revision: C. Balazs, 2005 May 25
Block DCINFO                           # Program information
     1   ISASUGRA from ISAJET          # Spectrum Calculator
     2   7.80   29-OCT-2009 12:50:36   # Version number
#         PDG         Width
DECAY        23     2.49520000E+00   # Z width (SM calculation)
DECAY        24     2.08500000E+00   # W width (SM calculation)
#
#         PDG            Width  
DECAY         6  1.14680779E+00   # TP    decays
#          BR          NDA       ID1       ID2       ID3       ID4
      3.33333343E-01    3            2        -1         5             # TP     -->  UP     DB     BT          
      3.33333343E-01    3            4        -3         5             # TP     -->  CH     SB     BT          
      1.11111112E-01    3          -11        12         5             # TP     -->  E+     NUE    BT          
      1.11111112E-01    3          -13        14         5             # TP     -->  MU+    NUM    BT          
      1.11111112E-01    3          -15        16         5             # TP     -->  TAU+   NUT    BT          
#         PDG         Width
DECAY   1000021  5.59809208E-02   # GLSS  decays
#          BR          NDA       ID1       ID2       ID3       ID4
      5.85251302E-02    3      1000024         1        -2             # GLSS   -->  W1SS+  DN     UB          
      5.85251302E-02    3     -1000024         2        -1             # GLSS   -->  W1SS-  UP     DB          
      5.85251302E-02    3      1000024         3        -4             # GLSS   -->  W1SS+  ST     CB          
      5.85251302E-02    3     -1000024         4        -3             # GLSS   -->  W1SS-  CH     SB          
      1.42017752E-01    3      1000024         5        -6             # GLSS   -->  W1SS+  BT     TB          
      1.42017752E-01    3     -1000024         6        -5             # GLSS   -->  W1SS-  TP     BB          
      3.31842898E-07    3      1000037         1        -2             # GLSS   -->  W2SS+  DN     UB          
      3.31842898E-07    3     -1000037         2        -1             # GLSS   -->  W2SS-  UP     DB          
      3.31842898E-07    3      1000037         3        -4             # GLSS   -->  W2SS+  ST     CB          
      3.31842898E-07    3     -1000037         4        -3             # GLSS   -->  W2SS-  CH     SB          
      2.90655885E-02    3      1000037         5        -6             # GLSS   -->  W2SS+  BT     TB          
      2.90655885E-02    3     -1000037         6        -5             # GLSS   -->  W2SS-  TP     BB          
      3.62807896E-07    2      1000022        21                       # GLSS   -->  Z1SS   GL                 
      2.92708352E-02    3      1000022         2        -2             # GLSS   -->  Z1SS   UP     UB          
      2.92659067E-02    3      1000022         1        -1             # GLSS   -->  Z1SS   DN     DB          
      2.92659067E-02    3      1000022         3        -3             # GLSS   -->  Z1SS   ST     SB          
      2.92708352E-02    3      1000022         4        -4             # GLSS   -->  Z1SS   CH     CB          
      7.37695172E-02    3      1000022         5        -5             # GLSS   -->  Z1SS   BT     BB          
      6.79488778E-02    3      1000022         6        -6             # GLSS   -->  Z1SS   TP     TB          
      8.71921657E-04    2      1000023        21                       # GLSS   -->  Z2SS   GL                 
      3.63702094E-03    3      1000023         2        -2             # GLSS   -->  Z2SS   UP     UB          
      1.05383678E-03    3      1000023         1        -1             # GLSS   -->  Z2SS   DN     DB          
      1.05383678E-03    3      1000023         3        -3             # GLSS   -->  Z2SS   ST     SB          
      3.63702094E-03    3      1000023         4        -4             # GLSS   -->  Z2SS   CH     CB          
      1.46034826E-03    3      1000023         5        -5             # GLSS   -->  Z2SS   BT     BB          
      1.00399815E-01    3      1000023         6        -6             # GLSS   -->  Z2SS   TP     TB          
      9.62990860E-04    2      1000025        21                       # GLSS   -->  Z3SS   GL                 
      6.99451803E-08    3      1000025         2        -2             # GLSS   -->  Z3SS   UP     UB          
      8.71215846E-08    3      1000025         1        -1             # GLSS   -->  Z3SS   DN     DB          
      8.71215846E-08    3      1000025         3        -3             # GLSS   -->  Z3SS   ST     SB          
      6.99451803E-08    3      1000025         4        -4             # GLSS   -->  Z3SS   CH     CB          
      1.88310169E-05    3      1000025         5        -5             # GLSS   -->  Z3SS   BT     BB          
      2.81855725E-02    3      1000025         6        -6             # GLSS   -->  Z3SS   TP     TB          
      8.79848376E-04    2      1000035        21                       # GLSS   -->  Z4SS   GL                 
      1.15750453E-07    3      1000035         2        -2             # GLSS   -->  Z4SS   UP     UB          
      1.47074829E-07    3      1000035         1        -1             # GLSS   -->  Z4SS   DN     DB          
      1.47074829E-07    3      1000035         3        -3             # GLSS   -->  Z4SS   ST     SB          
      1.15750453E-07    3      1000035         4        -4             # GLSS   -->  Z4SS   CH     CB          
      1.88806935E-05    3      1000035         5        -5             # GLSS   -->  Z4SS   BT     BB          
      2.27584802E-02    3      1000035         6        -6             # GLSS   -->  Z4SS   TP     TB          
#         PDG         Width
DECAY   1000002  1.80256439E+02   # UPL   decays
#          BR          NDA       ID1       ID2       ID3       ID4
      1.38280600E-01    2      1000022         2                       # UPL    -->  Z1SS   UP                 
      3.98547901E-03    2      1000023         2                       # UPL    -->  Z2SS   UP                 
      1.07365995E-05    2      1000025         2                       # UPL    -->  Z3SS   UP                 
      3.01441014E-05    2      1000035         2                       # UPL    -->  Z4SS   UP                 
      5.80915928E-01    2      1000021         2                       # UPL    -->  GLSS   UP                 
      2.76744485E-01    2      1000024         1                       # UPL    -->  W1SS+  DN                 
      3.25767396E-05    2      1000037         1                       # UPL    -->  W2SS+  DN                 
#         PDG         Width
DECAY   1000001  1.80267288E+02   # DNL   decays
#          BR          NDA       ID1       ID2       ID3       ID4
      1.38319388E-01    2      1000022         1                       # DNL    -->  Z1SS   DN                 
      3.89631069E-03    2      1000023         1                       # DNL    -->  Z2SS   DN                 
      1.44563319E-05    2      1000025         1                       # DNL    -->  Z3SS   DN                 
      6.59803045E-05    2      1000035         1                       # DNL    -->  Z4SS   DN                 
      5.81064880E-01    2      1000021         1                       # DNL    -->  GLSS   DN                 
      2.76418567E-01    2     -1000024         2                       # DNL    -->  W1SS-  UP                 
      2.20458751E-04    2     -1000037         2                       # DNL    -->  W2SS-  UP                 
#         PDG         Width
DECAY   1000003  1.80267273E+02   # STL   decays
#          BR          NDA       ID1       ID2       ID3       ID4
      1.38319403E-01    2      1000022         3                       # STL    -->  Z1SS   ST                 
      3.89631116E-03    2      1000023         3                       # STL    -->  Z2SS   ST                 
      1.44563337E-05    2      1000025         3                       # STL    -->  Z3SS   ST                 
      6.59803118E-05    2      1000035         3                       # STL    -->  Z4SS   ST                 
      5.81064880E-01    2      1000021         3                       # STL    -->  GLSS   ST                 
      2.76418537E-01    2     -1000024         4                       # STL    -->  W1SS-  CH                 
      2.20458693E-04    2     -1000037         4                       # STL    -->  W2SS-  CH                 
#         PDG         Width
DECAY   1000004  1.80256409E+02   # CHL   decays
#          BR          NDA       ID1       ID2       ID3       ID4
      1.38280615E-01    2      1000022         4                       # CHL    -->  Z1SS   CH                 
      3.98547947E-03    2      1000023         4                       # CHL    -->  Z2SS   CH                 
      1.07365995E-05    2      1000025         4                       # CHL    -->  Z3SS   CH                 
      3.01441014E-05    2      1000035         4                       # CHL    -->  Z4SS   CH                 
      5.80915868E-01    2      1000021         4                       # CHL    -->  GLSS   CH                 
      2.76744545E-01    2      1000024         3                       # CHL    -->  W1SS+  ST                 
      3.25767469E-05    2      1000037         3                       # CHL    -->  W2SS+  ST                 
#         PDG         Width
DECAY   1000005  1.39597290E+02   # BT1   decays
#          BR          NDA       ID1       ID2       ID3       ID4
      1.49843097E-01    2      1000022         5                       # BT1    -->  Z1SS   BT                 
      3.93507909E-03    2      1000023         5                       # BT1    -->  Z2SS   BT                 
      6.60796417E-04    2      1000025         5                       # BT1    -->  Z3SS   BT                 
      7.01133860E-04    2      1000035         5                       # BT1    -->  Z4SS   BT                 
      3.22094828E-01    2      1000021         5                       # BT1    -->  GLSS   BT                 
      2.98756629E-01    2     -1000024         6                       # BT1    -->  W1SS-  TP                 
      1.95988312E-01    2     -1000037         6                       # BT1    -->  W2SS-  TP                 
      2.80200820E-02    2          -24   1000006                       # BT1    -->  W-     TP1                
#         PDG         Width
DECAY   1000006  2.19615211E+01   # TP1   decays
#          BR          NDA       ID1       ID2       ID3       ID4
      1.02181424E-04    2      1000022         6                       # TP1    -->  Z1SS   TP                 
      2.54330307E-01    2      1000023         6                       # TP1    -->  Z2SS   TP                 
      1.83360025E-01    2      1000025         6                       # TP1    -->  Z3SS   TP                 
      1.87027588E-01    2      1000035         6                       # TP1    -->  Z4SS   TP                 
      1.04734441E-04    2      1000024         5                       # TP1    -->  W1SS+  BT                 
      3.75075102E-01    2      1000037         5                       # TP1    -->  W2SS+  BT                 
#         PDG         Width
DECAY   2000002  1.18015907E+02   # UPR   decays
#          BR          NDA       ID1       ID2       ID3       ID4
      1.38253684E-08    2      1000022         2                       # UPR    -->  Z1SS   UP                 
      9.69185382E-02    2      1000023         2                       # UPR    -->  Z2SS   UP                 
      1.70381736E-06    2      1000025         2                       # UPR    -->  Z3SS   UP                 
      4.27852938E-05    2      1000035         2                       # UPR    -->  Z4SS   UP                 
      9.03036952E-01    2      1000021         2                       # UPR    -->  GLSS   UP                 
#         PDG         Width
DECAY   2000001  1.10882248E+02   # DNR   decays
#          BR          NDA       ID1       ID2       ID3       ID4
      3.69224940E-09    2      1000022         1                       # DNR    -->  Z1SS   DN                 
      2.59146653E-02    2      1000023         1                       # DNR    -->  Z2SS   DN                 
      4.57148843E-07    2      1000025         1                       # DNR    -->  Z3SS   DN                 
      1.14797531E-05    2      1000035         1                       # DNR    -->  Z4SS   DN                 
      9.74073410E-01    2      1000021         1                       # DNR    -->  GLSS   DN                 
#         PDG         Width
DECAY   2000003  1.10882248E+02   # STR   decays
#          BR          NDA       ID1       ID2       ID3       ID4
      3.69224940E-09    2      1000022         3                       # STR    -->  Z1SS   ST                 
      2.59146653E-02    2      1000023         3                       # STR    -->  Z2SS   ST                 
      4.57148843E-07    2      1000025         3                       # STR    -->  Z3SS   ST                 
      1.14797531E-05    2      1000035         3                       # STR    -->  Z4SS   ST                 
      9.74073410E-01    2      1000021         3                       # STR    -->  GLSS   ST                 
#         PDG         Width
DECAY   2000004  1.18015869E+02   # CHR   decays
#          BR          NDA       ID1       ID2       ID3       ID4
      1.38253711E-08    2      1000022         4                       # CHR    -->  Z1SS   CH                 
      9.69185457E-02    2      1000023         4                       # CHR    -->  Z2SS   CH                 
      1.70381736E-06    2      1000025         4                       # CHR    -->  Z3SS   CH                 
      4.27852974E-05    2      1000035         4                       # CHR    -->  Z4SS   CH                 
      9.03036952E-01    2      1000021         4                       # CHR    -->  GLSS   CH                 
#         PDG         Width
DECAY   2000005  1.09259911E+02   # BT2   decays
#          BR          NDA       ID1       ID2       ID3       ID4
      2.21412449E-07    2      1000022         5                       # BT2    -->  Z1SS   BT                 
      2.60986425E-02    2      1000023         5                       # BT2    -->  Z2SS   BT                 
      1.32974051E-03    2      1000025         5                       # BT2    -->  Z3SS   BT                 
      1.34012254E-03    2      1000035         5                       # BT2    -->  Z4SS   BT                 
      9.67998147E-01    2      1000021         5                       # BT2    -->  GLSS   BT                 
      4.89930187E-07    2     -1000024         6                       # BT2    -->  W1SS-  TP                 
      2.65602814E-03    2     -1000037         6                       # BT2    -->  W2SS-  TP                 
      1.34847653E-06    2          -24   1000006                       # BT2    -->  W-     TP1                
      2.24052041E-04    2          -24   2000006                       # BT2    -->  W-     TP2                
      1.23100399E-04    2           23   1000005                       # BT2    -->  Z0     BT1                
      2.28115867E-04    2           25   1000005                       # BT2    -->  HL0    BT1                
#         PDG         Width
DECAY   2000006  1.43858734E+02   # TP2   decays
#          BR          NDA       ID1       ID2       ID3       ID4
      3.17847401E-01    2      1000021         6                       # TP2    -->  GLSS   TP                 
      2.92688966E-01    2      1000024         5                       # TP2    -->  W1SS+  BT                 
      1.31936127E-03    2      1000037         5                       # TP2    -->  W2SS+  BT                 
      1.46679692E-02    2           23   1000006                       # TP2    -->  Z0     TP1                
      2.99115628E-02    2           25   1000006                       # TP2    -->  HL0    TP1                
      1.45880327E-01    2      1000022         6                       # TP2    -->  Z1SS   TP                 
      4.17911727E-03    2      1000023         6                       # TP2    -->  Z2SS   TP                 
      9.72447395E-02    2      1000025         6                       # TP2    -->  Z3SS   TP                 
      9.62604880E-02    2      1000035         6                       # TP2    -->  Z4SS   TP                 
#         PDG         Width
DECAY   1000011  6.55142517E+01   # EL-   decays
#          BR          NDA       ID1       ID2       ID3       ID4
      3.08953792E-01    2      1000022        11                       # EL-    -->  Z1SS   E-                 
      7.29503706E-02    2      1000023        11                       # EL-    -->  Z2SS   E-                 
      1.18245780E-05    2      1000025        11                       # EL-    -->  Z3SS   E-                 
      1.27536878E-05    2      1000035        11                       # EL-    -->  Z4SS   E-                 
      6.17727578E-01    2     -1000024        12                       # EL-    -->  W1SS-  NUE                
      3.43686464E-04    2     -1000037        12                       # EL-    -->  W2SS-  NUE                
#         PDG         Width
DECAY   1000013  6.55142517E+01   # MUL-  decays
#          BR          NDA       ID1       ID2       ID3       ID4
      3.08953792E-01    2      1000022        13                       # MUL-   -->  Z1SS   MU-                
      7.29503706E-02    2      1000023        13                       # MUL-   -->  Z2SS   MU-                
      1.18245780E-05    2      1000025        13                       # MUL-   -->  Z3SS   MU-                
      1.27536878E-05    2      1000035        13                       # MUL-   -->  Z4SS   MU-                
      6.17727578E-01    2     -1000024        14                       # MUL-   -->  W1SS-  NUM                
      3.43686464E-04    2     -1000037        14                       # MUL-   -->  W2SS-  NUM                
#         PDG         Width
DECAY   1000015  2.05700150E+01   # TAU1- decays
#          BR          NDA       ID1       ID2       ID3       ID4
      3.10596414E-02    2      1000022        15                       # TAU1-  -->  Z1SS   TAU-               
      8.97903442E-01    2      1000023        15                       # TAU1-  -->  Z2SS   TAU-               
      2.37970613E-03    2      1000025        15                       # TAU1-  -->  Z3SS   TAU-               
      2.41072569E-03    2      1000035        15                       # TAU1-  -->  Z4SS   TAU-               
      6.21310547E-02    2     -1000024        16                       # TAU1-  -->  W1SS-  NUT                
      4.11545299E-03    2     -1000037        16                       # TAU1-  -->  W2SS-  NUT                
#         PDG         Width
DECAY   1000012  6.55389252E+01   # NUEL  decays
#          BR          NDA       ID1       ID2       ID3       ID4
      3.09089750E-01    2      1000022        12                       # NUEL   -->  Z1SS   NUE                
      7.23792464E-02    2      1000023        12                       # NUEL   -->  Z2SS   NUE                
      2.92390632E-05    2      1000025        12                       # NUEL   -->  Z3SS   NUE                
      1.80483461E-04    2      1000035        12                       # NUEL   -->  Z4SS   NUE                
      6.18270457E-01    2      1000024        11                       # NUEL   -->  W1SS+  E-                 
      5.07821678E-05    2      1000037        11                       # NUEL   -->  W2SS+  E-                 
#         PDG         Width
DECAY   1000014  6.55389252E+01   # NUML  decays
#          BR          NDA       ID1       ID2       ID3       ID4
      3.09089750E-01    2      1000022        14                       # NUML   -->  Z1SS   NUM                
      7.23792464E-02    2      1000023        14                       # NUML   -->  Z2SS   NUM                
      2.92390632E-05    2      1000025        14                       # NUML   -->  Z3SS   NUM                
      1.80483461E-04    2      1000035        14                       # NUML   -->  Z4SS   NUM                
      6.18270457E-01    2      1000024        13                       # NUML   -->  W1SS+  MU-                
      5.07821678E-05    2      1000037        13                       # NUML   -->  W2SS+  MU-                
#         PDG         Width
DECAY   1000016  6.55542831E+01   # NUTL  decays
#          BR          NDA       ID1       ID2       ID3       ID4
      3.08608264E-01    2      1000022        16                       # NUTL   -->  Z1SS   NUT                
      7.22171739E-02    2      1000023        16                       # NUTL   -->  Z2SS   NUT                
      2.91053766E-05    2      1000025        16                       # NUTL   -->  Z3SS   NUT                
      1.79657174E-04    2      1000035        16                       # NUTL   -->  Z4SS   NUT                
      6.17312551E-01    2      1000024        15                       # NUTL   -->  W1SS+  TAU-               
      1.65318034E-03    2      1000037        15                       # NUTL   -->  W2SS+  TAU-               
      2.89083868E-10    3      1000015        16       -15             # NUTL   -->  TAU1-  NUT    TAU+        
      2.89083868E-10    3      1000015        12       -11             # NUTL   -->  TAU1-  NUE    E+          
      2.89083868E-10    3      1000015        14       -13             # NUTL   -->  TAU1-  NUM    MU+         
      8.67251659E-10    3      1000015         2        -1             # NUTL   -->  TAU1-  UP     DB          
      8.67251659E-10    3      1000015         4        -3             # NUTL   -->  TAU1-  CH     SB          
#         PDG         Width
DECAY   2000011  1.89844360E+01   # ER-   decays
#          BR          NDA       ID1       ID2       ID3       ID4
      1.55954837E-07    2      1000022        11                       # ER-    -->  Z1SS   E-                 
      9.99653280E-01    2      1000023        11                       # ER-    -->  Z2SS   E-                 
      1.32796085E-05    2      1000025        11                       # ER-    -->  Z3SS   E-                 
      3.33243544E-04    2      1000035        11                       # ER-    -->  Z4SS   E-                 
#         PDG         Width
DECAY   2000013  1.89844360E+01   # MUR-  decays
#          BR          NDA       ID1       ID2       ID3       ID4
      1.55954837E-07    2      1000022        13                       # MUR-   -->  Z1SS   MU-                
      9.99653280E-01    2      1000023        13                       # MUR-   -->  Z2SS   MU-                
      1.32796085E-05    2      1000025        13                       # MUR-   -->  Z3SS   MU-                
      3.33243544E-04    2      1000035        13                       # MUR-   -->  Z4SS   MU-                
#         PDG         Width
DECAY   2000015  6.40701370E+01   # TAU2- decays
#          BR          NDA       ID1       ID2       ID3       ID4
      3.05513710E-01    2      1000022        15                       # TAU2-  -->  Z1SS   TAU-               
      8.11403245E-02    2      1000023        15                       # TAU2-  -->  Z2SS   TAU-               
      8.89150600E-04    2      1000025        15                       # TAU2-  -->  Z3SS   TAU-               
      9.71501053E-04    2      1000035        15                       # TAU2-  -->  Z4SS   TAU-               
      6.10834539E-01    2     -1000024        16                       # TAU2-  -->  W1SS-  NUT                
      6.50782662E-04    2     -1000037        16                       # TAU2-  -->  W2SS-  NUT                
#         PDG         Width
DECAY   1000023  9.43726674E-03   # Z2SS  decays
#          BR          NDA       ID1       ID2       ID3       ID4
      4.33550440E-07    2      1000022        22                       # Z2SS   -->  Z1SS   GM                 
      2.82207400E-01    2      1000024       -24                       # Z2SS   -->  W1SS+  W-                 
      2.82207400E-01    2     -1000024        24                       # Z2SS   -->  W1SS-  W+                 
      2.90851034E-02    2      1000022        23                       # Z2SS   -->  Z1SS   Z0                 
      4.95708446E-05    3      1000022         2        -2             # Z2SS   -->  Z1SS   UP     UB          
      4.84547490E-05    3      1000022         1        -1             # Z2SS   -->  Z1SS   DN     DB          
      4.84547490E-05    3      1000022         3        -3             # Z2SS   -->  Z1SS   ST     SB          
      4.95708446E-05    3      1000022         4        -4             # Z2SS   -->  Z1SS   CH     CB          
      9.86784798E-05    3      1000022         5        -5             # Z2SS   -->  Z1SS   BT     BB          
      3.42217187E-04    3      1000022        11       -11             # Z2SS   -->  Z1SS   E-     E+          
      3.42217187E-04    3      1000022        13       -13             # Z2SS   -->  Z1SS   MU-    MU+         
      3.44197266E-04    3      1000022        15       -15             # Z2SS   -->  Z1SS   TAU-   TAU+        
      3.39829247E-04    3      1000022        12       -12             # Z2SS   -->  Z1SS   NUE    ANUE        
      3.39829247E-04    3      1000022        14       -14             # Z2SS   -->  Z1SS   NUM    ANUM        
      3.41660896E-04    3      1000022        16       -16             # Z2SS   -->  Z1SS   NUT    ANUT        
      4.04154867E-01    2      1000022        25                       # Z2SS   -->  Z1SS   HL0                
#         PDG         Width
DECAY   1000025  2.23501396E+01   # Z3SS  decays
#          BR          NDA       ID1       ID2       ID3       ID4
      1.17723040E-07    2      1000022        22                       # Z3SS   -->  Z1SS   GM                 
      3.39524675E-09    2      1000023        22                       # Z3SS   -->  Z2SS   GM                 
      3.19918543E-01    2      1000024       -24                       # Z3SS   -->  W1SS+  W-                 
      3.19918543E-01    2     -1000024        24                       # Z3SS   -->  W1SS-  W+                 
      2.22100213E-01    2      1000022        23                       # Z3SS   -->  Z1SS   Z0                 
      7.80852288E-02    2      1000023        23                       # Z3SS   -->  Z2SS   Z0                 
      1.25997834E-09    3      1000022         2        -2             # Z3SS   -->  Z1SS   UP     UB          
      1.69606029E-09    3      1000022         1        -1             # Z3SS   -->  Z1SS   DN     DB          
      1.69606029E-09    3      1000022         3        -3             # Z3SS   -->  Z1SS   ST     SB          
      1.25997834E-09    3      1000022         4        -4             # Z3SS   -->  Z1SS   CH     CB          
      5.43191788E-07    3      1000022         5        -5             # Z3SS   -->  Z1SS   BT     BB          
      7.67461927E-10    3      1000022        11       -11             # Z3SS   -->  Z1SS   E-     E+          
      7.67461927E-10    3      1000022        13       -13             # Z3SS   -->  Z1SS   MU-    MU+         
      1.30043162E-07    3      1000022        15       -15             # Z3SS   -->  Z1SS   TAU-   TAU+        
      1.89912153E-09    3      1000022        12       -12             # Z3SS   -->  Z1SS   NUE    ANUE        
      1.89912153E-09    3      1000022        14       -14             # Z3SS   -->  Z1SS   NUM    ANUM        
      1.91112637E-09    3      1000022        16       -16             # Z3SS   -->  Z1SS   NUT    ANUT        
      9.02652085E-12    3      1000023         2        -2             # Z3SS   -->  Z2SS   UP     UB          
      4.92570568E-12    3      1000023         1        -1             # Z3SS   -->  Z2SS   DN     DB          
      4.92570568E-12    3      1000023         3        -3             # Z3SS   -->  Z2SS   ST     SB          
      9.02652085E-12    3      1000023         4        -4             # Z3SS   -->  Z2SS   CH     CB          
      7.16484516E-09    3      1000023         5        -5             # Z3SS   -->  Z2SS   BT     BB          
      4.72242592E-11    3      1000023        11       -11             # Z3SS   -->  Z2SS   E-     E+          
      4.72242592E-11    3      1000023        13       -13             # Z3SS   -->  Z2SS   MU-    MU+         
      1.97082581E-08    3      1000023        15       -15             # Z3SS   -->  Z2SS   TAU-   TAU+        
      4.98924409E-11    3      1000023        12       -12             # Z3SS   -->  Z2SS   NUE    ANUE        
      4.98924409E-11    3      1000023        14       -14             # Z3SS   -->  Z2SS   NUM    ANUM        
      5.02368772E-11    3      1000023        16       -16             # Z3SS   -->  Z2SS   NUT    ANUT        
      5.69622107E-02    2      1000022        25                       # Z3SS   -->  Z1SS   HL0                
      3.01440665E-03    2      1000023        25                       # Z3SS   -->  Z2SS   HL0                
#         PDG         Width
DECAY   1000035  2.02736835E+01   # Z4SS  decays
#          BR          NDA       ID1       ID2       ID3       ID4
      5.69432335E-10    2      1000022        22                       # Z4SS   -->  Z1SS   GM                 
      1.84221172E-08    2      1000023        22                       # Z4SS   -->  Z2SS   GM                 
      4.09154928E-14    2      1000025        22                       # Z4SS   -->  Z3SS   GM                 
      2.64605910E-01    2      1000024       -24                       # Z4SS   -->  W1SS+  W-                 
      2.64605910E-01    2     -1000024        24                       # Z4SS   -->  W1SS-  W+                 
      6.62284046E-02    2      1000022        23                       # Z4SS   -->  Z1SS   Z0                 
      3.46700219E-03    2      1000023        23                       # Z4SS   -->  Z2SS   Z0                 
      6.62315802E-09    3      1000022         2        -2             # Z4SS   -->  Z1SS   UP     UB          
      1.44932839E-08    3      1000022         1        -1             # Z4SS   -->  Z1SS   DN     DB          
      1.44932839E-08    3      1000022         3        -3             # Z4SS   -->  Z1SS   ST     SB          
      6.62315802E-09    3      1000022         4        -4             # Z4SS   -->  Z1SS   CH     CB          
      6.25108214E-07    3      1000022         5        -5             # Z4SS   -->  Z1SS   BT     BB          
      1.51668178E-09    3      1000022        11       -11             # Z4SS   -->  Z1SS   E-     E+          
      1.51668178E-09    3      1000022        13       -13             # Z4SS   -->  Z1SS   MU-    MU+         
      1.43639085E-07    3      1000022        15       -15             # Z4SS   -->  Z1SS   TAU-   TAU+        
      2.14791296E-08    3      1000022        12       -12             # Z4SS   -->  Z1SS   NUE    ANUE        
      2.14791296E-08    3      1000022        14       -14             # Z4SS   -->  Z1SS   NUM    ANUM        
      2.16108802E-08    3      1000022        16       -16             # Z4SS   -->  Z1SS   NUT    ANUT        
      4.48924870E-10    3      1000023         2        -2             # Z4SS   -->  Z2SS   UP     UB          
      8.88413509E-11    3      1000023         1        -1             # Z4SS   -->  Z2SS   DN     DB          
      8.88413509E-11    3      1000023         3        -3             # Z4SS   -->  Z2SS   ST     SB          
      4.48924870E-10    3      1000023         4        -4             # Z4SS   -->  Z2SS   CH     CB          
      7.96152388E-09    3      1000023         5        -5             # Z4SS   -->  Z2SS   BT     BB          
      2.06506390E-09    3      1000023        11       -11             # Z4SS   -->  Z2SS   E-     E+          
      2.06506390E-09    3      1000023        13       -13             # Z4SS   -->  Z2SS   MU-    MU+         
      2.38344189E-08    3      1000023        15       -15             # Z4SS   -->  Z2SS   TAU-   TAU+        
      9.12963538E-10    3      1000023        12       -12             # Z4SS   -->  Z2SS   NUE    ANUE        
      9.12963538E-10    3      1000023        14       -14             # Z4SS   -->  Z2SS   NUM    ANUM        
      9.19122500E-10    3      1000023        16       -16             # Z4SS   -->  Z2SS   NUT    ANUT        
      7.07335598E-14    3      1000025         2        -2             # Z4SS   -->  Z3SS   UP     UB          
      9.12114554E-14    3      1000025         1        -1             # Z4SS   -->  Z3SS   DN     DB          
      9.12114554E-14    3      1000025         3        -3             # Z4SS   -->  Z3SS   ST     SB          
      2.06912734E-14    3      1000025        11       -11             # Z4SS   -->  Z3SS   E-     E+          
      2.06912734E-14    3      1000025        13       -13             # Z4SS   -->  Z3SS   MU-    MU+         
      4.11690674E-14    3      1000025        12       -12             # Z4SS   -->  Z3SS   NUE    ANUE        
      4.11690674E-14    3      1000025        14       -14             # Z4SS   -->  Z3SS   NUM    ANUM        
      4.11690674E-14    3      1000025        16       -16             # Z4SS   -->  Z3SS   NUT    ANUT        
      2.93290228E-01    2      1000022        25                       # Z4SS   -->  Z1SS   HL0                
      1.07801668E-01    2      1000023        25                       # Z4SS   -->  Z2SS   HL0                
#         PDG         Width
DECAY   1000024  4.50004295E-15   # W1SS+ decays
#          BR          NDA       ID1       ID2       ID3       ID4
      1.00000000E+00    2      1000022         0                       # W1SS+  -->  Z1SS   PI+                
#         PDG         Width
DECAY   1000037  2.31135406E+01   # W2SS+ decays
#          BR          NDA       ID1       ID2       ID3       ID4
      1.61875224E-08    3      1000022         2        -1             # W2SS+  -->  Z1SS   UP     DB          
      1.61875224E-08    3      1000022         4        -3             # W2SS+  -->  Z1SS   CH     SB          
      1.39160070E-08    3      1000022       -11        12             # W2SS+  -->  Z1SS   E+     NUE         
      1.39160070E-08    3      1000022       -13        14             # W2SS+  -->  Z1SS   MU+    NUM         
      1.39408257E-07    3      1000022       -15        16             # W2SS+  -->  Z1SS   TAU+   NUT         
      3.14178914E-01    2      1000022        24                       # W2SS+  -->  Z1SS   W+                 
      9.67359387E-11    3      1000023         2        -1             # W2SS+  -->  Z2SS   UP     DB          
      9.67359387E-11    3      1000023         4        -3             # W2SS+  -->  Z2SS   CH     SB          
      8.00945199E-10    3      1000023       -11        12             # W2SS+  -->  Z2SS   E+     NUE         
      8.00945199E-10    3      1000023       -13        14             # W2SS+  -->  Z2SS   MU+    NUM         
      2.00806660E-08    3      1000023       -15        16             # W2SS+  -->  Z2SS   TAU+   NUT         
      7.86980987E-02    2      1000023        24                       # W2SS+  -->  Z2SS   W+                 
      6.00459196E-11    3      1000025         2        -1             # W2SS+  -->  Z3SS   UP     DB          
      6.00459196E-11    3      1000025         4        -3             # W2SS+  -->  Z3SS   CH     SB          
      2.00153071E-11    3      1000025       -11        12             # W2SS+  -->  Z3SS   E+     NUE         
      2.00153071E-11    3      1000025       -13        14             # W2SS+  -->  Z3SS   MU+    NUM         
      2.00153609E-11    3      1000025       -15        16             # W2SS+  -->  Z3SS   TAU+   NUT         
      6.67479917E-12    3      1000035         2        -1             # W2SS+  -->  Z4SS   UP     DB          
      6.67479917E-12    3      1000035         4        -3             # W2SS+  -->  Z4SS   CH     SB          
      2.22493335E-12    3      1000035       -11        12             # W2SS+  -->  Z4SS   E+     NUE         
      2.22493335E-12    3      1000035       -13        14             # W2SS+  -->  Z4SS   MU+    NUM         
      2.22493833E-12    3      1000035       -15        16             # W2SS+  -->  Z4SS   TAU+   NUT         
      2.94559240E-01    2      1000024        23                       # W2SS+  -->  W1SS+  Z0                 
      5.03629494E-09    3      1000024         1        -1             # W2SS+  -->  W1SS+  DN     DB          
      5.03629494E-09    3      1000024         3        -3             # W2SS+  -->  W1SS+  ST     SB          
      3.40240263E-08    3      1000024         2        -2             # W2SS+  -->  W1SS+  UP     UB          
      3.40240263E-08    3      1000024         4        -4             # W2SS+  -->  W1SS+  CH     CB          
      2.90162010E-08    3      1000024        12       -12             # W2SS+  -->  W1SS+  NUE    ANUE        
      2.90162010E-08    3      1000024        14       -14             # W2SS+  -->  W1SS+  NUM    ANUM        
      2.97290104E-08    3      1000024        16       -16             # W2SS+  -->  W1SS+  NUT    ANUT        
      4.29239133E-09    3      1000024        11       -11             # W2SS+  -->  W1SS+  E-     E+          
      4.29239133E-09    3      1000024        13       -13             # W2SS+  -->  W1SS+  MU-    MU+         
      4.31904068E-09    3      1000024        15       -15             # W2SS+  -->  W1SS+  TAU-   TAU+        
      3.12563390E-01    2      1000024        25                       # W2SS+  -->  W1SS+  HL0                
#         PDG         Width
DECAY        25  4.13533719E-03   # HL0   decays
#          BR          NDA       ID1       ID2       ID3       ID4
      4.78248241E-09    2           11       -11                       # HL0    -->  E-     E+                 
      2.01924049E-04    2           13       -13                       # HL0    -->  MU-    MU+                
      5.77533394E-02    2           15       -15                       # HL0    -->  TAU-   TAU+               
      6.00155590E-06    2            1        -1                       # HL0    -->  DN     DB                 
      2.42492929E-03    2            3        -3                       # HL0    -->  ST     SB                 
      7.93742001E-01    2            5        -5                       # HL0    -->  BT     BB                 
      1.91780487E-06    2            2        -2                       # HL0    -->  UP     UB                 
      3.60435508E-02    2            4        -4                       # HL0    -->  CH     CB                 
      1.87941990E-03    2           22        22                       # HL0    -->  GM     GM                 
      4.02765386E-02    2           21        21                       # HL0    -->  GL     GL                 
      3.48313362E-03    3           24        11       -12             # HL0    -->  W+     E-     ANUE        
      3.48313362E-03    3           24        13       -14             # HL0    -->  W+     MU-    ANUM        
      3.48313362E-03    3           24        15       -16             # HL0    -->  W+     TAU-   ANUT        
      1.04494011E-02    3           24        -2         1             # HL0    -->  W+     UB     DN          
      1.04494011E-02    3           24        -4         3             # HL0    -->  W+     CB     ST          
      3.48313362E-03    3          -24       -11        12             # HL0    -->  W-     E+     NUE         
      3.48313362E-03    3          -24       -13        14             # HL0    -->  W-     MU+    NUM         
      3.48313362E-03    3          -24       -15        16             # HL0    -->  W-     TAU+   NUT         
      1.04494011E-02    3          -24         2        -1             # HL0    -->  W-     UP     DB          
      1.04494011E-02    3          -24         4        -3             # HL0    -->  W-     CH     SB          
      3.40180559E-04    3           23        12       -12             # HL0    -->  Z0     NUE    ANUE        
      3.40180559E-04    3           23        14       -14             # HL0    -->  Z0     NUM    ANUM        
      3.40180559E-04    3           23        16       -16             # HL0    -->  Z0     NUT    ANUT        
      1.71209453E-04    3           23        11       -11             # HL0    -->  Z0     E-     E+          
      1.71209453E-04    3           23        13       -13             # HL0    -->  Z0     MU-    MU+         
      1.71209453E-04    3           23        15       -15             # HL0    -->  Z0     TAU-   TAU+        
      5.86549111E-04    3           23         2        -2             # HL0    -->  Z0     UP     UB          
      5.86549111E-04    3           23         4        -4             # HL0    -->  Z0     CH     CB          
      7.55619723E-04    3           23         1        -1             # HL0    -->  Z0     DN     DB          
      7.55619723E-04    3           23         3        -3             # HL0    -->  Z0     ST     SB          
      7.55619723E-04    3           23         5        -5             # HL0    -->  Z0     BT     BB          
#         PDG         Width
DECAY        35  5.58820038E+01   # HH0   decays
#          BR          NDA       ID1       ID2       ID3       ID4
      4.50278620E-10    2           11       -11                       # HH0    -->  E-     E+                 
      1.90115752E-05    2           13       -13                       # HH0    -->  MU-    MU+                
      5.44520374E-03    2           15       -15                       # HH0    -->  TAU-   TAU+               
      5.44739805E-07    2            1        -1                       # HH0    -->  DN     DB                 
      2.20102418E-04    2            3        -3                       # HH0    -->  ST     SB                 
      2.71307081E-02    2            5        -5                       # HH0    -->  BT     BB                 
      2.79240908E-10    2            2        -2                       # HH0    -->  UP     UB                 
      3.24545931E-06    2            4        -4                       # HH0    -->  CH     CB                 
      1.70388147E-01    2            6        -6                       # HH0    -->  TP     TB                 
      2.30084780E-07    2           22        22                       # HH0    -->  GM     GM                 
      1.70099283E-05    2           21        21                       # HH0    -->  GL     GL                 
      1.89268667E-05    2           24       -24                       # HH0    -->  W+     W-                 
      9.71186273E-06    2           23        23                       # HH0    -->  Z0     Z0                 
      4.89090802E-04    2      1000022   1000022                       # HH0    -->  Z1SS   Z1SS               
      3.41111154E-04    2      1000022   1000023                       # HH0    -->  Z1SS   Z2SS               
      1.83278471E-01    2      1000022   1000025                       # HH0    -->  Z1SS   Z3SS               
      6.22607917E-02    2      1000022   1000035                       # HH0    -->  Z1SS   Z4SS               
      4.72641659E-05    2      1000023   1000023                       # HH0    -->  Z2SS   Z2SS               
      5.04400283E-02    2      1000023   1000025                       # HH0    -->  Z2SS   Z3SS               
      7.93786254E-03    2      1000023   1000035                       # HH0    -->  Z2SS   Z4SS               
      9.78877419E-04    2      1000024  -1000024                       # HH0    -->  W1SS+  W1SS-              
      2.45447680E-01    2      1000024  -1000037                       # HH0    -->  W1SS+  W2SS-              
      2.45447680E-01    2     -1000024   1000037                       # HH0    -->  W1SS-  W2SS+              
      7.82323477E-05    2           25        25                       # HH0    -->  HL0    HL0                
#         PDG         Width
DECAY        36  5.50760841E+01   # HA0   decays
#          BR          NDA       ID1       ID2       ID3       ID4
      4.53894422E-10    2           11       -11                       # HA0    -->  E-     E+                 
      1.91642393E-05    2           13       -13                       # HA0    -->  MU-    MU+                
      5.48893167E-03    2           15       -15                       # HA0    -->  TAU-   TAU+               
      5.49136075E-07    2            1        -1                       # HA0    -->  DN     DB                 
      2.21878639E-04    2            3        -3                       # HA0    -->  ST     SB                 
      2.73496807E-02    2            5        -5                       # HA0    -->  BT     BB                 
      2.81128981E-10    2            2        -2                       # HA0    -->  UP     UB                 
      3.26954182E-06    2            4        -4                       # HA0    -->  CH     CB                 
      1.72057569E-01    2            6        -6                       # HA0    -->  TP     TB                 
      1.07042034E-07    2           22        22                       # HA0    -->  GM     GM                 
      1.95483044E-05    2           21        21                       # HA0    -->  GL     GL                 
      6.57708501E-04    2      1000022   1000022                       # HA0    -->  Z1SS   Z1SS               
      5.93166391E-04    2      1000022   1000023                       # HA0    -->  Z1SS   Z2SS               
      6.22269809E-02    2      1000022   1000025                       # HA0    -->  Z1SS   Z3SS               
      1.82561502E-01    2      1000022   1000035                       # HA0    -->  Z1SS   Z4SS               
      1.26473402E-04    2      1000023   1000023                       # HA0    -->  Z2SS   Z2SS               
      7.74041191E-03    2      1000023   1000025                       # HA0    -->  Z2SS   Z3SS               
      4.98812944E-02    2      1000023   1000035                       # HA0    -->  Z2SS   Z4SS               
      1.39036705E-03    2      1000024  -1000024                       # HA0    -->  W1SS+  W1SS-              
      2.44821191E-01    2      1000024  -1000037                       # HA0    -->  W1SS+  W2SS-              
      2.44821191E-01    2     -1000024   1000037                       # HA0    -->  W1SS-  W2SS+              
      1.90620813E-05    2           25        23                       # HA0    -->  HL0    Z0                 
#         PDG         Width
DECAY        37  5.51179810E+01   # H+    decays
#          BR          NDA       ID1       ID2       ID3       ID4
      4.56574362E-10    2           12       -11                       # H+     -->  NUE    E+                 
      1.92773932E-05    2           14       -13                       # H+     -->  NUM    MU+                
      5.52133983E-03    2           16       -15                       # H+     -->  NUT    TAU+               
      5.14379451E-07    2            2        -1                       # H+     -->  UP     DB                 
      2.10787985E-04    2            4        -3                       # H+     -->  CH     SB                 
      1.86391175E-01    2            6        -5                       # H+     -->  TP     BB                 
      2.62274938E-07    2      1000024   1000022                       # H+     -->  W1SS+  Z1SS               
      9.59138444E-04    2      1000024   1000023                       # H+     -->  W1SS+  Z2SS               
      2.49427065E-01    2      1000024   1000025                       # H+     -->  W1SS+  Z3SS               
      2.48938188E-01    2      1000024   1000035                       # H+     -->  W1SS+  Z4SS               
      2.49195531E-01    2      1000037   1000022                       # H+     -->  W2SS+  Z1SS               
      5.93176261E-02    2      1000037   1000023                       # H+     -->  W2SS+  Z2SS               
      1.91816034E-05    2           25        24                       # H+     -->  HL0    W+                 
