#  ISAJET SUSY parameters in SUSY Les Houches Accord 2 format
#  Created by ISALHA 2.0 Last revision: C. Balazs 21 Apr 2009
Block SPINFO   # Program information
     1   ISASUGRA from ISAJET          # Spectrum Calculator
     2   7.80   29-OCT-2009 12:50:36   # Version number
Block MODSEL   # Model selection
     1     3   # Minimal anomaly mediated (AMSB) model             
Block SMINPUTS   # Standard Model inputs
     1     1.27836258E+02   # alpha_em^(-1)
     2     1.16570000E-05   # G_Fermi
     3     1.17200002E-01   # alpha_s(M_Z)
     4     9.11699982E+01   # m_{Z}(pole)
     5     4.19999981E+00   # m_{b}(m_{b})
     6     1.72500000E+02   # m_{top}(pole)
     7     1.77699995E+00   # m_{tau}(pole)
Block MINPAR   # SUSY breaking input parameters
     1     5.00000000E+03   # m_0
     2     2.25800000E+05   # m_{3/2}
     3     5.00000000E+00   # tan(beta)
     4     1.00000000E+00   # sign(mu)
Block EXTPAR   # Non-universal SUSY breaking parameters
     0     8.56621349E+15   # Input scale
Block MASS   # Scalar and gaugino mass spectrum
#  PDG code   mass                 particle
         5     4.80000000E+00   # b-quark pole mass calculated from mb(mb)_Msbar
         6     1.72500000E+02   # t-quark pole mass (not read by ME)
        15     1.77682000E+00   # tau pole mass (not read by ME)
        23     9.11876000E+01   # Z pole mass (not read by ME)
        24     8.04229965E+01   #  W^+
        25     1.16490341E+02   #  h^0            
        35     6.19192334E+03   #  H^0            
        36     6.15133203E+03   #  A^0            
        37     6.19231006E+03   #  H^+            
   1000001     6.39316895E+03   #  dnl            
   1000002     6.39269824E+03   #  upl            
   1000003     6.39316895E+03   #  stl            
   1000004     6.39269824E+03   #  chl            
   1000005     5.43322266E+03   #  b1             
   1000006     4.25166846E+03   #  t1             
   1000011     4.91255664E+03   #  el-            
   1000012     4.91225439E+03   #  nuel           
   1000013     4.91255664E+03   #  mul-           
   1000014     4.91225439E+03   #  numl           
   1000015     4.88193848E+03   #  tau1           
   1000016     4.90574512E+03   #  nutl           
   1000021     4.54173486E+03   #  glss           
   1000022     6.49565308E+02   #  z1ss           
   1000023     2.10256445E+03   #  z2ss           
   1000024     6.49738525E+02   #  w1ss           
   1000025    -3.54483838E+03   #  z3ss           
   1000035     3.54641333E+03   #  z4ss           
   1000037     3.55001855E+03   #  w2ss           
   2000001     6.45120361E+03   #  dnr            
   2000002     6.42348779E+03   #  upr            
   2000003     6.45120361E+03   #  str            
   2000004     6.42348779E+03   #  chr            
   2000005     6.41209473E+03   #  b2             
   2000006     5.46561914E+03   #  t2             
   2000011     4.89571729E+03   #  er-            
   2000013     4.89571729E+03   #  mur-           
   2000015     4.90657373E+03   #  tau2           
Block ALPHA   # Effective Higgs mixing parameter
         -1.97510779E-01   # alpha
Block STOPMIX   # stop mixing matrix
  1  1     2.98033487E-02   # O_{11}
  1  2    -9.99555767E-01   # O_{12}
  2  1     9.99555767E-01   # O_{21}
  2  2     2.98033487E-02   # O_{22}
Block SBOTMIX   # sbottom mixing matrix
  1  1     9.99996126E-01   # O_{11}
  1  2     2.78448174E-03   # O_{12}
  2  1    -2.78448174E-03   # O_{21}
  2  2     9.99996126E-01   # O_{22}
Block STAUMIX   # stau mixing matrix
  1  1     1.49902225E-01   # O_{11}
  1  2     9.88700807E-01   # O_{12}
  2  1    -9.88700807E-01   # O_{21}
  2  2     1.49902225E-01   # O_{22}
Block NMIX   # neutralino mixing matrix
  1  1    -3.70965630E-04   #
  1  2     9.99727607E-01   #
  1  3    -2.23252550E-02   #
  1  4     6.79547852E-03   #
  2  1     9.99744773E-01   #
  2  2     8.75147525E-04   #
  2  3     1.87551379E-02   #
  2  4    -1.25557780E-02   #
  3  1    -4.39086556E-03   #
  3  2     1.09787537E-02   #
  3  3     7.06956267E-01   #
  3  4     7.07158387E-01   #
  4  1     2.21529212E-02   #
  4  2    -2.05775760E-02   #
  4  3    -7.06655979E-01   #
  4  4     7.06911147E-01   #
Block UMIX   # chargino U mixing matrix
  1  1    -9.99478996E-01   # U_{11}
  1  2     3.22763138E-02   # U_{12}
  2  1    -3.22763138E-02   # U_{21}
  2  2    -9.99478996E-01   # U_{22}
Block VMIX   # chargino V mixing matrix
  1  1    -9.99922335E-01   # V_{11}
  1  2     1.24626951E-02   # V_{12}
  2  1    -1.24626951E-02   # V_{21}
  2  2    -9.99922335E-01   # V_{22}
Block GAUGE Q=  4.64059668E+03   #
     1     3.57524991E-01   # g`
     2     6.52378619E-01   # g_2
     3     1.21928012E+00   # g_3
Block YU Q=  4.64059668E+03   #
  3  3     8.28550637E-01   # y_t
Block YD Q=  4.64059668E+03   #
  3  3     6.38880730E-02   # y_b
Block YE Q=  4.64059668E+03   #
  3  3     5.14758602E-02   # y_tau
Block HMIX Q=  4.64059668E+03   # Higgs mixing parameters
     1     3.52273413E+03   # mu(Q)
     2     5.00000000E+00   # tan(beta)(M_GUT)
     3     2.52287552E+02   # Higgs vev at Q
     4     3.78388840E+07   # m_A^2(Q)
Block MSOFT Q=  4.64059668E+03   # DRbar SUSY breaking parameters
     1     2.11077002E+03   # M_1(Q)          
     2     6.05431152E+02   # M_2(Q)          
     3    -4.15041064E+03   # M_3(Q)          
    21     3.23374943E+04   # mH1^2(Q)            
    22    -1.28800134E+05   # mH2^2(Q)            
    31     4.89504541E+03   # MeL(Q)          
    32     4.89504541E+03   # MmuL(Q)         
    33     4.88873486E+03   # MtauL(Q)        
    34     4.88893555E+03   # MeR(Q)          
    35     4.88893555E+03   # MmuR(Q)         
    36     4.87630615E+03   # MtauR(Q)        
    41     6.19217822E+03   # MqL1(Q)         
    42     6.19217822E+03   # MqL2(Q)         
    43     5.24989795E+03   # MqL3(Q)         
    44     6.22320068E+03   # MuR(Q)          
    45     6.22320068E+03   # McR(Q)          
    46     4.10201025E+03   # MtR(Q)          
    47     6.25108496E+03   # MdR(Q)          
    48     6.25108496E+03   # MsR(Q)          
    49     6.25999316E+03   # MbR(Q)          
Block AU Q=  4.64059668E+03   #
  1  1     3.51153320E+03   # A_u
  2  2     3.51153320E+03   # A_c
  3  3     3.51153320E+03   # A_t
Block AD Q=  4.64059668E+03   #
  1  1     8.33206738E+03   # A_d
  2  2     8.33206738E+03   # A_s
  3  3     8.33206738E+03   # A_b
Block AE Q=  4.64059668E+03   #
  1  1     2.35122656E+03   # A_e
  2  2     2.35122656E+03   # A_mu
  3  3     2.35122656E+03   # A_tau
#
#  ISAJET decay tables in SUSY Les Houches accord format
#  Created by ISALHD. Last revision: C. Balazs, 2005 May 25
Block DCINFO                           # Program information
     1   ISASUGRA from ISAJET          # Spectrum Calculator
     2   7.80   29-OCT-2009 12:50:36   # Version number
#         PDG         Width
DECAY        23     2.49520000E+00   # Z width (SM calculation)
DECAY        24     2.08500000E+00   # W width (SM calculation)
#
#         PDG            Width  
DECAY         6  1.14680779E+00   # TP    decays
#          BR          NDA       ID1       ID2       ID3       ID4
      3.33333343E-01    3            2        -1         5             # TP     -->  UP     DB     BT          
      3.33333343E-01    3            4        -3         5             # TP     -->  CH     SB     BT          
      1.11111112E-01    3          -11        12         5             # TP     -->  E+     NUE    BT          
      1.11111112E-01    3          -13        14         5             # TP     -->  MU+    NUM    BT          
      1.11111112E-01    3          -15        16         5             # TP     -->  TAU+   NUT    BT          
#         PDG         Width
DECAY   1000021  1.16924143E+00   # GLSS  decays
#          BR          NDA       ID1       ID2       ID3       ID4
      5.14219655E-03    3      1000024         1        -2             # GLSS   -->  W1SS+  DN     UB          
      5.14219655E-03    3     -1000024         2        -1             # GLSS   -->  W1SS-  UP     DB          
      5.14219655E-03    3      1000024         3        -4             # GLSS   -->  W1SS+  ST     CB          
      5.14219655E-03    3     -1000024         4        -3             # GLSS   -->  W1SS-  CH     SB          
      1.32611608E-02    3      1000024         5        -6             # GLSS   -->  W1SS+  BT     TB          
      1.32611608E-02    3     -1000024         6        -5             # GLSS   -->  W1SS-  TP     BB          
      2.25362395E-08    3      1000037         1        -2             # GLSS   -->  W2SS+  DN     UB          
      2.25362395E-08    3     -1000037         2        -1             # GLSS   -->  W2SS-  UP     DB          
      2.25362395E-08    3      1000037         3        -4             # GLSS   -->  W2SS+  ST     CB          
      2.25362395E-08    3     -1000037         4        -3             # GLSS   -->  W2SS-  CH     SB          
      1.42589895E-04    3      1000037         5        -6             # GLSS   -->  W2SS+  BT     TB          
      1.42589895E-04    3     -1000037         6        -5             # GLSS   -->  W2SS-  TP     BB          
      5.95013239E-09    2      1000022        21                       # GLSS   -->  Z1SS   GL                 
      2.57171178E-03    3      1000022         2        -2             # GLSS   -->  Z1SS   UP     UB          
      2.57137301E-03    3      1000022         1        -1             # GLSS   -->  Z1SS   DN     DB          
      2.57137301E-03    3      1000022         3        -3             # GLSS   -->  Z1SS   ST     SB          
      2.57171178E-03    3      1000022         4        -4             # GLSS   -->  Z1SS   CH     CB          
      6.85197674E-03    3      1000022         5        -5             # GLSS   -->  Z1SS   BT     BB          
      6.40807999E-03    3      1000022         6        -6             # GLSS   -->  Z1SS   TP     TB          
      1.51744125E-05    2      1000023        21                       # GLSS   -->  Z2SS   GL                 
      3.12153308E-04    3      1000023         2        -2             # GLSS   -->  Z2SS   UP     UB          
      9.00866798E-05    3      1000023         1        -1             # GLSS   -->  Z2SS   DN     DB          
      9.00866798E-05    3      1000023         3        -3             # GLSS   -->  Z2SS   ST     SB          
      3.12153308E-04    3      1000023         4        -4             # GLSS   -->  Z2SS   CH     CB          
      1.30522181E-04    3      1000023         5        -5             # GLSS   -->  Z2SS   BT     BB          
      5.60060435E-05    3      1000023         6        -6             # GLSS   -->  Z2SS   TP     TB          
      4.93511834E-06    2      1000025        21                       # GLSS   -->  Z3SS   GL                 
      4.81094897E-09    3      1000025         2        -2             # GLSS   -->  Z3SS   UP     UB          
      5.98330407E-09    3      1000025         1        -1             # GLSS   -->  Z3SS   DN     DB          
      5.98330407E-09    3      1000025         3        -3             # GLSS   -->  Z3SS   ST     SB          
      4.81094897E-09    3      1000025         4        -4             # GLSS   -->  Z3SS   CH     CB          
      1.88507920E-06    3      1000025         5        -5             # GLSS   -->  Z3SS   BT     BB          
      1.23186765E-04    3      1000025         6        -6             # GLSS   -->  Z3SS   TP     TB          
      6.01779311E-06    2      1000035        21                       # GLSS   -->  Z4SS   GL                 
      7.72578268E-09    3      1000035         2        -2             # GLSS   -->  Z4SS   UP     UB          
      9.78407222E-09    3      1000035         1        -1             # GLSS   -->  Z4SS   DN     DB          
      9.78407222E-09    3      1000035         3        -3             # GLSS   -->  Z4SS   ST     SB          
      7.72578268E-09    3      1000035         4        -4             # GLSS   -->  Z4SS   CH     CB          
      1.88913066E-06    3      1000035         5        -5             # GLSS   -->  Z4SS   BT     BB          
      1.00744561E-04    3      1000035         6        -6             # GLSS   -->  Z4SS   TP     TB          
      4.63916242E-01    2     -1000006         6                       # GLSS   -->  TB1    TP                 
      4.63916242E-01    2      1000006        -6                       # GLSS   -->  TP1    TB                 
#         PDG         Width
DECAY   1000002  1.60659271E+02   # UPL   decays
#          BR          NDA       ID1       ID2       ID3       ID4
      1.63938239E-01    2      1000022         2                       # UPL    -->  Z1SS   UP                 
      4.51181922E-03    2      1000023         2                       # UPL    -->  Z2SS   UP                 
      8.31493708E-06    2      1000025         2                       # UPL    -->  Z3SS   UP                 
      2.19014746E-05    2      1000035         2                       # UPL    -->  Z4SS   UP                 
      5.03449619E-01    2      1000021         2                       # UPL    -->  GLSS   UP                 
      3.28045189E-01    2      1000024         1                       # UPL    -->  W1SS+  DN                 
      2.48870620E-05    2      1000037         1                       # UPL    -->  W2SS+  DN                 
#         PDG         Width
DECAY   1000001  1.60669449E+02   # DNL   decays
#          BR          NDA       ID1       ID2       ID3       ID4
      1.63985044E-01    2      1000022         1                       # DNL    -->  Z1SS   DN                 
      4.42660972E-03    2      1000023         1                       # DNL    -->  Z2SS   DN                 
      1.11541258E-05    2      1000025         1                       # DNL    -->  Z3SS   DN                 
      4.87205725E-05    2      1000035         1                       # DNL    -->  Z4SS   DN                 
      5.03602743E-01    2      1000021         1                       # DNL    -->  GLSS   DN                 
      3.27758729E-01    2     -1000024         2                       # DNL    -->  W1SS-  UP                 
      1.66947138E-04    2     -1000037         2                       # DNL    -->  W2SS-  UP                 
#         PDG         Width
DECAY   1000003  1.60669434E+02   # STL   decays
#          BR          NDA       ID1       ID2       ID3       ID4
      1.63985059E-01    2      1000022         3                       # STL    -->  Z1SS   ST                 
      4.42661019E-03    2      1000023         3                       # STL    -->  Z2SS   ST                 
      1.11541267E-05    2      1000025         3                       # STL    -->  Z3SS   ST                 
      4.87205798E-05    2      1000035         3                       # STL    -->  Z4SS   ST                 
      5.03602803E-01    2      1000021         3                       # STL    -->  GLSS   ST                 
      3.27758759E-01    2     -1000024         4                       # STL    -->  W1SS-  CH                 
      1.66947095E-04    2     -1000037         4                       # STL    -->  W2SS-  CH                 
#         PDG         Width
DECAY   1000004  1.60659241E+02   # CHL   decays
#          BR          NDA       ID1       ID2       ID3       ID4
      1.63938239E-01    2      1000022         4                       # CHL    -->  Z1SS   CH                 
      4.51181969E-03    2      1000023         4                       # CHL    -->  Z2SS   CH                 
      8.31493617E-06    2      1000025         4                       # CHL    -->  Z3SS   CH                 
      2.19014710E-05    2      1000035         4                       # CHL    -->  Z4SS   CH                 
      5.03449559E-01    2      1000021         4                       # CHL    -->  GLSS   CH                 
      3.28045249E-01    2      1000024         3                       # CHL    -->  W1SS+  ST                 
      2.48870674E-05    2      1000037         3                       # CHL    -->  W2SS+  ST                 
#         PDG         Width
DECAY   1000005  1.21379356E+02   # BT1   decays
#          BR          NDA       ID1       ID2       ID3       ID4
      1.82999581E-01    2      1000022         5                       # BT1    -->  Z1SS   BT                 
      4.52803355E-03    2      1000023         5                       # BT1    -->  Z2SS   BT                 
      6.41842547E-04    2      1000025         5                       # BT1    -->  Z3SS   BT                 
      6.69777801E-04    2      1000035         5                       # BT1    -->  Z4SS   BT                 
      2.12506786E-01    2      1000021         5                       # BT1    -->  GLSS   BT                 
      3.65000874E-01    2     -1000024         6                       # BT1    -->  W1SS-  TP                 
      1.89472049E-01    2     -1000037         6                       # BT1    -->  W2SS-  TP                 
      4.41810675E-02    2          -24   1000006                       # BT1    -->  W-     TP1                
#         PDG         Width
DECAY   1000006  1.53958244E+01   # TP1   decays
#          BR          NDA       ID1       ID2       ID3       ID4
      3.53861455E-04    2      1000022         6                       # TP1    -->  Z1SS   TP                 
      3.52171868E-01    2      1000023         6                       # TP1    -->  Z2SS   TP                 
      1.57776520E-01    2      1000025         6                       # TP1    -->  Z3SS   TP                 
      1.62365422E-01    2      1000035         6                       # TP1    -->  Z4SS   TP                 
      4.58115799E-04    2      1000024         5                       # TP1    -->  W1SS+  BT                 
      3.26874256E-01    2      1000037         5                       # TP1    -->  W2SS+  BT                 
#         PDG         Width
DECAY   2000002  9.44046860E+01   # UPR   decays
#          BR          NDA       ID1       ID2       ID3       ID4
      2.07363851E-08    2      1000022         2                       # UPR    -->  Z1SS   UP                 
      1.22556806E-01    2      1000023         2                       # UPR    -->  Z2SS   UP                 
      1.43427474E-06    2      1000025         2                       # UPR    -->  Z3SS   UP                 
      3.64800981E-05    2      1000035         2                       # UPR    -->  Z4SS   UP                 
      8.77405286E-01    2      1000021         2                       # UPR    -->  GLSS   UP                 
#         PDG         Width
DECAY   2000001  8.75011978E+01   # DNR   decays
#          BR          NDA       ID1       ID2       ID3       ID4
      5.61822855E-09    2      1000022         1                       # DNR    -->  Z1SS   DN                 
      3.32674906E-02    2      1000023         1                       # DNR    -->  Z2SS   DN                 
      3.91450470E-07    2      1000025         1                       # DNR    -->  Z3SS   DN                 
      9.95645314E-06    2      1000035         1                       # DNR    -->  Z4SS   DN                 
      9.66722190E-01    2      1000021         1                       # DNR    -->  GLSS   DN                 
#         PDG         Width
DECAY   2000003  8.75011978E+01   # STR   decays
#          BR          NDA       ID1       ID2       ID3       ID4
      5.61822855E-09    2      1000022         3                       # STR    -->  Z1SS   ST                 
      3.32674906E-02    2      1000023         3                       # STR    -->  Z2SS   ST                 
      3.91450470E-07    2      1000025         3                       # STR    -->  Z3SS   ST                 
      9.95645314E-06    2      1000035         3                       # STR    -->  Z4SS   ST                 
      9.66722190E-01    2      1000021         3                       # STR    -->  GLSS   ST                 
#         PDG         Width
DECAY   2000004  9.44046478E+01   # CHR   decays
#          BR          NDA       ID1       ID2       ID3       ID4
      2.07363922E-08    2      1000022         4                       # CHR    -->  Z1SS   CH                 
      1.22556843E-01    2      1000023         4                       # CHR    -->  Z2SS   CH                 
      1.43427485E-06    2      1000025         4                       # CHR    -->  Z3SS   CH                 
      3.64801017E-05    2      1000035         4                       # CHR    -->  Z4SS   CH                 
      8.77405226E-01    2      1000021         4                       # CHR    -->  GLSS   CH                 
#         PDG         Width
DECAY   2000005  8.55998688E+01   # BT2   decays
#          BR          NDA       ID1       ID2       ID3       ID4
      5.57889699E-08    2      1000022         5                       # BT2    -->  Z1SS   BT                 
      3.37013081E-02    2      1000023         5                       # BT2    -->  Z2SS   BT                 
      1.55228889E-03    2      1000025         5                       # BT2    -->  Z3SS   BT                 
      1.56142039E-03    2      1000035         5                       # BT2    -->  Z4SS   BT                 
      9.59236264E-01    2      1000021         5                       # BT2    -->  GLSS   BT                 
      1.41946416E-07    2     -1000024         6                       # BT2    -->  W1SS-  TP                 
      3.10058519E-03    2     -1000037         6                       # BT2    -->  W2SS-  TP                 
      2.42329952E-06    2          -24   1000006                       # BT2    -->  W-     TP1                
      3.13948345E-04    2          -24   2000006                       # BT2    -->  W-     TP2                
      1.74274261E-04    2           23   1000005                       # BT2    -->  Z0     BT1                
      3.57329205E-04    2           25   1000005                       # BT2    -->  HL0    BT1                
#         PDG         Width
DECAY   2000006  1.26250763E+02   # TP2   decays
#          BR          NDA       ID1       ID2       ID3       ID4
      2.10165814E-01    2      1000021         6                       # TP2    -->  GLSS   TP                 
      3.54188651E-01    2      1000024         5                       # TP2    -->  W1SS+  BT                 
      1.31232000E-03    2      1000037         5                       # TP2    -->  W2SS+  BT                 
      2.30996460E-02    2           23   1000006                       # TP2    -->  Z0     TP1                
      4.33010235E-02    2           25   1000006                       # TP2    -->  HL0    TP1                
      1.76595896E-01    2      1000022         6                       # TP2    -->  Z1SS   TP                 
      4.74610133E-03    2      1000023         6                       # TP2    -->  Z2SS   TP                 
      9.38460901E-02    2      1000025         6                       # TP2    -->  Z3SS   TP                 
      9.27444622E-02    2      1000035         6                       # TP2    -->  Z4SS   TP                 
#         PDG         Width
DECAY   1000011  6.40133591E+01   # EL-   decays
#          BR          NDA       ID1       ID2       ID3       ID4
      3.11540753E-01    2      1000022        11                       # EL-    -->  Z1SS   E-                 
      6.52809590E-02    2      1000023        11                       # EL-    -->  Z2SS   E-                 
      5.44483601E-06    2      1000025        11                       # EL-    -->  Z3SS   E-                 
      5.22874598E-06    2      1000035        11                       # EL-    -->  Z4SS   E-                 
      6.23013973E-01    2     -1000024        12                       # EL-    -->  W1SS-  NUE                
      1.53645175E-04    2     -1000037        12                       # EL-    -->  W2SS-  NUE                
#         PDG         Width
DECAY   1000013  6.40133591E+01   # MUL-  decays
#          BR          NDA       ID1       ID2       ID3       ID4
      3.11540753E-01    2      1000022        13                       # MUL-   -->  Z1SS   MU-                
      6.52809590E-02    2      1000023        13                       # MUL-   -->  Z2SS   MU-                
      5.44483601E-06    2      1000025        13                       # MUL-   -->  Z3SS   MU-                
      5.22874598E-06    2      1000035        13                       # MUL-   -->  Z4SS   MU-                
      6.23013973E-01    2     -1000024        14                       # MUL-   -->  W1SS-  NUM                
      1.53645175E-04    2     -1000037        14                       # MUL-   -->  W2SS-  NUM                
#         PDG         Width
DECAY   1000015  1.76859570E+01   # TAU1- decays
#          BR          NDA       ID1       ID2       ID3       ID4
      2.60303691E-02    2      1000022        15                       # TAU1-  -->  Z1SS   TAU-               
      9.15624559E-01    2      1000023        15                       # TAU1-  -->  Z2SS   TAU-               
      1.64253882E-03    2      1000025        15                       # TAU1-  -->  Z3SS   TAU-               
      1.66139426E-03    2      1000035        15                       # TAU1-  -->  Z4SS   TAU-               
      5.20925261E-02    2     -1000024        16                       # TAU1-  -->  W1SS-  NUT                
      2.94871768E-03    2     -1000037        16                       # TAU1-  -->  W2SS-  NUT                
#         PDG         Width
DECAY   1000012  6.40309372E+01   # NUEL  decays
#          BR          NDA       ID1       ID2       ID3       ID4
      3.11688900E-01    2      1000022        12                       # NUEL   -->  Z1SS   NUE                
      6.48410395E-02    2      1000023        12                       # NUEL   -->  Z2SS   NUE                
      1.33020467E-05    2      1000025        12                       # NUEL   -->  Z3SS   NUE                
      7.94134030E-05    2      1000035        12                       # NUEL   -->  Z4SS   NUE                
      6.23354495E-01    2      1000024        11                       # NUEL   -->  W1SS+  E-                 
      2.28935078E-05    2      1000037        11                       # NUEL   -->  W2SS+  E-                 
#         PDG         Width
DECAY   1000014  6.40309372E+01   # NUML  decays
#          BR          NDA       ID1       ID2       ID3       ID4
      3.11688900E-01    2      1000022        14                       # NUML   -->  Z1SS   NUM                
      6.48410395E-02    2      1000023        14                       # NUML   -->  Z2SS   NUM                
      1.33020467E-05    2      1000025        14                       # NUML   -->  Z3SS   NUM                
      7.94134030E-05    2      1000035        14                       # NUML   -->  Z4SS   NUM                
      6.23354495E-01    2      1000024        13                       # NUML   -->  W1SS+  MU-                
      2.28935078E-05    2      1000037        13                       # NUML   -->  W2SS+  MU-                
#         PDG         Width
DECAY   1000016  6.39977379E+01   # NUTL  decays
#          BR          NDA       ID1       ID2       ID3       ID4
      3.11407924E-01    2      1000022        16                       # NUTL   -->  Z1SS   NUT                
      6.47115558E-02    2      1000023        16                       # NUTL   -->  Z2SS   NUT                
      1.32147161E-05    2      1000025        16                       # NUTL   -->  Z3SS   NUT                
      7.88912002E-05    2      1000035        16                       # NUTL   -->  Z4SS   NUT                
      6.22796237E-01    2      1000024        15                       # NUTL   -->  W1SS+  TAU-               
      9.92130605E-04    2      1000037        15                       # NUTL   -->  W2SS+  TAU-               
      8.35367664E-10    3      1000015        16       -15             # NUTL   -->  TAU1-  NUT    TAU+        
      8.35367664E-10    3      1000015        12       -11             # NUTL   -->  TAU1-  NUE    E+          
      8.35367664E-10    3      1000015        14       -13             # NUTL   -->  TAU1-  NUM    MU+         
      2.50610310E-09    3      1000015         2        -1             # NUTL   -->  TAU1-  UP     DB          
      2.50610310E-09    3      1000015         4        -3             # NUTL   -->  TAU1-  CH     SB          
#         PDG         Width
DECAY   2000011  1.65567703E+01   # ER-   decays
#          BR          NDA       ID1       ID2       ID3       ID4
      1.99746850E-07    2      1000022        11                       # ER-    -->  Z1SS   E-                 
      9.99826491E-01    2      1000023        11                       # ER-    -->  Z2SS   E-                 
      6.56219891E-06    2      1000025        11                       # ER-    -->  Z3SS   E-                 
      1.66709302E-04    2      1000035        11                       # ER-    -->  Z4SS   E-                 
#         PDG         Width
DECAY   2000013  1.65567703E+01   # MUR-  decays
#          BR          NDA       ID1       ID2       ID3       ID4
      1.99746850E-07    2      1000022        13                       # MUR-   -->  Z1SS   MU-                
      9.99826491E-01    2      1000023        13                       # MUR-   -->  Z2SS   MU-                
      6.56219891E-06    2      1000025        13                       # MUR-   -->  Z3SS   MU-                
      1.66709302E-04    2      1000035        13                       # MUR-   -->  Z4SS   MU-                
#         PDG         Width
DECAY   2000015  6.28873177E+01   # TAU2- decays
#          BR          NDA       ID1       ID2       ID3       ID4
      3.09349209E-01    2      1000022        15                       # TAU2-  -->  Z1SS   TAU-               
      7.06559569E-02    2      1000023        15                       # TAU2-  -->  Z2SS   TAU-               
      5.26400108E-04    2      1000025        15                       # TAU2-  -->  Z3SS   TAU-               
      5.61229070E-04    2      1000035        15                       # TAU2-  -->  Z4SS   TAU-               
      6.18617117E-01    2     -1000024        16                       # TAU2-  -->  W1SS-  NUT                
      2.90144933E-04    2     -1000037        16                       # TAU2-  -->  W2SS-  NUT                
#         PDG         Width
DECAY   1000023  1.06201721E-02   # Z2SS  decays
#          BR          NDA       ID1       ID2       ID3       ID4
      1.01719024E-07    2      1000022        22                       # Z2SS   -->  Z1SS   GM                 
      3.29440147E-01    2      1000024       -24                       # Z2SS   -->  W1SS+  W-                 
      3.29440147E-01    2     -1000024        24                       # Z2SS   -->  W1SS-  W+                 
      2.38386542E-02    2      1000022        23                       # Z2SS   -->  Z1SS   Z0                 
      8.43022644E-05    3      1000022         2        -2             # Z2SS   -->  Z1SS   UP     UB          
      8.27030817E-05    3      1000022         1        -1             # Z2SS   -->  Z1SS   DN     DB          
      8.27030817E-05    3      1000022         3        -3             # Z2SS   -->  Z1SS   ST     SB          
      8.43022644E-05    3      1000022         4        -4             # Z2SS   -->  Z1SS   CH     CB          
      1.65498379E-04    3      1000022         5        -5             # Z2SS   -->  Z1SS   BT     BB          
      7.78142945E-04    3      1000022        11       -11             # Z2SS   -->  Z1SS   E-     E+          
      7.78142945E-04    3      1000022        13       -13             # Z2SS   -->  Z1SS   MU-    MU+         
      7.82808929E-04    3      1000022        15       -15             # Z2SS   -->  Z1SS   TAU-   TAU+        
      7.74040818E-04    3      1000022        12       -12             # Z2SS   -->  Z1SS   NUE    ANUE        
      7.74040818E-04    3      1000022        14       -14             # Z2SS   -->  Z1SS   NUM    ANUM        
      7.78557383E-04    3      1000022        16       -16             # Z2SS   -->  Z1SS   NUT    ANUT        
      3.12115729E-01    2      1000022        25                       # Z2SS   -->  Z1SS   HL0                
#         PDG         Width
DECAY   1000025  2.60008144E+01   # Z3SS  decays
#          BR          NDA       ID1       ID2       ID3       ID4
      7.42533004E-08    2      1000022        22                       # Z3SS   -->  Z1SS   GM                 
      1.26007933E-08    2      1000023        22                       # Z3SS   -->  Z2SS   GM                 
      3.24744374E-01    2      1000024       -24                       # Z3SS   -->  W1SS+  W-                 
      3.24744374E-01    2     -1000024        24                       # Z3SS   -->  W1SS-  W+                 
      2.15937927E-01    2      1000022        23                       # Z3SS   -->  Z1SS   Z0                 
      7.49666169E-02    2      1000023        23                       # Z3SS   -->  Z2SS   Z0                 
      1.47100876E-09    3      1000022         2        -2             # Z3SS   -->  Z1SS   UP     UB          
      1.97286321E-09    3      1000022         1        -1             # Z3SS   -->  Z1SS   DN     DB          
      1.97286321E-09    3      1000022         3        -3             # Z3SS   -->  Z1SS   ST     SB          
      1.47100876E-09    3      1000022         4        -4             # Z3SS   -->  Z1SS   CH     CB          
      8.48741365E-07    3      1000022         5        -5             # Z3SS   -->  Z1SS   BT     BB          
      1.33517430E-09    3      1000022        11       -11             # Z3SS   -->  Z1SS   E-     E+          
      1.33517430E-09    3      1000022        13       -13             # Z3SS   -->  Z1SS   MU-    MU+         
      2.66379857E-07    3      1000022        15       -15             # Z3SS   -->  Z1SS   TAU-   TAU+        
      3.26766858E-09    3      1000022        12       -12             # Z3SS   -->  Z1SS   NUE    ANUE        
      3.26766858E-09    3      1000022        14       -14             # Z3SS   -->  Z1SS   NUM    ANUM        
      3.29213345E-09    3      1000022        16       -16             # Z3SS   -->  Z1SS   NUT    ANUT        
      9.66661473E-12    3      1000023         2        -2             # Z3SS   -->  Z2SS   UP     UB          
      5.35154299E-12    3      1000023         1        -1             # Z3SS   -->  Z2SS   DN     DB          
      5.35154299E-12    3      1000023         3        -3             # Z3SS   -->  Z2SS   ST     SB          
      9.66661473E-12    3      1000023         4        -4             # Z3SS   -->  Z2SS   CH     CB          
      1.02227951E-08    3      1000023         5        -5             # Z3SS   -->  Z2SS   BT     BB          
      8.13858009E-11    3      1000023        11       -11             # Z3SS   -->  Z2SS   E-     E+          
      8.13858009E-11    3      1000023        13       -13             # Z3SS   -->  Z2SS   MU-    MU+         
      4.39956018E-08    3      1000023        15       -15             # Z3SS   -->  Z2SS   TAU-   TAU+        
      8.61933303E-11    3      1000023        12       -12             # Z3SS   -->  Z2SS   NUE    ANUE        
      8.61933303E-11    3      1000023        14       -14             # Z3SS   -->  Z2SS   NUM    ANUM        
      8.69324335E-11    3      1000023        16       -16             # Z3SS   -->  Z2SS   NUT    ANUT        
      5.67787327E-02    2      1000022        25                       # Z3SS   -->  Z1SS   HL0                
      2.82660662E-03    2      1000023        25                       # Z3SS   -->  Z2SS   HL0                
#         PDG         Width
DECAY   1000035  2.29995041E+01   # Z4SS  decays
#          BR          NDA       ID1       ID2       ID3       ID4
      9.82234849E-10    2      1000022        22                       # Z4SS   -->  Z1SS   GM                 
      3.13329664E-08    2      1000023        22                       # Z4SS   -->  Z2SS   GM                 
      1.59590596E-14    2      1000025        22                       # Z4SS   -->  Z3SS   GM                 
      2.56837815E-01    2      1000024       -24                       # Z4SS   -->  W1SS+  W-                 
      2.56837815E-01    2     -1000024        24                       # Z4SS   -->  W1SS-  W+                 
      6.95429817E-02    2      1000022        23                       # Z4SS   -->  Z1SS   Z0                 
      3.36040556E-03    2      1000023        23                       # Z4SS   -->  Z2SS   Z0                 
      7.40176720E-09    3      1000022         2        -2             # Z4SS   -->  Z1SS   UP     UB          
      1.64620140E-08    3      1000022         1        -1             # Z4SS   -->  Z1SS   DN     DB          
      1.64620140E-08    3      1000022         3        -3             # Z4SS   -->  Z1SS   ST     SB          
      7.40176720E-09    3      1000022         4        -4             # Z4SS   -->  Z1SS   CH     CB          
      9.88134047E-07    3      1000022         5        -5             # Z4SS   -->  Z1SS   BT     BB          
      2.34570918E-09    3      1000022        11       -11             # Z4SS   -->  Z1SS   E-     E+          
      2.34570918E-09    3      1000022        13       -13             # Z4SS   -->  Z1SS   MU-    MU+         
      3.01201453E-07    3      1000022        15       -15             # Z4SS   -->  Z1SS   TAU-   TAU+        
      3.56886112E-08    3      1000022        12       -12             # Z4SS   -->  Z1SS   NUE    ANUE        
      3.56886112E-08    3      1000022        14       -14             # Z4SS   -->  Z1SS   NUM    ANUM        
      3.59435894E-08    3      1000022        16       -16             # Z4SS   -->  Z1SS   NUT    ANUT        
      4.91377605E-10    3      1000023         2        -2             # Z4SS   -->  Z2SS   UP     UB          
      9.54041082E-11    3      1000023         1        -1             # Z4SS   -->  Z2SS   DN     DB          
      9.54041082E-11    3      1000023         3        -3             # Z4SS   -->  Z2SS   ST     SB          
      4.91377605E-10    3      1000023         4        -4             # Z4SS   -->  Z2SS   CH     CB          
      1.15867795E-08    3      1000023         5        -5             # Z4SS   -->  Z2SS   BT     BB          
      3.56228891E-09    3      1000023        11       -11             # Z4SS   -->  Z2SS   E-     E+          
      3.56228891E-09    3      1000023        13       -13             # Z4SS   -->  Z2SS   MU-    MU+         
      5.33754303E-08    3      1000023        15       -15             # Z4SS   -->  Z2SS   TAU-   TAU+        
      1.52818069E-09    3      1000023        12       -12             # Z4SS   -->  Z2SS   NUE    ANUE        
      1.52818069E-09    3      1000023        14       -14             # Z4SS   -->  Z2SS   NUM    ANUM        
      1.54075164E-09    3      1000023        16       -16             # Z4SS   -->  Z2SS   NUT    ANUT        
      1.24170273E-13    3      1000025         2        -2             # Z4SS   -->  Z3SS   UP     UB          
      1.60118433E-13    3      1000025         1        -1             # Z4SS   -->  Z3SS   DN     DB          
      1.60118433E-13    3      1000025         3        -3             # Z4SS   -->  Z3SS   ST     SB          
      3.63227819E-14    3      1000025        11       -11             # Z4SS   -->  Z3SS   E-     E+          
      3.63227819E-14    3      1000025        13       -13             # Z4SS   -->  Z3SS   MU-    MU+         
      7.22708907E-14    3      1000025        12       -12             # Z4SS   -->  Z3SS   NUE    ANUE        
      7.22708907E-14    3      1000025        14       -14             # Z4SS   -->  Z3SS   NUM    ANUM        
      7.22708907E-14    3      1000025        16       -16             # Z4SS   -->  Z3SS   NUT    ANUT        
      3.02902788E-01    2      1000022        25                       # Z4SS   -->  Z1SS   HL0                
      1.10516734E-01    2      1000023        25                       # Z4SS   -->  Z2SS   HL0                
#         PDG         Width
DECAY   1000024  4.50251205E-15   # W1SS+ decays
#          BR          NDA       ID1       ID2       ID3       ID4
      1.00000000E+00    2      1000022         0                       # W1SS+  -->  Z1SS   PI+                
#         PDG         Width
DECAY   1000037  2.71189117E+01   # W2SS+ decays
#          BR          NDA       ID1       ID2       ID3       ID4
      1.83056326E-08    3      1000022         2        -1             # W2SS+  -->  Z1SS   UP     DB          
      1.83056326E-08    3      1000022         4        -3             # W2SS+  -->  Z1SS   CH     SB          
      2.32190835E-08    3      1000022       -11        12             # W2SS+  -->  Z1SS   E+     NUE         
      2.32190835E-08    3      1000022       -13        14             # W2SS+  -->  Z1SS   MU+    NUM         
      2.78529768E-07    3      1000022       -15        16             # W2SS+  -->  Z1SS   TAU+   NUT         
      3.20232362E-01    2      1000022        24                       # W2SS+  -->  Z1SS   W+                 
      1.02464801E-10    3      1000023         2        -1             # W2SS+  -->  Z2SS   UP     DB          
      1.02464801E-10    3      1000023         4        -3             # W2SS+  -->  Z2SS   CH     SB          
      1.32294842E-09    3      1000023       -11        12             # W2SS+  -->  Z2SS   E+     NUE         
      1.32294842E-09    3      1000023       -13        14             # W2SS+  -->  Z2SS   MU+    NUM         
      4.40339818E-08    3      1000023       -15        16             # W2SS+  -->  Z2SS   TAU+   NUT         
      7.47493580E-02    2      1000023        24                       # W2SS+  -->  Z2SS   W+                 
      6.45969389E-11    3      1000025         2        -1             # W2SS+  -->  Z3SS   UP     DB          
      6.45969389E-11    3      1000025         4        -3             # W2SS+  -->  Z3SS   CH     SB          
      2.15323107E-11    3      1000025       -11        12             # W2SS+  -->  Z3SS   E+     NUE         
      2.15323107E-11    3      1000025       -13        14             # W2SS+  -->  Z3SS   MU+    NUM         
      2.15323870E-11    3      1000025       -15        16             # W2SS+  -->  Z3SS   TAU+   NUT         
      1.13418563E-11    3      1000035         2        -1             # W2SS+  -->  Z4SS   UP     DB          
      1.13418563E-11    3      1000035         4        -3             # W2SS+  -->  Z4SS   CH     SB          
      3.78061905E-12    3      1000035       -11        12             # W2SS+  -->  Z4SS   E+     NUE         
      3.78061905E-12    3      1000035       -13        14             # W2SS+  -->  Z4SS   MU+    NUM         
      3.78063119E-12    3      1000035       -15        16             # W2SS+  -->  Z4SS   TAU+   NUT         
      2.93500245E-01    2      1000024        23                       # W2SS+  -->  W1SS+  Z0                 
      5.73314463E-09    3      1000024         1        -1             # W2SS+  -->  W1SS+  DN     DB          
      5.73314463E-09    3      1000024         3        -3             # W2SS+  -->  W1SS+  ST     SB          
      3.84062346E-08    3      1000024         2        -2             # W2SS+  -->  W1SS+  UP     UB          
      3.84062346E-08    3      1000024         4        -4             # W2SS+  -->  W1SS+  CH     CB          
      4.79185154E-08    3      1000024        12       -12             # W2SS+  -->  W1SS+  NUE    ANUE        
      4.79185154E-08    3      1000024        14       -14             # W2SS+  -->  W1SS+  NUM    ANUM        
      4.95902590E-08    3      1000024        16       -16             # W2SS+  -->  W1SS+  NUT    ANUT        
      7.15304127E-09    3      1000024        11       -11             # W2SS+  -->  W1SS+  E-     E+          
      7.15304127E-09    3      1000024        13       -13             # W2SS+  -->  W1SS+  MU-    MU+         
      7.20514182E-09    3      1000024        15       -15             # W2SS+  -->  W1SS+  TAU-   TAU+        
      3.11517298E-01    2      1000024        25                       # W2SS+  -->  W1SS+  HL0                
#         PDG         Width
DECAY        25  4.15343139E-03   # HL0   decays
#          BR          NDA       ID1       ID2       ID3       ID4
      4.77173856E-09    2           11       -11                       # HL0    -->  E-     E+                 
      2.01470437E-04    2           13       -13                       # HL0    -->  MU-    MU+                
      5.76239526E-02    2           15       -15                       # HL0    -->  TAU-   TAU+               
      5.98787392E-06    2            1        -1                       # HL0    -->  DN     DB                 
      2.41940096E-03    2            3        -3                       # HL0    -->  ST     SB                 
      7.91683972E-01    2            5        -5                       # HL0    -->  BT     BB                 
      1.91362938E-06    2            2        -2                       # HL0    -->  UP     UB                 
      3.59528586E-02    2            4        -4                       # HL0    -->  CH     CB                 
      1.88632892E-03    2           22        22                       # HL0    -->  GM     GM                 
      4.04085405E-02    2           21        21                       # HL0    -->  GL     GL                 
      3.58995167E-03    3           24        11       -12             # HL0    -->  W+     E-     ANUE        
      3.58995167E-03    3           24        13       -14             # HL0    -->  W+     MU-    ANUM        
      3.58995167E-03    3           24        15       -16             # HL0    -->  W+     TAU-   ANUT        
      1.07698552E-02    3           24        -2         1             # HL0    -->  W+     UB     DN          
      1.07698552E-02    3           24        -4         3             # HL0    -->  W+     CB     ST          
      3.58995167E-03    3          -24       -11        12             # HL0    -->  W-     E+     NUE         
      3.58995167E-03    3          -24       -13        14             # HL0    -->  W-     MU+    NUM         
      3.58995167E-03    3          -24       -15        16             # HL0    -->  W-     TAU+   NUT         
      1.07698552E-02    3          -24         2        -1             # HL0    -->  W-     UP     DB          
      1.07698552E-02    3          -24         4        -3             # HL0    -->  W-     CH     SB          
      3.55410593E-04    3           23        12       -12             # HL0    -->  Z0     NUE    ANUE        
      3.55410593E-04    3           23        14       -14             # HL0    -->  Z0     NUM    ANUM        
      3.55410593E-04    3           23        16       -16             # HL0    -->  Z0     NUT    ANUT        
      1.78874587E-04    3           23        11       -11             # HL0    -->  Z0     E-     E+          
      1.78874587E-04    3           23        13       -13             # HL0    -->  Z0     MU-    MU+         
      1.78874587E-04    3           23        15       -15             # HL0    -->  Z0     TAU-   TAU+        
      6.12809148E-04    3           23         2        -2             # HL0    -->  Z0     UP     UB          
      6.12809148E-04    3           23         4        -4             # HL0    -->  Z0     CH     CB          
      7.89449201E-04    3           23         1        -1             # HL0    -->  Z0     DN     DB          
      7.89449201E-04    3           23         3        -3             # HL0    -->  Z0     ST     SB          
      7.89449201E-04    3           23         5        -5             # HL0    -->  Z0     BT     BB          
#         PDG         Width
DECAY        35  4.99739418E+01   # HH0   decays
#          BR          NDA       ID1       ID2       ID3       ID4
      5.26375277E-10    2           11       -11                       # HH0    -->  E-     E+                 
      2.22245162E-05    2           13       -13                       # HH0    -->  MU-    MU+                
      6.36543846E-03    2           15       -15                       # HH0    -->  TAU-   TAU+               
      6.36631000E-07    2            1        -1                       # HH0    -->  DN     DB                 
      2.57231150E-04    2            3        -3                       # HH0    -->  ST     SB                 
      3.16694491E-02    2            5        -5                       # HH0    -->  BT     BB                 
      3.26312505E-10    2            2        -2                       # HH0    -->  UP     UB                 
      3.77581387E-06    2            4        -4                       # HH0    -->  CH     CB                 
      1.98289230E-01    2            6        -6                       # HH0    -->  TP     TB                 
      2.36020043E-07    2           22        22                       # HH0    -->  GM     GM                 
      1.85540557E-05    2           21        21                       # HH0    -->  GL     GL                 
      2.05148572E-05    2           24       -24                       # HH0    -->  W+     W-                 
      1.05269828E-05    2           23        23                       # HH0    -->  Z0     Z0                 
      4.11991350E-04    2      1000022   1000022                       # HH0    -->  Z1SS   Z1SS               
      2.69695709E-04    2      1000022   1000023                       # HH0    -->  Z1SS   Z2SS               
      1.83272719E-01    2      1000022   1000025                       # HH0    -->  Z1SS   Z3SS               
      5.61578013E-02    2      1000022   1000035                       # HH0    -->  Z1SS   Z4SS               
      3.14929821E-05    2      1000023   1000023                       # HH0    -->  Z2SS   Z2SS               
      4.09389473E-02    2      1000023   1000025                       # HH0    -->  Z2SS   Z3SS               
      3.20812757E-03    2      1000023   1000035                       # HH0    -->  Z2SS   Z4SS               
      8.31396552E-04    2      1000024  -1000024                       # HH0    -->  W1SS+  W1SS-              
      2.39066631E-01    2      1000024  -1000037                       # HH0    -->  W1SS+  W2SS-              
      2.39066631E-01    2     -1000024   1000037                       # HH0    -->  W1SS-  W2SS+              
      8.67919225E-05    2           25        25                       # HH0    -->  HL0    HL0                
#         PDG         Width
DECAY        36  4.91047173E+01   # HA0   decays
#          BR          NDA       ID1       ID2       ID3       ID4
      5.32205668E-10    2           11       -11                       # HA0    -->  E-     E+                 
      2.24706837E-05    2           13       -13                       # HA0    -->  MU-    MU+                
      6.43594703E-03    2           15       -15                       # HA0    -->  TAU-   TAU+               
      6.43708063E-07    2            1        -1                       # HA0    -->  DN     DB                 
      2.60090572E-04    2            3        -3                       # HA0    -->  ST     SB                 
      3.20215225E-02    2            5        -5                       # HA0    -->  BT     BB                 
      3.29544614E-10    2            2        -2                       # HA0    -->  UP     UB                 
      3.81570771E-06    2            4        -4                       # HA0    -->  CH     CB                 
      2.00815007E-01    2            6        -6                       # HA0    -->  TP     TB                 
      1.29337153E-07    2           22        22                       # HA0    -->  GM     GM                 
      2.13694093E-05    2           21        21                       # HA0    -->  GL     GL                 
      5.55917097E-04    2      1000022   1000022                       # HA0    -->  Z1SS   Z1SS               
      4.88261372E-04    2      1000022   1000023                       # HA0    -->  Z1SS   Z2SS               
      5.59239201E-02    2      1000022   1000025                       # HA0    -->  Z1SS   Z3SS               
      1.82690427E-01    2      1000022   1000035                       # HA0    -->  Z1SS   Z4SS               
      1.00737088E-04    2      1000023   1000023                       # HA0    -->  Z2SS   Z2SS               
      2.94966297E-03    2      1000023   1000025                       # HA0    -->  Z2SS   Z3SS               
      3.97777371E-02    2      1000023   1000035                       # HA0    -->  Z2SS   Z4SS               
      1.19791704E-03    2      1000024  -1000024                       # HA0    -->  W1SS+  W1SS-              
      2.38356873E-01    2      1000024  -1000037                       # HA0    -->  W1SS+  W2SS-              
      2.38356873E-01    2     -1000024   1000037                       # HA0    -->  W1SS-  W2SS+              
      2.07252961E-05    2           25        23                       # HA0    -->  HL0    Z0                 
#         PDG         Width
DECAY        37  4.91745033E+01   # H+    decays
#          BR          NDA       ID1       ID2       ID3       ID4
      5.34990718E-10    2           12       -11                       # H+     -->  NUE    E+                 
      2.25882741E-05    2           14       -13                       # H+     -->  NUM    MU+                
      6.46962691E-03    2           16       -15                       # H+     -->  NUT    TAU+               
      6.02723844E-07    2            2        -1                       # H+     -->  UP     DB                 
      2.46974872E-04    2            4        -3                       # H+     -->  CH     SB                 
      2.17569962E-01    2            6        -5                       # H+     -->  TP     BB                 
      4.08870790E-07    2      1000024   1000022                       # H+     -->  W1SS+  Z1SS               
      7.83250900E-04    2      1000024   1000023                       # H+     -->  W1SS+  Z2SS               
      2.43649676E-01    2      1000024   1000025                       # H+     -->  W1SS+  Z3SS               
      2.43242294E-01    2      1000024   1000035                       # H+     -->  W1SS+  Z4SS               
      2.43174449E-01    2      1000037   1000022                       # H+     -->  W2SS+  Z1SS               
      4.48192433E-02    2      1000037   1000023                       # H+     -->  W2SS+  Z2SS               
      2.08406782E-05    2           25        24                       # H+     -->  HL0    W+                 
