#
#                              ======================
#                              | THE SUSYHIT OUTPUT |
#                              ======================
#
#
#              ------------------------------------------------------
#              |     This is the output of the SUSY-HIT package     |
#              |  created by A.Djouadi, M.Muehlleitner and M.Spira. |
#              |  In case of problems with SUSY-HIT email to        |
#              |           margarete.muehlleitner@kit.edu           |
#              |           michael.spira@psi.ch                     |
#              |           abdelhak.djouadi@cern.ch                 |
#              ------------------------------------------------------
#
#              ------------------------------------------------------
#              |  SUSY Les Houches Accord - MSSM Spectrum + Decays  |
#              |              based on the decay programs           |
#              |                                                    |
#              |                     SDECAY 1.5                     |
#              |                                                    |
#              |  Authors: M.Muhlleitner, A.Djouadi and Y.Mambrini  |
#              |  Ref.:    Comput.Phys.Commun.168(2005)46           |
#              |           [hep-ph/0311167]                         |
#              |                                                    |
#              |                     HDECAY 3.4                     |
#              |                                                    |
#              |  By: A.Djouadi,J.Kalinowski,M.Muhlleitner,M.Spira  |
#              |  Ref.:    Comput.Phys.Commun.108(1998)56           |
#              |           [hep-ph/9704448]                         |
#              |                                                    |
#              |                                                    |
#              |  If not stated otherwise all DRbar couplings and   |
#              |  soft SUSY breaking masses are given at the scale  |
#              |  Q=  0.13080446E+04
#              |                                                    |
#              ------------------------------------------------------
#
#
BLOCK DCINFO  # Decay Program information
     1   SDECAY/HDECAY # decay calculator
     2   1.5  /3.4    # version number
#
BLOCK SPINFO  # Spectrum calculator information
     1    SOFTSUSY    # spectrum calculator                
     2    3.7.3       # version number                     
#
BLOCK MODSEL  # Model selection
     1     0   #  nonUniversal                                     
#
BLOCK SMINPUTS  # Standard Model inputs
         1     1.27934000E+02   # alpha_em^-1(M_Z)^MSbar
         2     1.16639000E-05   # G_F [GeV^-2]
         3     1.17200000E-01   # alpha_S(M_Z)^MSbar
         4     9.11870000E+01   # M_Z pole mass
         5     4.19000000E+00   # mb(mb)^MSbar
         6     1.72500000E+02   # mt pole mass
         7     1.77690000E+00   # mtau pole mass
#
BLOCK MINPAR  # Input parameters - minimal models
         3     2.00000000E+01   # tanb                
#
BLOCK EXTPAR  # Input parameters - non-minimal models
         0    -1.00000000E+00   # Set                 
         1     1.09990000E+02   # M_1(MX)             
         2     2.00000000E+03   # M_2(MX)             
         3     1.80000000E+03   # M_3(MX)             
        11     2.62959179E+03   # At(MX)              
        12     0.00000000E+00   # Ab(MX)              
        13     0.00000000E+00   # Atau(MX)            
        23    -1.24900000E+02   # mu(MX)              
        25     2.00000000E+01   # tan                 
        26     4.00000000E+03   # mA(pole)            
        31     4.00000000E+03   # meL(MX)             
        32     4.00000000E+03   # mmuL(MX)            
        33     4.00000000E+03   # mtauL(MX)           
        34     4.00000000E+03   # meR(MX)             
        35     4.00000000E+03   # mmuR(MX)            
        36     4.00000000E+03   # mtauR(MX)           
        41     4.00000000E+03   # mqL1(MX)            
        42     4.00000000E+03   # mqL2(MX)            
        43     2.26485961E+03   # mqL3(MX)            
        44     4.00000000E+03   # muR(MX)             
        45     4.00000000E+03   # mcR(MX)             
        46     7.59990000E+02   # mtR(MX)             
        47     4.00000000E+03   # mdR(MX)             
        48     4.00000000E+03   # msR(MX)             
        49     4.00000000E+03   # mbR(MX)             
#
BLOCK MASS  # Mass Spectrum
# PDG code           mass       particle
        24     8.04173599E+01   # W+
        25     1.25460560E+02   # h
        35     4.00000123E+03   # H
        36     3.99999658E+03   # A
        37     4.00105630E+03   # H+
         5     4.81337004E+00   # b-quark pole mass calculated from mb(mb)_Msbar
   1000001     4.02613524E+03   # ~d_L
   2000001     4.02278342E+03   # ~d_R
   1000002     4.02548468E+03   # ~u_L
   2000002     4.02331591E+03   # ~u_R
   1000003     4.02613524E+03   # ~s_L
   2000003     4.02278342E+03   # ~s_R
   1000004     4.02548468E+03   # ~c_L
   2000004     4.02331591E+03   # ~c_R
   1000005     2.29203053E+03   # ~b_1
   2000005     4.02576303E+03   # ~b_2
   1000006     8.01488567E+02   # ~t_1
   2000006     2.30250088E+03   # ~t_2
   1000011     4.00449106E+03   # ~e_L
   2000011     4.00373321E+03   # ~e_R
   1000012     4.00337793E+03   # ~nu_eL
   1000013     4.00449106E+03   # ~mu_L
   2000013     4.00373321E+03   # ~mu_R
   1000014     4.00337793E+03   # ~nu_muL
   1000015     4.00560542E+03   # ~tau_1
   2000015     4.00691006E+03   # ~tau_2
   1000016     4.00481020E+03   # ~nu_tauL
   1000021     1.99473878E+03   # ~g
   1000022     9.12884378E+01   # ~chi_10
   1000023    -1.35491397E+02   # ~chi_20
   1000025     1.53093960E+02   # ~chi_30
   1000035     2.06688427E+03   # ~chi_40
   1000024     1.30005213E+02   # ~chi_1+
   1000037     2.06705189E+03   # ~chi_2+
#
BLOCK NMIX  # Neutralino Mixing Matrix
  1  1    -7.50963695E-01   # N_11
  1  2     1.41242193E-02   # N_12
  1  3     5.42949229E-01   # N_13
  1  4     3.75579778E-01   # N_14
  2  1    -1.37007831E-01   # N_21
  2  2     2.72330565E-02   # N_22
  2  3    -6.84891045E-01   # N_23
  2  4     7.15130388E-01   # N_24
  3  1     6.45973354E-01   # N_31
  3  2     2.35878243E-02   # N_32
  3  3     4.85932260E-01   # N_33
  3  4     5.88244745E-01   # N_34
  4  1    -8.99862061E-04   # N_41
  4  2     9.99250960E-01   # N_42
  4  3    -4.79501347E-04   # N_43
  4  4    -3.86843472E-02   # N_44
#
BLOCK UMIX  # Chargino Mixing Matrix U
  1  1     6.82388141E-04   # U_11
  1  2     9.99999767E-01   # U_12
  2  1    -9.99999767E-01   # U_21
  2  2     6.82388141E-04   # U_22
#
BLOCK VMIX  # Chargino Mixing Matrix V
  1  1     5.47211246E-02   # V_11
  1  2    -9.98501677E-01   # V_12
  2  1    -9.98501677E-01   # V_21
  2  2    -5.47211246E-02   # V_22
#
BLOCK STOPMIX  # Stop Mixing Matrix
  1  1    -8.53937719E-02   # cos(theta_t)
  1  2     9.96347281E-01   # sin(theta_t)
  2  1    -9.96347281E-01   # -sin(theta_t)
  2  2    -8.53937719E-02   # cos(theta_t)
#
BLOCK SBOTMIX  # Sbottom Mixing Matrix
  1  1     9.99999847E-01   # cos(theta_b)
  1  2    -5.53172646E-04   # sin(theta_b)
  2  1     5.53172646E-04   # -sin(theta_b)
  2  2     9.99999847E-01   # cos(theta_b)
#
BLOCK STAUMIX  # Stau Mixing Matrix
  1  1    -7.03619762E-01   # cos(theta_tau)
  1  2     7.10576689E-01   # sin(theta_tau)
  2  1    -7.10576689E-01   # -sin(theta_tau)
  2  2    -7.03619762E-01   # cos(theta_tau)
#
BLOCK ALPHA  # Higgs mixing
          -5.00320144E-02   # Mixing angle in the neutral Higgs boson sector
#
BLOCK HMIX Q=  1.30804463E+03  # DRbar Higgs Parameters
         1    -1.24900000E+02   # mu(Q)MSSM           
         2     2.00000000E+01   # tan                 
         3     2.43568249E+02   # higgs               
         4     1.60868109E+07   # mA^2(Q)MSSM         
#
BLOCK GAUGE Q=  1.30804463E+03  # The gauge couplings
     1     3.62254230E-01   # gprime(Q) DRbar
     2     6.36698861E-01   # g(Q) DRbar
     3     1.02926525E+00   # g3(Q) DRbar
#
BLOCK AU Q=  1.30804463E+03  # The trilinear couplings
  1  1     0.00000000E+00   # A_u(Q) DRbar
  2  2     1.37265378E-06   # A_c(Q) DRbar
  3  3     2.62959179E+03   # A_t(Q) DRbar
#
BLOCK AD Q=  1.30804463E+03  # The trilinear couplings
  1  1     5.03120251E-07   # A_d(Q) DRbar
  2  2     5.03167370E-07   # A_s(Q) DRbar
  3  3     9.00580733E-07   # A_b(Q) DRbar
#
BLOCK AE Q=  1.30804463E+03  # The trilinear couplings
  1  1     0.00000000E+00   # A_e(Q) DRbar
  2  2     1.07826476E-07   # A_mu(Q) DRbar
  3  3     1.08937398E-07   # A_tau(Q) DRbar
#
BLOCK Yu Q=  1.30804463E+03  # The Yukawa couplings
  1  1     0.00000000E+00   # y_u(Q) DRbar
  2  2     0.00000000E+00   # y_c(Q) DRbar
  3  3     8.66575959E-01   # y_t(Q) DRbar
#
BLOCK Yd Q=  1.30804463E+03  # The Yukawa couplings
  1  1     0.00000000E+00   # y_d(Q) DRbar
  2  2     0.00000000E+00   # y_s(Q) DRbar
  3  3     2.79946099E-01   # y_b(Q) DRbar
#
BLOCK Ye Q=  1.30804463E+03  # The Yukawa couplings
  1  1     0.00000000E+00   # y_e(Q) DRbar
  2  2     0.00000000E+00   # y_mu(Q) DRbar
  3  3     2.04221098E-01   # y_tau(Q) DRbar
#
BLOCK MSOFT Q=  1.30804463E+03  # The soft SUSY breaking masses at the scale Q
         1     1.09990000E+02   # M_1(Q)              
         2     2.00000000E+03   # M_2(Q)              
         3     1.80000000E+03   # M_3(Q)              
        21     1.58731206E+07   # M^2_Hd              
        22    -1.70415686E+04   # M^2_Hu              
        31     4.00000000E+03   # M_eL                
        32     4.00000000E+03   # M_muL               
        33     4.00000000E+03   # M_tauL              
        34     4.00000000E+03   # M_eR                
        35     4.00000000E+03   # M_muR               
        36     4.00000000E+03   # M_tauR              
        41     4.00000000E+03   # M_q1L               
        42     4.00000000E+03   # M_q2L               
        43     2.26485961E+03   # M_q3L               
        44     4.00000000E+03   # M_uR                
        45     4.00000000E+03   # M_cR                
        46     7.59989995E+02   # M_tR                
        47     4.00000000E+03   # M_dR                
        48     4.00000000E+03   # M_sR                
        49     4.00000000E+03   # M_bR                
#
#
#
#                             =================
#                             |The decay table|
#                             =================
#
# - The QCD corrections to the decays gluino -> squark  + quark
#                                     squark -> gaugino + quark_prime
#                                     squark -> squark_prime + Higgs
#                                     squark -> gluino  + quark
#   are included.
#
# - The multi-body decays for the inos, stops and sbottoms are included.
#
# - The loop induced decays for the gluino, neutralinos and stops
#   are included.
#
# - The SUSY decays of the top quark are included.
#
#
#         PDG            Width
DECAY         6     1.40640985E+00   # top decays
#          BR         NDA      ID1       ID2
     1.00000000E+00    2           5        24   # BR(t ->  b    W+)
#
#         PDG            Width
DECAY   1000021     2.99818553E+01   # gluino decays
#          BR         NDA      ID1       ID2
     5.00000000E-01    2     1000006        -6   # BR(~g -> ~t_1  tb)
     5.00000000E-01    2    -1000006         6   # BR(~g -> ~t_1* t )
#
#         PDG            Width
DECAY   1000006     2.32566125E+01   # stop1 decays
#          BR         NDA      ID1       ID2
     9.45736893E-02    2     1000022         6   # BR(~t_1 -> ~chi_10 t )
     2.25114180E-01    2     1000023         6   # BR(~t_1 -> ~chi_20 t )
     2.00526131E-01    2     1000025         6   # BR(~t_1 -> ~chi_30 t )
     4.79785999E-01    2     1000024         5   # BR(~t_1 -> ~chi_1+ b )
#
#         PDG            Width
DECAY   2000006     7.75770250E+01   # stop2 decays
#          BR         NDA      ID1       ID2
     6.78399033E-02    2     1000022         6   # BR(~t_2 -> ~chi_10 t )
     2.19100323E-01    2     1000023         6   # BR(~t_2 -> ~chi_20 t )
     1.40894249E-01    2     1000025         6   # BR(~t_2 -> ~chi_30 t )
     3.35372341E-03    2     1000035         6   # BR(~t_2 -> ~chi_40 t )
     4.75573565E-02    2     1000024         5   # BR(~t_2 -> ~chi_1+ b )
     8.86568937E-03    2     1000037         5   # BR(~t_2 -> ~chi_2+ b )
     1.33048104E-01    2     1000021         6   # BR(~t_2 -> ~g      t )
     2.35632450E-01    2     1000006        25   # BR(~t_2 -> ~t_1    h )
     1.43708202E-01    2     1000006        23   # BR(~t_2 -> ~t_1    Z )
#
#         PDG            Width
DECAY   1000005     7.59633475E+01   # sbottom1 decays
#          BR         NDA      ID1       ID2
     1.53493094E-02    2     1000022         5   # BR(~b_1 -> ~chi_10 b )
     2.01500978E-02    2     1000023         5   # BR(~b_1 -> ~chi_20 b )
     1.10712335E-02    2     1000025         5   # BR(~b_1 -> ~chi_30 b )
     4.26837012E-03    2     1000035         5   # BR(~b_1 -> ~chi_40 b )
     4.27929523E-01    2    -1000024         6   # BR(~b_1 -> ~chi_1- t )
     6.09985214E-03    2    -1000037         6   # BR(~b_1 -> ~chi_2- t )
     1.36517691E-01    2     1000021         5   # BR(~b_1 -> ~g      b )
     3.78613923E-01    2     1000006       -24   # BR(~b_1 -> ~t_1    W-)
#
#         PDG            Width
DECAY   2000005     1.64398889E+02   # sbottom2 decays
#          BR         NDA      ID1       ID2
     1.82943463E-02    2     1000022         5   # BR(~b_2 -> ~chi_10 b )
     1.71068182E-02    2     1000023         5   # BR(~b_2 -> ~chi_20 b )
     1.41785106E-02    2     1000025         5   # BR(~b_2 -> ~chi_30 b )
     4.03249678E-08    2     1000035         5   # BR(~b_2 -> ~chi_40 b )
     3.58233891E-02    2    -1000024         6   # BR(~b_2 -> ~chi_1- t )
     6.89847789E-08    2    -1000037         6   # BR(~b_2 -> ~chi_2- t )
     9.14550777E-01    2     1000021         5   # BR(~b_2 -> ~g      b )
     1.07504018E-05    2     1000005        25   # BR(~b_2 -> ~b_1    h )
     1.28406407E-05    2     1000005        23   # BR(~b_2 -> ~b_1    Z )
     4.88628480E-07    2     1000006       -24   # BR(~b_2 -> ~t_1    W-)
     2.19700189E-05    2     2000006       -24   # BR(~b_2 -> ~t_2    W-)
#
#         PDG            Width
DECAY   1000002     1.76540787E+02   # sup_L decays
#          BR         NDA      ID1       ID2
     1.45609442E-03    2     1000022         2   # BR(~u_L -> ~chi_10 u)
     1.37899268E-07    2     1000023         2   # BR(~u_L -> ~chi_20 u)
     1.88513770E-03    2     1000025         2   # BR(~u_L -> ~chi_30 u)
     4.82241974E-02    2     1000035         2   # BR(~u_L -> ~chi_40 u)
     5.29301257E-04    2     1000024         1   # BR(~u_L -> ~chi_1+ d)
     9.63256041E-02    2     1000037         1   # BR(~u_L -> ~chi_2+ d)
     8.51579527E-01    2     1000021         2   # BR(~u_L -> ~g      u)
#
#         PDG            Width
DECAY   2000002     1.59128285E+02   # sup_R decays
#          BR         NDA      ID1       ID2
     3.18334658E-02    2     1000022         2   # BR(~u_R -> ~chi_10 u)
     1.05847292E-03    2     1000023         2   # BR(~u_R -> ~chi_20 u)
     2.35167241E-02    2     1000025         2   # BR(~u_R -> ~chi_30 u)
     2.49448629E-08    2     1000035         2   # BR(~u_R -> ~chi_40 u)
     9.43591312E-01    2     1000021         2   # BR(~u_R -> ~g      u)
#
#         PDG            Width
DECAY   1000001     1.76559898E+02   # sdown_L decays
#          BR         NDA      ID1       ID2
     2.16800918E-03    2     1000022         1   # BR(~d_L -> ~chi_10 d)
     2.50275757E-04    2     1000023         1   # BR(~d_L -> ~chi_20 d)
     8.64308494E-04    2     1000025         1   # BR(~d_L -> ~chi_30 d)
     4.82708770E-02    2     1000035         1   # BR(~d_L -> ~chi_40 d)
     8.23153178E-08    2    -1000024         2   # BR(~d_L -> ~chi_1- u)
     9.66423437E-02    2    -1000037         2   # BR(~d_L -> ~chi_2- u)
     8.51804104E-01    2     1000021         1   # BR(~d_L -> ~g      d)
#
#         PDG            Width
DECAY   2000001     1.52350036E+02   # sdown_R decays
#          BR         NDA      ID1       ID2
     8.31132027E-03    2     1000022         1   # BR(~d_R -> ~chi_10 d)
     2.76353981E-04    2     1000023         1   # BR(~d_R -> ~chi_20 d)
     6.13992032E-03    2     1000025         1   # BR(~d_R -> ~chi_30 d)
     6.51157650E-09    2     1000035         1   # BR(~d_R -> ~chi_40 d)
     9.85272399E-01    2     1000021         1   # BR(~d_R -> ~g      d)
#
#         PDG            Width
DECAY   1000004     1.76540787E+02   # scharm_L decays
#          BR         NDA      ID1       ID2
     1.45609442E-03    2     1000022         4   # BR(~c_L -> ~chi_10 c)
     1.37899268E-07    2     1000023         4   # BR(~c_L -> ~chi_20 c)
     1.88513770E-03    2     1000025         4   # BR(~c_L -> ~chi_30 c)
     4.82241974E-02    2     1000035         4   # BR(~c_L -> ~chi_40 c)
     5.29301257E-04    2     1000024         3   # BR(~c_L -> ~chi_1+ s)
     9.63256041E-02    2     1000037         3   # BR(~c_L -> ~chi_2+ s)
     8.51579527E-01    2     1000021         4   # BR(~c_L -> ~g      c)
#
#         PDG            Width
DECAY   2000004     1.59128285E+02   # scharm_R decays
#          BR         NDA      ID1       ID2
     3.18334658E-02    2     1000022         4   # BR(~c_R -> ~chi_10 c)
     1.05847292E-03    2     1000023         4   # BR(~c_R -> ~chi_20 c)
     2.35167241E-02    2     1000025         4   # BR(~c_R -> ~chi_30 c)
     2.49448629E-08    2     1000035         4   # BR(~c_R -> ~chi_40 c)
     9.43591312E-01    2     1000021         4   # BR(~c_R -> ~g      c)
#
#         PDG            Width
DECAY   1000003     1.76559898E+02   # sstrange_L decays
#          BR         NDA      ID1       ID2
     2.16800918E-03    2     1000022         3   # BR(~s_L -> ~chi_10 s)
     2.50275757E-04    2     1000023         3   # BR(~s_L -> ~chi_20 s)
     8.64308494E-04    2     1000025         3   # BR(~s_L -> ~chi_30 s)
     4.82708770E-02    2     1000035         3   # BR(~s_L -> ~chi_40 s)
     8.23153178E-08    2    -1000024         4   # BR(~s_L -> ~chi_1- c)
     9.66423437E-02    2    -1000037         4   # BR(~s_L -> ~chi_2- c)
     8.51804104E-01    2     1000021         3   # BR(~s_L -> ~g      s)
#
#         PDG            Width
DECAY   2000003     1.52350036E+02   # sstrange_R decays
#          BR         NDA      ID1       ID2
     8.31132027E-03    2     1000022         3   # BR(~s_R -> ~chi_10 s)
     2.76353981E-04    2     1000023         3   # BR(~s_R -> ~chi_20 s)
     6.13992032E-03    2     1000025         3   # BR(~s_R -> ~chi_30 s)
     6.51157650E-09    2     1000035         3   # BR(~s_R -> ~chi_40 s)
     9.85272399E-01    2     1000021         3   # BR(~s_R -> ~g      s)
#
#         PDG            Width
DECAY   1000011     3.13045651E+01   # selectron_L decays
#          BR         NDA      ID1       ID2
     8.79538135E-02    2     1000022        11   # BR(~e_L -> ~chi_10 e-)
     1.32387139E-03    2     1000023        11   # BR(~e_L -> ~chi_20 e-)
     7.86783034E-02    2     1000025        11   # BR(~e_L -> ~chi_30 e-)
     2.76903275E-01    2     1000035        11   # BR(~e_L -> ~chi_40 e-)
     4.79385550E-07    2    -1000024        12   # BR(~e_L -> ~chi_1- nu_e)
     5.55140258E-01    2    -1000037        12   # BR(~e_L -> ~chi_2- nu_e)
#
#         PDG            Width
DECAY   2000011     2.08664462E+01   # selectron_R decays
#          BR         NDA      ID1       ID2
     5.64403786E-01    2     1000022        11   # BR(~e_R -> ~chi_10 e-)
     1.87628665E-02    2     1000023        11   # BR(~e_R -> ~chi_20 e-)
     4.16832911E-01    2     1000025        11   # BR(~e_R -> ~chi_30 e-)
     4.36467902E-07    2     1000035        11   # BR(~e_R -> ~chi_40 e-)
#
#         PDG            Width
DECAY   1000013     3.13045651E+01   # smuon_L decays
#          BR         NDA      ID1       ID2
     8.79538135E-02    2     1000022        13   # BR(~mu_L -> ~chi_10 mu-)
     1.32387139E-03    2     1000023        13   # BR(~mu_L -> ~chi_20 mu-)
     7.86783034E-02    2     1000025        13   # BR(~mu_L -> ~chi_30 mu-)
     2.76903275E-01    2     1000035        13   # BR(~mu_L -> ~chi_40 mu-)
     4.79385550E-07    2    -1000024        14   # BR(~mu_L -> ~chi_1- nu_mu)
     5.55140258E-01    2    -1000037        14   # BR(~mu_L -> ~chi_2- nu_mu)
#
#         PDG            Width
DECAY   2000013     2.08664462E+01   # smuon_R decays
#          BR         NDA      ID1       ID2
     5.64403786E-01    2     1000022        13   # BR(~mu_R -> ~chi_10 mu-)
     1.87628665E-02    2     1000023        13   # BR(~mu_R -> ~chi_20 mu-)
     4.16832911E-01    2     1000025        13   # BR(~mu_R -> ~chi_30 mu-)
     4.36467902E-07    2     1000035        13   # BR(~mu_R -> ~chi_40 mu-)
#
#         PDG            Width
DECAY   1000015     3.10474316E+01   # stau_1 decays
#          BR         NDA      ID1       ID2
     3.23551815E-01    2     1000022        15   # BR(~tau_1 -> ~chi_10  tau-)
     4.01675521E-02    2     1000023        15   # BR(~tau_1 -> ~chi_20  tau-)
     1.66676437E-01    2     1000025        15   # BR(~tau_1 -> ~chi_30  tau-)
     1.38258489E-01    2     1000035        15   # BR(~tau_1 -> ~chi_40  tau-)
     5.41636603E-02    2    -1000024        16   # BR(~tau_1 -> ~chi_1-  nu_tau)
     2.77182047E-01    2    -1000037        16   # BR(~tau_1 -> ~chi_2-  nu_tau)
#
#         PDG            Width
DECAY   2000015     3.11188381E+01   # stau_2 decays
#          BR         NDA      ID1       ID2
     2.07300060E-01    2     1000022        15   # BR(~tau_2 -> ~chi_10  tau-)
     7.38356195E-02    2     1000023        15   # BR(~tau_2 -> ~chi_20  tau-)
     2.42878377E-01    2     1000025        15   # BR(~tau_2 -> ~chi_30  tau-)
     1.40917258E-01    2     1000035        15   # BR(~tau_2 -> ~chi_40  tau-)
     5.25545608E-02    2    -1000024        16   # BR(~tau_2 -> ~chi_1-  nu_tau)
     2.82514124E-01    2    -1000037        16   # BR(~tau_2 -> ~chi_2-  nu_tau)
#
#         PDG            Width
DECAY   1000012     3.13154580E+01   # snu_eL decays
#          BR         NDA      ID1       ID2
     1.00329759E-01    2     1000022        12   # BR(~nu_eL -> ~chi_10 nu_e)
     5.69042954E-03    2     1000023        12   # BR(~nu_eL -> ~chi_20 nu_e)
     6.08048763E-02    2     1000025        12   # BR(~nu_eL -> ~chi_30 nu_e)
     2.77185741E-01    2     1000035        12   # BR(~nu_eL -> ~chi_40 nu_e)
     3.08077290E-03    2     1000024        11   # BR(~nu_eL -> ~chi_1+ e-)
     5.52908422E-01    2     1000037        11   # BR(~nu_eL -> ~chi_2+ e-)
#
#         PDG            Width
DECAY   1000014     3.13154580E+01   # snu_muL decays
#          BR         NDA      ID1       ID2
     1.00329759E-01    2     1000022        14   # BR(~nu_muL -> ~chi_10 nu_mu)
     5.69042954E-03    2     1000023        14   # BR(~nu_muL -> ~chi_20 nu_mu)
     6.08048763E-02    2     1000025        14   # BR(~nu_muL -> ~chi_30 nu_mu)
     2.77185741E-01    2     1000035        14   # BR(~nu_muL -> ~chi_40 nu_mu)
     3.08077290E-03    2     1000024        13   # BR(~nu_muL -> ~chi_1+ mu-)
     5.52908422E-01    2     1000037        13   # BR(~nu_muL -> ~chi_2+ mu-)
#
#         PDG            Width
DECAY   1000016     3.46560721E+01   # snu_tauL decays
#          BR         NDA      ID1       ID2
     9.06911417E-02    2     1000022        16   # BR(~nu_tauL -> ~chi_10 nu_tau)
     5.14375814E-03    2     1000023        16   # BR(~nu_tauL -> ~chi_20 nu_tau)
     5.49634641E-02    2     1000025        16   # BR(~nu_tauL -> ~chi_30 nu_tau)
     2.50686749E-01    2     1000035        16   # BR(~nu_tauL -> ~chi_40 nu_tau)
     9.84650021E-02    2     1000024        15   # BR(~nu_tauL -> ~chi_1+ tau-)
     5.00049885E-01    2     1000037        15   # BR(~nu_tauL -> ~chi_2+ tau-)
#
#         PDG            Width
DECAY   1000024     3.48701081E-05   # chargino1+ decays
#           BR         NDA      ID1       ID2       ID3
     3.33718709E-01    3     1000022         2        -1   # BR(~chi_1+ -> ~chi_10 u    db)
     3.33718709E-01    3     1000022         4        -3   # BR(~chi_1+ -> ~chi_10 c    sb)
     1.11240342E-01    3     1000022       -11        12   # BR(~chi_1+ -> ~chi_10 e+   nu_e)
     1.11240342E-01    3     1000022       -13        14   # BR(~chi_1+ -> ~chi_10 mu+  nu_mu)
     1.10081897E-01    3     1000022       -15        16   # BR(~chi_1+ -> ~chi_10 tau+ nu_tau)
#
#         PDG            Width
DECAY   1000037     1.69110494E+01   # chargino2+ decays
#          BR         NDA      ID1       ID2
     3.04148678E-02    2     1000006        -5   # BR(~chi_2+ -> ~t_1     bb)
     2.47296453E-01    2     1000024        23   # BR(~chi_2+ -> ~chi_1+  Z )
     6.22729468E-02    2     1000022        24   # BR(~chi_2+ -> ~chi_10  W+)
     2.44304078E-01    2     1000023        24   # BR(~chi_2+ -> ~chi_20  W+)
     1.74887594E-01    2     1000025        24   # BR(~chi_2+ -> ~chi_30  W+)
     2.40824059E-01    2     1000024        25   # BR(~chi_2+ -> ~chi_1+  h )
#
#         PDG            Width
DECAY   1000022     0.00000000E+00   # neutralino1 decays
#
#         PDG            Width
DECAY   1000023     4.75390894E-05   # neutralino2 decays
#          BR         NDA      ID1       ID2
     1.30442209E-03    2     1000022        22   # BR(~chi_20 -> ~chi_10 gam)
#           BR         NDA      ID1       ID2       ID3
     1.18461834E-01    3     1000022        -2         2   # BR(~chi_20 -> ~chi_10 ub      u)
     1.53661560E-01    3     1000022        -1         1   # BR(~chi_20 -> ~chi_10 db      d)
     1.18461834E-01    3     1000022        -4         4   # BR(~chi_20 -> ~chi_10 cb      c)
     1.53661560E-01    3     1000022        -3         3   # BR(~chi_20 -> ~chi_10 sb      s)
     1.37605298E-01    3     1000022        -5         5   # BR(~chi_20 -> ~chi_10 bb      b)
     3.52339446E-02    3     1000022       -11        11   # BR(~chi_20 -> ~chi_10 e+      e-)
     3.52339446E-02    3     1000022       -13        13   # BR(~chi_20 -> ~chi_10 mu+     mu-)
     3.48046970E-02    3     1000022       -15        15   # BR(~chi_20 -> ~chi_10 tau+    tau-)
     7.04502332E-02    3     1000022       -12        12   # BR(~chi_20 -> ~chi_10 nu_eb   nu_e)
     7.04502332E-02    3     1000022       -14        14   # BR(~chi_20 -> ~chi_10 nu_mub  nu_mu)
     7.04502305E-02    3     1000022       -16        16   # BR(~chi_20 -> ~chi_10 nu_taub nu_tau)
     3.83833671E-05    3     1000024        -2         1   # BR(~chi_20 -> ~chi_1+ ub      d)
     3.83833671E-05    3    -1000024        -1         2   # BR(~chi_20 -> ~chi_1- db      u)
     3.83833671E-05    3     1000024        -4         3   # BR(~chi_20 -> ~chi_1+ cb      s)
     3.83833671E-05    3    -1000024        -3         4   # BR(~chi_20 -> ~chi_1- sb      c)
     1.27944876E-05    3     1000024       -12        11   # BR(~chi_20 -> ~chi_1+ nu_eb   e-)
     1.27944876E-05    3    -1000024        12       -11   # BR(~chi_20 -> ~chi_1- nu_e    e+)
     1.27944876E-05    3     1000024       -14        13   # BR(~chi_20 -> ~chi_1+ nu_mub  mu-)
     1.27944876E-05    3    -1000024        14       -13   # BR(~chi_20 -> ~chi_1- nu_mu   mu+)
     7.74933015E-06    3     1000024       -16        15   # BR(~chi_20 -> ~chi_1+ nu_taub tau-)
     7.74933015E-06    3    -1000024        16       -15   # BR(~chi_20 -> ~chi_1- nu_tau  tau+)
#
#         PDG            Width
DECAY   1000025     1.38996569E-05   # neutralino3 decays
#          BR         NDA      ID1       ID2
     1.78552263E-02    2     1000022        22   # BR(~chi_30 -> ~chi_10 gam)
     6.97616545E-02    2     1000023        22   # BR(~chi_30 -> ~chi_20 gam)
#           BR         NDA      ID1       ID2       ID3
     3.59523160E-02    3     1000022        -2         2   # BR(~chi_30 -> ~chi_10 ub      u)
     4.65001936E-02    3     1000022        -1         1   # BR(~chi_30 -> ~chi_10 db      d)
     3.59523160E-02    3     1000022        -4         4   # BR(~chi_30 -> ~chi_10 cb      c)
     4.65001936E-02    3     1000022        -3         3   # BR(~chi_30 -> ~chi_10 sb      s)
     4.38421525E-02    3     1000022        -5         5   # BR(~chi_30 -> ~chi_10 bb      b)
     1.05558845E-02    3     1000022       -11        11   # BR(~chi_30 -> ~chi_10 e+      e-)
     1.05558845E-02    3     1000022       -13        13   # BR(~chi_30 -> ~chi_10 mu+     mu-)
     1.04633980E-02    3     1000022       -15        15   # BR(~chi_30 -> ~chi_10 tau+    tau-)
     2.13716249E-02    3     1000022       -12        12   # BR(~chi_30 -> ~chi_10 nu_eb   nu_e)
     2.13716249E-02    3     1000022       -14        14   # BR(~chi_30 -> ~chi_10 nu_mub  nu_mu)
     2.13715932E-02    3     1000022       -16        16   # BR(~chi_30 -> ~chi_10 nu_taub nu_tau)
     6.95811127E-03    3     1000023        -2         2   # BR(~chi_30 -> ~chi_20 ub      u)
     9.02647419E-03    3     1000023        -1         1   # BR(~chi_30 -> ~chi_20 db      d)
     6.95811127E-03    3     1000023        -4         4   # BR(~chi_30 -> ~chi_20 cb      c)
     9.02647419E-03    3     1000023        -3         3   # BR(~chi_30 -> ~chi_20 sb      s)
     4.39016632E-03    3     1000023        -5         5   # BR(~chi_30 -> ~chi_20 bb      b)
     2.07032184E-03    3     1000023       -11        11   # BR(~chi_30 -> ~chi_20 e+      e-)
     2.07032184E-03    3     1000023       -13        13   # BR(~chi_30 -> ~chi_20 mu+     mu-)
     1.95261225E-03    3     1000023       -15        15   # BR(~chi_30 -> ~chi_20 tau+    tau-)
     4.13795751E-03    3     1000023       -12        12   # BR(~chi_30 -> ~chi_20 nu_eb   nu_e)
     4.13795751E-03    3     1000023       -14        14   # BR(~chi_30 -> ~chi_20 nu_mub  nu_mu)
     4.13795762E-03    3     1000023       -16        16   # BR(~chi_30 -> ~chi_20 nu_taub nu_tau)
     9.24777070E-02    3     1000024        -2         1   # BR(~chi_30 -> ~chi_1+ ub      d)
     9.24777070E-02    3    -1000024        -1         2   # BR(~chi_30 -> ~chi_1- db      u)
     9.24777070E-02    3     1000024        -4         3   # BR(~chi_30 -> ~chi_1+ cb      s)
     9.24777070E-02    3    -1000024        -3         4   # BR(~chi_30 -> ~chi_1- sb      c)
     3.08253698E-02    3     1000024       -12        11   # BR(~chi_30 -> ~chi_1+ nu_eb   e-)
     3.08253698E-02    3    -1000024        12       -11   # BR(~chi_30 -> ~chi_1- nu_e    e+)
     3.08253698E-02    3     1000024       -14        13   # BR(~chi_30 -> ~chi_1+ nu_mub  mu-)
     3.08253698E-02    3    -1000024        14       -13   # BR(~chi_30 -> ~chi_1- nu_mu   mu+)
     2.99335821E-02    3     1000024       -16        15   # BR(~chi_30 -> ~chi_1+ nu_taub tau-)
     2.99335821E-02    3    -1000024        16       -15   # BR(~chi_30 -> ~chi_1- nu_tau  tau+)
#
#         PDG            Width
DECAY   1000035     1.68991726E+01   # neutralino4 decays
#          BR         NDA      ID1       ID2
     3.39620569E-02    2     1000022        23   # BR(~chi_40 -> ~chi_10   Z )
     1.29625262E-01    2     1000023        23   # BR(~chi_40 -> ~chi_20   Z )
     8.37533393E-02    2     1000025        23   # BR(~chi_40 -> ~chi_30   Z )
     2.41159914E-01    2     1000024       -24   # BR(~chi_40 -> ~chi_1+   W-)
     2.41159914E-01    2    -1000024        24   # BR(~chi_40 -> ~chi_1-   W+)
     2.91615344E-02    2     1000022        25   # BR(~chi_40 -> ~chi_10   h )
     1.17815808E-01    2     1000023        25   # BR(~chi_40 -> ~chi_20   h )
     9.33304739E-02    2     1000025        25   # BR(~chi_40 -> ~chi_30   h )
     1.50158489E-02    2     1000006        -6   # BR(~chi_40 -> ~t_1      tb)
     1.50158489E-02    2    -1000006         6   # BR(~chi_40 -> ~t_1*     t )
#
#         PDG            Width
DECAY        25     4.05291734E-03   # h decays
#          BR         NDA      ID1       ID2
     5.97771555E-01    2           5        -5   # BR(h -> b       bb     )
     6.42598071E-02    2         -15        15   # BR(h -> tau+    tau-   )
     2.27479606E-04    2         -13        13   # BR(h -> mu+     mu-    )
     4.82478141E-04    2           3        -3   # BR(h -> s       sb     )
     2.09502961E-02    2           4        -4   # BR(h -> c       cb     )
     6.84188483E-02    2          21        21   # BR(h -> g       g      )
     2.35553248E-03    2          22        22   # BR(h -> gam     gam    )
     1.60726147E-03    2          22        23   # BR(h -> Z       gam    )
     2.16578261E-01    2          24       -24   # BR(h -> W+      W-     )
     2.73484807E-02    2          23        23   # BR(h -> Z       Z      )
#
#         PDG            Width
DECAY        35     5.39538373E+01   # H decays
#          BR         NDA      ID1       ID2
     3.37385129E-01    2           5        -5   # BR(H -> b       bb     )
     6.14524165E-02    2         -15        15   # BR(H -> tau+    tau-   )
     2.17280860E-04    2         -13        13   # BR(H -> mu+     mu-    )
     2.57005840E-04    2           3        -3   # BR(H -> s       sb     )
     7.21003482E-08    2           4        -4   # BR(H -> c       cb     )
     7.22595592E-03    2           6        -6   # BR(H -> t       tb     )
     1.09131560E-06    2          21        21   # BR(H -> g       g      )
     3.15353534E-10    2          22        22   # BR(H -> gam     gam    )
     1.85379580E-09    2          23        22   # BR(H -> Z       gam    )
     2.10460107E-06    2          24       -24   # BR(H -> W+      W-     )
     1.05157150E-06    2          23        23   # BR(H -> Z       Z      )
     7.52813571E-06    2          25        25   # BR(H -> h       h      )
    -4.41830351E-24    2          36        36   # BR(H -> A       A      )
     8.23126682E-20    2          23        36   # BR(H -> Z       A      )
     1.87021519E-03    2     1000024  -1000024   # BR(H -> ~chi_1+ ~chi_1-)
     1.67109705E-01    2     1000024  -1000037   # BR(H -> ~chi_1+ ~chi_2-)
     1.67109705E-01    2     1000037  -1000024   # BR(H -> ~chi_2+ ~chi_1-)
     3.41065147E-02    2     1000022   1000022   # BR(H -> ~chi_10 ~chi_10)
     2.65165858E-03    2     1000023   1000023   # BR(H -> ~chi_20 ~chi_20)
     1.71097894E-02    2     1000025   1000025   # BR(H -> ~chi_30 ~chi_30)
     1.42552334E-02    2     1000022   1000023   # BR(H -> ~chi_10 ~chi_20)
     3.49086938E-04    2     1000022   1000025   # BR(H -> ~chi_10 ~chi_30)
     5.11949700E-02    2     1000022   1000035   # BR(H -> ~chi_10 ~chi_40)
     2.12633778E-02    2     1000023   1000025   # BR(H -> ~chi_20 ~chi_30)
     7.41481749E-02    2     1000023   1000035   # BR(H -> ~chi_20 ~chi_40)
     4.22481374E-02    2     1000025   1000035   # BR(H -> ~chi_30 ~chi_40)
     2.69978791E-05    2     1000006  -1000006   # BR(H -> ~t_1    ~t_1*  )
     3.39812827E-06    2     1000006  -2000006   # BR(H -> ~t_1    ~t_2*  )
     3.39812827E-06    2     2000006  -1000006   # BR(H -> ~t_2    ~t_1*  )
#
#         PDG            Width
DECAY        36     5.39518345E+01   # A decays
#          BR         NDA      ID1       ID2
     3.37423761E-01    2           5        -5   # BR(A -> b       bb     )
     6.14551274E-02    2         -15        15   # BR(A -> tau+    tau-   )
     2.17290275E-04    2         -13        13   # BR(A -> mu+     mu-    )
     2.57058855E-04    2           3        -3   # BR(A -> s       sb     )
     7.25538351E-08    2           4        -4   # BR(A -> c       cb     )
     7.23854704E-03    2           6        -6   # BR(A -> t       tb     )
     1.48733836E-05    2          21        21   # BR(A -> g       g      )
     4.07701350E-08    2          22        22   # BR(A -> gam     gam    )
     1.63503091E-08    2          23        22   # BR(A -> Z       gam    )
     2.10027397E-06    2          23        25   # BR(A -> Z       h      )
     1.87355735E-03    2     1000024  -1000024   # BR(A -> ~chi_1+ ~chi_1-)
     1.67117908E-01    2     1000024  -1000037   # BR(A -> ~chi_1+ ~chi_2-)
     1.67117908E-01    2     1000037  -1000024   # BR(A -> ~chi_2+ ~chi_1-)
     2.97585170E-02    2     1000022   1000022   # BR(A -> ~chi_10 ~chi_10)
     3.28383437E-03    2     1000023   1000023   # BR(A -> ~chi_20 ~chi_20)
     1.35041386E-02    2     1000025   1000025   # BR(A -> ~chi_30 ~chi_30)
     1.90290803E-02    2     1000022   1000023   # BR(A -> ~chi_10 ~chi_20)
     1.39086336E-04    2     1000022   1000025   # BR(A -> ~chi_10 ~chi_30)
     4.78220864E-02    2     1000022   1000035   # BR(A -> ~chi_10 ~chi_40)
     2.40229175E-02    2     1000023   1000025   # BR(A -> ~chi_20 ~chi_30)
     8.29634260E-02    2     1000023   1000035   # BR(A -> ~chi_20 ~chi_40)
     3.67523975E-02    2     1000025   1000035   # BR(A -> ~chi_30 ~chi_40)
     3.12717141E-06    2     1000006  -2000006   # BR(A -> ~t_1    ~t_2*  )
     3.12717141E-06    2    -1000006   2000006   # BR(A -> ~t_1*   ~t_2   )
#
#         PDG            Width
DECAY        37     5.37745697E+01   # H+ decays
#          BR         NDA      ID1       ID2
     5.36415531E-04    2           4        -5   # BR(H+ -> c       bb     )
     6.16740458E-02    2         -15        16   # BR(H+ -> tau+    nu_tau )
     2.18064316E-04    2         -13        14   # BR(H+ -> mu+     nu_mu  )
     3.43305642E-06    2           2        -5   # BR(H+ -> u       bb     )
     1.23537404E-05    2           2        -3   # BR(H+ -> u       sb     )
     2.54156167E-04    2           4        -3   # BR(H+ -> c       sb     )
     3.42162354E-01    2           6        -5   # BR(H+ -> t       bb     )
     2.10961070E-06    2          24        25   # BR(H+ -> W+      h      )
     3.27044627E-14    2          24        36   # BR(H+ -> W+      A      )
     4.73663753E-02    2     1000024   1000022   # BR(H+ -> ~chi_1+ ~chi_10)
     6.53319636E-04    2     1000024   1000023   # BR(H+ -> ~chi_1+ ~chi_20)
     4.26208880E-02    2     1000024   1000025   # BR(H+ -> ~chi_1+ ~chi_30)
     1.67888869E-01    2     1000024   1000035   # BR(H+ -> ~chi_1+ ~chi_40)
     9.94517481E-02    2     1000037   1000022   # BR(H+ -> ~chi_2+ ~chi_10)
     1.57802258E-01    2     1000037   1000023   # BR(H+ -> ~chi_2+ ~chi_20)
     7.93486462E-02    2     1000037   1000025   # BR(H+ -> ~chi_2+ ~chi_30)
     4.96410944E-06    2     1000006  -1000005   # BR(H+ -> ~t_1    ~b_1*  )
