#
#                              ======================
#                              | THE SUSYHIT OUTPUT |
#                              ======================
#
#
#              ------------------------------------------------------
#              |     This is the output of the SUSY-HIT package     |
#              |  created by A.Djouadi, M.Muehlleitner and M.Spira. |
#              |  In case of problems with SUSY-HIT email to        |
#              |           margarete.muehlleitner@kit.edu           |
#              |           michael.spira@psi.ch                     |
#              |           abdelhak.djouadi@cern.ch                 |
#              ------------------------------------------------------
#
#              ------------------------------------------------------
#              |  SUSY Les Houches Accord - MSSM Spectrum + Decays  |
#              |              based on the decay programs           |
#              |                                                    |
#              |                     SDECAY 1.5                     |
#              |                                                    |
#              |  Authors: M.Muhlleitner, A.Djouadi and Y.Mambrini  |
#              |  Ref.:    Comput.Phys.Commun.168(2005)46           |
#              |           [hep-ph/0311167]                         |
#              |                                                    |
#              |                     HDECAY 3.4                     |
#              |                                                    |
#              |  By: A.Djouadi,J.Kalinowski,M.Muhlleitner,M.Spira  |
#              |  Ref.:    Comput.Phys.Commun.108(1998)56           |
#              |           [hep-ph/9704448]                         |
#              |                                                    |
#              |                                                    |
#              |  If not stated otherwise all DRbar couplings and   |
#              |  soft SUSY breaking masses are given at the scale  |
#              |  Q=  0.13068822E+04
#              |                                                    |
#              ------------------------------------------------------
#
#
BLOCK DCINFO  # Decay Program information
     1   SDECAY/HDECAY # decay calculator
     2   1.5  /3.4    # version number
#
BLOCK SPINFO  # Spectrum calculator information
     1    SOFTSUSY    # spectrum calculator                
     2    3.7.3       # version number                     
#
BLOCK MODSEL  # Model selection
     1     0   #  nonUniversal                                     
#
BLOCK SMINPUTS  # Standard Model inputs
         1     1.27934000E+02   # alpha_em^-1(M_Z)^MSbar
         2     1.16639000E-05   # G_F [GeV^-2]
         3     1.17200000E-01   # alpha_S(M_Z)^MSbar
         4     9.11870000E+01   # M_Z pole mass
         5     4.19000000E+00   # mb(mb)^MSbar
         6     1.72500000E+02   # mt pole mass
         7     1.77690000E+00   # mtau pole mass
#
BLOCK MINPAR  # Input parameters - minimal models
         3     2.00000000E+01   # tanb                
#
BLOCK EXTPAR  # Input parameters - non-minimal models
         0    -1.00000000E+00   # Set                 
         1     2.59990000E+02   # M_1(MX)             
         2     2.00000000E+03   # M_2(MX)             
         3     1.80000000E+03   # M_3(MX)             
        11     2.64959179E+03   # At(MX)              
        12     0.00000000E+00   # Ab(MX)              
        13     0.00000000E+00   # Atau(MX)            
        23    -3.05900000E+02   # mu(MX)              
        25     2.00000000E+01   # tan                 
        26     4.00000000E+03   # mA(pole)            
        31     4.00000000E+03   # meL(MX)             
        32     4.00000000E+03   # mmuL(MX)            
        33     4.00000000E+03   # mtauL(MX)           
        34     4.00000000E+03   # meR(MX)             
        35     4.00000000E+03   # mmuR(MX)            
        36     4.00000000E+03   # mtauR(MX)           
        41     4.00000000E+03   # mqL1(MX)            
        42     4.00000000E+03   # mqL2(MX)            
        43     7.59900000E+02   # mqL3(MX)            
        44     4.00000000E+03   # muR(MX)             
        45     4.00000000E+03   # mcR(MX)             
        46     2.26485961E+03   # mtR(MX)             
        47     4.00000000E+03   # mdR(MX)             
        48     4.00000000E+03   # msR(MX)             
        49     4.00000000E+03   # mbR(MX)             
#
BLOCK MASS  # Mass Spectrum
# PDG code           mass       particle
        24     8.04159832E+01   # W+
        25     1.25486638E+02   # h
        35     4.00000830E+03   # H
        36     3.99999705E+03   # A
        37     4.00103503E+03   # H+
         5     4.81337004E+00   # b-quark pole mass calculated from mb(mb)_Msbar
   1000001     4.02604490E+03   # ~d_L
   2000001     4.02260650E+03   # ~d_R
   1000002     4.02538969E+03   # ~u_L
   2000002     4.02367794E+03   # ~u_R
   1000003     4.02604490E+03   # ~s_L
   2000003     4.02260650E+03   # ~s_R
   1000004     4.02538969E+03   # ~c_L
   2000004     4.02367794E+03   # ~c_R
   1000005     8.34781412E+02   # ~b_1
   2000005     4.02543397E+03   # ~b_2
   1000006     8.23697576E+02   # ~t_1
   2000006     2.27845983E+03   # ~t_2
   1000011     4.00475064E+03   # ~e_L
   2000011     4.00314731E+03   # ~e_R
   1000012     4.00363379E+03   # ~nu_eL
   1000013     4.00475064E+03   # ~mu_L
   2000013     4.00314731E+03   # ~mu_R
   1000014     4.00363379E+03   # ~nu_muL
   1000015     4.00473073E+03   # ~tau_1
   2000015     4.00743954E+03   # ~tau_2
   1000016     4.00505775E+03   # ~nu_tauL
   1000021     1.98157346E+03   # ~g
   1000022     2.51162638E+02   # ~chi_10
   1000023    -3.16740369E+02   # ~chi_20
   1000025     3.26309984E+02   # ~chi_30
   1000035     2.05238714E+03   # ~chi_40
   1000024     3.13986792E+02   # ~chi_1+
   1000037     2.05255190E+03   # ~chi_2+
#
BLOCK NMIX  # Neutralino Mixing Matrix
  1  1     8.88633414E-01   # N_11
  1  2    -1.17449811E-02   # N_12
  1  3    -3.59987853E-01   # N_13
  1  4    -2.83903957E-01   # N_14
  2  1    -5.75910664E-02   # N_21
  2  2     2.49585033E-02   # N_22
  2  3    -7.02252835E-01   # N_23
  2  4     7.09155342E-01   # N_24
  3  1     4.54986758E-01   # N_31
  3  2     2.82664659E-02   # N_32
  3  3     6.14193110E-01   # N_33
  3  4     6.44169916E-01   # N_34
  4  1    -9.87268511E-04   # N_41
  4  2     9.99219763E-01   # N_42
  4  3    -4.06511122E-03   # N_43
  4  4    -3.92729517E-02   # N_44
#
BLOCK UMIX  # Chargino Mixing Matrix U
  1  1     5.75436904E-03   # U_11
  1  2     9.99983443E-01   # U_12
  2  1    -9.99983443E-01   # U_21
  2  2     5.75436904E-03   # U_22
#
BLOCK VMIX  # Chargino Mixing Matrix V
  1  1     5.55522048E-02   # V_11
  1  2    -9.98455784E-01   # V_12
  2  1    -9.98455784E-01   # V_21
  2  2    -5.55522048E-02   # V_22
#
BLOCK STOPMIX  # Stop Mixing Matrix
  1  1     9.96272851E-01   # cos(theta_t)
  1  2    -8.62577901E-02   # sin(theta_t)
  2  1     8.62577901E-02   # -sin(theta_t)
  2  2     9.96272851E-01   # cos(theta_t)
#
BLOCK SBOTMIX  # Sbottom Mixing Matrix
  1  1     9.99999534E-01   # cos(theta_b)
  1  2    -9.65401358E-04   # sin(theta_b)
  2  1     9.65401358E-04   # -sin(theta_b)
  2  2     9.99999534E-01   # cos(theta_b)
#
BLOCK STAUMIX  # Stau Mixing Matrix
  1  1    -7.05651478E-01   # cos(theta_tau)
  1  2     7.08559095E-01   # sin(theta_tau)
  2  1    -7.08559095E-01   # -sin(theta_tau)
  2  2    -7.05651478E-01   # cos(theta_tau)
#
BLOCK ALPHA  # Higgs mixing
          -5.00278953E-02   # Mixing angle in the neutral Higgs boson sector
#
BLOCK HMIX Q=  1.30688216E+03  # DRbar Higgs Parameters
         1    -3.05900000E+02   # mu(Q)MSSM           
         2     2.00000000E+01   # tan                 
         3     2.43677630E+02   # higgs               
         4     1.61469364E+07   # mA^2(Q)MSSM         
#
BLOCK GAUGE Q=  1.30688216E+03  # The gauge couplings
     1     3.61958346E-01   # gprime(Q) DRbar
     2     6.36373320E-01   # g(Q) DRbar
     3     1.03009424E+00   # g3(Q) DRbar
#
BLOCK AU Q=  1.30688216E+03  # The trilinear couplings
  1  1     1.38139132E-06   # A_u(Q) DRbar
  2  2     1.38140451E-06   # A_c(Q) DRbar
  3  3     2.64959179E+03   # A_t(Q) DRbar
#
BLOCK AD Q=  1.30688216E+03  # The trilinear couplings
  1  1     5.07725741E-07   # A_d(Q) DRbar
  2  2     5.07773014E-07   # A_s(Q) DRbar
  3  3     9.08745400E-07   # A_b(Q) DRbar
#
BLOCK AE Q=  1.30688216E+03  # The trilinear couplings
  1  1     0.00000000E+00   # A_e(Q) DRbar
  2  2     1.10303391E-07   # A_mu(Q) DRbar
  3  3     1.11427610E-07   # A_tau(Q) DRbar
#
BLOCK Yu Q=  1.30688216E+03  # The Yukawa couplings
  1  1     0.00000000E+00   # y_u(Q) DRbar
  2  2     0.00000000E+00   # y_c(Q) DRbar
  3  3     8.66159297E-01   # y_t(Q) DRbar
#
BLOCK Yd Q=  1.30688216E+03  # The Yukawa couplings
  1  1     0.00000000E+00   # y_d(Q) DRbar
  2  2     0.00000000E+00   # y_s(Q) DRbar
  3  3     2.82728102E-01   # y_b(Q) DRbar
#
BLOCK Ye Q=  1.30688216E+03  # The Yukawa couplings
  1  1     0.00000000E+00   # y_e(Q) DRbar
  2  2     0.00000000E+00   # y_mu(Q) DRbar
  3  3     2.03501592E-01   # y_tau(Q) DRbar
#
BLOCK MSOFT Q=  1.30688216E+03  # The soft SUSY breaking masses at the scale Q
         1     2.59990000E+02   # M_1(Q)              
         2     2.00000000E+03   # M_2(Q)              
         3     1.80000000E+03   # M_3(Q)              
        21     1.57970857E+07   # M^2_Hd              
        22    -9.77745046E+04   # M^2_Hu              
        31     4.00000000E+03   # M_eL                
        32     4.00000000E+03   # M_muL               
        33     4.00000000E+03   # M_tauL              
        34     4.00000000E+03   # M_eR                
        35     4.00000000E+03   # M_muR               
        36     4.00000000E+03   # M_tauR              
        41     4.00000000E+03   # M_q1L               
        42     4.00000000E+03   # M_q2L               
        43     7.59899996E+02   # M_q3L               
        44     4.00000000E+03   # M_uR                
        45     4.00000000E+03   # M_cR                
        46     2.26485961E+03   # M_tR                
        47     4.00000000E+03   # M_dR                
        48     4.00000000E+03   # M_sR                
        49     4.00000000E+03   # M_bR                
#
#
#
#                             =================
#                             |The decay table|
#                             =================
#
# - The QCD corrections to the decays gluino -> squark  + quark
#                                     squark -> gaugino + quark_prime
#                                     squark -> squark_prime + Higgs
#                                     squark -> gluino  + quark
#   are included.
#
# - The multi-body decays for the inos, stops and sbottoms are included.
#
# - The loop induced decays for the gluino, neutralinos and stops
#   are included.
#
# - The SUSY decays of the top quark are included.
#
#
#         PDG            Width
DECAY         6     1.40503229E+00   # top decays
#          BR         NDA      ID1       ID2
     1.00000000E+00    2           5        24   # BR(t ->  b    W+)
#
#         PDG            Width
DECAY   1000021     5.73393773E+01   # gluino decays
#          BR         NDA      ID1       ID2
     2.44967505E-01    2     1000005        -5   # BR(~g -> ~b_1  bb)
     2.44967505E-01    2    -1000005         5   # BR(~g -> ~b_1* b )
     2.55032495E-01    2     1000006        -6   # BR(~g -> ~t_1  tb)
     2.55032495E-01    2    -1000006         6   # BR(~g -> ~t_1* t )
#
#         PDG            Width
DECAY   1000006     8.88835124E+00   # stop1 decays
#          BR         NDA      ID1       ID2
     8.49601764E-02    2     1000022         6   # BR(~t_1 -> ~chi_10 t )
     4.33742407E-01    2     1000023         6   # BR(~t_1 -> ~chi_20 t )
     3.75225579E-01    2     1000025         6   # BR(~t_1 -> ~chi_30 t )
     1.06071838E-01    2     1000024         5   # BR(~t_1 -> ~chi_1+ b )
#
#         PDG            Width
DECAY   2000006     1.35998666E+02   # stop2 decays
#          BR         NDA      ID1       ID2
     4.89028689E-02    2     1000022         6   # BR(~t_2 -> ~chi_10 t )
     1.17489129E-01    2     1000023         6   # BR(~t_2 -> ~chi_20 t )
     1.00774523E-01    2     1000025         6   # BR(~t_2 -> ~chi_30 t )
     7.78273299E-08    2     1000035         6   # BR(~t_2 -> ~chi_40 t )
     2.32420495E-01    2     1000024         5   # BR(~t_2 -> ~chi_1+ b )
    -7.45125489E-08    2     1000037         5   # BR(~t_2 -> ~chi_2+ b )
     7.16153899E-02    2     1000021         6   # BR(~t_2 -> ~g      t )
     1.36835734E-01    2     1000006        25   # BR(~t_2 -> ~t_1    h )
     9.36803122E-02    2     1000006        23   # BR(~t_2 -> ~t_1    Z )
     1.98281545E-01    2     1000005        24   # BR(~t_2 -> ~b_1    W+)
#
#         PDG            Width
DECAY   1000005     9.23001610E+00   # sbottom1 decays
#          BR         NDA      ID1       ID2
     2.52310575E-02    2     1000022         5   # BR(~b_1 -> ~chi_10 b )
     5.11249546E-02    2     1000023         5   # BR(~b_1 -> ~chi_20 b )
     3.88359798E-02    2     1000025         5   # BR(~b_1 -> ~chi_30 b )
     8.84808008E-01    2    -1000024         6   # BR(~b_1 -> ~chi_1- t )
#
#         PDG            Width
DECAY   2000005     1.66866249E+02   # sbottom2 decays
#          BR         NDA      ID1       ID2
     1.52355437E-02    2     1000022         5   # BR(~b_2 -> ~chi_10 b )
     1.78600555E-02    2     1000023         5   # BR(~b_2 -> ~chi_20 b )
     1.63790929E-02    2     1000025         5   # BR(~b_2 -> ~chi_30 b )
     6.03434255E-07    2     1000035         5   # BR(~b_2 -> ~chi_40 b )
     3.60235432E-02    2    -1000024         6   # BR(~b_2 -> ~chi_1- t )
     1.19094462E-06    2    -1000037         6   # BR(~b_2 -> ~chi_2- t )
     9.14046123E-01    2     1000021         5   # BR(~b_2 -> ~g      b )
     1.00031861E-04    2     1000005        25   # BR(~b_2 -> ~b_1    h )
     1.31657371E-04    2     1000005        23   # BR(~b_2 -> ~b_1    Z )
     2.21782654E-04    2     1000006       -24   # BR(~b_2 -> ~t_1    W-)
     3.75410641E-07    2     2000006       -24   # BR(~b_2 -> ~t_2    W-)
#
#         PDG            Width
DECAY   1000002     1.78952781E+02   # sup_L decays
#          BR         NDA      ID1       ID2
     2.12864096E-03    2     1000022         2   # BR(~u_L -> ~chi_10 u)
     1.70049737E-05    2     1000023         2   # BR(~u_L -> ~chi_20 u)
     1.13079892E-03    2     1000025         2   # BR(~u_L -> ~chi_30 u)
     4.79917848E-02    2     1000035         2   # BR(~u_L -> ~chi_40 u)
     5.32587292E-04    2     1000024         1   # BR(~u_L -> ~chi_1+ d)
     9.58620322E-02    2     1000037         1   # BR(~u_L -> ~chi_2+ d)
     8.52337151E-01    2     1000021         2   # BR(~u_L -> ~g      u)
#
#         PDG            Width
DECAY   2000002     1.61285052E+02   # sup_R decays
#          BR         NDA      ID1       ID2
     4.36455999E-02    2     1000022         2   # BR(~u_R -> ~chi_10 u)
     1.82516255E-04    2     1000023         2   # BR(~u_R -> ~chi_20 u)
     1.13833820E-02    2     1000025         2   # BR(~u_R -> ~chi_30 u)
     2.98778403E-08    2     1000035         2   # BR(~u_R -> ~chi_40 u)
     9.44788472E-01    2     1000021         2   # BR(~u_R -> ~g      u)
#
#         PDG            Width
DECAY   1000001     1.78973342E+02   # sdown_L decays
#          BR         NDA      ID1       ID2
     2.81464465E-03    2     1000022         1   # BR(~d_L -> ~chi_10 d)
     1.11054347E-04    2     1000023         1   # BR(~d_L -> ~chi_20 d)
     2.89986821E-04    2     1000025         1   # BR(~d_L -> ~chi_30 d)
     4.80410246E-02    2     1000035         1   # BR(~d_L -> ~chi_40 d)
     5.71488344E-06    2    -1000024         2   # BR(~d_L -> ~chi_1- u)
     9.61821625E-02    2    -1000037         2   # BR(~d_L -> ~chi_2- u)
     8.52555412E-01    2     1000021         1   # BR(~d_L -> ~g      d)
#
#         PDG            Width
DECAY   2000001     1.54513294E+02   # sdown_R decays
#          BR         NDA      ID1       ID2
     1.13864720E-02    2     1000022         1   # BR(~d_R -> ~chi_10 d)
     4.76155990E-05    2     1000023         1   # BR(~d_R -> ~chi_20 d)
     2.96974284E-03    2     1000025         1   # BR(~d_R -> ~chi_30 d)
     7.79182685E-09    2     1000035         1   # BR(~d_R -> ~chi_40 d)
     9.85596162E-01    2     1000021         1   # BR(~d_R -> ~g      d)
#
#         PDG            Width
DECAY   1000004     1.78952781E+02   # scharm_L decays
#          BR         NDA      ID1       ID2
     2.12864096E-03    2     1000022         4   # BR(~c_L -> ~chi_10 c)
     1.70049737E-05    2     1000023         4   # BR(~c_L -> ~chi_20 c)
     1.13079892E-03    2     1000025         4   # BR(~c_L -> ~chi_30 c)
     4.79917848E-02    2     1000035         4   # BR(~c_L -> ~chi_40 c)
     5.32587292E-04    2     1000024         3   # BR(~c_L -> ~chi_1+ s)
     9.58620322E-02    2     1000037         3   # BR(~c_L -> ~chi_2+ s)
     8.52337151E-01    2     1000021         4   # BR(~c_L -> ~g      c)
#
#         PDG            Width
DECAY   2000004     1.61285052E+02   # scharm_R decays
#          BR         NDA      ID1       ID2
     4.36455999E-02    2     1000022         4   # BR(~c_R -> ~chi_10 c)
     1.82516255E-04    2     1000023         4   # BR(~c_R -> ~chi_20 c)
     1.13833820E-02    2     1000025         4   # BR(~c_R -> ~chi_30 c)
     2.98778403E-08    2     1000035         4   # BR(~c_R -> ~chi_40 c)
     9.44788472E-01    2     1000021         4   # BR(~c_R -> ~g      c)
#
#         PDG            Width
DECAY   1000003     1.78973342E+02   # sstrange_L decays
#          BR         NDA      ID1       ID2
     2.81464465E-03    2     1000022         3   # BR(~s_L -> ~chi_10 s)
     1.11054347E-04    2     1000023         3   # BR(~s_L -> ~chi_20 s)
     2.89986821E-04    2     1000025         3   # BR(~s_L -> ~chi_30 s)
     4.80410246E-02    2     1000035         3   # BR(~s_L -> ~chi_40 s)
     5.71488344E-06    2    -1000024         4   # BR(~s_L -> ~chi_1- c)
     9.61821625E-02    2    -1000037         4   # BR(~s_L -> ~chi_2- c)
     8.52555412E-01    2     1000021         3   # BR(~s_L -> ~g      s)
#
#         PDG            Width
DECAY   2000003     1.54513294E+02   # sstrange_R decays
#          BR         NDA      ID1       ID2
     1.13864720E-02    2     1000022         3   # BR(~s_R -> ~chi_10 s)
     4.76155990E-05    2     1000023         3   # BR(~s_R -> ~chi_20 s)
     2.96974284E-03    2     1000025         3   # BR(~s_R -> ~chi_30 s)
     7.79182685E-09    2     1000035         3   # BR(~s_R -> ~chi_40 s)
     9.85596162E-01    2     1000021         3   # BR(~s_R -> ~g      s)
#
#         PDG            Width
DECAY   1000011     3.15020903E+01   # selectron_L decays
#          BR         NDA      ID1       ID2
     1.23837966E-01    2     1000022        11   # BR(~e_L -> ~chi_10 e-)
     3.07547090E-05    2     1000023        11   # BR(~e_L -> ~chi_20 e-)
     4.16394685E-02    2     1000025        11   # BR(~e_L -> ~chi_30 e-)
     2.77682362E-01    2     1000035        11   # BR(~e_L -> ~chi_40 e-)
     3.34988425E-05    2    -1000024        12   # BR(~e_L -> ~chi_1- nu_e)
     5.56775951E-01    2    -1000037        12   # BR(~e_L -> ~chi_2- nu_e)
#
#         PDG            Width
DECAY   2000011     2.06803373E+01   # selectron_R decays
#          BR         NDA      ID1       ID2
     7.90570567E-01    2     1000022        11   # BR(~e_R -> ~chi_10 e-)
     3.30503983E-03    2     1000023        11   # BR(~e_R -> ~chi_20 e-)
     2.06123858E-01    2     1000025        11   # BR(~e_R -> ~chi_30 e-)
     5.34439176E-07    2     1000035        11   # BR(~e_R -> ~chi_40 e-)
#
#         PDG            Width
DECAY   1000013     3.15020903E+01   # smuon_L decays
#          BR         NDA      ID1       ID2
     1.23837966E-01    2     1000022        13   # BR(~mu_L -> ~chi_10 mu-)
     3.07547090E-05    2     1000023        13   # BR(~mu_L -> ~chi_20 mu-)
     4.16394685E-02    2     1000025        13   # BR(~mu_L -> ~chi_30 mu-)
     2.77682362E-01    2     1000035        13   # BR(~mu_L -> ~chi_40 mu-)
     3.34988425E-05    2    -1000024        14   # BR(~mu_L -> ~chi_1- nu_mu)
     5.56775951E-01    2    -1000037        14   # BR(~mu_L -> ~chi_2- nu_mu)
#
#         PDG            Width
DECAY   2000013     2.06803373E+01   # smuon_R decays
#          BR         NDA      ID1       ID2
     7.90570567E-01    2     1000022        13   # BR(~mu_R -> ~chi_10 mu-)
     3.30503983E-03    2     1000023        13   # BR(~mu_R -> ~chi_20 mu-)
     2.06123858E-01    2     1000025        13   # BR(~mu_R -> ~chi_30 mu-)
     5.34439176E-07    2     1000035        13   # BR(~mu_R -> ~chi_40 mu-)
#
#         PDG            Width
DECAY   1000015     3.10144116E+01   # stau_1 decays
#          BR         NDA      ID1       ID2
     3.84518140E-01    2     1000022        15   # BR(~tau_1 -> ~chi_10  tau-)
     4.35139348E-02    2     1000023        15   # BR(~tau_1 -> ~chi_20  tau-)
     9.68224161E-02    2     1000025        15   # BR(~tau_1 -> ~chi_30  tau-)
     1.39923891E-01    2     1000035        15   # BR(~tau_1 -> ~chi_40  tau-)
     5.46620159E-02    2    -1000024        16   # BR(~tau_1 -> ~chi_1-  nu_tau)
     2.80559602E-01    2    -1000037        16   # BR(~tau_1 -> ~chi_2-  nu_tau)
#
#         PDG            Width
DECAY   2000015     3.09874662E+01   # stau_2 decays
#          BR         NDA      ID1       ID2
     2.96450700E-01    2     1000022        15   # BR(~tau_2 -> ~chi_10  tau-)
     6.24403807E-02    2     1000023        15   # BR(~tau_2 -> ~chi_20  tau-)
     1.62419940E-01    2     1000025        15   # BR(~tau_2 -> ~chi_30  tau-)
     1.42479720E-01    2     1000035        15   # BR(~tau_2 -> ~chi_40  tau-)
     5.05273045E-02    2    -1000024        16   # BR(~tau_2 -> ~chi_1-  nu_tau)
     2.85681956E-01    2    -1000037        16   # BR(~tau_2 -> ~chi_2-  nu_tau)
#
#         PDG            Width
DECAY   1000012     3.15126425E+01   # snu_eL decays
#          BR         NDA      ID1       ID2
     1.35818729E-01    2     1000022        12   # BR(~nu_eL -> ~chi_10 nu_e)
     1.68353592E-03    2     1000023        12   # BR(~nu_eL -> ~chi_20 nu_e)
     2.68367731E-02    2     1000025        12   # BR(~nu_eL -> ~chi_30 nu_e)
     2.78025937E-01    2     1000035        12   # BR(~nu_eL -> ~chi_40 nu_e)
     3.12009198E-03    2     1000024        11   # BR(~nu_eL -> ~chi_1+ e-)
     5.54514933E-01    2     1000037        11   # BR(~nu_eL -> ~chi_2+ e-)
#
#         PDG            Width
DECAY   1000014     3.15126425E+01   # snu_muL decays
#          BR         NDA      ID1       ID2
     1.35818729E-01    2     1000022        14   # BR(~nu_muL -> ~chi_10 nu_mu)
     1.68353592E-03    2     1000023        14   # BR(~nu_muL -> ~chi_20 nu_mu)
     2.68367731E-02    2     1000025        14   # BR(~nu_muL -> ~chi_30 nu_mu)
     2.78025937E-01    2     1000035        14   # BR(~nu_muL -> ~chi_40 nu_mu)
     3.12009198E-03    2     1000024        13   # BR(~nu_muL -> ~chi_1+ mu-)
     5.54514933E-01    2     1000037        13   # BR(~nu_muL -> ~chi_2+ mu-)
#
#         PDG            Width
DECAY   1000016     3.47964314E+01   # snu_tauL decays
#          BR         NDA      ID1       ID2
     1.23045760E-01    2     1000022        16   # BR(~nu_tauL -> ~chi_10 nu_tau)
     1.52521416E-03    2     1000023        16   # BR(~nu_tauL -> ~chi_20 nu_tau)
     2.43130239E-02    2     1000025        16   # BR(~nu_tauL -> ~chi_30 nu_tau)
     2.52005470E-01    2     1000035        16   # BR(~nu_tauL -> ~chi_40 nu_tau)
     9.64924359E-02    2     1000024        15   # BR(~nu_tauL -> ~chi_1+ tau-)
     5.02618096E-01    2     1000037        15   # BR(~nu_tauL -> ~chi_2+ tau-)
#
#         PDG            Width
DECAY   1000024     3.02093345E-04   # chargino1+ decays
#           BR         NDA      ID1       ID2       ID3
     3.33467924E-01    3     1000022         2        -1   # BR(~chi_1+ -> ~chi_10 u    db)
     3.33467924E-01    3     1000022         4        -3   # BR(~chi_1+ -> ~chi_10 c    sb)
     1.11157158E-01    3     1000022       -11        12   # BR(~chi_1+ -> ~chi_10 e+   nu_e)
     1.11157158E-01    3     1000022       -13        14   # BR(~chi_1+ -> ~chi_10 mu+  nu_mu)
     1.10749834E-01    3     1000022       -15        16   # BR(~chi_1+ -> ~chi_10 tau+ nu_tau)
#
#         PDG            Width
DECAY   1000037     5.62271706E+01   # chargino2+ decays
#          BR         NDA      ID1       ID2
     3.65911916E-01    2     1000006        -5   # BR(~chi_2+ -> ~t_1     bb)
     3.53161764E-01    2    -1000005         6   # BR(~chi_2+ -> ~b_1*    t )
     7.13751018E-02    2     1000024        23   # BR(~chi_2+ -> ~chi_1+  Z )
     9.70515640E-03    2     1000022        24   # BR(~chi_2+ -> ~chi_10  W+)
     6.96986221E-02    2     1000023        24   # BR(~chi_2+ -> ~chi_20  W+)
     5.96391994E-02    2     1000025        24   # BR(~chi_2+ -> ~chi_30  W+)
     7.05082406E-02    2     1000024        25   # BR(~chi_2+ -> ~chi_1+  h )
#
#         PDG            Width
DECAY   1000022     0.00000000E+00   # neutralino1 decays
#
#         PDG            Width
DECAY   1000023     2.64934647E-04   # neutralino2 decays
#          BR         NDA      ID1       ID2
     4.61868179E-04    2     1000022        22   # BR(~chi_20 -> ~chi_10 gam)
#           BR         NDA      ID1       ID2       ID3
     1.17561081E-01    3     1000022        -2         2   # BR(~chi_20 -> ~chi_10 ub      u)
     1.52488968E-01    3     1000022        -1         1   # BR(~chi_20 -> ~chi_10 db      d)
     1.17561081E-01    3     1000022        -4         4   # BR(~chi_20 -> ~chi_10 cb      c)
     1.52488968E-01    3     1000022        -3         3   # BR(~chi_20 -> ~chi_10 sb      s)
     1.45069072E-01    3     1000022        -5         5   # BR(~chi_20 -> ~chi_10 bb      b)
     3.49634405E-02    3     1000022       -11        11   # BR(~chi_20 -> ~chi_10 e+      e-)
     3.49634405E-02    3     1000022       -13        13   # BR(~chi_20 -> ~chi_10 mu+     mu-)
     3.47347524E-02    3     1000022       -15        15   # BR(~chi_20 -> ~chi_10 tau+    tau-)
     6.99020242E-02    3     1000022       -12        12   # BR(~chi_20 -> ~chi_10 nu_eb   nu_e)
     6.99020242E-02    3     1000022       -14        14   # BR(~chi_20 -> ~chi_10 nu_mub  nu_mu)
     6.99020221E-02    3     1000022       -16        16   # BR(~chi_20 -> ~chi_10 nu_taub nu_tau)
     2.32574814E-07    3     1000024        -2         1   # BR(~chi_20 -> ~chi_1+ ub      d)
     2.32574814E-07    3    -1000024        -1         2   # BR(~chi_20 -> ~chi_1- db      u)
     2.32574814E-07    3     1000024        -4         3   # BR(~chi_20 -> ~chi_1+ cb      s)
     2.32574814E-07    3    -1000024        -3         4   # BR(~chi_20 -> ~chi_1- sb      c)
     7.75250238E-08    3     1000024       -12        11   # BR(~chi_20 -> ~chi_1+ nu_eb   e-)
     7.75250238E-08    3    -1000024        12       -11   # BR(~chi_20 -> ~chi_1- nu_e    e+)
     7.75250238E-08    3     1000024       -14        13   # BR(~chi_20 -> ~chi_1+ nu_mub  mu-)
     7.75250238E-08    3    -1000024        14       -13   # BR(~chi_20 -> ~chi_1- nu_mu   mu+)
     8.55144699E-09    3     1000024       -16        15   # BR(~chi_20 -> ~chi_1+ nu_taub tau-)
     8.55144699E-09    3    -1000024        16       -15   # BR(~chi_20 -> ~chi_1- nu_tau  tau+)
#
#         PDG            Width
DECAY   1000025     2.09620464E-05   # neutralino3 decays
#          BR         NDA      ID1       ID2
     8.94958099E-03    2     1000022        22   # BR(~chi_30 -> ~chi_10 gam)
     1.15544058E-02    2     1000023        22   # BR(~chi_30 -> ~chi_20 gam)
#           BR         NDA      ID1       ID2       ID3
     1.11991958E-01    3     1000022        -2         2   # BR(~chi_30 -> ~chi_10 ub      u)
     1.44960206E-01    3     1000022        -1         1   # BR(~chi_30 -> ~chi_10 db      d)
     1.11991958E-01    3     1000022        -4         4   # BR(~chi_30 -> ~chi_10 cb      c)
     1.44960206E-01    3     1000022        -3         3   # BR(~chi_30 -> ~chi_10 sb      s)
     1.40351150E-01    3     1000022        -5         5   # BR(~chi_30 -> ~chi_10 bb      b)
     3.29919543E-02    3     1000022       -11        11   # BR(~chi_30 -> ~chi_10 e+      e-)
     3.29919543E-02    3     1000022       -13        13   # BR(~chi_30 -> ~chi_10 mu+     mu-)
     3.29011774E-02    3     1000022       -15        15   # BR(~chi_30 -> ~chi_10 tau+    tau-)
     6.65606100E-02    3     1000022       -12        12   # BR(~chi_30 -> ~chi_10 nu_eb   nu_e)
     6.65606100E-02    3     1000022       -14        14   # BR(~chi_30 -> ~chi_10 nu_mub  nu_mu)
     6.65605428E-02    3     1000022       -16        16   # BR(~chi_30 -> ~chi_10 nu_taub nu_tau)
     3.41303078E-04    3     1000023        -2         2   # BR(~chi_30 -> ~chi_20 ub      u)
     4.42724189E-04    3     1000023        -1         1   # BR(~chi_30 -> ~chi_20 db      d)
     3.41303078E-04    3     1000023        -4         4   # BR(~chi_30 -> ~chi_20 cb      c)
     4.42724189E-04    3     1000023        -3         3   # BR(~chi_30 -> ~chi_20 sb      s)
     1.01521527E-04    3     1000023       -11        11   # BR(~chi_30 -> ~chi_20 e+      e-)
     1.01521527E-04    3     1000023       -13        13   # BR(~chi_30 -> ~chi_20 mu+     mu-)
     8.19411857E-05    3     1000023       -15        15   # BR(~chi_30 -> ~chi_20 tau+    tau-)
     2.02933761E-04    3     1000023       -12        12   # BR(~chi_30 -> ~chi_20 nu_eb   nu_e)
     2.02933761E-04    3     1000023       -14        14   # BR(~chi_30 -> ~chi_20 nu_mub  nu_mu)
     2.02933763E-04    3     1000023       -16        16   # BR(~chi_30 -> ~chi_20 nu_taub nu_tau)
     4.07895447E-03    3     1000024        -2         1   # BR(~chi_30 -> ~chi_1+ ub      d)
     4.07895447E-03    3    -1000024        -1         2   # BR(~chi_30 -> ~chi_1- db      u)
     4.07895447E-03    3     1000024        -4         3   # BR(~chi_30 -> ~chi_1+ cb      s)
     4.07895447E-03    3    -1000024        -3         4   # BR(~chi_30 -> ~chi_1- sb      c)
     1.35964001E-03    3     1000024       -12        11   # BR(~chi_30 -> ~chi_1+ nu_eb   e-)
     1.35964001E-03    3    -1000024        12       -11   # BR(~chi_30 -> ~chi_1- nu_e    e+)
     1.35964001E-03    3     1000024       -14        13   # BR(~chi_30 -> ~chi_1+ nu_mub  mu-)
     1.35964001E-03    3    -1000024        14       -13   # BR(~chi_30 -> ~chi_1- nu_mu   mu+)
     1.22873424E-03    3     1000024       -16        15   # BR(~chi_30 -> ~chi_1+ nu_taub tau-)
     1.22873424E-03    3    -1000024        16       -15   # BR(~chi_30 -> ~chi_1- nu_tau  tau+)
#
#         PDG            Width
DECAY   1000035     5.62143998E+01   # neutralino4 decays
#          BR         NDA      ID1       ID2
     4.42782153E-03    2     1000022        23   # BR(~chi_40 -> ~chi_10   Z )
     4.31590048E-02    2     1000023        23   # BR(~chi_40 -> ~chi_20   Z )
     2.37857047E-02    2     1000025        23   # BR(~chi_40 -> ~chi_30   Z )
     6.95857368E-02    2     1000024       -24   # BR(~chi_40 -> ~chi_1+   W-)
     6.95857368E-02    2    -1000024        24   # BR(~chi_40 -> ~chi_1-   W+)
     5.45330693E-03    2     1000022        25   # BR(~chi_40 -> ~chi_10   h )
     2.79266801E-02    2     1000023        25   # BR(~chi_40 -> ~chi_20   h )
     3.69383804E-02    2     1000025        25   # BR(~chi_40 -> ~chi_30   h )
     1.79107530E-01    2     1000006        -6   # BR(~chi_40 -> ~t_1      tb)
     1.79107530E-01    2    -1000006         6   # BR(~chi_40 -> ~t_1*     t )
     1.80461284E-01    2     1000005        -5   # BR(~chi_40 -> ~b_1      bb)
     1.80461284E-01    2    -1000005         5   # BR(~chi_40 -> ~b_1*     b )
#
#         PDG            Width
DECAY        25     4.02325462E-03   # h decays
#          BR         NDA      ID1       ID2
     5.93913773E-01    2           5        -5   # BR(h -> b       bb     )
     6.47364188E-02    2         -15        15   # BR(h -> tau+    tau-   )
     2.29166696E-04    2         -13        13   # BR(h -> mu+     mu-    )
     4.86037797E-04    2           3        -3   # BR(h -> s       sb     )
     2.11082985E-02    2           4        -4   # BR(h -> c       cb     )
     6.90510546E-02    2          21        21   # BR(h -> g       g      )
     2.37818313E-03    2          22        22   # BR(h -> gam     gam    )
     1.62276931E-03    2          22        23   # BR(h -> Z       gam    )
     2.18835094E-01    2          24       -24   # BR(h -> W+      W-     )
     2.76392040E-02    2          23        23   # BR(h -> Z       Z      )
#
#         PDG            Width
DECAY        35     5.47720414E+01   # H decays
#          BR         NDA      ID1       ID2
     3.51564142E-01    2           5        -5   # BR(H -> b       bb     )
     6.05345505E-02    2         -15        15   # BR(H -> tau+    tau-   )
     2.14035509E-04    2         -13        13   # BR(H -> mu+     mu-    )
     2.53167092E-04    2           3        -3   # BR(H -> s       sb     )
     7.10117129E-08    2           4        -4   # BR(H -> c       cb     )
     7.11685213E-03    2           6        -6   # BR(H -> t       tb     )
     9.23374186E-07    2          21        21   # BR(H -> g       g      )
     3.05203717E-10    2          22        22   # BR(H -> gam     gam    )
     1.82838407E-09    2          23        22   # BR(H -> Z       gam    )
     1.84766761E-06    2          24       -24   # BR(H -> W+      W-     )
     9.23193696E-07    2          23        23   # BR(H -> Z       Z      )
     7.16164263E-06    2          25        25   # BR(H -> h       h      )
     3.94000912E-24    2          36        36   # BR(H -> A       A      )
     7.59146376E-20    2          23        36   # BR(H -> Z       A      )
     1.85723015E-03    2     1000024  -1000024   # BR(H -> ~chi_1+ ~chi_1-)
     1.62091178E-01    2     1000024  -1000037   # BR(H -> ~chi_1+ ~chi_2-)
     1.62091178E-01    2     1000037  -1000024   # BR(H -> ~chi_2+ ~chi_1-)
     2.00383033E-02    2     1000022   1000022   # BR(H -> ~chi_10 ~chi_10)
     8.22396069E-04    2     1000023   1000023   # BR(H -> ~chi_20 ~chi_20)
     1.14692468E-02    2     1000025   1000025   # BR(H -> ~chi_30 ~chi_30)
     2.82226720E-02    2     1000022   1000023   # BR(H -> ~chi_10 ~chi_20)
     1.64372205E-02    2     1000022   1000025   # BR(H -> ~chi_10 ~chi_30)
     2.07811776E-02    2     1000022   1000035   # BR(H -> ~chi_10 ~chi_40)
     9.81870431E-03    2     1000023   1000025   # BR(H -> ~chi_20 ~chi_30)
     8.10323394E-02    2     1000023   1000035   # BR(H -> ~chi_20 ~chi_40)
     6.07823421E-02    2     1000025   1000035   # BR(H -> ~chi_30 ~chi_40)
     2.33800266E-04    2     1000006  -1000006   # BR(H -> ~t_1    ~t_1*  )
     2.31419952E-03    2     1000006  -2000006   # BR(H -> ~t_1    ~t_2*  )
     2.31419952E-03    2     2000006  -1000006   # BR(H -> ~t_2    ~t_1*  )
     1.36061584E-07    2     1000005  -1000005   # BR(H -> ~b_1    ~b_1*  )
#
#         PDG            Width
DECAY        36     5.47662855E+01   # A decays
#          BR         NDA      ID1       ID2
     3.51626711E-01    2           5        -5   # BR(A -> b       bb     )
     6.05412112E-02    2         -15        15   # BR(A -> tau+    tau-   )
     2.14058891E-04    2         -13        13   # BR(A -> mu+     mu-    )
     2.53236058E-04    2           3        -3   # BR(A -> s       sb     )
     7.14748658E-08    2           4        -4   # BR(A -> c       cb     )
     7.13090049E-03    2           6        -6   # BR(A -> t       tb     )
     1.46521950E-05    2          21        21   # BR(A -> g       g      )
     5.69089511E-08    2          22        22   # BR(A -> gam     gam    )
     1.61032966E-08    2          23        22   # BR(A -> Z       gam    )
     1.84398255E-06    2          23        25   # BR(A -> Z       h      )
     1.86535459E-03    2     1000024  -1000024   # BR(A -> ~chi_1+ ~chi_1-)
     1.62107361E-01    2     1000024  -1000037   # BR(A -> ~chi_1+ ~chi_2-)
     1.62107361E-01    2     1000037  -1000024   # BR(A -> ~chi_2+ ~chi_1-)
     1.73871910E-02    2     1000022   1000022   # BR(A -> ~chi_10 ~chi_10)
     1.03278890E-03    2     1000023   1000023   # BR(A -> ~chi_20 ~chi_20)
     9.55118996E-03    2     1000025   1000025   # BR(A -> ~chi_30 ~chi_30)
     3.46375782E-02    2     1000022   1000023   # BR(A -> ~chi_10 ~chi_20)
     1.33569682E-02    2     1000022   1000025   # BR(A -> ~chi_10 ~chi_30)
     2.13785041E-02    2     1000022   1000035   # BR(A -> ~chi_10 ~chi_40)
     1.08503902E-02    2     1000023   1000025   # BR(A -> ~chi_20 ~chi_30)
     7.92919448E-02    2     1000023   1000035   # BR(A -> ~chi_20 ~chi_40)
     6.18800508E-02    2     1000025   1000035   # BR(A -> ~chi_30 ~chi_40)
     2.38527960E-03    2     1000006  -2000006   # BR(A -> ~t_1    ~t_2*  )
     2.38527960E-03    2    -1000006   2000006   # BR(A -> ~t_1*   ~t_2   )
#
#         PDG            Width
DECAY        37     5.48323836E+01   # H+ decays
#          BR         NDA      ID1       ID2
     5.63769084E-04    2           4        -5   # BR(H+ -> c       bb     )
     6.04839225E-02    2         -15        16   # BR(H+ -> tau+    nu_tau )
     2.13856332E-04    2         -13        14   # BR(H+ -> mu+     nu_mu  )
     3.60811905E-06    2           2        -5   # BR(H+ -> u       bb     )
     1.21153585E-05    2           2        -3   # BR(H+ -> u       sb     )
     2.49251885E-04    2           4        -3   # BR(H+ -> c       sb     )
     3.59108118E-01    2           6        -5   # BR(H+ -> t       bb     )
     1.84383894E-06    2          24        25   # BR(H+ -> W+      h      )
     2.89163115E-14    2          24        36   # BR(H+ -> W+      A      )
     6.59173735E-02    2     1000024   1000022   # BR(H+ -> ~chi_1+ ~chi_10)
     2.85875214E-06    2     1000024   1000023   # BR(H+ -> ~chi_1+ ~chi_20)
     2.13956466E-02    2     1000024   1000025   # BR(H+ -> ~chi_1+ ~chi_30)
     1.62124897E-01    2     1000024   1000035   # BR(H+ -> ~chi_1+ ~chi_40)
     4.21731223E-02    2     1000037   1000022   # BR(H+ -> ~chi_2+ ~chi_10)
     1.60219564E-01    2     1000037   1000023   # BR(H+ -> ~chi_2+ ~chi_20)
     1.22727346E-01    2     1000037   1000025   # BR(H+ -> ~chi_2+ ~chi_30)
     1.22671661E-04    2     1000006  -1000005   # BR(H+ -> ~t_1    ~b_1*  )
     4.68003473E-03    2     2000006  -1000005   # BR(H+ -> ~t_2    ~b_1*  )
