#
#                              ======================
#                              | THE SUSYHIT OUTPUT |
#                              ======================
#
#
#              ------------------------------------------------------
#              |     This is the output of the SUSY-HIT package     |
#              |  created by A.Djouadi, M.Muehlleitner and M.Spira. |
#              |  In case of problems with SUSY-HIT email to        |
#              |           margarete.muehlleitner@kit.edu           |
#              |           michael.spira@psi.ch                     |
#              |           abdelhak.djouadi@cern.ch                 |
#              ------------------------------------------------------
#
#              ------------------------------------------------------
#              |  SUSY Les Houches Accord - MSSM Spectrum + Decays  |
#              |              based on the decay programs           |
#              |                                                    |
#              |                     SDECAY 1.5                     |
#              |                                                    |
#              |  Authors: M.Muhlleitner, A.Djouadi and Y.Mambrini  |
#              |  Ref.:    Comput.Phys.Commun.168(2005)46           |
#              |           [hep-ph/0311167]                         |
#              |                                                    |
#              |                     HDECAY 3.4                     |
#              |                                                    |
#              |  By: A.Djouadi,J.Kalinowski,M.Muhlleitner,M.Spira  |
#              |  Ref.:    Comput.Phys.Commun.108(1998)56           |
#              |           [hep-ph/9704448]                         |
#              |                                                    |
#              |                                                    |
#              |  If not stated otherwise all DRbar couplings and   |
#              |  soft SUSY breaking masses are given at the scale  |
#              |  Q=  0.13059690E+04
#              |                                                    |
#              ------------------------------------------------------
#
#
BLOCK DCINFO  # Decay Program information
     1   SDECAY/HDECAY # decay calculator
     2   1.5  /3.4    # version number
#
BLOCK SPINFO  # Spectrum calculator information
     1    SOFTSUSY    # spectrum calculator                
     2    3.7.3       # version number                     
#
BLOCK MODSEL  # Model selection
     1     0   #  nonUniversal                                     
#
BLOCK SMINPUTS  # Standard Model inputs
         1     1.27934000E+02   # alpha_em^-1(M_Z)^MSbar
         2     1.16639000E-05   # G_F [GeV^-2]
         3     1.17200000E-01   # alpha_S(M_Z)^MSbar
         4     9.11870000E+01   # M_Z pole mass
         5     4.19000000E+00   # mb(mb)^MSbar
         6     1.72500000E+02   # mt pole mass
         7     1.77690000E+00   # mtau pole mass
#
BLOCK MINPAR  # Input parameters - minimal models
         3     2.00000000E+01   # tanb                
#
BLOCK EXTPAR  # Input parameters - non-minimal models
         0    -1.00000000E+00   # Set                 
         1     2.09990000E+02   # M_1(MX)             
         2     2.00000000E+03   # M_2(MX)             
         3     1.80000000E+03   # M_3(MX)             
        11     2.64959179E+03   # At(MX)              
        12     0.00000000E+00   # Ab(MX)              
        13     0.00000000E+00   # Atau(MX)            
        23    -2.59900000E+02   # mu(MX)              
        25     2.00000000E+01   # tan                 
        26     4.00000000E+03   # mA(pole)            
        31     4.00000000E+03   # meL(MX)             
        32     4.00000000E+03   # mmuL(MX)            
        33     4.00000000E+03   # mtauL(MX)           
        34     4.00000000E+03   # meR(MX)             
        35     4.00000000E+03   # mmuR(MX)            
        36     4.00000000E+03   # mtauR(MX)           
        41     4.00000000E+03   # mqL1(MX)            
        42     4.00000000E+03   # mqL2(MX)            
        43     8.59900000E+02   # mqL3(MX)            
        44     4.00000000E+03   # muR(MX)             
        45     4.00000000E+03   # mcR(MX)             
        46     2.00485961E+03   # mtR(MX)             
        47     4.00000000E+03   # mdR(MX)             
        48     4.00000000E+03   # msR(MX)             
        49     4.00000000E+03   # mbR(MX)             
#
BLOCK MASS  # Mass Spectrum
# PDG code           mass       particle
        24     8.04168887E+01   # W+
        25     1.25846960E+02   # h
        35     4.00000656E+03   # H
        36     3.99999677E+03   # A
        37     4.00105271E+03   # H+
         5     4.81337004E+00   # b-quark pole mass calculated from mb(mb)_Msbar
   1000001     4.02605402E+03   # ~d_L
   2000001     4.02265857E+03   # ~d_R
   1000002     4.02540157E+03   # ~u_L
   2000002     4.02351516E+03   # ~u_R
   1000003     4.02605402E+03   # ~s_L
   2000003     4.02265857E+03   # ~s_R
   1000004     4.02540157E+03   # ~c_L
   2000004     4.02351516E+03   # ~c_R
   1000005     9.22961597E+02   # ~b_1
   2000005     4.02546102E+03   # ~b_2
   1000006     9.05259106E+02   # ~t_1
   2000006     2.01886388E+03   # ~t_2
   1000011     4.00463839E+03   # ~e_L
   2000011     4.00338003E+03   # ~e_R
   1000012     4.00352420E+03   # ~nu_eL
   1000013     4.00463839E+03   # ~mu_L
   2000013     4.00338003E+03   # ~mu_R
   1000014     4.00352420E+03   # ~nu_muL
   1000015     4.00499693E+03   # ~tau_1
   2000015     4.00730228E+03   # ~tau_2
   1000016     4.00495193E+03   # ~nu_tauL
   1000021     1.97937863E+03   # ~g
   1000022     2.01446439E+02   # ~chi_10
   1000023    -2.70470853E+02   # ~chi_20
   1000025     2.79198079E+02   # ~chi_30
   1000035     2.05217882E+03   # ~chi_40
   1000024     2.67408169E+02   # ~chi_1+
   1000037     2.05234377E+03   # ~chi_2+
#
BLOCK NMIX  # Neutralino Mixing Matrix
  1  1     8.96941478E-01   # N_11
  1  2    -1.05319082E-02   # N_12
  1  3    -3.55345297E-01   # N_13
  1  4    -2.62896907E-01   # N_14
  2  1    -6.92425273E-02   # N_21
  2  2     2.54730470E-02   # N_22
  2  3    -7.00609108E-01   # N_23
  2  4     7.09720701E-01   # N_24
  3  1     4.36692734E-01   # N_31
  3  2     2.78567094E-02   # N_32
  3  3     6.18762289E-01   # N_33
  3  4     6.52423704E-01   # N_34
  4  1    -9.55232951E-04   # N_41
  4  2     9.99231808E-01   # N_42
  4  3    -3.13490478E-03   # N_43
  4  4    -3.90519318E-02   # N_44
#
BLOCK UMIX  # Chargino Mixing Matrix U
  1  1     4.43859203E-03   # U_11
  1  2     9.99990149E-01   # U_12
  2  1    -9.99990149E-01   # U_21
  2  2     4.43859203E-03   # U_22
#
BLOCK VMIX  # Chargino Mixing Matrix V
  1  1     5.52401794E-02   # V_11
  1  2    -9.98473096E-01   # V_12
  2  1    -9.98473096E-01   # V_21
  2  2    -5.52401794E-02   # V_22
#
BLOCK STOPMIX  # Stop Mixing Matrix
  1  1     9.92948612E-01   # cos(theta_t)
  1  2    -1.18545577E-01   # sin(theta_t)
  2  1     1.18545577E-01   # -sin(theta_t)
  2  2     9.92948612E-01   # cos(theta_t)
#
BLOCK SBOTMIX  # Sbottom Mixing Matrix
  1  1     9.99999657E-01   # cos(theta_b)
  1  2    -8.28251099E-04   # sin(theta_b)
  2  1     8.28251099E-04   # -sin(theta_b)
  2  2     9.99999657E-01   # cos(theta_b)
#
BLOCK STAUMIX  # Stau Mixing Matrix
  1  1    -7.05389309E-01   # cos(theta_tau)
  1  2     7.08820092E-01   # sin(theta_tau)
  2  1    -7.08820092E-01   # -sin(theta_tau)
  2  2    -7.05389309E-01   # cos(theta_tau)
#
BLOCK ALPHA  # Higgs mixing
          -5.00295930E-02   # Mixing angle in the neutral Higgs boson sector
#
BLOCK HMIX Q=  1.30596903E+03  # DRbar Higgs Parameters
         1    -2.59900000E+02   # mu(Q)MSSM           
         2     2.00000000E+01   # tan                 
         3     2.43590726E+02   # higgs               
         4     1.61001159E+07   # mA^2(Q)MSSM         
#
BLOCK GAUGE Q=  1.30596903E+03  # The gauge couplings
     1     3.62001953E-01   # gprime(Q) DRbar
     2     6.36485044E-01   # g(Q) DRbar
     3     1.03004389E+00   # g3(Q) DRbar
#
BLOCK AU Q=  1.30596903E+03  # The trilinear couplings
  1  1     1.38037405E-06   # A_u(Q) DRbar
  2  2     1.38038744E-06   # A_c(Q) DRbar
  3  3     2.64959179E+03   # A_t(Q) DRbar
#
BLOCK AD Q=  1.30596903E+03  # The trilinear couplings
  1  1     5.06269298E-07   # A_d(Q) DRbar
  2  2     5.06316718E-07   # A_s(Q) DRbar
  3  3     9.07094621E-07   # A_b(Q) DRbar
#
BLOCK AE Q=  1.30596903E+03  # The trilinear couplings
  1  1     0.00000000E+00   # A_e(Q) DRbar
  2  2     1.09963825E-07   # A_mu(Q) DRbar
  3  3     1.11091671E-07   # A_tau(Q) DRbar
#
BLOCK Yu Q=  1.30596903E+03  # The Yukawa couplings
  1  1     0.00000000E+00   # y_u(Q) DRbar
  2  2     0.00000000E+00   # y_c(Q) DRbar
  3  3     8.67654221E-01   # y_t(Q) DRbar
#
BLOCK Yd Q=  1.30596903E+03  # The Yukawa couplings
  1  1     0.00000000E+00   # y_d(Q) DRbar
  2  2     0.00000000E+00   # y_s(Q) DRbar
  3  3     2.82463773E-01   # y_b(Q) DRbar
#
BLOCK Ye Q=  1.30596903E+03  # The Yukawa couplings
  1  1     0.00000000E+00   # y_e(Q) DRbar
  2  2     0.00000000E+00   # y_mu(Q) DRbar
  3  3     2.03729867E-01   # y_tau(Q) DRbar
#
BLOCK MSOFT Q=  1.30596903E+03  # The soft SUSY breaking masses at the scale Q
         1     2.09990000E+02   # M_1(Q)              
         2     2.00000000E+03   # M_2(Q)              
         3     1.80000000E+03   # M_3(Q)              
        21     1.58229075E+07   # M^2_Hd              
        22    -3.96536795E+04   # M^2_Hu              
        31     4.00000000E+03   # M_eL                
        32     4.00000000E+03   # M_muL               
        33     4.00000000E+03   # M_tauL              
        34     4.00000000E+03   # M_eR                
        35     4.00000000E+03   # M_muR               
        36     4.00000000E+03   # M_tauR              
        41     4.00000000E+03   # M_q1L               
        42     4.00000000E+03   # M_q2L               
        43     8.59899997E+02   # M_q3L               
        44     4.00000000E+03   # M_uR                
        45     4.00000000E+03   # M_cR                
        46     2.00485961E+03   # M_tR                
        47     4.00000000E+03   # M_dR                
        48     4.00000000E+03   # M_sR                
        49     4.00000000E+03   # M_bR                
#
#
#
#                             =================
#                             |The decay table|
#                             =================
#
# - The QCD corrections to the decays gluino -> squark  + quark
#                                     squark -> gaugino + quark_prime
#                                     squark -> squark_prime + Higgs
#                                     squark -> gluino  + quark
#   are included.
#
# - The multi-body decays for the inos, stops and sbottoms are included.
#
# - The loop induced decays for the gluino, neutralinos and stops
#   are included.
#
# - The SUSY decays of the top quark are included.
#
#
#         PDG            Width
DECAY         6     1.40548603E+00   # top decays
#          BR         NDA      ID1       ID2
     1.00000000E+00    2           5        24   # BR(t ->  b    W+)
#
#         PDG            Width
DECAY   1000021     5.22564699E+01   # gluino decays
#          BR         NDA      ID1       ID2
     2.42163635E-01    2     1000005        -5   # BR(~g -> ~b_1  bb)
     2.42163635E-01    2    -1000005         5   # BR(~g -> ~b_1* b )
     2.57836365E-01    2     1000006        -6   # BR(~g -> ~t_1  tb)
     2.57836365E-01    2    -1000006         6   # BR(~g -> ~t_1* t )
#
#         PDG            Width
DECAY   1000006     1.15433997E+01   # stop1 decays
#          BR         NDA      ID1       ID2
     6.42153834E-02    2     1000022         6   # BR(~t_1 -> ~chi_10 t )
     4.34024658E-01    2     1000023         6   # BR(~t_1 -> ~chi_20 t )
     3.97043730E-01    2     1000025         6   # BR(~t_1 -> ~chi_30 t )
     1.04716229E-01    2     1000024         5   # BR(~t_1 -> ~chi_1+ b )
#
#         PDG            Width
DECAY   2000006     1.21597870E+02   # stop2 decays
#          BR         NDA      ID1       ID2
     4.74576366E-02    2     1000022         6   # BR(~t_2 -> ~chi_10 t )
     1.17191347E-01    2     1000023         6   # BR(~t_2 -> ~chi_20 t )
     1.00460562E-01    2     1000025         6   # BR(~t_2 -> ~chi_30 t )
     2.29934915E-01    2     1000024         5   # BR(~t_2 -> ~chi_1+ b )
     1.59569209E-01    2     1000006        25   # BR(~t_2 -> ~t_1    h )
     1.14960565E-01    2     1000006        23   # BR(~t_2 -> ~t_1    Z )
     2.30425764E-01    2     1000005        24   # BR(~t_2 -> ~b_1    W+)
#
#         PDG            Width
DECAY   1000005     1.19739632E+01   # sbottom1 decays
#          BR         NDA      ID1       ID2
     2.30719872E-02    2     1000022         5   # BR(~b_1 -> ~chi_10 b )
     4.91519209E-02    2     1000023         5   # BR(~b_1 -> ~chi_20 b )
     3.82809719E-02    2     1000025         5   # BR(~b_1 -> ~chi_30 b )
     8.89495120E-01    2    -1000024         6   # BR(~b_1 -> ~chi_1- t )
#
#         PDG            Width
DECAY   2000005     1.66493139E+02   # sbottom2 decays
#          BR         NDA      ID1       ID2
     1.53850666E-02    2     1000022         5   # BR(~b_2 -> ~chi_10 b )
     1.78625903E-02    2     1000023         5   # BR(~b_2 -> ~chi_20 b )
     1.64321349E-02    2     1000025         5   # BR(~b_2 -> ~chi_30 b )
     3.82112637E-07    2     1000035         5   # BR(~b_2 -> ~chi_40 b )
     3.61574491E-02    2    -1000024         6   # BR(~b_2 -> ~chi_1- t )
     7.50070611E-07    2    -1000037         6   # BR(~b_2 -> ~chi_2- t )
     9.13841163E-01    2     1000021         5   # BR(~b_2 -> ~g      b )
     7.13559211E-05    2     1000005        25   # BR(~b_2 -> ~b_1    h )
     9.26181728E-05    2     1000005        23   # BR(~b_2 -> ~b_1    Z )
     1.55567343E-04    2     1000006       -24   # BR(~b_2 -> ~t_1    W-)
     9.22862809E-07    2     2000006       -24   # BR(~b_2 -> ~t_2    W-)
#
#         PDG            Width
DECAY   1000002     1.78591467E+02   # sup_L decays
#          BR         NDA      ID1       ID2
     2.21583317E-03    2     1000022         2   # BR(~u_L -> ~chi_10 u)
     1.32232840E-05    2     1000023         2   # BR(~u_L -> ~chi_20 u)
     1.06153488E-03    2     1000025         2   # BR(~u_L -> ~chi_30 u)
     4.81152481E-02    2     1000035         2   # BR(~u_L -> ~chi_40 u)
     5.29573569E-04    2     1000024         1   # BR(~u_L -> ~chi_1+ d)
     9.61084804E-02    2     1000037         1   # BR(~u_L -> ~chi_2+ d)
     8.51956107E-01    2     1000021         2   # BR(~u_L -> ~g      u)
#
#         PDG            Width
DECAY   2000002     1.60921818E+02   # sup_R decays
#          BR         NDA      ID1       ID2
     4.46918459E-02    2     1000022         2   # BR(~u_R -> ~chi_10 u)
     2.65341973E-04    2     1000023         2   # BR(~u_R -> ~chi_20 u)
     1.05479346E-02    2     1000025         2   # BR(~u_R -> ~chi_30 u)
     2.80417838E-08    2     1000035         2   # BR(~u_R -> ~chi_40 u)
     9.44494850E-01    2     1000021         2   # BR(~u_R -> ~g      u)
#
#         PDG            Width
DECAY   1000001     1.78611483E+02   # sdown_L decays
#          BR         NDA      ID1       ID2
     2.83982853E-03    2     1000022         1   # BR(~d_L -> ~chi_10 d)
     1.29273145E-04    2     1000023         1   # BR(~d_L -> ~chi_20 d)
     2.61668906E-04    2     1000025         1   # BR(~d_L -> ~chi_30 d)
     4.81634946E-02    2     1000035         1   # BR(~d_L -> ~chi_40 d)
     3.41924971E-06    2    -1000024         2   # BR(~d_L -> ~chi_1- u)
     9.64274899E-02    2    -1000037         2   # BR(~d_L -> ~chi_2- u)
     8.52174826E-01    2     1000021         1   # BR(~d_L -> ~g      d)
#
#         PDG            Width
DECAY   2000001     1.54148650E+02   # sdown_R decays
#          BR         NDA      ID1       ID2
     1.16613385E-02    2     1000022         1   # BR(~d_R -> ~chi_10 d)
     6.92349477E-05    2     1000023         1   # BR(~d_R -> ~chi_20 d)
     2.75224277E-03    2     1000025         1   # BR(~d_R -> ~chi_30 d)
     7.31473302E-09    2     1000035         1   # BR(~d_R -> ~chi_40 d)
     9.85517176E-01    2     1000021         1   # BR(~d_R -> ~g      d)
#
#         PDG            Width
DECAY   1000004     1.78591467E+02   # scharm_L decays
#          BR         NDA      ID1       ID2
     2.21583317E-03    2     1000022         4   # BR(~c_L -> ~chi_10 c)
     1.32232840E-05    2     1000023         4   # BR(~c_L -> ~chi_20 c)
     1.06153488E-03    2     1000025         4   # BR(~c_L -> ~chi_30 c)
     4.81152481E-02    2     1000035         4   # BR(~c_L -> ~chi_40 c)
     5.29573569E-04    2     1000024         3   # BR(~c_L -> ~chi_1+ s)
     9.61084804E-02    2     1000037         3   # BR(~c_L -> ~chi_2+ s)
     8.51956107E-01    2     1000021         4   # BR(~c_L -> ~g      c)
#
#         PDG            Width
DECAY   2000004     1.60921818E+02   # scharm_R decays
#          BR         NDA      ID1       ID2
     4.46918459E-02    2     1000022         4   # BR(~c_R -> ~chi_10 c)
     2.65341973E-04    2     1000023         4   # BR(~c_R -> ~chi_20 c)
     1.05479346E-02    2     1000025         4   # BR(~c_R -> ~chi_30 c)
     2.80417838E-08    2     1000035         4   # BR(~c_R -> ~chi_40 c)
     9.44494850E-01    2     1000021         4   # BR(~c_R -> ~g      c)
#
#         PDG            Width
DECAY   1000003     1.78611483E+02   # sstrange_L decays
#          BR         NDA      ID1       ID2
     2.83982853E-03    2     1000022         3   # BR(~s_L -> ~chi_10 s)
     1.29273145E-04    2     1000023         3   # BR(~s_L -> ~chi_20 s)
     2.61668906E-04    2     1000025         3   # BR(~s_L -> ~chi_30 s)
     4.81634946E-02    2     1000035         3   # BR(~s_L -> ~chi_40 s)
     3.41924971E-06    2    -1000024         4   # BR(~s_L -> ~chi_1- c)
     9.64274899E-02    2    -1000037         4   # BR(~s_L -> ~chi_2- c)
     8.52174826E-01    2     1000021         3   # BR(~s_L -> ~g      s)
#
#         PDG            Width
DECAY   2000003     1.54148650E+02   # sstrange_R decays
#          BR         NDA      ID1       ID2
     1.16613385E-02    2     1000022         3   # BR(~s_R -> ~chi_10 s)
     6.92349477E-05    2     1000023         3   # BR(~s_R -> ~chi_20 s)
     2.75224277E-03    2     1000025         3   # BR(~s_R -> ~chi_30 s)
     7.31473302E-09    2     1000035         3   # BR(~s_R -> ~chi_40 s)
     9.85517176E-01    2     1000021         3   # BR(~s_R -> ~g      s)
#
#         PDG            Width
DECAY   1000011     3.15299715E+01   # selectron_L decays
#          BR         NDA      ID1       ID2
     1.27106952E-01    2     1000022        11   # BR(~e_L -> ~chi_10 e-)
     9.81119288E-05    2     1000023        11   # BR(~e_L -> ~chi_20 e-)
     3.86735959E-02    2     1000025        11   # BR(~e_L -> ~chi_30 e-)
     2.77572352E-01    2     1000035        11   # BR(~e_L -> ~chi_40 e-)
     1.99873478E-05    2    -1000024        12   # BR(~e_L -> ~chi_1- nu_e)
     5.56529002E-01    2    -1000037        12   # BR(~e_L -> ~chi_2- nu_e)
#
#         PDG            Width
DECAY   2000011     2.07496667E+01   # selectron_R decays
#          BR         NDA      ID1       ID2
     8.05237165E-01    2     1000022        11   # BR(~e_R -> ~chi_10 e-)
     4.77936046E-03    2     1000023        11   # BR(~e_R -> ~chi_20 e-)
     1.89982976E-01    2     1000025        11   # BR(~e_R -> ~chi_30 e-)
     4.98909242E-07    2     1000035        11   # BR(~e_R -> ~chi_40 e-)
#
#         PDG            Width
DECAY   1000013     3.15299715E+01   # smuon_L decays
#          BR         NDA      ID1       ID2
     1.27106952E-01    2     1000022        13   # BR(~mu_L -> ~chi_10 mu-)
     9.81119288E-05    2     1000023        13   # BR(~mu_L -> ~chi_20 mu-)
     3.86735959E-02    2     1000025        13   # BR(~mu_L -> ~chi_30 mu-)
     2.77572352E-01    2     1000035        13   # BR(~mu_L -> ~chi_40 mu-)
     1.99873478E-05    2    -1000024        14   # BR(~mu_L -> ~chi_1- nu_mu)
     5.56529002E-01    2    -1000037        14   # BR(~mu_L -> ~chi_2- nu_mu)
#
#         PDG            Width
DECAY   2000013     2.07496667E+01   # smuon_R decays
#          BR         NDA      ID1       ID2
     8.05237165E-01    2     1000022        13   # BR(~mu_R -> ~chi_10 mu-)
     4.77936046E-03    2     1000023        13   # BR(~mu_R -> ~chi_20 mu-)
     1.89982976E-01    2     1000025        13   # BR(~mu_R -> ~chi_30 mu-)
     4.98909242E-07    2     1000035        13   # BR(~mu_R -> ~chi_40 mu-)
#
#         PDG            Width
DECAY   1000015     3.10819626E+01   # stau_1 decays
#          BR         NDA      ID1       ID2
     3.90981335E-01    2     1000022        15   # BR(~tau_1 -> ~chi_10  tau-)
     4.28185979E-02    2     1000023        15   # BR(~tau_1 -> ~chi_20  tau-)
     9.18482340E-02    2     1000025        15   # BR(~tau_1 -> ~chi_30  tau-)
     1.39733910E-01    2     1000035        15   # BR(~tau_1 -> ~chi_40  tau-)
     5.44528230E-02    2    -1000024        16   # BR(~tau_1 -> ~chi_1-  nu_tau)
     2.80165100E-01    2    -1000037        16   # BR(~tau_1 -> ~chi_2-  nu_tau)
#
#         PDG            Width
DECAY   2000015     3.10745974E+01   # stau_2 decays
#          BR         NDA      ID1       ID2
     3.02733352E-01    2     1000022        15   # BR(~tau_2 -> ~chi_10  tau-)
     6.40277090E-02    2     1000023        15   # BR(~tau_2 -> ~chi_20  tau-)
     1.55073412E-01    2     1000025        15   # BR(~tau_2 -> ~chi_30  tau-)
     1.42132883E-01    2     1000035        15   # BR(~tau_2 -> ~chi_40  tau-)
     5.10587875E-02    2    -1000024        16   # BR(~tau_2 -> ~chi_1-  nu_tau)
     2.84973856E-01    2    -1000037        16   # BR(~tau_2 -> ~chi_2-  nu_tau)
#
#         PDG            Width
DECAY   1000012     3.15405425E+01   # snu_eL decays
#          BR         NDA      ID1       ID2
     1.37965731E-01    2     1000022        12   # BR(~nu_eL -> ~chi_10 nu_e)
     2.13187333E-03    2     1000023        12   # BR(~nu_eL -> ~chi_20 nu_e)
     2.46310971E-02    2     1000025        12   # BR(~nu_eL -> ~chi_30 nu_e)
     2.77895862E-01    2     1000035        12   # BR(~nu_eL -> ~chi_40 nu_e)
     3.09390005E-03    2     1000024        11   # BR(~nu_eL -> ~chi_1+ e-)
     5.54281536E-01    2     1000037        11   # BR(~nu_eL -> ~chi_2+ e-)
#
#         PDG            Width
DECAY   1000014     3.15405425E+01   # snu_muL decays
#          BR         NDA      ID1       ID2
     1.37965731E-01    2     1000022        14   # BR(~nu_muL -> ~chi_10 nu_mu)
     2.13187333E-03    2     1000023        14   # BR(~nu_muL -> ~chi_20 nu_mu)
     2.46310971E-02    2     1000025        14   # BR(~nu_muL -> ~chi_30 nu_mu)
     2.77895862E-01    2     1000035        14   # BR(~nu_muL -> ~chi_40 nu_mu)
     3.09390005E-03    2     1000024        13   # BR(~nu_muL -> ~chi_1+ mu-)
     5.54281536E-01    2     1000037        13   # BR(~nu_muL -> ~chi_2+ mu-)
#
#         PDG            Width
DECAY   1000016     3.48427508E+01   # snu_tauL decays
#          BR         NDA      ID1       ID2
     1.24935072E-01    2     1000022        16   # BR(~nu_tauL -> ~chi_10 nu_tau)
     1.93052668E-03    2     1000023        16   # BR(~nu_tauL -> ~chi_20 nu_tau)
     2.23048011E-02    2     1000025        16   # BR(~nu_tauL -> ~chi_30 nu_tau)
     2.51775982E-01    2     1000035        16   # BR(~nu_tauL -> ~chi_40 nu_tau)
     9.68700704E-02    2     1000024        15   # BR(~nu_tauL -> ~chi_1+ tau-)
     5.02183548E-01    2     1000037        15   # BR(~nu_tauL -> ~chi_2+ tau-)
#
#         PDG            Width
DECAY   1000024     3.70176193E-04   # chargino1+ decays
#           BR         NDA      ID1       ID2       ID3
     3.33451852E-01    3     1000022         2        -1   # BR(~chi_1+ -> ~chi_10 u    db)
     3.33451852E-01    3     1000022         4        -3   # BR(~chi_1+ -> ~chi_10 c    sb)
     1.11151496E-01    3     1000022       -11        12   # BR(~chi_1+ -> ~chi_10 e+   nu_e)
     1.11151496E-01    3     1000022       -13        14   # BR(~chi_1+ -> ~chi_10 mu+  nu_mu)
     1.10793304E-01    3     1000022       -15        16   # BR(~chi_1+ -> ~chi_10 tau+ nu_tau)
#
#         PDG            Width
DECAY   1000037     5.31849990E+01   # chargino2+ decays
#          BR         NDA      ID1       ID2
     3.58564734E-01    2     1000006        -5   # BR(~chi_2+ -> ~t_1     bb)
     1.15176595E-06    2     2000006        -5   # BR(~chi_2+ -> ~t_2     bb)
     3.43113949E-01    2    -1000005         6   # BR(~chi_2+ -> ~b_1*    t )
     7.57862741E-02    2     1000024        23   # BR(~chi_2+ -> ~chi_1+  Z )
     8.72943855E-03    2     1000022        24   # BR(~chi_2+ -> ~chi_10  W+)
     7.40720354E-02    2     1000023        24   # BR(~chi_2+ -> ~chi_20  W+)
     6.48158406E-02    2     1000025        24   # BR(~chi_2+ -> ~chi_30  W+)
     7.49165764E-02    2     1000024        25   # BR(~chi_2+ -> ~chi_1+  h )
#
#         PDG            Width
DECAY   1000022     0.00000000E+00   # neutralino1 decays
#
#         PDG            Width
DECAY   1000023     3.08912936E-04   # neutralino2 decays
#          BR         NDA      ID1       ID2
     4.44148977E-04    2     1000022        22   # BR(~chi_20 -> ~chi_10 gam)
#           BR         NDA      ID1       ID2       ID3
     1.17492230E-01    3     1000022        -2         2   # BR(~chi_20 -> ~chi_10 ub      u)
     1.52397272E-01    3     1000022        -1         1   # BR(~chi_20 -> ~chi_10 db      d)
     1.17492230E-01    3     1000022        -4         4   # BR(~chi_20 -> ~chi_10 cb      c)
     1.52397272E-01    3     1000022        -3         3   # BR(~chi_20 -> ~chi_10 sb      s)
     1.45591754E-01    3     1000022        -5         5   # BR(~chi_20 -> ~chi_10 bb      b)
     3.49408411E-02    3     1000022       -11        11   # BR(~chi_20 -> ~chi_10 e+      e-)
     3.49408411E-02    3     1000022       -13        13   # BR(~chi_20 -> ~chi_10 mu+     mu-)
     3.47253323E-02    3     1000022       -15        15   # BR(~chi_20 -> ~chi_10 tau+    tau-)
     6.98587458E-02    3     1000022       -12        12   # BR(~chi_20 -> ~chi_10 nu_eb   nu_e)
     6.98587458E-02    3     1000022       -14        14   # BR(~chi_20 -> ~chi_10 nu_mub  nu_mu)
     6.98587434E-02    3     1000022       -16        16   # BR(~chi_20 -> ~chi_10 nu_taub nu_tau)
     3.38019944E-07    3     1000024        -2         1   # BR(~chi_20 -> ~chi_1+ ub      d)
     3.38019944E-07    3    -1000024        -1         2   # BR(~chi_20 -> ~chi_1- db      u)
     3.38019944E-07    3     1000024        -4         3   # BR(~chi_20 -> ~chi_1+ cb      s)
     3.38019944E-07    3    -1000024        -3         4   # BR(~chi_20 -> ~chi_1- sb      c)
     1.12673461E-07    3     1000024       -12        11   # BR(~chi_20 -> ~chi_1+ nu_eb   e-)
     1.12673461E-07    3    -1000024        12       -11   # BR(~chi_20 -> ~chi_1- nu_e    e+)
     1.12673461E-07    3     1000024       -14        13   # BR(~chi_20 -> ~chi_1+ nu_mub  mu-)
     1.12673461E-07    3    -1000024        14       -13   # BR(~chi_20 -> ~chi_1- nu_mu   mu+)
     2.03401771E-08    3     1000024       -16        15   # BR(~chi_20 -> ~chi_1+ nu_taub tau-)
     2.03401771E-08    3    -1000024        16       -15   # BR(~chi_20 -> ~chi_1- nu_tau  tau+)
#
#         PDG            Width
DECAY   1000025     4.01521011E-05   # neutralino3 decays
#          BR         NDA      ID1       ID2
     1.69861823E-03    2     1000022        22   # BR(~chi_30 -> ~chi_10 gam)
     1.84800570E-05    2     1000023        22   # BR(~chi_30 -> ~chi_20 gam)
#           BR         NDA      ID1       ID2       ID3
     1.15920317E-01    3     1000022        -2         2   # BR(~chi_30 -> ~chi_10 ub      u)
     1.50137798E-01    3     1000022        -1         1   # BR(~chi_30 -> ~chi_10 db      d)
     1.15920317E-01    3     1000022        -4         4   # BR(~chi_30 -> ~chi_10 cb      c)
     1.50137798E-01    3     1000022        -3         3   # BR(~chi_30 -> ~chi_10 sb      s)
     1.45767901E-01    3     1000022        -5         5   # BR(~chi_30 -> ~chi_10 bb      b)
     3.42446711E-02    3     1000022       -11        11   # BR(~chi_30 -> ~chi_10 e+      e-)
     3.42446711E-02    3     1000022       -13        13   # BR(~chi_30 -> ~chi_10 mu+     mu-)
     3.41266849E-02    3     1000022       -15        15   # BR(~chi_30 -> ~chi_10 tau+    tau-)
     6.89011718E-02    3     1000022       -12        12   # BR(~chi_30 -> ~chi_10 nu_eb   nu_e)
     6.89011718E-02    3     1000022       -14        14   # BR(~chi_30 -> ~chi_10 nu_mub  nu_mu)
     6.89011229E-02    3     1000022       -16        16   # BR(~chi_30 -> ~chi_10 nu_taub nu_tau)
     1.14162736E-04    3     1000023        -2         2   # BR(~chi_30 -> ~chi_20 ub      u)
     1.48086116E-04    3     1000023        -1         1   # BR(~chi_30 -> ~chi_20 db      d)
     1.14162736E-04    3     1000023        -4         4   # BR(~chi_30 -> ~chi_20 cb      c)
     1.48086116E-04    3     1000023        -3         3   # BR(~chi_30 -> ~chi_20 sb      s)
     3.39572295E-05    3     1000023       -11        11   # BR(~chi_30 -> ~chi_20 e+      e-)
     3.39572295E-05    3     1000023       -13        13   # BR(~chi_30 -> ~chi_20 mu+     mu-)
     2.60400850E-05    3     1000023       -15        15   # BR(~chi_30 -> ~chi_20 tau+    tau-)
     6.78772279E-05    3     1000023       -12        12   # BR(~chi_30 -> ~chi_20 nu_eb   nu_e)
     6.78772279E-05    3     1000023       -14        14   # BR(~chi_30 -> ~chi_20 nu_mub  nu_mu)
     6.78772285E-05    3     1000023       -16        16   # BR(~chi_30 -> ~chi_20 nu_taub nu_tau)
     1.72963592E-03    3     1000024        -2         1   # BR(~chi_30 -> ~chi_1+ ub      d)
     1.72963592E-03    3    -1000024        -1         2   # BR(~chi_30 -> ~chi_1- db      u)
     1.72963592E-03    3     1000024        -4         3   # BR(~chi_30 -> ~chi_1+ cb      s)
     1.72963592E-03    3    -1000024        -3         4   # BR(~chi_30 -> ~chi_1- sb      c)
     5.76540573E-04    3     1000024       -12        11   # BR(~chi_30 -> ~chi_1+ nu_eb   e-)
     5.76540573E-04    3    -1000024        12       -11   # BR(~chi_30 -> ~chi_1- nu_e    e+)
     5.76540573E-04    3     1000024       -14        13   # BR(~chi_30 -> ~chi_1+ nu_mub  mu-)
     5.76540573E-04    3    -1000024        14       -13   # BR(~chi_30 -> ~chi_1- nu_mu   mu+)
     5.16243808E-04    3     1000024       -16        15   # BR(~chi_30 -> ~chi_1+ nu_taub tau-)
     5.16243808E-04    3    -1000024        16       -15   # BR(~chi_30 -> ~chi_1- nu_tau  tau+)
#
#         PDG            Width
DECAY   1000035     5.31743655E+01   # neutralino4 decays
#          BR         NDA      ID1       ID2
     4.24647376E-03    2     1000022        23   # BR(~chi_40 -> ~chi_10   Z )
     4.41777285E-02    2     1000023        23   # BR(~chi_40 -> ~chi_20   Z )
     2.73514994E-02    2     1000025        23   # BR(~chi_40 -> ~chi_30   Z )
     7.38843548E-02    2     1000024       -24   # BR(~chi_40 -> ~chi_1+   W-)
     7.38843548E-02    2    -1000024        24   # BR(~chi_40 -> ~chi_1-   W+)
     4.64882165E-03    2     1000022        25   # BR(~chi_40 -> ~chi_10   h )
     3.13578107E-02    2     1000023        25   # BR(~chi_40 -> ~chi_20   h )
     3.87140389E-02    2     1000025        25   # BR(~chi_40 -> ~chi_30   h )
     1.75183495E-01    2     1000006        -6   # BR(~chi_40 -> ~t_1      tb)
     1.75183495E-01    2    -1000006         6   # BR(~chi_40 -> ~t_1*     t )
     1.75683964E-01    2     1000005        -5   # BR(~chi_40 -> ~b_1      bb)
     1.75683964E-01    2    -1000005         5   # BR(~chi_40 -> ~b_1*     b )
#
#         PDG            Width
DECAY        25     4.07921304E-03   # h decays
#          BR         NDA      ID1       ID2
     5.89105530E-01    2           5        -5   # BR(h -> b       bb     )
     6.40364853E-02    2         -15        15   # BR(h -> tau+    tau-   )
     2.26687379E-04    2         -13        13   # BR(h -> mu+     mu-    )
     4.80510867E-04    2           3        -3   # BR(h -> s       sb     )
     2.08668405E-02    2           4        -4   # BR(h -> c       cb     )
     6.83767842E-02    2          21        21   # BR(h -> g       g      )
     2.37641192E-03    2          22        22   # BR(h -> gam     gam    )
     1.65213871E-03    2          22        23   # BR(h -> Z       gam    )
     2.24380065E-01    2          24       -24   # BR(h -> W+      W-     )
     2.84985461E-02    2          23        23   # BR(h -> Z       Z      )
#
#         PDG            Width
DECAY        35     5.47643148E+01   # H decays
#          BR         NDA      ID1       ID2
     3.48810385E-01    2           5        -5   # BR(H -> b       bb     )
     6.05430546E-02    2         -15        15   # BR(H -> tau+    tau-   )
     2.14065577E-04    2         -13        13   # BR(H -> mu+     mu-    )
     2.53202671E-04    2           3        -3   # BR(H -> s       sb     )
     7.10265211E-08    2           4        -4   # BR(H -> c       cb     )
     7.11833619E-03    2           6        -6   # BR(H -> t       tb     )
     9.14587536E-07    2          21        21   # BR(H -> g       g      )
     1.36435699E-10    2          22        22   # BR(H -> gam     gam    )
     1.82782789E-09    2          23        22   # BR(H -> Z       gam    )
     1.93930880E-06    2          24       -24   # BR(H -> W+      W-     )
     9.68982596E-07    2          23        23   # BR(H -> Z       Z      )
     7.43535106E-06    2          25        25   # BR(H -> h       h      )
     9.39393497E-25    2          36        36   # BR(H -> A       A      )
     7.67050772E-21    2          23        36   # BR(H -> Z       A      )
     1.85162022E-03    2     1000024  -1000024   # BR(H -> ~chi_1+ ~chi_1-)
     1.63451780E-01    2     1000024  -1000037   # BR(H -> ~chi_1+ ~chi_2-)
     1.63451780E-01    2     1000037  -1000024   # BR(H -> ~chi_2+ ~chi_1-)
     1.98620788E-02    2     1000022   1000022   # BR(H -> ~chi_10 ~chi_10)
     1.03908746E-03    2     1000023   1000023   # BR(H -> ~chi_20 ~chi_20)
     1.07713765E-02    2     1000025   1000025   # BR(H -> ~chi_30 ~chi_30)
     2.81573985E-02    2     1000022   1000023   # BR(H -> ~chi_10 ~chi_20)
     1.79300446E-02    2     1000022   1000025   # BR(H -> ~chi_10 ~chi_30)
     2.07002638E-02    2     1000022   1000035   # BR(H -> ~chi_10 ~chi_40)
     9.64439449E-03    2     1000023   1000025   # BR(H -> ~chi_20 ~chi_30)
     7.99564133E-02    2     1000023   1000035   # BR(H -> ~chi_20 ~chi_40)
     6.32853992E-02    2     1000025   1000035   # BR(H -> ~chi_30 ~chi_40)
     2.31040761E-04    2     1000006  -1000006   # BR(H -> ~t_1    ~t_1*  )
     1.35840846E-03    2     1000006  -2000006   # BR(H -> ~t_1    ~t_2*  )
     1.35840846E-03    2     2000006  -1000006   # BR(H -> ~t_2    ~t_1*  )
     1.31717769E-07    2     1000005  -1000005   # BR(H -> ~b_1    ~b_1*  )
#
#         PDG            Width
DECAY        36     5.47604520E+01   # A decays
#          BR         NDA      ID1       ID2
     3.48860724E-01    2           5        -5   # BR(A -> b       bb     )
     6.05476562E-02    2         -15        15   # BR(A -> tau+    tau-   )
     2.14081679E-04    2         -13        13   # BR(A -> mu+     mu-    )
     2.53263017E-04    2           3        -3   # BR(A -> s       sb     )
     7.14824754E-08    2           4        -4   # BR(A -> c       cb     )
     7.13165969E-03    2           6        -6   # BR(A -> t       tb     )
     1.46537563E-05    2          21        21   # BR(A -> g       g      )
     5.33319169E-08    2          22        22   # BR(A -> gam     gam    )
     1.61075515E-08    2          23        22   # BR(A -> Z       gam    )
     1.93534337E-06    2          23        25   # BR(A -> Z       h      )
     1.85543170E-03    2     1000024  -1000024   # BR(A -> ~chi_1+ ~chi_1-)
     1.63465489E-01    2     1000024  -1000037   # BR(A -> ~chi_1+ ~chi_2-)
     1.63465489E-01    2     1000037  -1000024   # BR(A -> ~chi_2+ ~chi_1-)
     1.73041795E-02    2     1000022   1000022   # BR(A -> ~chi_10 ~chi_10)
     1.29667439E-03    2     1000023   1000023   # BR(A -> ~chi_20 ~chi_20)
     8.89446131E-03    2     1000025   1000025   # BR(A -> ~chi_30 ~chi_30)
     3.48629492E-02    2     1000022   1000023   # BR(A -> ~chi_10 ~chi_20)
     1.44321109E-02    2     1000022   1000025   # BR(A -> ~chi_10 ~chi_30)
     2.07650150E-02    2     1000022   1000035   # BR(A -> ~chi_10 ~chi_40)
     1.06185909E-02    2     1000023   1000025   # BR(A -> ~chi_20 ~chi_30)
     8.09346095E-02    2     1000023   1000035   # BR(A -> ~chi_20 ~chi_40)
     6.22066045E-02    2     1000025   1000035   # BR(A -> ~chi_30 ~chi_40)
     1.43713987E-03    2     1000006  -2000006   # BR(A -> ~t_1    ~t_2*  )
     1.43713987E-03    2    -1000006   2000006   # BR(A -> ~t_1*   ~t_2   )
#
#         PDG            Width
DECAY        37     5.47668008E+01   # H+ decays
#          BR         NDA      ID1       ID2
     5.58242250E-04    2           4        -5   # BR(H+ -> c       bb     )
     6.05566192E-02    2         -15        16   # BR(H+ -> tau+    nu_tau )
     2.14113369E-04    2         -13        14   # BR(H+ -> mu+     nu_mu  )
     3.57274734E-06    2           2        -5   # BR(H+ -> u       bb     )
     1.21299135E-05    2           2        -3   # BR(H+ -> u       sb     )
     2.49551327E-04    2           4        -3   # BR(H+ -> c       sb     )
     3.55664761E-01    2           6        -5   # BR(H+ -> t       bb     )
     1.93732978E-06    2          24        25   # BR(H+ -> W+      h      )
     3.15440354E-14    2          24        36   # BR(H+ -> W+      A      )
     6.78482187E-02    2     1000024   1000022   # BR(H+ -> ~chi_1+ ~chi_10)
     1.90474611E-05    2     1000024   1000023   # BR(H+ -> ~chi_1+ ~chi_20)
     2.01329782E-02    2     1000024   1000025   # BR(H+ -> ~chi_1+ ~chi_30)
     1.63660382E-01    2     1000024   1000035   # BR(H+ -> ~chi_1+ ~chi_40)
     4.15178014E-02    2     1000037   1000022   # BR(H+ -> ~chi_2+ ~chi_10)
     1.60983303E-01    2     1000037   1000023   # BR(H+ -> ~chi_2+ ~chi_20)
     1.25673886E-01    2     1000037   1000025   # BR(H+ -> ~chi_2+ ~chi_30)
     1.21452224E-04    2     1000006  -1000005   # BR(H+ -> ~t_1    ~b_1*  )
     2.78200442E-03    2     2000006  -1000005   # BR(H+ -> ~t_2    ~b_1*  )
