#
#                              ======================
#                              | THE SUSYHIT OUTPUT |
#                              ======================
#
#
#              ------------------------------------------------------
#              |     This is the output of the SUSY-HIT package     |
#              |  created by A.Djouadi, M.Muehlleitner and M.Spira. |
#              |  In case of problems with SUSY-HIT email to        |
#              |           margarete.muehlleitner@kit.edu           |
#              |           michael.spira@psi.ch                     |
#              |           abdelhak.djouadi@cern.ch                 |
#              ------------------------------------------------------
#
#              ------------------------------------------------------
#              |  SUSY Les Houches Accord - MSSM Spectrum + Decays  |
#              |              based on the decay programs           |
#              |                                                    |
#              |                     SDECAY 1.5                     |
#              |                                                    |
#              |  Authors: M.Muhlleitner, A.Djouadi and Y.Mambrini  |
#              |  Ref.:    Comput.Phys.Commun.168(2005)46           |
#              |           [hep-ph/0311167]                         |
#              |                                                    |
#              |                     HDECAY 3.4                     |
#              |                                                    |
#              |  By: A.Djouadi,J.Kalinowski,M.Muhlleitner,M.Spira  |
#              |  Ref.:    Comput.Phys.Commun.108(1998)56           |
#              |           [hep-ph/9704448]                         |
#              |                                                    |
#              |                                                    |
#              |  If not stated otherwise all DRbar couplings and   |
#              |  soft SUSY breaking masses are given at the scale  |
#              |  Q=  0.10034457E+04
#              |                                                    |
#              ------------------------------------------------------
#
#
BLOCK DCINFO  # Decay Program information
     1   SDECAY/HDECAY # decay calculator
     2   1.5  /3.4    # version number
#
BLOCK SPINFO  # Spectrum calculator information
     1    SOFTSUSY    # spectrum calculator                
     2    3.7.3       # version number                     
#
BLOCK MODSEL  # Model selection
     1     0   #  nonUniversal                                     
#
BLOCK SMINPUTS  # Standard Model inputs
         1     1.27934000E+02   # alpha_em^-1(M_Z)^MSbar
         2     1.16639000E-05   # G_F [GeV^-2]
         3     1.17200000E-01   # alpha_S(M_Z)^MSbar
         4     9.11870000E+01   # M_Z pole mass
         5     4.19000000E+00   # mb(mb)^MSbar
         6     1.72500000E+02   # mt pole mass
         7     1.77690000E+00   # mtau pole mass
#
BLOCK MINPAR  # Input parameters - minimal models
         3     2.00000000E+01   # tanb                
#
BLOCK EXTPAR  # Input parameters - non-minimal models
         0    -1.00000000E+00   # Set                 
         1     3.09990000E+02   # M_1(MX)             
         2     2.00000000E+03   # M_2(MX)             
         3     1.80000000E+03   # M_3(MX)             
        11     2.25959179E+03   # At(MX)              
        12     0.00000000E+00   # Ab(MX)              
        13     0.00000000E+00   # Atau(MX)            
        23    -3.50900000E+02   # mu(MX)              
        25     2.00000000E+01   # tan                 
        26     4.00000000E+03   # mA(pole)            
        31     4.00000000E+03   # meL(MX)             
        32     4.00000000E+03   # mmuL(MX)            
        33     4.00000000E+03   # mtauL(MX)           
        34     4.00000000E+03   # meR(MX)             
        35     4.00000000E+03   # mmuR(MX)            
        36     4.00000000E+03   # mtauR(MX)           
        41     4.00000000E+03   # mqL1(MX)            
        42     4.00000000E+03   # mqL2(MX)            
        43     5.09900000E+02   # mqL3(MX)            
        44     4.00000000E+03   # muR(MX)             
        45     4.00000000E+03   # mcR(MX)             
        46     2.00485961E+03   # mtR(MX)             
        47     4.00000000E+03   # mdR(MX)             
        48     4.00000000E+03   # msR(MX)             
        49     4.00000000E+03   # mbR(MX)             
#
BLOCK MASS  # Mass Spectrum
# PDG code           mass       particle
        24     8.04184430E+01   # W+
        25     1.24911030E+02   # h
        35     4.00000753E+03   # H
        36     3.99999625E+03   # A
        37     4.00099643E+03   # H+
         5     4.81337004E+00   # b-quark pole mass calculated from mb(mb)_Msbar
   1000001     4.01653030E+03   # ~d_L
   2000001     4.01507656E+03   # ~d_R
   1000002     4.01587100E+03   # ~u_L
   2000002     4.01632091E+03   # ~u_R
   1000003     4.01653030E+03   # ~s_L
   2000003     4.01507656E+03   # ~s_R
   1000004     4.01587100E+03   # ~c_L
   2000004     4.01632091E+03   # ~c_R
   1000005     5.53468375E+02   # ~b_1
   2000005     4.02025470E+03   # ~b_2
   1000006     5.38946416E+02   # ~t_1
   2000006     2.02387414E+03   # ~t_2
   1000011     4.00279792E+03   # ~e_L
   2000011     4.00290826E+03   # ~e_R
   1000012     4.00167931E+03   # ~nu_eL
   1000013     4.00279792E+03   # ~mu_L
   2000013     4.00290826E+03   # ~mu_R
   1000014     4.00167931E+03   # ~nu_muL
   1000015     4.00426845E+03   # ~tau_1
   2000015     4.00818172E+03   # ~tau_2
   1000016     4.00393343E+03   # ~nu_tauL
   1000021     1.96405943E+03   # ~g
   1000022     3.01580068E+02   # ~chi_10
   1000023    -3.61048624E+02   # ~chi_20
   1000025     3.72344668E+02   # ~chi_30
   1000035     2.05619906E+03   # ~chi_40
   1000024     3.58668487E+02   # ~chi_1+
   1000037     2.05636324E+03   # ~chi_2+
#
BLOCK NMIX  # Neutralino Mixing Matrix
  1  1     8.75950068E-01   # N_11
  1  2    -1.31424594E-02   # N_12
  1  3    -3.71637720E-01   # N_13
  1  4    -3.07285143E-01   # N_14
  2  1    -4.93708490E-02   # N_21
  2  2     2.45229715E-02   # N_22
  2  3    -7.03277870E-01   # N_23
  2  4     7.08774563E-01   # N_24
  3  1     4.79867636E-01   # N_31
  3  2     2.86459034E-02   # N_32
  3  3     6.06020318E-01   # N_33
  3  4     6.33755346E-01   # N_34
  4  1    -1.02420080E-03   # N_41
  4  2     9.99202338E-01   # N_42
  4  3    -5.00175964E-03   # N_43
  4  4    -3.96058274E-02   # N_44
#
BLOCK UMIX  # Chargino Mixing Matrix U
  1  1     7.07926979E-03   # U_11
  1  2     9.99974942E-01   # U_12
  2  1    -9.99974942E-01   # U_21
  2  2     7.07926979E-03   # U_22
#
BLOCK VMIX  # Chargino Mixing Matrix V
  1  1     5.60225473E-02   # V_11
  1  2    -9.98429504E-01   # V_12
  2  1    -9.98429504E-01   # V_21
  2  2    -5.60225473E-02   # V_22
#
BLOCK STOPMIX  # Stop Mixing Matrix
  1  1     9.95941010E-01   # cos(theta_t)
  1  2    -9.00083585E-02   # sin(theta_t)
  2  1     9.00083585E-02   # -sin(theta_t)
  2  2     9.95941010E-01   # cos(theta_t)
#
BLOCK SBOTMIX  # Sbottom Mixing Matrix
  1  1     9.99999396E-01   # cos(theta_b)
  1  2    -1.09909037E-03   # sin(theta_b)
  2  1     1.09909037E-03   # -sin(theta_b)
  2  2     9.99999396E-01   # cos(theta_b)
#
BLOCK STAUMIX  # Stau Mixing Matrix
  1  1    -7.05693895E-01   # cos(theta_tau)
  1  2     7.08516850E-01   # sin(theta_tau)
  2  1    -7.08516850E-01   # -sin(theta_tau)
  2  2    -7.05693895E-01   # cos(theta_tau)
#
BLOCK ALPHA  # Higgs mixing
          -5.00252081E-02   # Mixing angle in the neutral Higgs boson sector
#
BLOCK HMIX Q=  1.00344567E+03  # DRbar Higgs Parameters
         1    -3.50900000E+02   # mu(Q)MSSM           
         2     2.00000000E+01   # tan                 
         3     2.44366593E+02   # higgs               
         4     1.62663768E+07   # mA^2(Q)MSSM         
#
BLOCK GAUGE Q=  1.00344567E+03  # The gauge couplings
     1     3.61061625E-01   # gprime(Q) DRbar
     2     6.35858446E-01   # g(Q) DRbar
     3     1.03613543E+00   # g3(Q) DRbar
#
BLOCK AU Q=  1.00344567E+03  # The trilinear couplings
  1  1     0.00000000E+00   # A_u(Q) DRbar
  2  2     7.51422674E-07   # A_c(Q) DRbar
  3  3     2.25959179E+03   # A_t(Q) DRbar
#
BLOCK AD Q=  1.00344567E+03  # The trilinear couplings
  1  1     2.77003745E-07   # A_d(Q) DRbar
  2  2     2.77030137E-07   # A_s(Q) DRbar
  3  3     4.94230453E-07   # A_b(Q) DRbar
#
BLOCK AE Q=  1.00344567E+03  # The trilinear couplings
  1  1     0.00000000E+00   # A_e(Q) DRbar
  2  2     6.13940393E-08   # A_mu(Q) DRbar
  3  3     6.20143254E-08   # A_tau(Q) DRbar
#
BLOCK Yu Q=  1.00344567E+03  # The Yukawa couplings
  1  1     0.00000000E+00   # y_u(Q) DRbar
  2  2     0.00000000E+00   # y_c(Q) DRbar
  3  3     8.72014232E-01   # y_t(Q) DRbar
#
BLOCK Yd Q=  1.00344567E+03  # The Yukawa couplings
  1  1     0.00000000E+00   # y_d(Q) DRbar
  2  2     0.00000000E+00   # y_s(Q) DRbar
  3  3     2.85727428E-01   # y_b(Q) DRbar
#
BLOCK Ye Q=  1.00344567E+03  # The Yukawa couplings
  1  1     0.00000000E+00   # y_e(Q) DRbar
  2  2     0.00000000E+00   # y_mu(Q) DRbar
  3  3     2.03056294E-01   # y_tau(Q) DRbar
#
BLOCK MSOFT Q=  1.00344567E+03  # The soft SUSY breaking masses at the scale Q
         1     3.09990000E+02   # M_1(Q)              
         2     2.00000000E+03   # M_2(Q)              
         3     1.80000000E+03   # M_3(Q)              
        21     1.57513787E+07   # M^2_Hd              
        22    -1.34559334E+05   # M^2_Hu              
        31     4.00000000E+03   # M_eL                
        32     4.00000000E+03   # M_muL               
        33     4.00000000E+03   # M_tauL              
        34     4.00000000E+03   # M_eR                
        35     4.00000000E+03   # M_muR               
        36     4.00000000E+03   # M_tauR              
        41     4.00000000E+03   # M_q1L               
        42     4.00000000E+03   # M_q2L               
        43     5.09899997E+02   # M_q3L               
        44     4.00000000E+03   # M_uR                
        45     4.00000000E+03   # M_cR                
        46     2.00485961E+03   # M_tR                
        47     4.00000000E+03   # M_dR                
        48     4.00000000E+03   # M_sR                
        49     4.00000000E+03   # M_bR                
#
#
#
#                             =================
#                             |The decay table|
#                             =================
#
# - The QCD corrections to the decays gluino -> squark  + quark
#                                     squark -> gaugino + quark_prime
#                                     squark -> squark_prime + Higgs
#                                     squark -> gluino  + quark
#   are included.
#
# - The multi-body decays for the inos, stops and sbottoms are included.
#
# - The loop induced decays for the gluino, neutralinos and stops
#   are included.
#
# - The SUSY decays of the top quark are included.
#
#
#         PDG            Width
DECAY         6     1.40265218E+00   # top decays
#          BR         NDA      ID1       ID2
     1.00000000E+00    2           5        24   # BR(t ->  b    W+)
#
#         PDG            Width
DECAY   1000021     6.99934063E+01   # gluino decays
#          BR         NDA      ID1       ID2
     2.45194360E-01    2     1000005        -5   # BR(~g -> ~b_1  bb)
     2.45194360E-01    2    -1000005         5   # BR(~g -> ~b_1* b )
     2.54805640E-01    2     1000006        -6   # BR(~g -> ~t_1  tb)
     2.54805640E-01    2    -1000006         6   # BR(~g -> ~t_1* t )
#
#         PDG            Width
DECAY   1000006     7.62713142E-01   # stop1 decays
#          BR         NDA      ID1       ID2
     3.64162297E-01    2     1000022         6   # BR(~t_1 -> ~chi_10 t )
     2.83454139E-01    2     1000023         6   # BR(~t_1 -> ~chi_20 t )
     3.52383564E-01    2     1000024         5   # BR(~t_1 -> ~chi_1+ b )
#
#         PDG            Width
DECAY   2000006     1.15569153E+02   # stop2 decays
#          BR         NDA      ID1       ID2
     5.24028653E-02    2     1000022         6   # BR(~t_2 -> ~chi_10 t )
     1.19290858E-01    2     1000023         6   # BR(~t_2 -> ~chi_20 t )
     9.98819225E-02    2     1000025         6   # BR(~t_2 -> ~chi_30 t )
     2.36405482E-01    2     1000024         5   # BR(~t_2 -> ~chi_1+ b )
     1.49115853E-01    2     1000006        25   # BR(~t_2 -> ~t_1    h )
     1.10809306E-01    2     1000006        23   # BR(~t_2 -> ~t_1    Z )
     2.32093712E-01    2     1000005        24   # BR(~t_2 -> ~b_1    W+)
#
#         PDG            Width
DECAY   1000005     1.44029305E+00   # sbottom1 decays
#          BR         NDA      ID1       ID2
     6.82714843E-02    2     1000022         5   # BR(~b_1 -> ~chi_10 b )
     1.00750934E-01    2     1000023         5   # BR(~b_1 -> ~chi_20 b )
     6.88149893E-02    2     1000025         5   # BR(~b_1 -> ~chi_30 b )
     7.62162592E-01    2    -1000024         6   # BR(~b_1 -> ~chi_1- t )
#
#         PDG            Width
DECAY   2000005     1.66633094E+02   # sbottom2 decays
#          BR         NDA      ID1       ID2
     1.51376191E-02    2     1000022         5   # BR(~b_2 -> ~chi_10 b )
     1.78247363E-02    2     1000023         5   # BR(~b_2 -> ~chi_20 b )
     1.62433080E-02    2     1000025         5   # BR(~b_2 -> ~chi_30 b )
     8.69040901E-07    2     1000035         5   # BR(~b_2 -> ~chi_40 b )
     3.58675796E-02    2    -1000024         6   # BR(~b_2 -> ~chi_1- t )
     1.71972230E-06    2    -1000037         6   # BR(~b_2 -> ~chi_2- t )
     9.14290721E-01    2     1000021         5   # BR(~b_2 -> ~g      b )
     1.37202860E-04    2     1000005        25   # BR(~b_2 -> ~b_1    h )
     1.84759183E-04    2     1000005        23   # BR(~b_2 -> ~b_1    Z )
     3.10553806E-04    2     1000006       -24   # BR(~b_2 -> ~t_1    W-)
     9.31271817E-07    2     2000006       -24   # BR(~b_2 -> ~t_2    W-)
#
#         PDG            Width
DECAY   1000002     1.78170506E+02   # sup_L decays
#          BR         NDA      ID1       ID2
     2.01273395E-03    2     1000022         2   # BR(~u_L -> ~chi_10 u)
     1.98040837E-05    2     1000023         2   # BR(~u_L -> ~chi_20 u)
     1.22583254E-03    2     1000025         2   # BR(~u_L -> ~chi_30 u)
     4.77093815E-02    2     1000035         2   # BR(~u_L -> ~chi_40 u)
     5.39710978E-04    2     1000024         1   # BR(~u_L -> ~chi_1+ d)
     9.52974583E-02    2     1000037         1   # BR(~u_L -> ~chi_2+ d)
     8.53195079E-01    2     1000021         2   # BR(~u_L -> ~g      u)
#
#         PDG            Width
DECAY   2000002     1.60862992E+02   # sup_R decays
#          BR         NDA      ID1       ID2
     4.20794565E-02    2     1000022         2   # BR(~u_R -> ~chi_10 u)
     1.33047676E-04    2     1000023         2   # BR(~u_R -> ~chi_20 u)
     1.25567142E-02    2     1000025         2   # BR(~u_R -> ~chi_30 u)
     3.18458065E-08    2     1000035         2   # BR(~u_R -> ~chi_40 u)
     9.45230750E-01    2     1000021         2   # BR(~u_R -> ~g      u)
#
#         PDG            Width
DECAY   1000001     1.78190587E+02   # sdown_L decays
#          BR         NDA      ID1       ID2
     2.76569090E-03    2     1000022         1   # BR(~d_L -> ~chi_10 d)
     9.86087293E-05    2     1000023         1   # BR(~d_L -> ~chi_20 d)
     3.32080731E-04    2     1000025         1   # BR(~d_L -> ~chi_30 d)
     4.77599984E-02    2     1000035         1   # BR(~d_L -> ~chi_40 d)
     8.61863196E-06    2    -1000024         2   # BR(~d_L -> ~chi_1- u)
     9.56198908E-02    2    -1000037         2   # BR(~d_L -> ~chi_2- u)
     8.53415112E-01    2     1000021         1   # BR(~d_L -> ~g      d)
#
#         PDG            Width
DECAY   2000001     1.54148182E+02   # sdown_R decays
#          BR         NDA      ID1       ID2
     1.09745791E-02    2     1000022         1   # BR(~d_R -> ~chi_10 d)
     3.46995445E-05    2     1000023         1   # BR(~d_R -> ~chi_20 d)
     3.27485610E-03    2     1000025         1   # BR(~d_R -> ~chi_30 d)
     8.30203303E-09    2     1000035         1   # BR(~d_R -> ~chi_40 d)
     9.85715857E-01    2     1000021         1   # BR(~d_R -> ~g      d)
#
#         PDG            Width
DECAY   1000004     1.78170506E+02   # scharm_L decays
#          BR         NDA      ID1       ID2
     2.01273395E-03    2     1000022         4   # BR(~c_L -> ~chi_10 c)
     1.98040837E-05    2     1000023         4   # BR(~c_L -> ~chi_20 c)
     1.22583254E-03    2     1000025         4   # BR(~c_L -> ~chi_30 c)
     4.77093815E-02    2     1000035         4   # BR(~c_L -> ~chi_40 c)
     5.39710978E-04    2     1000024         3   # BR(~c_L -> ~chi_1+ s)
     9.52974583E-02    2     1000037         3   # BR(~c_L -> ~chi_2+ s)
     8.53195079E-01    2     1000021         4   # BR(~c_L -> ~g      c)
#
#         PDG            Width
DECAY   2000004     1.60862992E+02   # scharm_R decays
#          BR         NDA      ID1       ID2
     4.20794565E-02    2     1000022         4   # BR(~c_R -> ~chi_10 c)
     1.33047676E-04    2     1000023         4   # BR(~c_R -> ~chi_20 c)
     1.25567142E-02    2     1000025         4   # BR(~c_R -> ~chi_30 c)
     3.18458065E-08    2     1000035         4   # BR(~c_R -> ~chi_40 c)
     9.45230750E-01    2     1000021         4   # BR(~c_R -> ~g      c)
#
#         PDG            Width
DECAY   1000003     1.78190587E+02   # sstrange_L decays
#          BR         NDA      ID1       ID2
     2.76569090E-03    2     1000022         3   # BR(~s_L -> ~chi_10 s)
     9.86087293E-05    2     1000023         3   # BR(~s_L -> ~chi_20 s)
     3.32080731E-04    2     1000025         3   # BR(~s_L -> ~chi_30 s)
     4.77599984E-02    2     1000035         3   # BR(~s_L -> ~chi_40 s)
     8.61863196E-06    2    -1000024         4   # BR(~s_L -> ~chi_1- c)
     9.56198908E-02    2    -1000037         4   # BR(~s_L -> ~chi_2- c)
     8.53415112E-01    2     1000021         3   # BR(~s_L -> ~g      s)
#
#         PDG            Width
DECAY   2000003     1.54148182E+02   # sstrange_R decays
#          BR         NDA      ID1       ID2
     1.09745791E-02    2     1000022         3   # BR(~s_R -> ~chi_10 s)
     3.46995445E-05    2     1000023         3   # BR(~s_R -> ~chi_20 s)
     3.27485610E-03    2     1000025         3   # BR(~s_R -> ~chi_30 s)
     8.30203303E-09    2     1000035         3   # BR(~s_R -> ~chi_40 s)
     9.85715857E-01    2     1000021         3   # BR(~s_R -> ~g      s)
#
#         PDG            Width
DECAY   1000011     3.13119779E+01   # selectron_L decays
#          BR         NDA      ID1       ID2
     1.19198568E-01    2     1000022        11   # BR(~e_L -> ~chi_10 e-)
     6.23662613E-06    2     1000023        11   # BR(~e_L -> ~chi_20 e-)
     4.58179716E-02    2     1000025        11   # BR(~e_L -> ~chi_30 e-)
     2.77827431E-01    2     1000035        11   # BR(~e_L -> ~chi_40 e-)
     5.07083072E-05    2    -1000024        12   # BR(~e_L -> ~chi_1- nu_e)
     5.57099085E-01    2    -1000037        12   # BR(~e_L -> ~chi_2- nu_e)
#
#         PDG            Width
DECAY   2000011     2.04998413E+01   # selectron_R decays
#          BR         NDA      ID1       ID2
     7.68355768E-01    2     1000022        11   # BR(~e_R -> ~chi_10 e-)
     2.42881197E-03    2     1000023        11   # BR(~e_R -> ~chi_20 e-)
     2.29214845E-01    2     1000025        11   # BR(~e_R -> ~chi_30 e-)
     5.75751488E-07    2     1000035        11   # BR(~e_R -> ~chi_40 e-)
#
#         PDG            Width
DECAY   1000013     3.13119779E+01   # smuon_L decays
#          BR         NDA      ID1       ID2
     1.19198568E-01    2     1000022        13   # BR(~mu_L -> ~chi_10 mu-)
     6.23662613E-06    2     1000023        13   # BR(~mu_L -> ~chi_20 mu-)
     4.58179716E-02    2     1000025        13   # BR(~mu_L -> ~chi_30 mu-)
     2.77827431E-01    2     1000035        13   # BR(~mu_L -> ~chi_40 mu-)
     5.07083072E-05    2    -1000024        14   # BR(~mu_L -> ~chi_1- nu_mu)
     5.57099085E-01    2    -1000037        14   # BR(~mu_L -> ~chi_2- nu_mu)
#
#         PDG            Width
DECAY   2000013     2.04998413E+01   # smuon_R decays
#          BR         NDA      ID1       ID2
     7.68355768E-01    2     1000022        13   # BR(~mu_R -> ~chi_10 mu-)
     2.42881197E-03    2     1000023        13   # BR(~mu_R -> ~chi_20 mu-)
     2.29214845E-01    2     1000025        13   # BR(~mu_R -> ~chi_30 mu-)
     5.75751488E-07    2     1000035        13   # BR(~mu_R -> ~chi_40 mu-)
#
#         PDG            Width
DECAY   1000015     3.08107432E+01   # stau_1 decays
#          BR         NDA      ID1       ID2
     3.75896268E-01    2     1000022        15   # BR(~tau_1 -> ~chi_10  tau-)
     4.41011057E-02    2     1000023        15   # BR(~tau_1 -> ~chi_20  tau-)
     1.03972863E-01    2     1000025        15   # BR(~tau_1 -> ~chi_30  tau-)
     1.40097076E-01    2     1000035        15   # BR(~tau_1 -> ~chi_40  tau-)
     5.50092914E-02    2    -1000024        16   # BR(~tau_1 -> ~chi_1-  nu_tau)
     2.80923396E-01    2    -1000037        16   # BR(~tau_1 -> ~chi_2-  nu_tau)
#
#         PDG            Width
DECAY   2000015     3.07793628E+01   # stau_2 decays
#          BR         NDA      ID1       ID2
     2.86385735E-01    2     1000022        15   # BR(~tau_2 -> ~chi_10  tau-)
     6.13949913E-02    2     1000023        15   # BR(~tau_2 -> ~chi_20  tau-)
     1.72469710E-01    2     1000025        15   # BR(~tau_2 -> ~chi_30  tau-)
     1.42989197E-01    2     1000035        15   # BR(~tau_2 -> ~chi_40  tau-)
     5.00411871E-02    2    -1000024        16   # BR(~tau_2 -> ~chi_1-  nu_tau)
     2.86719179E-01    2    -1000037        16   # BR(~tau_2 -> ~chi_2-  nu_tau)
#
#         PDG            Width
DECAY   1000012     3.13227235E+01   # snu_eL decays
#          BR         NDA      ID1       ID2
     1.32406529E-01    2     1000022        12   # BR(~nu_eL -> ~chi_10 nu_e)
     1.39627735E-03    2     1000023        12   # BR(~nu_eL -> ~chi_20 nu_e)
     3.00232113E-02    2     1000025        12   # BR(~nu_eL -> ~chi_30 nu_e)
     2.78190129E-01    2     1000035        12   # BR(~nu_eL -> ~chi_40 nu_e)
     3.17361004E-03    2     1000024        11   # BR(~nu_eL -> ~chi_1+ e-)
     5.54810243E-01    2     1000037        11   # BR(~nu_eL -> ~chi_2+ e-)
#
#         PDG            Width
DECAY   1000014     3.13227235E+01   # snu_muL decays
#          BR         NDA      ID1       ID2
     1.32406529E-01    2     1000022        14   # BR(~nu_muL -> ~chi_10 nu_mu)
     1.39627735E-03    2     1000023        14   # BR(~nu_muL -> ~chi_20 nu_mu)
     3.00232113E-02    2     1000025        14   # BR(~nu_muL -> ~chi_30 nu_mu)
     2.78190129E-01    2     1000035        14   # BR(~nu_muL -> ~chi_40 nu_mu)
     3.17361004E-03    2     1000024        13   # BR(~nu_muL -> ~chi_1+ mu-)
     5.54810243E-01    2     1000037        13   # BR(~nu_muL -> ~chi_2+ mu-)
#
#         PDG            Width
DECAY   1000016     3.45933440E+01   # snu_tauL decays
#          BR         NDA      ID1       ID2
     1.19957256E-01    2     1000022        16   # BR(~nu_tauL -> ~chi_10 nu_tau)
     1.26500213E-03    2     1000023        16   # BR(~nu_tauL -> ~chi_20 nu_tau)
     2.72005208E-02    2     1000025        16   # BR(~nu_tauL -> ~chi_30 nu_tau)
     2.52234176E-01    2     1000035        16   # BR(~nu_tauL -> ~chi_40 nu_tau)
     9.62973282E-02    2     1000024        15   # BR(~nu_tauL -> ~chi_1+ tau-)
     5.03045716E-01    2     1000037        15   # BR(~nu_tauL -> ~chi_2+ tau-)
#
#         PDG            Width
DECAY   1000024     1.93387912E-04   # chargino1+ decays
#           BR         NDA      ID1       ID2       ID3
     3.33501774E-01    3     1000022         2        -1   # BR(~chi_1+ -> ~chi_10 u    db)
     3.33501774E-01    3     1000022         4        -3   # BR(~chi_1+ -> ~chi_10 c    sb)
     1.11168686E-01    3     1000022       -11        12   # BR(~chi_1+ -> ~chi_10 e+   nu_e)
     1.11168686E-01    3     1000022       -13        14   # BR(~chi_1+ -> ~chi_10 mu+  nu_mu)
     1.10659079E-01    3     1000022       -15        16   # BR(~chi_1+ -> ~chi_10 tau+ nu_tau)
#
#         PDG            Width
DECAY   1000037     6.47512726E+01   # chargino2+ decays
#          BR         NDA      ID1       ID2
     3.83321277E-01    2     1000006        -5   # BR(~chi_2+ -> ~t_1     bb)
     7.19759059E-08    2     2000006        -5   # BR(~chi_2+ -> ~t_2     bb)
     3.72296663E-01    2    -1000005         6   # BR(~chi_2+ -> ~b_1*    t )
     6.21854201E-02    2     1000024        23   # BR(~chi_2+ -> ~chi_1+  Z )
     1.00264094E-02    2     1000022        24   # BR(~chi_2+ -> ~chi_10  W+)
     6.07419069E-02    2     1000023        24   # BR(~chi_2+ -> ~chi_20  W+)
     5.04667812E-02    2     1000025        24   # BR(~chi_2+ -> ~chi_30  W+)
     6.09614699E-02    2     1000024        25   # BR(~chi_2+ -> ~chi_1+  h )
#
#         PDG            Width
DECAY   1000022     0.00000000E+00   # neutralino1 decays
#
#         PDG            Width
DECAY   1000023     1.76865893E-04   # neutralino2 decays
#          BR         NDA      ID1       ID2
     5.63480750E-04    2     1000022        22   # BR(~chi_20 -> ~chi_10 gam)
#           BR         NDA      ID1       ID2       ID3
     1.17718932E-01    3     1000022        -2         2   # BR(~chi_20 -> ~chi_10 ub      u)
     1.52654667E-01    3     1000022        -1         1   # BR(~chi_20 -> ~chi_10 db      d)
     1.17718932E-01    3     1000022        -4         4   # BR(~chi_20 -> ~chi_10 cb      c)
     1.52654667E-01    3     1000022        -3         3   # BR(~chi_20 -> ~chi_10 sb      s)
     1.44236197E-01    3     1000022        -5         5   # BR(~chi_20 -> ~chi_10 bb      b)
     3.49794064E-02    3     1000022       -11        11   # BR(~chi_20 -> ~chi_10 e+      e-)
     3.49794064E-02    3     1000022       -13        13   # BR(~chi_20 -> ~chi_10 mu+     mu-)
     3.47206011E-02    3     1000022       -15        15   # BR(~chi_20 -> ~chi_10 tau+    tau-)
     6.99242708E-02    3     1000022       -12        12   # BR(~chi_20 -> ~chi_10 nu_eb   nu_e)
     6.99242708E-02    3     1000022       -14        14   # BR(~chi_20 -> ~chi_10 nu_mub  nu_mu)
     6.99242678E-02    3     1000022       -16        16   # BR(~chi_20 -> ~chi_10 nu_taub nu_tau)
     1.68171246E-07    3     1000024        -2         1   # BR(~chi_20 -> ~chi_1+ ub      d)
     1.68171246E-07    3    -1000024        -1         2   # BR(~chi_20 -> ~chi_1- db      u)
     1.68171246E-07    3     1000024        -4         3   # BR(~chi_20 -> ~chi_1+ cb      s)
     1.68171246E-07    3    -1000024        -3         4   # BR(~chi_20 -> ~chi_1- sb      c)
     5.60571366E-08    3     1000024       -12        11   # BR(~chi_20 -> ~chi_1+ nu_eb   e-)
     5.60571366E-08    3    -1000024        12       -11   # BR(~chi_20 -> ~chi_1- nu_e    e+)
     5.60571366E-08    3     1000024       -14        13   # BR(~chi_20 -> ~chi_1+ nu_mub  mu-)
     5.60571366E-08    3    -1000024        14       -13   # BR(~chi_20 -> ~chi_1- nu_mu   mu+)
     2.19373369E-09    3     1000024       -16        15   # BR(~chi_20 -> ~chi_1+ nu_taub tau-)
     2.19373369E-09    3    -1000024        16       -15   # BR(~chi_20 -> ~chi_1- nu_tau  tau+)
#
#         PDG            Width
DECAY   1000025     9.78038538E-06   # neutralino3 decays
#          BR         NDA      ID1       ID2
     2.31384923E-02    2     1000022        22   # BR(~chi_30 -> ~chi_10 gam)
     2.37768006E-02    2     1000023        22   # BR(~chi_30 -> ~chi_20 gam)
#           BR         NDA      ID1       ID2       ID3
     1.00825519E-01    3     1000022        -2         2   # BR(~chi_30 -> ~chi_10 ub      u)
     1.30347369E-01    3     1000022        -1         1   # BR(~chi_30 -> ~chi_10 db      d)
     1.00825519E-01    3     1000022        -4         4   # BR(~chi_30 -> ~chi_10 cb      c)
     1.30347369E-01    3     1000022        -3         3   # BR(~chi_30 -> ~chi_10 sb      s)
     1.25619115E-01    3     1000022        -5         5   # BR(~chi_30 -> ~chi_10 bb      b)
     2.95485294E-02    3     1000022       -11        11   # BR(~chi_30 -> ~chi_10 e+      e-)
     2.95485294E-02    3     1000022       -13        13   # BR(~chi_30 -> ~chi_10 mu+     mu-)
     2.94912389E-02    3     1000022       -15        15   # BR(~chi_30 -> ~chi_10 tau+    tau-)
     5.98525108E-02    3     1000022       -12        12   # BR(~chi_30 -> ~chi_10 nu_eb   nu_e)
     5.98525108E-02    3     1000022       -14        14   # BR(~chi_30 -> ~chi_10 nu_mub  nu_mu)
     5.98523708E-02    3     1000022       -16        16   # BR(~chi_30 -> ~chi_10 nu_taub nu_tau)
     1.62395214E-03    3     1000023        -2         2   # BR(~chi_30 -> ~chi_20 ub      u)
     2.10597200E-03    3     1000023        -1         1   # BR(~chi_30 -> ~chi_20 db      d)
     1.62395214E-03    3     1000023        -4         4   # BR(~chi_30 -> ~chi_20 cb      c)
     2.10597200E-03    3     1000023        -3         3   # BR(~chi_30 -> ~chi_20 sb      s)
     1.60080256E-04    3     1000023        -5         5   # BR(~chi_30 -> ~chi_20 bb      b)
     4.82608657E-04    3     1000023       -11        11   # BR(~chi_30 -> ~chi_20 e+      e-)
     4.82608657E-04    3     1000023       -13        13   # BR(~chi_30 -> ~chi_20 mu+     mu-)
     4.16399231E-04    3     1000023       -15        15   # BR(~chi_30 -> ~chi_20 tau+    tau-)
     9.64589725E-04    3     1000023       -12        12   # BR(~chi_30 -> ~chi_20 nu_eb   nu_e)
     9.64589725E-04    3     1000023       -14        14   # BR(~chi_30 -> ~chi_20 nu_mub  nu_mu)
     9.64589737E-04    3     1000023       -16        16   # BR(~chi_30 -> ~chi_20 nu_taub nu_tau)
     1.43056183E-02    3     1000024        -2         1   # BR(~chi_30 -> ~chi_1+ ub      d)
     1.43056183E-02    3    -1000024        -1         2   # BR(~chi_30 -> ~chi_1- db      u)
     1.43056183E-02    3     1000024        -4         3   # BR(~chi_30 -> ~chi_1+ cb      s)
     1.43056183E-02    3    -1000024        -3         4   # BR(~chi_30 -> ~chi_1- sb      c)
     4.76849709E-03    3     1000024       -12        11   # BR(~chi_30 -> ~chi_1+ nu_eb   e-)
     4.76849709E-03    3    -1000024        12       -11   # BR(~chi_30 -> ~chi_1- nu_e    e+)
     4.76849709E-03    3     1000024       -14        13   # BR(~chi_30 -> ~chi_1+ nu_mub  mu-)
     4.76849709E-03    3    -1000024        14       -13   # BR(~chi_30 -> ~chi_1- nu_mu   mu+)
     4.39117568E-03    3     1000024       -16        15   # BR(~chi_30 -> ~chi_1+ nu_taub tau-)
     4.39117568E-03    3    -1000024        16       -15   # BR(~chi_30 -> ~chi_1- nu_tau  tau+)
#
#         PDG            Width
DECAY   1000035     6.47404193E+01   # neutralino4 decays
#          BR         NDA      ID1       ID2
     4.28550607E-03    2     1000022        23   # BR(~chi_40 -> ~chi_10   Z )
     3.89253022E-02    2     1000023        23   # BR(~chi_40 -> ~chi_20   Z )
     1.89686943E-02    2     1000025        23   # BR(~chi_40 -> ~chi_30   Z )
     6.06698691E-02    2     1000024       -24   # BR(~chi_40 -> ~chi_1+   W-)
     6.06698691E-02    2    -1000024        24   # BR(~chi_40 -> ~chi_1-   W+)
     5.87023807E-03    2     1000022        25   # BR(~chi_40 -> ~chi_10   h )
     2.28704011E-02    2     1000023        25   # BR(~chi_40 -> ~chi_20   h )
     3.20702017E-02    2     1000025        25   # BR(~chi_40 -> ~chi_30   h )
     1.88341757E-01    2     1000006        -6   # BR(~chi_40 -> ~t_1      tb)
     1.88341757E-01    2    -1000006         6   # BR(~chi_40 -> ~t_1*     t )
     1.89493202E-01    2     1000005        -5   # BR(~chi_40 -> ~b_1      bb)
     1.89493202E-01    2    -1000005         5   # BR(~chi_40 -> ~b_1*     b )
#
#         PDG            Width
DECAY        25     3.93683617E-03   # h decays
#          BR         NDA      ID1       ID2
     6.02104488E-01    2           5        -5   # BR(h -> b       bb     )
     6.58461982E-02    2         -15        15   # BR(h -> tau+    tau-   )
     2.33097895E-04    2         -13        13   # BR(h -> mu+     mu-    )
     4.94818879E-04    2           3        -3   # BR(h -> s       sb     )
     2.14919828E-02    2           4        -4   # BR(h -> c       cb     )
     6.95695570E-02    2          21        21   # BR(h -> g       g      )
     2.38630259E-03    2          22        22   # BR(h -> gam     gam    )
     1.57567808E-03    2          22        23   # BR(h -> Z       gam    )
     2.10006637E-01    2          24       -24   # BR(h -> W+      W-     )
     2.62912394E-02    2          23        23   # BR(h -> Z       Z      )
#
#         PDG            Width
DECAY        35     5.54173277E+01   # H decays
#          BR         NDA      ID1       ID2
     3.59304354E-01    2           5        -5   # BR(H -> b       bb     )
     5.98296832E-02    2         -15        15   # BR(H -> tau+    tau-   )
     2.11543268E-04    2         -13        13   # BR(H -> mu+     mu-    )
     2.50219209E-04    2           3        -3   # BR(H -> s       sb     )
     7.01772985E-08    2           4        -4   # BR(H -> c       cb     )
     7.03322642E-03    2           6        -6   # BR(H -> t       tb     )
     6.44069829E-07    2          21        21   # BR(H -> g       g      )
     1.32904248E-09    2          22        22   # BR(H -> gam     gam    )
     1.81006107E-09    2          23        22   # BR(H -> Z       gam    )
     1.68766561E-06    2          24       -24   # BR(H -> W+      W-     )
     8.43248254E-07    2          23        23   # BR(H -> Z       Z      )
     6.70550822E-06    2          25        25   # BR(H -> h       h      )
    -6.08841253E-24    2          36        36   # BR(H -> A       A      )
     3.60174666E-20    2          23        36   # BR(H -> Z       A      )
     1.84955217E-03    2     1000024  -1000024   # BR(H -> ~chi_1+ ~chi_1-)
     1.58377566E-01    2     1000024  -1000037   # BR(H -> ~chi_1+ ~chi_2-)
     1.58377566E-01    2     1000037  -1000024   # BR(H -> ~chi_2+ ~chi_1-)
     2.04954305E-02    2     1000022   1000022   # BR(H -> ~chi_10 ~chi_10)
     6.72301721E-04    2     1000023   1000023   # BR(H -> ~chi_20 ~chi_20)
     1.22426412E-02    2     1000025   1000025   # BR(H -> ~chi_30 ~chi_30)
     2.74339993E-02    2     1000022   1000023   # BR(H -> ~chi_10 ~chi_20)
     1.40110929E-02    2     1000022   1000025   # BR(H -> ~chi_10 ~chi_30)
     2.12986913E-02    2     1000022   1000035   # BR(H -> ~chi_10 ~chi_40)
     1.02417132E-02    2     1000023   1000025   # BR(H -> ~chi_20 ~chi_30)
     8.07326113E-02    2     1000023   1000035   # BR(H -> ~chi_20 ~chi_40)
     5.68193732E-02    2     1000025   1000035   # BR(H -> ~chi_30 ~chi_40)
     4.08906991E-04    2     1000006  -1000006   # BR(H -> ~t_1    ~t_1*  )
     5.19971556E-03    2     1000006  -2000006   # BR(H -> ~t_1    ~t_2*  )
     5.19971556E-03    2     2000006  -1000006   # BR(H -> ~t_2    ~t_1*  )
     1.43530153E-07    2     1000005  -1000005   # BR(H -> ~b_1    ~b_1*  )
#
#         PDG            Width
DECAY        36     5.54156047E+01   # A decays
#          BR         NDA      ID1       ID2
     3.59341115E-01    2           5        -5   # BR(A -> b       bb     )
     5.98318220E-02    2         -15        15   # BR(A -> tau+    tau-   )
     2.11550664E-04    2         -13        13   # BR(A -> mu+     mu-    )
     2.50268779E-04    2           3        -3   # BR(A -> s       sb     )
     7.06373637E-08    2           4        -4   # BR(A -> c       cb     )
     7.04734463E-03    2           6        -6   # BR(A -> t       tb     )
     1.44805125E-05    2          21        21   # BR(A -> g       g      )
     5.94476023E-08    2          22        22   # BR(A -> gam     gam    )
     1.59214276E-08    2          23        22   # BR(A -> Z       gam    )
     1.68422087E-06    2          23        25   # BR(A -> Z       h      )
     1.86342570E-03    2     1000024  -1000024   # BR(A -> ~chi_1+ ~chi_1-)
     1.58377190E-01    2     1000024  -1000037   # BR(A -> ~chi_1+ ~chi_2-)
     1.58377190E-01    2     1000037  -1000024   # BR(A -> ~chi_2+ ~chi_1-)
     1.77727805E-02    2     1000022   1000022   # BR(A -> ~chi_10 ~chi_10)
     8.50436754E-04    2     1000023   1000023   # BR(A -> ~chi_20 ~chi_20)
     1.02857310E-02    2     1000025   1000025   # BR(A -> ~chi_30 ~chi_30)
     3.33777415E-02    2     1000022   1000023   # BR(A -> ~chi_10 ~chi_20)
     1.14835710E-02    2     1000022   1000025   # BR(A -> ~chi_10 ~chi_30)
     2.25453409E-02    2     1000022   1000035   # BR(A -> ~chi_10 ~chi_40)
     1.13329503E-02    2     1000023   1000025   # BR(A -> ~chi_20 ~chi_30)
     7.63956170E-02    2     1000023   1000035   # BR(A -> ~chi_20 ~chi_40)
     5.98968488E-02    2     1000025   1000035   # BR(A -> ~chi_30 ~chi_40)
     5.37138235E-03    2     1000006  -2000006   # BR(A -> ~t_1    ~t_2*  )
     5.37138235E-03    2    -1000006   2000006   # BR(A -> ~t_1*   ~t_2   )
#
#         PDG            Width
DECAY        37     5.55548727E+01   # H+ decays
#          BR         NDA      ID1       ID2
     5.77463713E-04    2           4        -5   # BR(H+ -> c       bb     )
     5.96967554E-02    2         -15        16   # BR(H+ -> tau+    nu_tau )
     2.11073102E-04    2         -13        14   # BR(H+ -> mu+     nu_mu  )
     3.69576463E-06    2           2        -5   # BR(H+ -> u       bb     )
     1.19576979E-05    2           2        -3   # BR(H+ -> u       sb     )
     2.46008298E-04    2           4        -3   # BR(H+ -> c       sb     )
     3.67569897E-01    2           6        -5   # BR(H+ -> t       bb     )
     1.68184743E-06    2          24        25   # BR(H+ -> W+      h      )
     2.37089644E-14    2          24        36   # BR(H+ -> W+      A      )
     6.25133765E-02    2     1000024   1000022   # BR(H+ -> ~chi_1+ ~chi_10)
     1.02338438E-05    2     1000024   1000023   # BR(H+ -> ~chi_1+ ~chi_20)
     2.29680578E-02    2     1000024   1000025   # BR(H+ -> ~chi_1+ ~chi_30)
     1.58189666E-01    2     1000024   1000035   # BR(H+ -> ~chi_1+ ~chi_40)
     4.38053479E-02    2     1000037   1000022   # BR(H+ -> ~chi_2+ ~chi_10)
     1.56789828E-01    2     1000037   1000023   # BR(H+ -> ~chi_2+ ~chi_20)
     1.16640326E-01    2     1000037   1000025   # BR(H+ -> ~chi_2+ ~chi_30)
     2.12317075E-04    2     1000006  -1000005   # BR(H+ -> ~t_1    ~b_1*  )
     1.05523147E-02    2     2000006  -1000005   # BR(H+ -> ~t_2    ~b_1*  )
