#
#                              ======================
#                              | THE SUSYHIT OUTPUT |
#                              ======================
#
#
#              ------------------------------------------------------
#              |     This is the output of the SUSY-HIT package     |
#              |  created by A.Djouadi, M.Muehlleitner and M.Spira. |
#              |  In case of problems with SUSY-HIT email to        |
#              |           margarete.muehlleitner@kit.edu           |
#              |           michael.spira@psi.ch                     |
#              |           abdelhak.djouadi@cern.ch                 |
#              ------------------------------------------------------
#
#              ------------------------------------------------------
#              |  SUSY Les Houches Accord - MSSM Spectrum + Decays  |
#              |              based on the decay programs           |
#              |                                                    |
#              |                     SDECAY 1.5                     |
#              |                                                    |
#              |  Authors: M.Muhlleitner, A.Djouadi and Y.Mambrini  |
#              |  Ref.:    Comput.Phys.Commun.168(2005)46           |
#              |           [hep-ph/0311167]                         |
#              |                                                    |
#              |                     HDECAY 3.4                     |
#              |                                                    |
#              |  By: A.Djouadi,J.Kalinowski,M.Muhlleitner,M.Spira  |
#              |  Ref.:    Comput.Phys.Commun.108(1998)56           |
#              |           [hep-ph/9704448]                         |
#              |                                                    |
#              |                                                    |
#              |  If not stated otherwise all DRbar couplings and   |
#              |  soft SUSY breaking masses are given at the scale  |
#              |  Q=  0.13017152E+04
#              |                                                    |
#              ------------------------------------------------------
#
#
BLOCK DCINFO  # Decay Program information
     1   SDECAY/HDECAY # decay calculator
     2   1.5  /3.4    # version number
#
BLOCK SPINFO  # Spectrum calculator information
     1    SOFTSUSY    # spectrum calculator                
     2    3.7.3       # version number                     
#
BLOCK MODSEL  # Model selection
     1     0   #  nonUniversal                                     
#
BLOCK SMINPUTS  # Standard Model inputs
         1     1.27934000E+02   # alpha_em^-1(M_Z)^MSbar
         2     1.16639000E-05   # G_F [GeV^-2]
         3     1.17200000E-01   # alpha_S(M_Z)^MSbar
         4     9.11870000E+01   # M_Z pole mass
         5     4.19000000E+00   # mb(mb)^MSbar
         6     1.72500000E+02   # mt pole mass
         7     1.77690000E+00   # mtau pole mass
#
BLOCK MINPAR  # Input parameters - minimal models
         3     2.00000000E+01   # tanb                
#
BLOCK EXTPAR  # Input parameters - non-minimal models
         0    -1.00000000E+00   # Set                 
         1     1.59990000E+02   # M_1(MX)             
         2     2.00000000E+03   # M_2(MX)             
         3     1.80000000E+03   # M_3(MX)             
        11     2.64959179E+03   # At(MX)              
        12     0.00000000E+00   # Ab(MX)              
        13     0.00000000E+00   # Atau(MX)            
        23    -1.85900000E+02   # mu(MX)              
        25     2.00000000E+01   # tan                 
        26     4.00000000E+03   # mA(pole)            
        31     4.00000000E+03   # meL(MX)             
        32     4.00000000E+03   # mmuL(MX)            
        33     4.00000000E+03   # mtauL(MX)           
        34     4.00000000E+03   # meR(MX)             
        35     4.00000000E+03   # mmuR(MX)            
        36     4.00000000E+03   # mtauR(MX)           
        41     4.00000000E+03   # mqL1(MX)            
        42     4.00000000E+03   # mqL2(MX)            
        43     9.09900000E+02   # mqL3(MX)            
        44     4.00000000E+03   # muR(MX)             
        45     4.00000000E+03   # mcR(MX)             
        46     1.88485961E+03   # mtR(MX)             
        47     4.00000000E+03   # mdR(MX)             
        48     4.00000000E+03   # msR(MX)             
        49     4.00000000E+03   # mbR(MX)             
#
BLOCK MASS  # Mass Spectrum
# PDG code           mass       particle
        24     8.04168710E+01   # W+
        25     1.25997546E+02   # h
        35     4.00000368E+03   # H
        36     3.99999656E+03   # A
        37     4.00106488E+03   # H+
         5     4.81337004E+00   # b-quark pole mass calculated from mb(mb)_Msbar
   1000001     4.02595183E+03   # ~d_L
   2000001     4.02259105E+03   # ~d_R
   1000002     4.02530005E+03   # ~u_L
   2000002     4.02338004E+03   # ~u_R
   1000003     4.02595183E+03   # ~s_L
   2000003     4.02259105E+03   # ~s_R
   1000004     4.02530005E+03   # ~c_L
   2000004     4.02338004E+03   # ~c_R
   1000005     9.67683305E+02   # ~b_1
   2000005     4.02538820E+03   # ~b_2
   1000006     9.45485101E+02   # ~t_1
   2000006     1.90074732E+03   # ~t_2
   1000011     4.00458333E+03   # ~e_L
   2000011     4.00346188E+03   # ~e_R
   1000012     4.00346945E+03   # ~nu_eL
   1000013     4.00458333E+03   # ~mu_L
   2000013     4.00346188E+03   # ~mu_R
   1000014     4.00346945E+03   # ~nu_muL
   1000015     4.00534512E+03   # ~tau_1
   2000015     4.00702526E+03   # ~tau_2
   1000016     4.00491233E+03   # ~nu_tauL
   1000021     1.97813658E+03   # ~g
   1000022     1.45868833E+02   # ~chi_10
   1000023    -1.95993810E+02   # ~chi_20
   1000025     2.09738010E+02   # ~chi_30
   1000035     2.05220160E+03   # ~chi_40
   1000024     1.92209587E+02   # ~chi_1+
   1000037     2.05236612E+03   # ~chi_2+
#
BLOCK NMIX  # Neutralino Mixing Matrix
  1  1     8.15393957E-01   # N_11
  1  2    -1.34553291E-02   # N_12
  1  3    -4.64007563E-01   # N_13
  1  4    -3.45902633E-01   # N_14
  2  1    -9.37555399E-02   # N_21
  2  2     2.63856225E-02   # N_22
  2  3    -6.95913355E-01   # N_23
  2  4     7.11490196E-01   # N_24
  3  1     5.71263282E-01   # N_31
  3  2     2.51543767E-02   # N_32
  3  3     5.48086487E-01   # N_33
  3  4     6.10431587E-01   # N_34
  4  1    -9.25278284E-04   # N_41
  4  2     9.99244720E-01   # N_42
  4  3    -1.66930213E-03   # N_43
  4  4    -3.88116852E-02   # N_44
#
BLOCK UMIX  # Chargino Mixing Matrix U
  1  1     2.36543337E-03   # U_11
  1  2     9.99997202E-01   # U_12
  2  1    -9.99997202E-01   # U_21
  2  2     2.36543337E-03   # U_22
#
BLOCK VMIX  # Chargino Mixing Matrix V
  1  1     5.49008083E-02   # V_11
  1  2    -9.98491813E-01   # V_12
  2  1    -9.98491813E-01   # V_21
  2  2    -5.49008083E-02   # V_22
#
BLOCK STOPMIX  # Stop Mixing Matrix
  1  1     9.89968366E-01   # cos(theta_t)
  1  2    -1.41289187E-01   # sin(theta_t)
  2  1     1.41289187E-01   # -sin(theta_t)
  2  2     9.89968366E-01   # cos(theta_t)
#
BLOCK SBOTMIX  # Sbottom Mixing Matrix
  1  1     9.99999824E-01   # cos(theta_b)
  1  2    -5.93295853E-04   # sin(theta_b)
  2  1     5.93295853E-04   # -sin(theta_b)
  2  2     9.99999824E-01   # cos(theta_b)
#
BLOCK STAUMIX  # Stau Mixing Matrix
  1  1    -7.04649434E-01   # cos(theta_tau)
  1  2     7.09555618E-01   # sin(theta_tau)
  2  1    -7.09555618E-01   # -sin(theta_tau)
  2  2    -7.04649434E-01   # cos(theta_tau)
#
BLOCK ALPHA  # Higgs mixing
          -5.00315480E-02   # Mixing angle in the neutral Higgs boson sector
#
BLOCK HMIX Q=  1.30171520E+03  # DRbar Higgs Parameters
         1    -1.85900000E+02   # mu(Q)MSSM           
         2     2.00000000E+01   # tan                 
         3     2.43534182E+02   # higgs               
         4     1.60760013E+07   # mA^2(Q)MSSM         
#
BLOCK GAUGE Q=  1.30171520E+03  # The gauge couplings
     1     3.62063857E-01   # gprime(Q) DRbar
     2     6.36822699E-01   # g(Q) DRbar
     3     1.03008573E+00   # g3(Q) DRbar
#
BLOCK AU Q=  1.30171520E+03  # The trilinear couplings
  1  1     0.00000000E+00   # A_u(Q) DRbar
  2  2     1.37164296E-06   # A_c(Q) DRbar
  3  3     2.64959179E+03   # A_t(Q) DRbar
#
BLOCK AD Q=  1.30171520E+03  # The trilinear couplings
  1  1     5.02206691E-07   # A_d(Q) DRbar
  2  2     5.02253639E-07   # A_s(Q) DRbar
  3  3     9.00075867E-07   # A_b(Q) DRbar
#
BLOCK AE Q=  1.30171520E+03  # The trilinear couplings
  1  1     0.00000000E+00   # A_e(Q) DRbar
  2  2     1.08277460E-07   # A_mu(Q) DRbar
  3  3     1.09390807E-07   # A_tau(Q) DRbar
#
BLOCK Yu Q=  1.30171520E+03  # The Yukawa couplings
  1  1     0.00000000E+00   # y_u(Q) DRbar
  2  2     0.00000000E+00   # y_c(Q) DRbar
  3  3     8.68507530E-01   # y_t(Q) DRbar
#
BLOCK Yd Q=  1.30171520E+03  # The Yukawa couplings
  1  1     0.00000000E+00   # y_d(Q) DRbar
  2  2     0.00000000E+00   # y_s(Q) DRbar
  3  3     2.81153613E-01   # y_b(Q) DRbar
#
BLOCK Ye Q=  1.30171520E+03  # The Yukawa couplings
  1  1     0.00000000E+00   # y_e(Q) DRbar
  2  2     0.00000000E+00   # y_mu(Q) DRbar
  3  3     2.04037573E-01   # y_tau(Q) DRbar
#
BLOCK MSOFT Q=  1.30171520E+03  # The soft SUSY breaking masses at the scale Q
         1     1.59990000E+02   # M_1(Q)              
         2     2.00000000E+03   # M_2(Q)              
         3     1.80000000E+03   # M_3(Q)              
        21     1.58554762E+07   # M^2_Hd              
        22     5.61500987E+03   # M^2_Hu              
        31     4.00000000E+03   # M_eL                
        32     4.00000000E+03   # M_muL               
        33     4.00000000E+03   # M_tauL              
        34     4.00000000E+03   # M_eR                
        35     4.00000000E+03   # M_muR               
        36     4.00000000E+03   # M_tauR              
        41     4.00000000E+03   # M_q1L               
        42     4.00000000E+03   # M_q2L               
        43     9.09899997E+02   # M_q3L               
        44     4.00000000E+03   # M_uR                
        45     4.00000000E+03   # M_cR                
        46     1.88485961E+03   # M_tR                
        47     4.00000000E+03   # M_dR                
        48     4.00000000E+03   # M_sR                
        49     4.00000000E+03   # M_bR                
#
#
#
#                             =================
#                             |The decay table|
#                             =================
#
# - The QCD corrections to the decays gluino -> squark  + quark
#                                     squark -> gaugino + quark_prime
#                                     squark -> squark_prime + Higgs
#                                     squark -> gluino  + quark
#   are included.
#
# - The multi-body decays for the inos, stops and sbottoms are included.
#
# - The loop induced decays for the gluino, neutralinos and stops
#   are included.
#
# - The SUSY decays of the top quark are included.
#
#
#         PDG            Width
DECAY         6     1.40697842E+00   # top decays
#          BR         NDA      ID1       ID2
     1.00000000E+00    2           5        24   # BR(t ->  b    W+)
#
#         PDG            Width
DECAY   1000021     4.96058936E+01   # gluino decays
#          BR         NDA      ID1       ID2
     2.40091167E-01    2     1000005        -5   # BR(~g -> ~b_1  bb)
     2.40091167E-01    2    -1000005         5   # BR(~g -> ~b_1* b )
     2.59908833E-01    2     1000006        -6   # BR(~g -> ~t_1  tb)
     2.59908833E-01    2    -1000006         6   # BR(~g -> ~t_1* t )
#
#         PDG            Width
DECAY   1000006     1.35343669E+01   # stop1 decays
#          BR         NDA      ID1       ID2
     9.99715180E-02    2     1000022         6   # BR(~t_1 -> ~chi_10 t )
     4.36346807E-01    2     1000023         6   # BR(~t_1 -> ~chi_20 t )
     3.58615549E-01    2     1000025         6   # BR(~t_1 -> ~chi_30 t )
     1.05066126E-01    2     1000024         5   # BR(~t_1 -> ~chi_1+ b )
#
#         PDG            Width
DECAY   2000006     1.20220158E+02   # stop2 decays
#          BR         NDA      ID1       ID2
     5.38667242E-02    2     1000022         6   # BR(~t_2 -> ~chi_10 t )
     1.15125194E-01    2     1000023         6   # BR(~t_2 -> ~chi_20 t )
     8.84799781E-02    2     1000025         6   # BR(~t_2 -> ~chi_30 t )
     2.22960729E-01    2     1000024         5   # BR(~t_2 -> ~chi_1+ b )
     1.60063387E-01    2     1000006        25   # BR(~t_2 -> ~t_1    h )
     1.22184406E-01    2     1000006        23   # BR(~t_2 -> ~t_1    Z )
     2.37319581E-01    2     1000005        24   # BR(~t_2 -> ~b_1    W+)
#
#         PDG            Width
DECAY   1000005     1.39765859E+01   # sbottom1 decays
#          BR         NDA      ID1       ID2
     2.94238856E-02    2     1000022         5   # BR(~b_1 -> ~chi_10 b )
     4.75121351E-02    2     1000023         5   # BR(~b_1 -> ~chi_20 b )
     3.05166025E-02    2     1000025         5   # BR(~b_1 -> ~chi_30 b )
     8.92547377E-01    2    -1000024         6   # BR(~b_1 -> ~chi_1- t )
#
#         PDG            Width
DECAY   2000005     1.66041141E+02   # sbottom2 decays
#          BR         NDA      ID1       ID2
     1.67643480E-02    2     1000022         5   # BR(~b_2 -> ~chi_10 b )
     1.76338908E-02    2     1000023         5   # BR(~b_2 -> ~chi_20 b )
     1.52585337E-02    2     1000025         5   # BR(~b_2 -> ~chi_30 b )
     1.32615354E-07    2     1000035         5   # BR(~b_2 -> ~chi_40 b )
     3.60653210E-02    2    -1000024         6   # BR(~b_2 -> ~chi_1- t )
     2.52684137E-07    2    -1000037         6   # BR(~b_2 -> ~chi_2- t )
     9.14121966E-01    2     1000021         5   # BR(~b_2 -> ~g      b )
     3.59241406E-05    2     1000005        25   # BR(~b_2 -> ~b_1    h )
     4.44181460E-05    2     1000005        23   # BR(~b_2 -> ~b_1    Z )
     7.44627127E-05    2     1000006       -24   # BR(~b_2 -> ~t_1    W-)
     7.50587664E-07    2     2000006       -24   # BR(~b_2 -> ~t_2    W-)
#
#         PDG            Width
DECAY   1000002     1.78249709E+02   # sup_L decays
#          BR         NDA      ID1       ID2
     1.74206601E-03    2     1000022         2   # BR(~u_L -> ~chi_10 u)
     6.48772602E-06    2     1000023         2   # BR(~u_L -> ~chi_20 u)
     1.55411862E-03    2     1000025         2   # BR(~u_L -> ~chi_30 u)
     4.82569120E-02    2     1000035         2   # BR(~u_L -> ~chi_40 u)
     5.26736123E-04    2     1000024         1   # BR(~u_L -> ~chi_1+ d)
     9.63914903E-02    2     1000037         1   # BR(~u_L -> ~chi_2+ d)
     8.51522189E-01    2     1000021         2   # BR(~u_L -> ~g      u)
#
#         PDG            Width
DECAY   2000002     1.60573116E+02   # sup_R decays
#          BR         NDA      ID1       ID2
     3.71070028E-02    2     1000022         2   # BR(~u_R -> ~chi_10 u)
     4.89644377E-04    2     1000023         2   # BR(~u_R -> ~chi_20 u)
     1.81669833E-02    2     1000025         2   # BR(~u_R -> ~chi_30 u)
     2.63743450E-08    2     1000035         2   # BR(~u_R -> ~chi_40 u)
     9.44236343E-01    2     1000021         2   # BR(~u_R -> ~g      u)
#
#         PDG            Width
DECAY   1000001     1.78269350E+02   # sdown_L decays
#          BR         NDA      ID1       ID2
     2.47020710E-03    2     1000022         1   # BR(~d_L -> ~chi_10 d)
     1.70330844E-04    2     1000023         1   # BR(~d_L -> ~chi_20 d)
     6.03083815E-04    2     1000025         1   # BR(~d_L -> ~chi_30 d)
     4.83042632E-02    2     1000035         1   # BR(~d_L -> ~chi_40 d)
     9.77870788E-07    2    -1000024         2   # BR(~d_L -> ~chi_1- u)
     9.67093246E-02    2    -1000037         2   # BR(~d_L -> ~chi_2- u)
     8.51741813E-01    2     1000021         1   # BR(~d_L -> ~g      d)
#
#         PDG            Width
DECAY   2000001     1.53789410E+02   # sdown_R decays
#          BR         NDA      ID1       ID2
     9.68400615E-03    2     1000022         1   # BR(~d_R -> ~chi_10 d)
     1.27784927E-04    2     1000023         1   # BR(~d_R -> ~chi_20 d)
     4.74112676E-03    2     1000025         1   # BR(~d_R -> ~chi_30 d)
     6.88118539E-09    2     1000035         1   # BR(~d_R -> ~chi_40 d)
     9.85447075E-01    2     1000021         1   # BR(~d_R -> ~g      d)
#
#         PDG            Width
DECAY   1000004     1.78249709E+02   # scharm_L decays
#          BR         NDA      ID1       ID2
     1.74206601E-03    2     1000022         4   # BR(~c_L -> ~chi_10 c)
     6.48772602E-06    2     1000023         4   # BR(~c_L -> ~chi_20 c)
     1.55411862E-03    2     1000025         4   # BR(~c_L -> ~chi_30 c)
     4.82569120E-02    2     1000035         4   # BR(~c_L -> ~chi_40 c)
     5.26736123E-04    2     1000024         3   # BR(~c_L -> ~chi_1+ s)
     9.63914903E-02    2     1000037         3   # BR(~c_L -> ~chi_2+ s)
     8.51522189E-01    2     1000021         4   # BR(~c_L -> ~g      c)
#
#         PDG            Width
DECAY   2000004     1.60573116E+02   # scharm_R decays
#          BR         NDA      ID1       ID2
     3.71070028E-02    2     1000022         4   # BR(~c_R -> ~chi_10 c)
     4.89644377E-04    2     1000023         4   # BR(~c_R -> ~chi_20 c)
     1.81669833E-02    2     1000025         4   # BR(~c_R -> ~chi_30 c)
     2.63743450E-08    2     1000035         4   # BR(~c_R -> ~chi_40 c)
     9.44236343E-01    2     1000021         4   # BR(~c_R -> ~g      c)
#
#         PDG            Width
DECAY   1000003     1.78269350E+02   # sstrange_L decays
#          BR         NDA      ID1       ID2
     2.47020710E-03    2     1000022         3   # BR(~s_L -> ~chi_10 s)
     1.70330844E-04    2     1000023         3   # BR(~s_L -> ~chi_20 s)
     6.03083815E-04    2     1000025         3   # BR(~s_L -> ~chi_30 s)
     4.83042632E-02    2     1000035         3   # BR(~s_L -> ~chi_40 s)
     9.77870788E-07    2    -1000024         4   # BR(~s_L -> ~chi_1- c)
     9.67093246E-02    2    -1000037         4   # BR(~s_L -> ~chi_2- c)
     8.51741813E-01    2     1000021         3   # BR(~s_L -> ~g      s)
#
#         PDG            Width
DECAY   2000003     1.53789410E+02   # sstrange_R decays
#          BR         NDA      ID1       ID2
     9.68400615E-03    2     1000022         3   # BR(~s_R -> ~chi_10 s)
     1.27784927E-04    2     1000023         3   # BR(~s_R -> ~chi_20 s)
     4.74112676E-03    2     1000025         3   # BR(~s_R -> ~chi_30 s)
     6.88118539E-09    2     1000035         3   # BR(~s_R -> ~chi_40 s)
     9.85447075E-01    2     1000021         3   # BR(~s_R -> ~g      s)
#
#         PDG            Width
DECAY   1000011     3.15704596E+01   # selectron_L decays
#          BR         NDA      ID1       ID2
     1.03405942E-01    2     1000022        11   # BR(~e_L -> ~chi_10 e-)
     3.69014382E-04    2     1000023        11   # BR(~e_L -> ~chi_20 e-)
     6.23198437E-02    2     1000025        11   # BR(~e_L -> ~chi_30 e-)
     2.77513688E-01    2     1000035        11   # BR(~e_L -> ~chi_40 e-)
     5.69982817E-06    2    -1000024        12   # BR(~e_L -> ~chi_1- nu_e)
     5.56385812E-01    2    -1000037        12   # BR(~e_L -> ~chi_2- nu_e)
#
#         PDG            Width
DECAY   2000011     2.08066355E+01   # selectron_R decays
#          BR         NDA      ID1       ID2
     6.65495978E-01    2     1000022        11   # BR(~e_R -> ~chi_10 e-)
     8.77958445E-03    2     1000023        11   # BR(~e_R -> ~chi_20 e-)
     3.25723971E-01    2     1000025        11   # BR(~e_R -> ~chi_30 e-)
     4.67003515E-07    2     1000035        11   # BR(~e_R -> ~chi_40 e-)
#
#         PDG            Width
DECAY   1000013     3.15704596E+01   # smuon_L decays
#          BR         NDA      ID1       ID2
     1.03405942E-01    2     1000022        13   # BR(~mu_L -> ~chi_10 mu-)
     3.69014382E-04    2     1000023        13   # BR(~mu_L -> ~chi_20 mu-)
     6.23198437E-02    2     1000025        13   # BR(~mu_L -> ~chi_30 mu-)
     2.77513688E-01    2     1000035        13   # BR(~mu_L -> ~chi_40 mu-)
     5.69982817E-06    2    -1000024        14   # BR(~mu_L -> ~chi_1- nu_mu)
     5.56385812E-01    2    -1000037        14   # BR(~mu_L -> ~chi_2- nu_mu)
#
#         PDG            Width
DECAY   2000013     2.08066355E+01   # smuon_R decays
#          BR         NDA      ID1       ID2
     6.65495978E-01    2     1000022        13   # BR(~mu_R -> ~chi_10 mu-)
     8.77958445E-03    2     1000023        13   # BR(~mu_R -> ~chi_20 mu-)
     3.25723971E-01    2     1000025        13   # BR(~mu_R -> ~chi_30 mu-)
     4.67003515E-07    2     1000035        13   # BR(~mu_R -> ~chi_40 mu-)
#
#         PDG            Width
DECAY   1000015     3.11479766E+01   # stau_1 decays
#          BR         NDA      ID1       ID2
     3.50725957E-01    2     1000022        15   # BR(~tau_1 -> ~chi_10  tau-)
     4.14978720E-02    2     1000023        15   # BR(~tau_1 -> ~chi_20  tau-)
     1.34390767E-01    2     1000025        15   # BR(~tau_1 -> ~chi_30  tau-)
     1.39514445E-01    2     1000035        15   # BR(~tau_1 -> ~chi_40  tau-)
     5.41593544E-02    2    -1000024        16   # BR(~tau_1 -> ~chi_1-  nu_tau)
     2.79711605E-01    2    -1000037        16   # BR(~tau_1 -> ~chi_2-  nu_tau)
#
#         PDG            Width
DECAY   2000015     3.11798710E+01   # stau_2 decays
#          BR         NDA      ID1       ID2
     2.44454672E-01    2     1000022        15   # BR(~tau_2 -> ~chi_10  tau-)
     6.73684551E-02    2     1000023        15   # BR(~tau_2 -> ~chi_20  tau-)
     2.09977884E-01    2     1000025        15   # BR(~tau_2 -> ~chi_30  tau-)
     1.41892239E-01    2     1000035        15   # BR(~tau_2 -> ~chi_40  tau-)
     5.18274378E-02    2    -1000024        16   # BR(~tau_2 -> ~chi_1-  nu_tau)
     2.84479311E-01    2    -1000037        16   # BR(~tau_2 -> ~chi_2-  nu_tau)
#
#         PDG            Width
DECAY   1000012     3.15810383E+01   # snu_eL decays
#          BR         NDA      ID1       ID2
     1.16068106E-01    2     1000022        12   # BR(~nu_eL -> ~chi_10 nu_e)
     3.23200251E-03    2     1000023        12   # BR(~nu_eL -> ~chi_20 nu_e)
     4.56612350E-02    2     1000025        12   # BR(~nu_eL -> ~chi_30 nu_e)
     2.77818058E-01    2     1000035        12   # BR(~nu_eL -> ~chi_40 nu_e)
     3.06852997E-03    2     1000024        11   # BR(~nu_eL -> ~chi_1+ e-)
     5.54152069E-01    2     1000037        11   # BR(~nu_eL -> ~chi_2+ e-)
#
#         PDG            Width
DECAY   1000014     3.15810383E+01   # snu_muL decays
#          BR         NDA      ID1       ID2
     1.16068106E-01    2     1000022        14   # BR(~nu_muL -> ~chi_10 nu_mu)
     3.23200251E-03    2     1000023        14   # BR(~nu_muL -> ~chi_20 nu_mu)
     4.56612350E-02    2     1000025        14   # BR(~nu_muL -> ~chi_30 nu_mu)
     2.77818058E-01    2     1000035        14   # BR(~nu_muL -> ~chi_40 nu_mu)
     3.06852997E-03    2     1000024        13   # BR(~nu_muL -> ~chi_1+ mu-)
     5.54152069E-01    2     1000037        13   # BR(~nu_muL -> ~chi_2+ mu-)
#
#         PDG            Width
DECAY   1000016     3.49076667E+01   # snu_tauL decays
#          BR         NDA      ID1       ID2
     1.05045102E-01    2     1000022        16   # BR(~nu_tauL -> ~chi_10 nu_tau)
     2.92506332E-03    2     1000023        16   # BR(~nu_tauL -> ~chi_20 nu_tau)
     4.13248661E-02    2     1000025        16   # BR(~nu_tauL -> ~chi_30 nu_tau)
     2.51562297E-01    2     1000035        16   # BR(~nu_tauL -> ~chi_40 nu_tau)
     9.73623595E-02    2     1000024        15   # BR(~nu_tauL -> ~chi_1+ tau-)
     5.01780312E-01    2     1000037        15   # BR(~nu_tauL -> ~chi_2+ tau-)
#
#         PDG            Width
DECAY   1000024     7.64343697E-05   # chargino1+ decays
#           BR         NDA      ID1       ID2       ID3
     3.33597861E-01    3     1000022         2        -1   # BR(~chi_1+ -> ~chi_10 u    db)
     3.33597861E-01    3     1000022         4        -3   # BR(~chi_1+ -> ~chi_10 c    sb)
     1.11200342E-01    3     1000022       -11        12   # BR(~chi_1+ -> ~chi_10 e+   nu_e)
     1.11200342E-01    3     1000022       -13        14   # BR(~chi_1+ -> ~chi_10 mu+  nu_mu)
     1.10403592E-01    3     1000022       -15        16   # BR(~chi_1+ -> ~chi_10 tau+ nu_tau)
#
#         PDG            Width
DECAY   1000037     5.17047875E+01   # chargino2+ decays
#          BR         NDA      ID1       ID2
     3.53575217E-01    2     1000006        -5   # BR(~chi_2+ -> ~t_1     bb)
     5.41683091E-05    2     2000006        -5   # BR(~chi_2+ -> ~t_2     bb)
     3.36713204E-01    2    -1000005         6   # BR(~chi_2+ -> ~b_1*    t )
     7.86710511E-02    2     1000024        23   # BR(~chi_2+ -> ~chi_1+  Z )
     1.65142151E-02    2     1000022        24   # BR(~chi_2+ -> ~chi_10  W+)
     7.71718546E-02    2     1000023        24   # BR(~chi_2+ -> ~chi_20  W+)
     5.95677025E-02    2     1000025        24   # BR(~chi_2+ -> ~chi_30  W+)
     7.77325873E-02    2     1000024        25   # BR(~chi_2+ -> ~chi_1+  h )
#
#         PDG            Width
DECAY   1000022     0.00000000E+00   # neutralino1 decays
#
#         PDG            Width
DECAY   1000023     8.33060514E-05   # neutralino2 decays
#          BR         NDA      ID1       ID2
     1.14213026E-03    2     1000022        22   # BR(~chi_20 -> ~chi_10 gam)
#           BR         NDA      ID1       ID2       ID3
     1.18089336E-01    3     1000022        -2         2   # BR(~chi_20 -> ~chi_10 ub      u)
     1.53162739E-01    3     1000022        -1         1   # BR(~chi_20 -> ~chi_10 db      d)
     1.18089336E-01    3     1000022        -4         4   # BR(~chi_20 -> ~chi_10 cb      c)
     1.53162739E-01    3     1000022        -3         3   # BR(~chi_20 -> ~chi_10 sb      s)
     1.40747137E-01    3     1000022        -5         5   # BR(~chi_20 -> ~chi_10 bb      b)
     3.51109317E-02    3     1000022       -11        11   # BR(~chi_20 -> ~chi_10 e+      e-)
     3.51109317E-02    3     1000022       -13        13   # BR(~chi_20 -> ~chi_10 mu+     mu-)
     3.47708568E-02    3     1000022       -15        15   # BR(~chi_20 -> ~chi_10 tau+    tau-)
     7.01980179E-02    3     1000022       -12        12   # BR(~chi_20 -> ~chi_10 nu_eb   nu_e)
     7.01980179E-02    3     1000022       -14        14   # BR(~chi_20 -> ~chi_10 nu_mub  nu_mu)
     7.01980155E-02    3     1000022       -16        16   # BR(~chi_20 -> ~chi_10 nu_taub nu_tau)
     3.56251909E-06    3     1000024        -2         1   # BR(~chi_20 -> ~chi_1+ ub      d)
     3.56251909E-06    3    -1000024        -1         2   # BR(~chi_20 -> ~chi_1- db      u)
     3.56251909E-06    3     1000024        -4         3   # BR(~chi_20 -> ~chi_1+ cb      s)
     3.56251909E-06    3    -1000024        -3         4   # BR(~chi_20 -> ~chi_1- sb      c)
     1.18750839E-06    3     1000024       -12        11   # BR(~chi_20 -> ~chi_1+ nu_eb   e-)
     1.18750839E-06    3    -1000024        12       -11   # BR(~chi_20 -> ~chi_1- nu_e    e+)
     1.18750839E-06    3     1000024       -14        13   # BR(~chi_20 -> ~chi_1+ nu_mub  mu-)
     1.18750839E-06    3    -1000024        14       -13   # BR(~chi_20 -> ~chi_1- nu_mu   mu+)
     4.05537302E-07    3     1000024       -16        15   # BR(~chi_20 -> ~chi_1+ nu_taub tau-)
     4.05537302E-07    3    -1000024        16       -15   # BR(~chi_20 -> ~chi_1- nu_tau  tau+)
#
#         PDG            Width
DECAY   1000025     1.01031664E-05   # neutralino3 decays
#          BR         NDA      ID1       ID2
     2.65364101E-02    2     1000022        22   # BR(~chi_30 -> ~chi_10 gam)
     5.98340474E-02    2     1000023        22   # BR(~chi_30 -> ~chi_20 gam)
#           BR         NDA      ID1       ID2       ID3
     7.66275753E-02    3     1000022        -2         2   # BR(~chi_30 -> ~chi_10 ub      u)
     9.91201564E-02    3     1000022        -1         1   # BR(~chi_30 -> ~chi_10 db      d)
     7.66275753E-02    3     1000022        -4         4   # BR(~chi_30 -> ~chi_10 cb      c)
     9.91201564E-02    3     1000022        -3         3   # BR(~chi_30 -> ~chi_10 sb      s)
     9.38453987E-02    3     1000022        -5         5   # BR(~chi_30 -> ~chi_10 bb      b)
     2.25109092E-02    3     1000022       -11        11   # BR(~chi_30 -> ~chi_10 e+      e-)
     2.25109092E-02    3     1000022       -13        13   # BR(~chi_30 -> ~chi_10 mu+     mu-)
     2.23451662E-02    3     1000022       -15        15   # BR(~chi_30 -> ~chi_10 tau+    tau-)
     4.55301558E-02    3     1000022       -12        12   # BR(~chi_30 -> ~chi_10 nu_eb   nu_e)
     4.55301558E-02    3     1000022       -14        14   # BR(~chi_30 -> ~chi_10 nu_mub  nu_mu)
     4.55300941E-02    3     1000022       -16        16   # BR(~chi_30 -> ~chi_10 nu_taub nu_tau)
     3.48736676E-03    3     1000023        -2         2   # BR(~chi_30 -> ~chi_20 ub      u)
     4.52343233E-03    3     1000023        -1         1   # BR(~chi_30 -> ~chi_20 db      d)
     3.48736676E-03    3     1000023        -4         4   # BR(~chi_30 -> ~chi_20 cb      c)
     4.52343233E-03    3     1000023        -3         3   # BR(~chi_30 -> ~chi_20 sb      s)
     1.16973097E-03    3     1000023        -5         5   # BR(~chi_30 -> ~chi_20 bb      b)
     1.03714649E-03    3     1000023       -11        11   # BR(~chi_30 -> ~chi_20 e+      e-)
     1.03714649E-03    3     1000023       -13        13   # BR(~chi_30 -> ~chi_20 mu+     mu-)
     9.41458700E-04    3     1000023       -15        15   # BR(~chi_30 -> ~chi_20 tau+    tau-)
     2.07300795E-03    3     1000023       -12        12   # BR(~chi_30 -> ~chi_20 nu_eb   nu_e)
     2.07300795E-03    3     1000023       -14        14   # BR(~chi_30 -> ~chi_20 nu_mub  nu_mu)
     2.07300798E-03    3     1000023       -16        16   # BR(~chi_30 -> ~chi_20 nu_taub nu_tau)
     3.98693573E-02    3     1000024        -2         1   # BR(~chi_30 -> ~chi_1+ ub      d)
     3.98693573E-02    3    -1000024        -1         2   # BR(~chi_30 -> ~chi_1- db      u)
     3.98693573E-02    3     1000024        -4         3   # BR(~chi_30 -> ~chi_1+ cb      s)
     3.98693573E-02    3    -1000024        -3         4   # BR(~chi_30 -> ~chi_1- sb      c)
     1.32896144E-02    3     1000024       -12        11   # BR(~chi_30 -> ~chi_1+ nu_eb   e-)
     1.32896144E-02    3    -1000024        12       -11   # BR(~chi_30 -> ~chi_1- nu_e    e+)
     1.32896144E-02    3     1000024       -14        13   # BR(~chi_30 -> ~chi_1+ nu_mub  mu-)
     1.32896144E-02    3    -1000024        14       -13   # BR(~chi_30 -> ~chi_1- nu_mu   mu+)
     1.26346494E-02    3     1000024       -16        15   # BR(~chi_30 -> ~chi_1+ nu_taub tau-)
     1.26346494E-02    3    -1000024        16       -15   # BR(~chi_30 -> ~chi_1- nu_tau  tau+)
#
#         PDG            Width
DECAY   1000035     5.16923497E+01   # neutralino4 decays
#          BR         NDA      ID1       ID2
     8.46632614E-03    2     1000022        23   # BR(~chi_40 -> ~chi_10   Z )
     4.31845236E-02    2     1000023        23   # BR(~chi_40 -> ~chi_20   Z )
     2.70120190E-02    2     1000025        23   # BR(~chi_40 -> ~chi_30   Z )
     7.67122134E-02    2     1000024       -24   # BR(~chi_40 -> ~chi_1+   W-)
     7.67122134E-02    2    -1000024        24   # BR(~chi_40 -> ~chi_1-   W+)
     8.37239750E-03    2     1000022        25   # BR(~chi_40 -> ~chi_10   h )
     3.54508132E-02    2     1000023        25   # BR(~chi_40 -> ~chi_20   h )
     3.36957328E-02    2     1000025        25   # BR(~chi_40 -> ~chi_30   h )
     1.72585378E-01    2     1000006        -6   # BR(~chi_40 -> ~t_1      tb)
     1.72585378E-01    2    -1000006         6   # BR(~chi_40 -> ~t_1*     t )
     1.72611503E-01    2     1000005        -5   # BR(~chi_40 -> ~b_1      bb)
     1.72611503E-01    2    -1000005         5   # BR(~chi_40 -> ~b_1*     b )
#
#         PDG            Width
DECAY        25     4.11101045E-03   # h decays
#          BR         NDA      ID1       ID2
     5.87860054E-01    2           5        -5   # BR(h -> b       bb     )
     6.36223646E-02    2         -15        15   # BR(h -> tau+    tau-   )
     2.25220761E-04    2         -13        13   # BR(h -> mu+     mu-    )
     4.77290556E-04    2           3        -3   # BR(h -> s       sb     )
     2.07253818E-02    2           4        -4   # BR(h -> c       cb     )
     6.79599572E-02    2          21        21   # BR(h -> g       g      )
     2.37022030E-03    2          22        22   # BR(h -> gam     gam    )
     1.66109934E-03    2          22        23   # BR(h -> Z       gam    )
     2.26292728E-01    2          24       -24   # BR(h -> W+      W-     )
     2.88056838E-02    2          23        23   # BR(h -> Z       Z      )
#
#         PDG            Width
DECAY        35     5.45668228E+01   # H decays
#          BR         NDA      ID1       ID2
     3.42891556E-01    2           5        -5   # BR(H -> b       bb     )
     6.07621206E-02    2         -15        15   # BR(H -> tau+    tau-   )
     2.14840141E-04    2         -13        13   # BR(H -> mu+     mu-    )
     2.54118871E-04    2           3        -3   # BR(H -> s       sb     )
     7.12891070E-08    2           4        -4   # BR(H -> c       cb     )
     7.14465271E-03    2           6        -6   # BR(H -> t       tb     )
     1.05139948E-06    2          21        21   # BR(H -> g       g      )
     5.08216660E-11    2          22        22   # BR(H -> gam     gam    )
     1.83303588E-09    2          23        22   # BR(H -> Z       gam    )
     2.05467885E-06    2          24       -24   # BR(H -> W+      W-     )
     1.02662765E-06    2          23        23   # BR(H -> Z       Z      )
     7.73386087E-06    2          25        25   # BR(H -> h       h      )
     3.99366104E-26    2          36        36   # BR(H -> A       A      )
    -1.08574119E-20    2          23        36   # BR(H -> Z       A      )
     1.85296330E-03    2     1000024  -1000024   # BR(H -> ~chi_1+ ~chi_1-)
     1.65814747E-01    2     1000024  -1000037   # BR(H -> ~chi_1+ ~chi_2-)
     1.65814747E-01    2     1000037  -1000024   # BR(H -> ~chi_2+ ~chi_1-)
     2.88064327E-02    2     1000022   1000022   # BR(H -> ~chi_10 ~chi_10)
     1.56123959E-03    2     1000023   1000023   # BR(H -> ~chi_20 ~chi_20)
     1.60540460E-02    2     1000025   1000025   # BR(H -> ~chi_30 ~chi_30)
     2.08794849E-02    2     1000022   1000023   # BR(H -> ~chi_10 ~chi_20)
     4.80180158E-03    2     1000022   1000025   # BR(H -> ~chi_10 ~chi_30)
     3.65967918E-02    2     1000022   1000035   # BR(H -> ~chi_10 ~chi_40)
     1.62350212E-02    2     1000023   1000025   # BR(H -> ~chi_20 ~chi_30)
     7.78106643E-02    2     1000023   1000035   # BR(H -> ~chi_20 ~chi_40)
     5.19020325E-02    2     1000025   1000035   # BR(H -> ~chi_30 ~chi_40)
     9.90817755E-05    2     1000006  -1000006   # BR(H -> ~t_1    ~t_1*  )
     2.63626000E-08    2     2000006  -2000006   # BR(H -> ~t_2    ~t_2*  )
     2.45782242E-04    2     1000006  -2000006   # BR(H -> ~t_1    ~t_2*  )
     2.45782242E-04    2     2000006  -1000006   # BR(H -> ~t_2    ~t_1*  )
     1.28967687E-07    2     1000005  -1000005   # BR(H -> ~b_1    ~b_1*  )
#
#         PDG            Width
DECAY        36     5.45631260E+01   # A decays
#          BR         NDA      ID1       ID2
     3.42940679E-01    2           5        -5   # BR(A -> b       bb     )
     6.07666220E-02    2         -15        15   # BR(A -> tau+    tau-   )
     2.14855888E-04    2         -13        13   # BR(A -> mu+     mu-    )
     2.54178926E-04    2           3        -3   # BR(A -> s       sb     )
     7.17409866E-08    2           4        -4   # BR(A -> c       cb     )
     7.15745081E-03    2           6        -6   # BR(A -> t       tb     )
     1.47067515E-05    2          21        21   # BR(A -> g       g      )
     4.68920689E-08    2          22        22   # BR(A -> gam     gam    )
     1.61657543E-08    2          23        22   # BR(A -> Z       gam    )
     2.05046129E-06    2          23        25   # BR(A -> Z       h      )
     1.85433844E-03    2     1000024  -1000024   # BR(A -> ~chi_1+ ~chi_1-)
     1.65829720E-01    2     1000024  -1000037   # BR(A -> ~chi_1+ ~chi_2-)
     1.65829720E-01    2     1000037  -1000024   # BR(A -> ~chi_2+ ~chi_1-)
     2.49466009E-02    2     1000022   1000022   # BR(A -> ~chi_10 ~chi_10)
     1.93482380E-03    2     1000023   1000023   # BR(A -> ~chi_20 ~chi_20)
     1.29871067E-02    2     1000025   1000025   # BR(A -> ~chi_30 ~chi_30)
     2.66274052E-02    2     1000022   1000023   # BR(A -> ~chi_10 ~chi_20)
     3.56372388E-03    2     1000022   1000025   # BR(A -> ~chi_10 ~chi_30)
     3.51601763E-02    2     1000022   1000035   # BR(A -> ~chi_10 ~chi_40)
     1.82822278E-02    2     1000023   1000025   # BR(A -> ~chi_20 ~chi_30)
     8.31901379E-02    2     1000023   1000035   # BR(A -> ~chi_20 ~chi_40)
     4.79118031E-02    2     1000025   1000035   # BR(A -> ~chi_30 ~chi_40)
     2.65768586E-04    2     1000006  -2000006   # BR(A -> ~t_1    ~t_2*  )
     2.65768586E-04    2    -1000006   2000006   # BR(A -> ~t_1*   ~t_2   )
#
#         PDG            Width
DECAY        37     5.44891473E+01   # H+ decays
#          BR         NDA      ID1       ID2
     5.47234504E-04    2           4        -5   # BR(H+ -> c       bb     )
     6.08653750E-02    2         -15        16   # BR(H+ -> tau+    nu_tau )
     2.15205055E-04    2         -13        14   # BR(H+ -> mu+     nu_mu  )
     3.50229781E-06    2           2        -5   # BR(H+ -> u       bb     )
     1.21917548E-05    2           2        -3   # BR(H+ -> u       sb     )
     2.50823601E-04    2           4        -3   # BR(H+ -> c       sb     )
     3.48825651E-01    2           6        -5   # BR(H+ -> t       bb     )
     2.05561002E-06    2          24        25   # BR(H+ -> W+      h      )
     3.36067552E-14    2          24        36   # BR(H+ -> W+      A      )
     5.56183523E-02    2     1000024   1000022   # BR(H+ -> ~chi_1+ ~chi_10)
     1.46178873E-04    2     1000024   1000023   # BR(H+ -> ~chi_1+ ~chi_20)
     3.32997502E-02    2     1000024   1000025   # BR(H+ -> ~chi_1+ ~chi_30)
     1.66270047E-01    2     1000024   1000035   # BR(H+ -> ~chi_1+ ~chi_40)
     7.19426558E-02    2     1000037   1000022   # BR(H+ -> ~chi_2+ ~chi_10)
     1.61367082E-01    2     1000037   1000023   # BR(H+ -> ~chi_2+ ~chi_20)
     1.00081826E-01    2     1000037   1000025   # BR(H+ -> ~chi_2+ ~chi_30)
     5.31275079E-05    2     1000006  -1000005   # BR(H+ -> ~t_1    ~b_1*  )
     4.98941275E-04    2     2000006  -1000005   # BR(H+ -> ~t_2    ~b_1*  )
