#
#                              ======================
#                              | THE SUSYHIT OUTPUT |
#                              ======================
#
#
#              ------------------------------------------------------
#              |     This is the output of the SUSY-HIT package     |
#              |  created by A.Djouadi, M.Muehlleitner and M.Spira. |
#              |  In case of problems with SUSY-HIT email to        |
#              |           margarete.muehlleitner@kit.edu           |
#              |           michael.spira@psi.ch                     |
#              |           abdelhak.djouadi@cern.ch                 |
#              ------------------------------------------------------
#
#              ------------------------------------------------------
#              |  SUSY Les Houches Accord - MSSM Spectrum + Decays  |
#              |              based on the decay programs           |
#              |                                                    |
#              |                     SDECAY 1.5                     |
#              |                                                    |
#              |  Authors: M.Muhlleitner, A.Djouadi and Y.Mambrini  |
#              |  Ref.:    Comput.Phys.Commun.168(2005)46           |
#              |           [hep-ph/0311167]                         |
#              |                                                    |
#              |                     HDECAY 3.4                     |
#              |                                                    |
#              |  By: A.Djouadi,J.Kalinowski,M.Muhlleitner,M.Spira  |
#              |  Ref.:    Comput.Phys.Commun.108(1998)56           |
#              |           [hep-ph/9704448]                         |
#              |                                                    |
#              |                                                    |
#              |  If not stated otherwise all DRbar couplings and   |
#              |  soft SUSY breaking masses are given at the scale  |
#              |  Q=  0.17312056E+04
#              |                                                    |
#              ------------------------------------------------------
#
#
BLOCK DCINFO  # Decay Program information
     1   SDECAY/HDECAY # decay calculator
     2   1.5  /3.4    # version number
#
BLOCK SPINFO  # Spectrum calculator information
     1    SOFTSUSY    # spectrum calculator                
     2    3.7.3       # version number                     
#
BLOCK MODSEL  # Model selection
     1     0   #  nonUniversal                                     
#
BLOCK SMINPUTS  # Standard Model inputs
         1     1.27934000E+02   # alpha_em^-1(M_Z)^MSbar
         2     1.16639000E-05   # G_F [GeV^-2]
         3     1.17200000E-01   # alpha_S(M_Z)^MSbar
         4     9.11870000E+01   # M_Z pole mass
         5     4.19000000E+00   # mb(mb)^MSbar
         6     1.72500000E+02   # mt pole mass
         7     1.77690000E+00   # mtau pole mass
#
BLOCK MINPAR  # Input parameters - minimal models
         3     2.00000000E+01   # tanb                
#
BLOCK EXTPAR  # Input parameters - non-minimal models
         0    -1.00000000E+00   # Set                 
         1     4.49900000E+02   # M_1(MX)             
         2     8.99900000E+02   # M_2(MX)             
         3     2.20000000E+03   # M_3(MX)             
        11     2.94338000E+03   # At(MX)              
        12     0.00000000E+00   # Ab(MX)              
        13     0.00000000E+00   # Atau(MX)            
        23    -3.00000000E+03   # mu(MX)              
        25     2.00000000E+01   # tan                 
        26     3.00000000E+03   # mA(pole)            
        31     3.00000000E+03   # meL(MX)             
        32     3.00000000E+03   # mmuL(MX)            
        33     3.00000000E+03   # mtauL(MX)           
        34     3.00000000E+03   # meR(MX)             
        35     3.00000000E+03   # mmuR(MX)            
        36     3.00000000E+03   # mtauR(MX)           
        41     3.00000000E+03   # mqL1(MX)            
        42     3.00000000E+03   # mqL2(MX)            
        43     9.99900000E+02   # mqL3(MX)            
        44     3.00000000E+03   # muR(MX)             
        45     3.00000000E+03   # mcR(MX)             
        46     3.00000000E+03   # mtR(MX)             
        47     3.00000000E+03   # mdR(MX)             
        48     3.00000000E+03   # msR(MX)             
        49     3.00000000E+03   # mbR(MX)             
#
BLOCK MASS  # Mass Spectrum
# PDG code           mass       particle
        24     8.04039791E+01   # W+
        25     1.24631822E+02   # h
        35     3.00000177E+03   # H
        36     2.99999992E+03   # A
        37     3.00108082E+03   # H+
         5     4.81337004E+00   # b-quark pole mass calculated from mb(mb)_Msbar
   1000001     3.04341754E+03   # ~d_L
   2000001     3.03819742E+03   # ~d_R
   1000002     3.04251499E+03   # ~u_L
   2000002     3.03939362E+03   # ~u_R
   1000003     3.04341754E+03   # ~s_L
   2000003     3.03819742E+03   # ~s_R
   1000004     3.04251499E+03   # ~c_L
   2000004     3.03939362E+03   # ~c_R
   1000005     1.10545724E+03   # ~b_1
   2000005     3.03552323E+03   # ~b_2
   1000006     1.10323140E+03   # ~t_1
   2000006     3.02499756E+03   # ~t_2
   1000011     3.00645096E+03   # ~e_L
   2000011     3.00196333E+03   # ~e_R
   1000012     3.00506769E+03   # ~nu_eL
   1000013     3.00645096E+03   # ~mu_L
   2000013     3.00196333E+03   # ~mu_R
   1000014     3.00506769E+03   # ~nu_muL
   1000015     2.98619718E+03   # ~tau_1
   2000015     3.02153602E+03   # ~tau_2
   1000016     3.00486626E+03   # ~nu_tauL
   1000021     2.35417771E+03   # ~g
   1000022     4.52334394E+02   # ~chi_10
   1000023     9.39072489E+02   # ~chi_20
   1000025    -2.99405774E+03   # ~chi_30
   1000035     2.99462633E+03   # ~chi_40
   1000024     9.39235787E+02   # ~chi_1+
   1000037     2.99532942E+03   # ~chi_2+
#
BLOCK NMIX  # Neutralino Mixing Matrix
  1  1     9.99887170E-01   # N_11
  1  2    -1.30518294E-04   # N_12
  1  3    -1.49453667E-02   # N_13
  1  4    -1.50515710E-03   # N_14
  2  1     5.58757964E-04   # N_21
  2  2     9.99584345E-01   # N_22
  2  3     2.79394455E-02   # N_23
  2  4     7.08604890E-03   # N_24
  3  1    -9.49931240E-03   # N_31
  3  2     1.47504152E-02   # N_32
  3  3    -7.06874251E-01   # N_33
  3  4     7.07121617E-01   # N_34
  4  1     1.16231395E-02   # N_41
  4  2    -2.47698432E-02   # N_42
  4  3     7.06629193E-01   # N_43
  4  4     7.07054836E-01   # N_44
#
BLOCK UMIX  # Chargino Mixing Matrix U
  1  1     9.99219173E-01   # U_11
  1  2     3.95100518E-02   # U_12
  2  1    -3.95100518E-02   # U_21
  2  2     9.99219173E-01   # U_22
#
BLOCK VMIX  # Chargino Mixing Matrix V
  1  1     9.99949806E-01   # V_11
  1  2    -1.00192518E-02   # V_12
  2  1    -1.00192518E-02   # V_21
  2  2    -9.99949806E-01   # V_22
#
BLOCK STOPMIX  # Stop Mixing Matrix
  1  1     9.98416177E-01   # cos(theta_t)
  1  2    -5.62595548E-02   # sin(theta_t)
  2  1     5.62595548E-02   # -sin(theta_t)
  2  2     9.98416177E-01   # cos(theta_t)
#
BLOCK SBOTMIX  # Sbottom Mixing Matrix
  1  1     9.99714628E-01   # cos(theta_b)
  1  2    -2.38885446E-02   # sin(theta_b)
  2  1     2.38885446E-02   # -sin(theta_b)
  2  2     9.99714628E-01   # cos(theta_b)
#
BLOCK STAUMIX  # Stau Mixing Matrix
  1  1    -7.06972529E-01   # cos(theta_tau)
  1  2     7.07241008E-01   # sin(theta_tau)
  2  1    -7.07241008E-01   # -sin(theta_tau)
  2  2    -7.06972529E-01   # cos(theta_tau)
#
BLOCK ALPHA  # Higgs mixing
          -5.00147712E-02   # Mixing angle in the neutral Higgs boson sector
#
BLOCK HMIX Q=  1.73120561E+03  # DRbar Higgs Parameters
         1    -3.00000000E+03   # mu(Q)MSSM           
         2     2.00000000E+01   # tan                 
         3     2.43824476E+02   # higgs               
         4     1.01688908E+07   # mA^2(Q)MSSM         
#
BLOCK GAUGE Q=  1.73120561E+03  # The gauge couplings
     1     3.62629753E-01   # gprime(Q) DRbar
     2     6.36510573E-01   # g(Q) DRbar
     3     1.02307536E+00   # g3(Q) DRbar
#
BLOCK AU Q=  1.73120561E+03  # The trilinear couplings
  1  1     2.86326485E-06   # A_u(Q) DRbar
  2  2     2.86330542E-06   # A_c(Q) DRbar
  3  3     2.94338000E+03   # A_t(Q) DRbar
#
BLOCK AD Q=  1.73120561E+03  # The trilinear couplings
  1  1     1.03334056E-06   # A_d(Q) DRbar
  2  2     1.03345454E-06   # A_s(Q) DRbar
  3  3     2.04145106E-06   # A_b(Q) DRbar
#
BLOCK AE Q=  1.73120561E+03  # The trilinear couplings
  1  1     4.10017137E-07   # A_e(Q) DRbar
  2  2     4.10036782E-07   # A_mu(Q) DRbar
  3  3     4.15493199E-07   # A_tau(Q) DRbar
#
BLOCK Yu Q=  1.73120561E+03  # The Yukawa couplings
  1  1     0.00000000E+00   # y_u(Q) DRbar
  2  2     0.00000000E+00   # y_c(Q) DRbar
  3  3     8.49156932E-01   # y_t(Q) DRbar
#
BLOCK Yd Q=  1.73120561E+03  # The Yukawa couplings
  1  1     0.00000000E+00   # y_d(Q) DRbar
  2  2     0.00000000E+00   # y_s(Q) DRbar
  3  3     3.70148408E-01   # y_b(Q) DRbar
#
BLOCK Ye Q=  1.73120561E+03  # The Yukawa couplings
  1  1     0.00000000E+00   # y_e(Q) DRbar
  2  2     0.00000000E+00   # y_mu(Q) DRbar
  3  3     2.00645546E-01   # y_tau(Q) DRbar
#
BLOCK MSOFT Q=  1.73120561E+03  # The soft SUSY breaking masses at the scale Q
         1     4.49900000E+02   # M_1(Q)              
         2     8.99900000E+02   # M_2(Q)              
         3     2.20000000E+03   # M_3(Q)              
        21    -4.07940294E+04   # M^2_Hd              
        22    -9.01454333E+06   # M^2_Hu              
        31     3.00000000E+03   # M_eL                
        32     3.00000000E+03   # M_muL               
        33     3.00000000E+03   # M_tauL              
        34     3.00000000E+03   # M_eR                
        35     3.00000000E+03   # M_muR               
        36     3.00000000E+03   # M_tauR              
        41     3.00000000E+03   # M_q1L               
        42     3.00000000E+03   # M_q2L               
        43     9.99899993E+02   # M_q3L               
        44     3.00000000E+03   # M_uR                
        45     3.00000000E+03   # M_cR                
        46     3.00000000E+03   # M_tR                
        47     3.00000000E+03   # M_dR                
        48     3.00000000E+03   # M_sR                
        49     3.00000000E+03   # M_bR                
#
#
#
#                             =================
#                             |The decay table|
#                             =================
#
# - The QCD corrections to the decays gluino -> squark  + quark
#                                     squark -> gaugino + quark_prime
#                                     squark -> squark_prime + Higgs
#                                     squark -> gluino  + quark
#   are included.
#
# - The multi-body decays for the inos, stops and sbottoms are included.
#
# - The loop induced decays for the gluino, neutralinos and stops
#   are included.
#
# - The SUSY decays of the top quark are included.
#
#
#         PDG            Width
DECAY         6     1.40616409E+00   # top decays
#          BR         NDA      ID1       ID2
     1.00000000E+00    2           5        24   # BR(t ->  b    W+)
#
#         PDG            Width
DECAY   1000021     5.83384764E+01   # gluino decays
#          BR         NDA      ID1       ID2
     2.47830866E-01    2     1000005        -5   # BR(~g -> ~b_1  bb)
     2.47830866E-01    2    -1000005         5   # BR(~g -> ~b_1* b )
     2.52169134E-01    2     1000006        -6   # BR(~g -> ~t_1  tb)
     2.52169134E-01    2    -1000006         6   # BR(~g -> ~t_1* t )
#
#         PDG            Width
DECAY   1000006     8.05996434E-01   # stop1 decays
#          BR         NDA      ID1       ID2
     1.28919558E-01    2     1000022         6   # BR(~t_1 -> ~chi_10 t )
     8.71080442E-01    2     1000024         5   # BR(~t_1 -> ~chi_1+ b )
#
#         PDG            Width
DECAY   2000006     1.09587850E+02   # stop2 decays
#          BR         NDA      ID1       ID2
     5.81245035E-02    2     1000022         6   # BR(~t_2 -> ~chi_10 t )
     3.88076943E-04    2     1000023         6   # BR(~t_2 -> ~chi_20 t )
     0.00000000E+00    2     1000025         6   # BR(~t_2 -> ~chi_30 t )
     7.81075544E-04    2     1000024         5   # BR(~t_2 -> ~chi_1+ b )
     1.62653388E-04    2     1000037         5   # BR(~t_2 -> ~chi_2+ b )
     3.06159175E-01    2     1000021         6   # BR(~t_2 -> ~g      t )
     1.65904585E-01    2     1000006        25   # BR(~t_2 -> ~t_1    h )
     1.58782335E-01    2     1000006        23   # BR(~t_2 -> ~t_1    Z )
     3.09697594E-01    2     1000005        24   # BR(~t_2 -> ~b_1    W+)
#
#         PDG            Width
DECAY   1000005     4.76686867E-01   # sbottom1 decays
#          BR         NDA      ID1       ID2
     2.42293390E-01    2     1000022         5   # BR(~b_1 -> ~chi_10 b )
     7.57706610E-01    2     1000023         5   # BR(~b_1 -> ~chi_20 b )
#
#         PDG            Width
DECAY   2000005     5.17251232E+01   # sbottom2 decays
#          BR         NDA      ID1       ID2
     3.10699636E-02    2     1000022         5   # BR(~b_2 -> ~chi_10 b )
     1.08256477E-07    2     1000023         5   # BR(~b_2 -> ~chi_20 b )
     6.30858277E-05    2     1000025         5   # BR(~b_2 -> ~chi_30 b )
     6.06589039E-05    2     1000035         5   # BR(~b_2 -> ~chi_40 b )
     2.54202660E-08    2    -1000024         6   # BR(~b_2 -> ~chi_1- t )
     6.68098333E-01    2     1000021         5   # BR(~b_2 -> ~g      b )
     6.67071138E-02    2     1000005        25   # BR(~b_2 -> ~b_1    h )
     9.56187427E-02    2     1000005        23   # BR(~b_2 -> ~b_1    Z )
     1.38381969E-01    2     1000006       -24   # BR(~b_2 -> ~t_1    W-)
#
#         PDG            Width
DECAY   1000002     6.43089928E+01   # sup_L decays
#          BR         NDA      ID1       ID2
     6.26510436E-03    2     1000022         2   # BR(~u_L -> ~chi_10 u)
     1.49309429E-01    2     1000023         2   # BR(~u_L -> ~chi_20 u)
     3.46965407E-08    2     1000025         2   # BR(~u_L -> ~chi_30 u)
     1.02995973E-07    2     1000035         2   # BR(~u_L -> ~chi_40 u)
     2.98752250E-01    2     1000024         1   # BR(~u_L -> ~chi_1+ d)
     3.94717200E-08    2     1000037         1   # BR(~u_L -> ~chi_2+ d)
     5.45673040E-01    2     1000021         2   # BR(~u_L -> ~g      u)
#
#         PDG            Width
DECAY   2000002     4.12889849E+01   # sup_R decays
#          BR         NDA      ID1       ID2
     1.56165755E-01    2     1000022         2   # BR(~u_R -> ~chi_10 u)
     4.18592391E-08    2     1000023         2   # BR(~u_R -> ~chi_20 u)
     1.47683543E-08    2     1000025         2   # BR(~u_R -> ~chi_30 u)
     2.15754335E-08    2     1000035         2   # BR(~u_R -> ~chi_40 u)
     8.43834167E-01    2     1000021         2   # BR(~u_R -> ~g      u)
#
#         PDG            Width
DECAY   1000001     6.43629978E+01   # sdown_L decays
#          BR         NDA      ID1       ID2
     6.27915913E-03    2     1000022         1   # BR(~d_L -> ~chi_10 d)
     1.49184587E-01    2     1000023         1   # BR(~d_L -> ~chi_20 d)
     5.87307413E-08    2     1000025         1   # BR(~d_L -> ~chi_30 d)
     1.52501585E-07    2     1000035         1   # BR(~d_L -> ~chi_40 d)
     2.98193007E-01    2    -1000024         2   # BR(~d_L -> ~chi_1- u)
     6.36067707E-07    2    -1000037         2   # BR(~d_L -> ~chi_2- u)
     5.46342400E-01    2     1000021         1   # BR(~d_L -> ~g      d)
#
#         PDG            Width
DECAY   2000001     3.63563995E+01   # sdown_R decays
#          BR         NDA      ID1       ID2
     4.43188469E-02    2     1000022         1   # BR(~d_R -> ~chi_10 d)
     1.18778553E-08    2     1000023         1   # BR(~d_R -> ~chi_20 d)
     3.98248553E-09    2     1000025         1   # BR(~d_R -> ~chi_30 d)
     5.81419308E-09    2     1000035         1   # BR(~d_R -> ~chi_40 d)
     9.55681131E-01    2     1000021         1   # BR(~d_R -> ~g      d)
#
#         PDG            Width
DECAY   1000004     6.43089928E+01   # scharm_L decays
#          BR         NDA      ID1       ID2
     6.26510436E-03    2     1000022         4   # BR(~c_L -> ~chi_10 c)
     1.49309429E-01    2     1000023         4   # BR(~c_L -> ~chi_20 c)
     3.46965407E-08    2     1000025         4   # BR(~c_L -> ~chi_30 c)
     1.02995973E-07    2     1000035         4   # BR(~c_L -> ~chi_40 c)
     2.98752250E-01    2     1000024         3   # BR(~c_L -> ~chi_1+ s)
     3.94717200E-08    2     1000037         3   # BR(~c_L -> ~chi_2+ s)
     5.45673040E-01    2     1000021         4   # BR(~c_L -> ~g      c)
#
#         PDG            Width
DECAY   2000004     4.12889849E+01   # scharm_R decays
#          BR         NDA      ID1       ID2
     1.56165755E-01    2     1000022         4   # BR(~c_R -> ~chi_10 c)
     4.18592391E-08    2     1000023         4   # BR(~c_R -> ~chi_20 c)
     1.47683543E-08    2     1000025         4   # BR(~c_R -> ~chi_30 c)
     2.15754335E-08    2     1000035         4   # BR(~c_R -> ~chi_40 c)
     8.43834167E-01    2     1000021         4   # BR(~c_R -> ~g      c)
#
#         PDG            Width
DECAY   1000003     6.43629978E+01   # sstrange_L decays
#          BR         NDA      ID1       ID2
     6.27915913E-03    2     1000022         3   # BR(~s_L -> ~chi_10 s)
     1.49184587E-01    2     1000023         3   # BR(~s_L -> ~chi_20 s)
     5.87307413E-08    2     1000025         3   # BR(~s_L -> ~chi_30 s)
     1.52501585E-07    2     1000035         3   # BR(~s_L -> ~chi_40 s)
     2.98193007E-01    2    -1000024         4   # BR(~s_L -> ~chi_1- c)
     6.36067707E-07    2    -1000037         4   # BR(~s_L -> ~chi_2- c)
     5.46342400E-01    2     1000021         3   # BR(~s_L -> ~g      s)
#
#         PDG            Width
DECAY   2000003     3.63563995E+01   # sstrange_R decays
#          BR         NDA      ID1       ID2
     4.43188469E-02    2     1000022         3   # BR(~s_R -> ~chi_10 s)
     1.18778553E-08    2     1000023         3   # BR(~s_R -> ~chi_20 s)
     3.98248553E-09    2     1000025         3   # BR(~s_R -> ~chi_30 s)
     5.81419308E-09    2     1000035         3   # BR(~s_R -> ~chi_40 s)
     9.55681131E-01    2     1000021         3   # BR(~s_R -> ~g      s)
#
#         PDG            Width
DECAY   1000011     3.33217055E+01   # selectron_L decays
#          BR         NDA      ID1       ID2
     1.12659814E-01    2     1000022        11   # BR(~e_L -> ~chi_10 e-)
     2.96064611E-01    2     1000023        11   # BR(~e_L -> ~chi_20 e-)
     2.14645438E-09    2     1000025        11   # BR(~e_L -> ~chi_30 e-)
     7.38093146E-09    2     1000035        11   # BR(~e_L -> ~chi_40 e-)
     5.91275503E-01    2    -1000024        12   # BR(~e_L -> ~chi_1- nu_e)
     6.19094646E-08    2    -1000037        12   # BR(~e_L -> ~chi_2- nu_e)
#
#         PDG            Width
DECAY   2000011     1.49984528E+01   # selectron_R decays
#          BR         NDA      ID1       ID2
     9.99999728E-01    2     1000022        11   # BR(~e_R -> ~chi_10 e-)
     2.66100145E-07    2     1000023        11   # BR(~e_R -> ~chi_20 e-)
     2.61459011E-09    2     1000025        11   # BR(~e_R -> ~chi_30 e-)
     3.37222855E-09    2     1000035        11   # BR(~e_R -> ~chi_40 e-)
#
#         PDG            Width
DECAY   1000013     3.33217055E+01   # smuon_L decays
#          BR         NDA      ID1       ID2
     1.12659814E-01    2     1000022        13   # BR(~mu_L -> ~chi_10 mu-)
     2.96064611E-01    2     1000023        13   # BR(~mu_L -> ~chi_20 mu-)
     2.14645438E-09    2     1000025        13   # BR(~mu_L -> ~chi_30 mu-)
     7.38093146E-09    2     1000035        13   # BR(~mu_L -> ~chi_40 mu-)
     5.91275503E-01    2    -1000024        14   # BR(~mu_L -> ~chi_1- nu_mu)
     6.19094646E-08    2    -1000037        14   # BR(~mu_L -> ~chi_2- nu_mu)
#
#         PDG            Width
DECAY   2000013     1.49984528E+01   # smuon_R decays
#          BR         NDA      ID1       ID2
     9.99999728E-01    2     1000022        13   # BR(~mu_R -> ~chi_10 mu-)
     2.66100145E-07    2     1000023        13   # BR(~mu_R -> ~chi_20 mu-)
     2.61459011E-09    2     1000025        13   # BR(~mu_R -> ~chi_30 mu-)
     3.37222855E-09    2     1000035        13   # BR(~mu_R -> ~chi_40 mu-)
#
#         PDG            Width
DECAY   1000015     2.43676325E+01   # stau_1 decays
#          BR         NDA      ID1       ID2
     3.84289734E-01    2     1000022        15   # BR(~tau_1 -> ~chi_10  tau-)
     2.05452125E-01    2     1000023        15   # BR(~tau_1 -> ~chi_20  tau-)
     4.10258141E-01    2    -1000024        16   # BR(~tau_1 -> ~chi_1-  nu_tau)
#
#         PDG            Width
DECAY   2000015     2.39245872E+01   # stau_2 decays
#          BR         NDA      ID1       ID2
     3.92712913E-01    2     1000022        15   # BR(~tau_2 -> ~chi_10  tau-)
     2.02632809E-01    2     1000023        15   # BR(~tau_2 -> ~chi_20  tau-)
     1.87417715E-05    2     1000025        15   # BR(~tau_2 -> ~chi_30  tau-)
     1.63182703E-05    2     1000035        15   # BR(~tau_2 -> ~chi_40  tau-)
     4.04600144E-01    2    -1000024        16   # BR(~tau_2 -> ~chi_1-  nu_tau)
     1.90734168E-05    2    -1000037        16   # BR(~tau_2 -> ~chi_2-  nu_tau)
#
#         PDG            Width
DECAY   1000012     3.33200208E+01   # snu_eL decays
#          BR         NDA      ID1       ID2
     1.12712121E-01    2     1000022        12   # BR(~nu_eL -> ~chi_10 nu_e)
     2.95507756E-01    2     1000023        12   # BR(~nu_eL -> ~chi_20 nu_e)
     7.90443527E-09    2     1000025        12   # BR(~nu_eL -> ~chi_30 nu_e)
     1.72363772E-08    2     1000035        12   # BR(~nu_eL -> ~chi_40 nu_e)
     5.91780095E-01    2     1000024        11   # BR(~nu_eL -> ~chi_1+ e-)
     3.05539624E-09    2     1000037        11   # BR(~nu_eL -> ~chi_2+ e-)
#
#         PDG            Width
DECAY   1000014     3.33200208E+01   # snu_muL decays
#          BR         NDA      ID1       ID2
     1.12712121E-01    2     1000022        14   # BR(~nu_muL -> ~chi_10 nu_mu)
     2.95507756E-01    2     1000023        14   # BR(~nu_muL -> ~chi_20 nu_mu)
     7.90443527E-09    2     1000025        14   # BR(~nu_muL -> ~chi_30 nu_mu)
     1.72363772E-08    2     1000035        14   # BR(~nu_muL -> ~chi_40 nu_mu)
     5.91780095E-01    2     1000024        13   # BR(~nu_muL -> ~chi_1+ mu-)
     3.05539624E-09    2     1000037        13   # BR(~nu_muL -> ~chi_2+ mu-)
#
#         PDG            Width
DECAY   1000016     3.33202425E+01   # snu_tauL decays
#          BR         NDA      ID1       ID2
     1.12703115E-01    2     1000022        16   # BR(~nu_tauL -> ~chi_10 nu_tau)
     2.95477407E-01    2     1000023        16   # BR(~nu_tauL -> ~chi_20 nu_tau)
     7.61882320E-09    2     1000025        16   # BR(~nu_tauL -> ~chi_30 nu_tau)
     1.65798696E-08    2     1000035        16   # BR(~nu_tauL -> ~chi_40 nu_tau)
     5.91816639E-01    2     1000024        15   # BR(~nu_tauL -> ~chi_1+ tau-)
     2.81478103E-06    2     1000037        15   # BR(~nu_tauL -> ~chi_2+ tau-)
#
#         PDG            Width
DECAY   1000024     7.36171641E-05   # chargino1+ decays
#          BR         NDA      ID1       ID2
     1.00000000E+00    2     1000022        24   # BR(~chi_1+ -> ~chi_10  W+)
#
#         PDG            Width
DECAY   1000037     8.16209037E+01   # chargino2+ decays
#          BR         NDA      ID1       ID2
     1.27381217E-01    2     1000006        -5   # BR(~chi_2+ -> ~t_1     bb)
     6.55794593E-01    2    -1000005         6   # BR(~chi_2+ -> ~b_1*    t )
     2.08108293E-07    2    -1000015        16   # BR(~chi_2+ -> ~tau_1+  nu_tau)
     6.42010755E-02    2     1000024        23   # BR(~chi_2+ -> ~chi_1+  Z )
     2.15494157E-02    2     1000022        24   # BR(~chi_2+ -> ~chi_10  W+)
     6.24347273E-02    2     1000023        24   # BR(~chi_2+ -> ~chi_20  W+)
     6.86387639E-02    2     1000024        25   # BR(~chi_2+ -> ~chi_1+  h )
#
#         PDG            Width
DECAY   1000022     0.00000000E+00   # neutralino1 decays
#
#         PDG            Width
DECAY   1000023     6.93815304E-05   # neutralino2 decays
#          BR         NDA      ID1       ID2
     3.00106035E-01    2     1000022        23   # BR(~chi_20 -> ~chi_10   Z )
     6.99893965E-01    2     1000022        25   # BR(~chi_20 -> ~chi_10   h )
#
#         PDG            Width
DECAY   1000025     8.17443803E+01   # neutralino3 decays
#          BR         NDA      ID1       ID2
     1.32868148E-02    2     1000022        23   # BR(~chi_30 -> ~chi_10   Z )
     4.72579849E-02    2     1000023        23   # BR(~chi_30 -> ~chi_20   Z )
     6.22825141E-02    2     1000024       -24   # BR(~chi_30 -> ~chi_1+   W-)
     6.22825141E-02    2    -1000024        24   # BR(~chi_30 -> ~chi_1-   W+)
     9.24060377E-03    2     1000022        25   # BR(~chi_30 -> ~chi_10   h )
     1.71158090E-02    2     1000023        25   # BR(~chi_30 -> ~chi_20   h )
     3.31903422E-01    2     1000006        -6   # BR(~chi_30 -> ~t_1      tb)
     3.31903422E-01    2    -1000006         6   # BR(~chi_30 -> ~t_1*     t )
     6.23632320E-02    2     1000005        -5   # BR(~chi_30 -> ~b_1      bb)
     6.23632320E-02    2    -1000005         5   # BR(~chi_30 -> ~b_1*     b )
     2.25610870E-07    2     1000015       -15   # BR(~chi_30 -> ~tau_1-   tau+)
     2.25610870E-07    2    -1000015        15   # BR(~chi_30 -> ~tau_1+   tau-)
#
#         PDG            Width
DECAY   1000035     8.08969812E+01   # neutralino4 decays
#          BR         NDA      ID1       ID2
     8.97499718E-03    2     1000022        23   # BR(~chi_40 -> ~chi_10   Z )
     1.69906072E-02    2     1000023        23   # BR(~chi_40 -> ~chi_20   Z )
     6.29770412E-02    2     1000024       -24   # BR(~chi_40 -> ~chi_1+   W-)
     6.29770412E-02    2    -1000024        24   # BR(~chi_40 -> ~chi_1-   W+)
     1.40632600E-02    2     1000022        25   # BR(~chi_40 -> ~chi_10   h )
     5.19484907E-02    2     1000023        25   # BR(~chi_40 -> ~chi_20   h )
     3.28005167E-01    2     1000006        -6   # BR(~chi_40 -> ~t_1      tb)
     3.28005167E-01    2    -1000006         6   # BR(~chi_40 -> ~t_1*     t )
     6.30289511E-02    2     1000005        -5   # BR(~chi_40 -> ~b_1      bb)
     6.30289511E-02    2    -1000005         5   # BR(~chi_40 -> ~b_1*     b )
     1.62894700E-07    2     1000015       -15   # BR(~chi_40 -> ~tau_1-   tau+)
     1.62894700E-07    2    -1000015        15   # BR(~chi_40 -> ~tau_1+   tau-)
#
#         PDG            Width
DECAY        25     3.55923976E-03   # h decays
#          BR         NDA      ID1       ID2
     5.68082361E-01    2           5        -5   # BR(h -> b       bb     )
     7.26382723E-02    2         -15        15   # BR(h -> tau+    tau-   )
     2.57143476E-04    2         -13        13   # BR(h -> mu+     mu-    )
     5.46103707E-04    2           3        -3   # BR(h -> s       sb     )
     2.37293028E-02    2           4        -4   # BR(h -> c       cb     )
     7.66025699E-02    2          21        21   # BR(h -> g       g      )
     2.61129268E-03    2          22        22   # BR(h -> gam     gam    )
     1.69870315E-03    2          22        23   # BR(h -> Z       gam    )
     2.25756697E-01    2          24       -24   # BR(h -> W+      W-     )
     2.80775541E-02    2          23        23   # BR(h -> Z       Z      )
#
#         PDG            Width
DECAY        35     3.36514887E+01   # H decays
#          BR         NDA      ID1       ID2
     8.93299124E-01    2           5        -5   # BR(H -> b       bb     )
     7.38956303E-02    2         -15        15   # BR(H -> tau+    tau-   )
     2.61277290E-04    2         -13        13   # BR(H -> mu+     mu-    )
     3.20850482E-04    2           3        -3   # BR(H -> s       sb     )
     8.99340352E-08    2           4        -4   # BR(H -> c       cb     )
     8.97149064E-03    2           6        -6   # BR(H -> t       tb     )
     1.52661975E-05    2          21        21   # BR(H -> g       g      )
     8.25956519E-08    2          22        22   # BR(H -> gam     gam    )
     3.67596161E-09    2          23        22   # BR(H -> Z       gam    )
     8.33216593E-07    2          24       -24   # BR(H -> W+      W-     )
     4.16094725E-07    2          23        23   # BR(H -> Z       Z      )
     6.36945464E-06    2          25        25   # BR(H -> h       h      )
    -4.19025158E-24    2          36        36   # BR(H -> A       A      )
     1.01026205E-19    2          23        36   # BR(H -> Z       A      )
     5.72574622E-04    2     1000024  -1000024   # BR(H -> ~chi_1+ ~chi_1-)
     4.22474650E-05    2     1000022   1000022   # BR(H -> ~chi_10 ~chi_10)
     2.86042557E-04    2     1000023   1000023   # BR(H -> ~chi_20 ~chi_20)
     2.35323005E-04    2     1000022   1000023   # BR(H -> ~chi_10 ~chi_20)
     2.20875336E-02    2     1000006  -1000006   # BR(H -> ~t_1    ~t_1*  )
     4.84522072E-06    2     1000005  -1000005   # BR(H -> ~b_1    ~b_1*  )
#
#         PDG            Width
DECAY        36     3.29295338E+01   # A decays
#          BR         NDA      ID1       ID2
     9.12927922E-01    2           5        -5   # BR(A -> b       bb     )
     7.55162208E-02    2         -15        15   # BR(A -> tau+    tau-   )
     2.67006937E-04    2         -13        13   # BR(A -> mu+     mu-    )
     3.27939964E-04    2           3        -3   # BR(A -> s       sb     )
     9.25400095E-08    2           4        -4   # BR(A -> c       cb     )
     9.22637917E-03    2           6        -6   # BR(A -> t       tb     )
     2.71708040E-05    2          21        21   # BR(A -> g       g      )
     6.65186744E-08    2          22        22   # BR(A -> gam     gam    )
     2.67789084E-08    2          23        22   # BR(A -> Z       gam    )
     8.48372177E-07    2          23        25   # BR(A -> Z       h      )
     9.14907582E-04    2     1000024  -1000024   # BR(A -> ~chi_1+ ~chi_1-)
     4.65451546E-05    2     1000022   1000022   # BR(A -> ~chi_10 ~chi_10)
     4.56940154E-04    2     1000023   1000023   # BR(A -> ~chi_20 ~chi_20)
     2.87933074E-04    2     1000022   1000023   # BR(A -> ~chi_10 ~chi_20)
#
#         PDG            Width
DECAY        37     3.63030430E+01   # H+ decays
#          BR         NDA      ID1       ID2
     1.45843173E-03    2           4        -5   # BR(H+ -> c       bb     )
     6.85234544E-02    2         -15        16   # BR(H+ -> tau+    nu_tau )
     2.42282221E-04    2         -13        14   # BR(H+ -> mu+     nu_mu  )
     9.33395153E-06    2           2        -5   # BR(H+ -> u       bb     )
     1.42383129E-05    2           2        -3   # BR(H+ -> u       sb     )
     2.92927882E-04    2           4        -3   # BR(H+ -> c       sb     )
     9.18409101E-01    2           6        -5   # BR(H+ -> t       bb     )
     7.70850373E-07    2          24        25   # BR(H+ -> W+      h      )
     5.34759800E-14    2          24        36   # BR(H+ -> W+      A      )
     4.79249010E-04    2     1000024   1000022   # BR(H+ -> ~chi_1+ ~chi_10)
     1.26198743E-10    2     1000024   1000023   # BR(H+ -> ~chi_1+ ~chi_20)
     1.05702103E-02    2     1000006  -1000005   # BR(H+ -> ~t_1    ~b_1*  )
