#  ISAJET SUSY parameters in SUSY Les Houches Accord 2 format
#  Created by ISALHA 2.0 Last revision: H Baer 27 May 2014
Block SPINFO   # Program information
     1   ISASUGRA/ISASUSY from ISAJET   # Spectrum Calculator
     2   7.87   18-JUL-2017 13:55:55    # Version number
Block MODSEL   # Model selection
     1    13   # Non-universal supergravity model                  
Block SMINPUTS   # Standard Model inputs
     1     1.28000000E+02   # alpha_em^(-1)
     2     1.16570000E-05   # G_Fermi
     3     1.19999997E-01   # alpha_s(M_Z)
     4     9.11699982E+01   # m_{Z}(pole)
     5     4.19999981E+00   # m_{b}(m_{b})
     6     1.72500000E+02   # m_{top}(pole)
     7     1.77699995E+00   # m_{tau}(pole)
Block MINPAR   # SUSY breaking input parameters
     1     5.00000000E+03   # m_0
     2     3.50000000E+02   # m_{1/2}
     3     1.50000000E+01   # tan(beta)
     4     1.00000000E+00   # sign(mu)
     5    -8.00000000E+03   # A_0
Block EXTPAR   # Non-universal SUSY breaking parameters
     0     2.15848435E+16   # Input scale
    21     3.01477075E+06   # Down type Higgs mass squared
    22     3.70606960E+07   #  Up  type Higgs mass squared
Block MASS   # Scalar and gaugino mass spectrum
#  PDG code   mass                 particle
         6     1.72500000E+02   #  top            
        24     8.04229965E+01   #  W^+
        25     1.24079483E+02   #  h^0            
        35     1.00666663E+03   #  H^0            
        36     1.00000000E+03   #  A^0            
        37     1.00322870E+03   #  H^+            
   1000001     4.98281982E+03   #  dnl            
   1000002     4.98216797E+03   #  upl            
   1000003     4.98281982E+03   #  stl            
   1000004     4.98216846E+03   #  chl            
   1000005     3.49148560E+03   #  b1             
   1000006     1.43114063E+03   #  t1             
   1000011     5.08209033E+03   #  el-            
   1000012     5.08675293E+03   #  nuel           
   1000013     5.08209033E+03   #  mul-           
   1000014     5.08675293E+03   #  numl           
   1000015     4.66267725E+03   #  tau1           
   1000016     5.01160254E+03   #  nutl           
   1000021     1.01803644E+03   #  glss           
   1000022     1.01411964E+02   #  z1ss           
   1000023    -1.41675262E+02   #  z2ss           
   1000024     1.25453674E+02   #  w1ss           
   1000025     1.74284805E+02   #  z3ss           
   1000035     3.39386200E+02   #  z4ss           
   1000037     3.31118195E+02   #  w2ss           
   1000039     1.00000002E+20   #  gvss
   2000001     4.97038135E+03   #  dnr            
   2000002     5.13984277E+03   #  upr            
   2000003     4.97038135E+03   #  str            
   2000004     5.13984326E+03   #  chr            
   2000005     4.81769678E+03   #  b2             
   2000006     3.46770239E+03   #  t2             
   2000011     4.82285840E+03   #  er-            
   2000013     4.82285840E+03   #  mur-           
   2000015     5.00553809E+03   #  tau2           
Block ALPHA   # Effective Higgs mixing parameter
         -6.81127310E-02   # alpha
Block STOPMIX   # stop mixing matrix
  1  1     4.75734398E-02   # O_{11}
  1  2     9.98867750E-01   # O_{12}
  2  1    -9.98867750E-01   # O_{21}
  2  2     4.75734398E-02   # O_{22}
Block SBOTMIX   # sbottom mixing matrix
  1  1     9.99994874E-01   # O_{11}
  1  2     3.20257898E-03   # O_{12}
  2  1    -3.20257898E-03   # O_{21}
  2  2     9.99994874E-01   # O_{22}
Block STAUMIX   # stau mixing matrix
  1  1     7.74311833E-03   # O_{11}
  1  2     9.99970019E-01   # O_{12}
  2  1    -9.99970019E-01   # O_{21}
  2  2     7.74311833E-03   # O_{22}
Block NMIX   # neutralino mixing matrix
  1  1     4.36824471E-01   #
  1  2    -2.26858377E-01   #
  1  3     6.81122780E-01   #
  1  4    -5.42025030E-01   #
  2  1     9.57102254E-02   #
  2  2    -1.09847531E-01   #
  2  3    -6.74166918E-01   #
  2  4    -7.24066257E-01   #
  3  1    -8.91738832E-01   #
  3  2    -1.96729705E-01   #
  3  3     2.50625432E-01   #
  3  4    -3.21381688E-01   #
  4  1     6.94673583E-02   #
  4  2    -9.47505236E-01   #
  4  3    -1.36957914E-01   #
  4  4     2.80447185E-01   #
Block UMIX   # chargino U mixing matrix
  1  1    -1.87007755E-01   # U_{11}
  1  2     9.82358456E-01   # U_{12}
  2  1    -9.82358456E-01   # U_{21}
  2  2    -1.87007755E-01   # U_{22}
Block VMIX   # chargino V mixing matrix
  1  1    -3.87724817E-01   # V_{11}
  1  2     9.21775162E-01   # V_{12}
  2  1    -9.21775162E-01   # V_{21}
  2  2    -3.87724817E-01   # V_{22}
Block GAUGE Q=  2.27195435E+03   #
     1     3.57522219E-01   # g`
     2     6.52387083E-01   # g_2
     3     1.21939957E+00   # g_3
Block YU Q=  2.27195435E+03   #
  3  3     8.38665783E-01   # y_t
Block YD Q=  2.27195435E+03   #
  3  3     1.95598155E-01   # y_b
Block YE Q=  2.27195435E+03   #
  3  3     1.51506901E-01   # y_tau
Block HMIX Q=  2.27195435E+03   # Higgs mixing parameters
     1     1.30000000E+02   # mu(Q)
     2     1.43665953E+01   # tan(beta)(Q)
     3     2.52212753E+02   # Higgs vev at Q
     4     1.00000000E+06   # m_A^2(Q)
Block MSOFT Q=  2.27195435E+03   # DRbar SUSY breaking parameters
     1     1.57682846E+02   # M_1(Q)          
     2     2.91681305E+02   # M_2(Q)          
     3     8.30328003E+02   # M_3(Q)          
    21     9.56890813E+05   # MHd^2(Q)        
    22    -2.09461387E+04   # MHu^2(Q)        
    31     5.06593311E+03   # MeL(Q)          
    32     5.06593311E+03   # MmuL(Q)         
    33     4.99281104E+03   # MtauL(Q)        
    34     4.81930762E+03   # MeR(Q)          
    35     4.81930762E+03   # MmuR(Q)         
    36     4.65963525E+03   # MtauR(Q)        
    41     4.91254492E+03   # MqL1(Q)         
    42     4.91254492E+03   # MqL2(Q)         
    43     3.45124805E+03   # MqL3(Q)         
    44     5.06818555E+03   # MuR(Q)          
    45     5.06818555E+03   # McR(Q)          
    46     1.49562598E+03   # MtR(Q)          
    47     4.90054297E+03   # MdR(Q)          
    48     4.90054297E+03   # MsR(Q)          
    49     4.76433740E+03   # MbR(Q)          
Block AU Q=  2.27195435E+03   #
  1  1    -3.46552271E+03   # A_u
  2  2    -3.46552271E+03   # A_c
  3  3    -3.46552271E+03   # A_t
Block AD Q=  2.27195435E+03   #
  1  1    -7.67807178E+03   # A_d
  2  2    -7.67807178E+03   # A_s
  3  3    -7.67807178E+03   # A_b
Block AE Q=  2.27195435E+03   #
  1  1    -7.85293848E+03   # A_e
  2  2    -7.85293848E+03   # A_mu
  3  3    -7.85293848E+03   # A_tau
#  ISAJET decay tables in SUSY Les Houches accord format
#  Created by ISALHD. Last revision: C. Balazs, 2005 May 25
Block DCINFO                           # Program information
     1   ISASUGRA from ISAJET          # Spectrum Calculator
     2   7.87   18-JUL-2017 13:55:55   # Version number
#         PDG         Width
DECAY         6  1.46776152E+00   # TP    decays
#          BR          NDA       ID1       ID2       ID3       ID4
      3.33333313E-01    3            2        -1         5             # TP     -->  UP     DB     BT          
      3.33333313E-01    3            4        -3         5             # TP     -->  CH     SB     BT          
      1.11111097E-01    3          -11        12         5             # TP     -->  E+     NUE    BT          
      1.11111097E-01    3          -13        14         5             # TP     -->  MU+    NUM    BT          
      1.11111097E-01    3          -15        16         5             # TP     -->  TAU+   NUT    BT          
#         PDG         Width
DECAY   1000021  4.78070695E-03   # GLSS  decays
#          BR          NDA       ID1       ID2       ID3       ID4
      1.88859936E-04    3      1000024         1        -2             # GLSS   -->  W1SS+  DN     UB          
      1.88859936E-04    3     -1000024         2        -1             # GLSS   -->  W1SS-  UP     DB          
      1.88859864E-04    3      1000024         3        -4             # GLSS   -->  W1SS+  ST     CB          
      1.88859864E-04    3     -1000024         4        -3             # GLSS   -->  W1SS-  CH     SB          
      2.22717598E-01    3      1000024         5        -6             # GLSS   -->  W1SS+  BT     TB          
      2.22717598E-01    3     -1000024         6        -5             # GLSS   -->  W1SS-  TP     BB          
      1.15556840E-03    3      1000037         1        -2             # GLSS   -->  W2SS+  DN     UB          
      1.15556840E-03    3     -1000037         2        -1             # GLSS   -->  W2SS-  UP     DB          
      1.15556817E-03    3      1000037         3        -4             # GLSS   -->  W2SS+  ST     CB          
      1.15556817E-03    3     -1000037         4        -3             # GLSS   -->  W2SS-  CH     SB          
      2.82795988E-02    3      1000037         5        -6             # GLSS   -->  W2SS+  BT     TB          
      2.82795988E-02    3     -1000037         6        -5             # GLSS   -->  W2SS-  TP     BB          
      6.19130675E-03    2      1000022        21                       # GLSS   -->  Z1SS   GL                 
      1.19813871E-04    3      1000022         2        -2             # GLSS   -->  Z1SS   UP     UB          
      1.28549524E-04    3      1000022         1        -1             # GLSS   -->  Z1SS   DN     DB          
      1.28549524E-04    3      1000022         3        -3             # GLSS   -->  Z1SS   ST     SB          
      1.19813805E-04    3      1000022         4        -4             # GLSS   -->  Z1SS   CH     CB          
      1.06062333E-03    3      1000022         5        -5             # GLSS   -->  Z1SS   BT     BB          
      1.13386415E-01    3      1000022         6        -6             # GLSS   -->  Z1SS   TP     TB          
      1.21824676E-02    2      1000023        21                       # GLSS   -->  Z2SS   GL                 
      8.48922718E-06    3      1000023         2        -2             # GLSS   -->  Z2SS   UP     UB          
      1.15303783E-05    3      1000023         1        -1             # GLSS   -->  Z2SS   DN     DB          
      1.15303783E-05    3      1000023         3        -3             # GLSS   -->  Z2SS   ST     SB          
      8.48922173E-06    3      1000023         4        -4             # GLSS   -->  Z2SS   CH     CB          
      6.13984768E-04    3      1000023         5        -5             # GLSS   -->  Z2SS   BT     BB          
      1.97123721E-01    3      1000023         6        -6             # GLSS   -->  Z2SS   TP     TB          
      4.05736454E-03    2      1000025        21                       # GLSS   -->  Z3SS   GL                 
      5.05610078E-04    3      1000025         2        -2             # GLSS   -->  Z3SS   UP     UB          
      1.08849155E-04    3      1000025         1        -1             # GLSS   -->  Z3SS   DN     DB          
      1.08849155E-04    3      1000025         3        -3             # GLSS   -->  Z3SS   ST     SB          
      5.05609903E-04    3      1000025         4        -4             # GLSS   -->  Z3SS   CH     CB          
      2.02203591E-04    3      1000025         5        -5             # GLSS   -->  Z3SS   BT     BB          
      1.28718227E-01    3      1000025         6        -6             # GLSS   -->  Z3SS   TP     TB          
      1.36472436E-03    2      1000035        21                       # GLSS   -->  Z4SS   GL                 
      5.39415167E-04    3      1000035         2        -2             # GLSS   -->  Z4SS   UP     UB          
      5.67808340E-04    3      1000035         1        -1             # GLSS   -->  Z4SS   DN     DB          
      5.67808340E-04    3      1000035         3        -3             # GLSS   -->  Z4SS   ST     SB          
      5.39414934E-04    3      1000035         4        -4             # GLSS   -->  Z4SS   CH     CB          
      2.47613178E-03    3      1000035         5        -5             # GLSS   -->  Z4SS   BT     BB          
      2.12707333E-02    3      1000035         6        -6             # GLSS   -->  Z4SS   TP     TB          
#         PDG         Width
DECAY   1000002  3.04295502E+02   # UPL   decays
#          BR          NDA       ID1       ID2       ID3       ID4
      1.48456462E-03    2      1000022         2                       # UPL    -->  Z1SS   UP                 
      5.86348178E-04    2      1000023         2                       # UPL    -->  Z2SS   UP                 
      8.91504716E-03    2      1000025         2                       # UPL    -->  Z3SS   UP                 
      5.96639886E-02    2      1000035         2                       # UPL    -->  Z4SS   UP                 
      7.92571902E-01    2      1000021         2                       # UPL    -->  GLSS   UP                 
      2.06947997E-02    2      1000024         1                       # UPL    -->  W1SS+  DN                 
      1.16083331E-01    2      1000037         1                       # UPL    -->  W2SS+  DN                 
#         PDG         Width
DECAY   1000001  3.04297363E+02   # DNL   decays
#          BR          NDA       ID1       ID2       ID3       ID4
      6.48616767E-03    2      1000022         1                       # DNL    -->  Z1SS   DN                 
      1.11661875E-03    2      1000023         1                       # DNL    -->  Z2SS   DN                 
      7.65062796E-05    2      1000025         1                       # DNL    -->  Z3SS   DN                 
      6.29655123E-02    2      1000035         1                       # DNL    -->  Z4SS   DN                 
      7.92679787E-01    2      1000021         1                       # DNL    -->  GLSS   DN                 
      4.81490279E-03    2     -1000024         2                       # DNL    -->  W1SS-  UP                 
      1.31860569E-01    2     -1000037         2                       # DNL    -->  W2SS-  UP                 
#         PDG         Width
DECAY   1000003  3.04297363E+02   # STL   decays
#          BR          NDA       ID1       ID2       ID3       ID4
      6.48616767E-03    2      1000022         3                       # STL    -->  Z1SS   ST                 
      1.11661875E-03    2      1000023         3                       # STL    -->  Z2SS   ST                 
      7.65062796E-05    2      1000025         3                       # STL    -->  Z3SS   ST                 
      6.29655123E-02    2      1000035         3                       # STL    -->  Z4SS   ST                 
      7.92679787E-01    2      1000021         3                       # STL    -->  GLSS   ST                 
      4.81490279E-03    2     -1000024         4                       # STL    -->  W1SS-  CH                 
      1.31860569E-01    2     -1000037         4                       # STL    -->  W2SS-  CH                 
#         PDG         Width
DECAY   1000004  3.04295502E+02   # CHL   decays
#          BR          NDA       ID1       ID2       ID3       ID4
      1.48456462E-03    2      1000022         4                       # CHL    -->  Z1SS   CH                 
      5.86348178E-04    2      1000023         4                       # CHL    -->  Z2SS   CH                 
      8.91504716E-03    2      1000025         4                       # CHL    -->  Z3SS   CH                 
      5.96639886E-02    2      1000035         4                       # CHL    -->  Z4SS   CH                 
      7.92571902E-01    2      1000021         4                       # CHL    -->  GLSS   CH                 
      2.06947997E-02    2      1000024         3                       # CHL    -->  W1SS+  ST                 
      1.16083331E-01    2      1000037         3                       # CHL    -->  W2SS+  ST                 
#         PDG         Width
DECAY   1000005  2.88314941E+02   # BT1   decays
#          BR          NDA       ID1       ID2       ID3       ID4
      9.31194797E-03    2      1000022         5                       # BT1    -->  Z1SS   BT                 
      5.18540153E-03    2      1000023         5                       # BT1    -->  Z2SS   BT                 
      6.49920723E-04    2      1000025         5                       # BT1    -->  Z3SS   BT                 
      4.62770201E-02    2      1000035         5                       # BT1    -->  Z4SS   BT                 
      5.51761568E-01    2      1000021         5                       # BT1    -->  GLSS   BT                 
      1.40834466E-01    2     -1000024         6                       # BT1    -->  W1SS-  TP                 
      1.20952465E-01    2     -1000037         6                       # BT1    -->  W2SS-  TP                 
      1.24888182E-01    2          -24   1000006                       # BT1    -->  W-     TP1                
      1.38989868E-04    2          -37   1000006                       # BT1    -->  H-     TP1                
#         PDG         Width
DECAY   1000006  5.89758568E+01   # TP1   decays
#          BR          NDA       ID1       ID2       ID3       ID4
      3.19025010E-01    2      1000021         6                       # TP1    -->  GLSS   TP                 
      1.05245225E-01    2      1000022         6                       # TP1    -->  Z1SS   TP                 
      1.66142806E-01    2      1000023         6                       # TP1    -->  Z2SS   TP                 
      7.33832642E-02    2      1000025         6                       # TP1    -->  Z3SS   TP                 
      1.85330529E-02    2      1000035         6                       # TP1    -->  Z4SS   TP                 
      2.81305790E-01    2      1000024         5                       # TP1    -->  W1SS+  BT                 
      3.63648571E-02    2      1000037         5                       # TP1    -->  W2SS+  BT                 
#         PDG         Width
DECAY   2000002  2.61031036E+02   # UPR   decays
#          BR          NDA       ID1       ID2       ID3       ID4
      8.48691165E-03    2      1000022         2                       # UPR    -->  Z1SS   UP                 
      4.07127547E-04    2      1000023         2                       # UPR    -->  Z2SS   UP                 
      3.53142507E-02    2      1000025         2                       # UPR    -->  Z3SS   UP                 
      2.12931671E-04    2      1000035         2                       # UPR    -->  Z4SS   UP                 
      9.55578804E-01    2      1000021         2                       # UPR    -->  GLSS   UP                 
#         PDG         Width
DECAY   2000001  2.43359024E+02   # DNR   decays
#          BR          NDA       ID1       ID2       ID3       ID4
      2.20064889E-03    2      1000022         1                       # DNR    -->  Z1SS   DN                 
      1.05562402E-04    2      1000023         1                       # DNR    -->  Z2SS   DN                 
      9.15598869E-03    2      1000025         1                       # DNR    -->  Z3SS   DN                 
      5.51824560E-05    2      1000035         1                       # DNR    -->  Z4SS   DN                 
      9.88482654E-01    2      1000021         1                       # DNR    -->  GLSS   DN                 
#         PDG         Width
DECAY   2000003  2.43359024E+02   # STR   decays
#          BR          NDA       ID1       ID2       ID3       ID4
      2.20064889E-03    2      1000022         3                       # STR    -->  Z1SS   ST                 
      1.05562402E-04    2      1000023         3                       # STR    -->  Z2SS   ST                 
      9.15598869E-03    2      1000025         3                       # STR    -->  Z3SS   ST                 
      5.51824560E-05    2      1000035         3                       # STR    -->  Z4SS   ST                 
      9.88482654E-01    2      1000021         3                       # STR    -->  GLSS   ST                 
#         PDG         Width
DECAY   2000004  2.61031036E+02   # CHR   decays
#          BR          NDA       ID1       ID2       ID3       ID4
      8.48691165E-03    2      1000022         4                       # CHR    -->  Z1SS   CH                 
      4.07127518E-04    2      1000023         4                       # CHR    -->  Z2SS   CH                 
      3.53142545E-02    2      1000025         4                       # CHR    -->  Z3SS   CH                 
      2.12931671E-04    2      1000035         4                       # CHR    -->  Z4SS   CH                 
      9.55578804E-01    2      1000021         4                       # CHR    -->  GLSS   CH                 
#         PDG         Width
DECAY   2000005  2.71177795E+02   # BT2   decays
#          BR          NDA       ID1       ID2       ID3       ID4
      8.41779448E-03    2      1000022         5                       # BT2    -->  Z1SS   BT                 
      6.54578069E-03    2      1000023         5                       # BT2    -->  Z2SS   BT                 
      8.86667054E-03    2      1000025         5                       # BT2    -->  Z3SS   BT                 
      3.39827297E-04    2      1000035         5                       # BT2    -->  Z4SS   BT                 
      8.57339859E-01    2      1000021         5                       # BT2    -->  GLSS   BT                 
      1.35740163E-02    2     -1000024         6                       # BT2    -->  W1SS-  TP                 
      5.45263290E-04    2     -1000037         6                       # BT2    -->  W2SS-  TP                 
      4.71633803E-06    2          -24   1000006                       # BT2    -->  W-     TP1                
      3.05670488E-04    2          -24   2000006                       # BT2    -->  W-     TP2                
      1.48145424E-04    2           23   1000005                       # BT2    -->  Z0     BT1                
      2.83186499E-04    2           25   1000005                       # BT2    -->  HL0    BT1                
      2.55128499E-02    2           36   1000005                       # BT2    -->  HA0    BT1                
      2.52765939E-02    2           35   1000005                       # BT2    -->  HH0    BT1                
      8.79082654E-05    2          -37   1000006                       # BT2    -->  H-     TP1                
      5.27518503E-02    2          -37   2000006                       # BT2    -->  H-     TP2                
#         PDG         Width
DECAY   2000006  2.94218323E+02   # TP2   decays
#          BR          NDA       ID1       ID2       ID3       ID4
      5.31172037E-01    2      1000021         6                       # TP2    -->  GLSS   TP                 
      1.99265722E-02    2      1000024         5                       # TP2    -->  W1SS+  BT                 
      8.71506184E-02    2      1000037         5                       # TP2    -->  W2SS+  BT                 
      6.00492544E-02    2           23   1000006                       # TP2    -->  Z0     TP1                
      9.40146074E-02    2           25   1000006                       # TP2    -->  HL0    TP1                
      7.53210552E-05    2           35   1000006                       # TP2    -->  HH0    TP1                
      6.85467894E-05    2           36   1000006                       # TP2    -->  HA0    TP1                
      4.52066623E-02    2      1000022         6                       # TP2    -->  Z1SS   TP                 
      8.19070190E-02    2      1000023         6                       # TP2    -->  Z2SS   TP                 
      2.33062766E-02    2      1000025         6                       # TP2    -->  Z3SS   TP                 
      5.71230203E-02    2      1000035         6                       # TP2    -->  Z4SS   TP                 
#         PDG         Width
DECAY   1000011  7.01057892E+01   # EL-   decays
#          BR          NDA       ID1       ID2       ID3       ID4
      5.33634629E-05    2      1000022        11                       # EL-    -->  Z1SS   E-                 
      9.98326810E-04    2      1000023        11                       # EL-    -->  Z2SS   E-                 
      1.43615022E-01    2      1000025        11                       # EL-    -->  Z3SS   E-                 
      2.50066876E-01    2      1000035        11                       # EL-    -->  Z4SS   E-                 
      2.13167183E-02    2     -1000024        12                       # EL-    -->  W1SS-  NUE                
      5.83949745E-01    2     -1000037        12                       # EL-    -->  W2SS-  NUE                
#         PDG         Width
DECAY   1000013  7.01057892E+01   # MUL-  decays
#          BR          NDA       ID1       ID2       ID3       ID4
      5.33634629E-05    2      1000022        13                       # MUL-   -->  Z1SS   MU-                
      9.98326810E-04    2      1000023        13                       # MUL-   -->  Z2SS   MU-                
      1.43615022E-01    2      1000025        13                       # MUL-   -->  Z3SS   MU-                
      2.50066876E-01    2      1000035        13                       # MUL-   -->  Z4SS   MU-                
      2.13167183E-02    2     -1000024        14                       # MUL-   -->  W1SS-  NUM                
      5.83949745E-01    2     -1000037        14                       # MUL-   -->  W2SS-  NUM                
#         PDG         Width
DECAY   1000015  2.81161938E+01   # TAU1- decays
#          BR          NDA       ID1       ID2       ID3       ID4
      1.98738471E-01    2      1000022        15                       # TAU1-  -->  Z1SS   TAU-               
      4.33270968E-02    2      1000023        15                       # TAU1-  -->  Z2SS   TAU-               
      6.73553228E-01    2      1000025        15                       # TAU1-  -->  Z3SS   TAU-               
      5.04804403E-03    2      1000035        15                       # TAU1-  -->  Z4SS   TAU-               
      7.74425566E-02    2     -1000024        16                       # TAU1-  -->  W1SS-  NUT                
      1.89056830E-03    2     -1000037        16                       # TAU1-  -->  W2SS-  NUT                
#         PDG         Width
DECAY   1000012  7.01942291E+01   # NUEL  decays
#          BR          NDA       ID1       ID2       ID3       ID4
      6.64568767E-02    2      1000022        12                       # NUEL   -->  Z1SS   NUE                
      8.03760812E-03    2      1000023        12                       # NUEL   -->  Z2SS   NUE                
      2.61949748E-02    2      1000025        12                       # NUEL   -->  Z3SS   NUE                
      2.93733388E-01    2      1000035        12                       # NUEL   -->  Z4SS   NUE                
      9.16009620E-02    2      1000024        11                       # NUEL   -->  W1SS+  E-                 
      5.13976276E-01    2      1000037        11                       # NUEL   -->  W2SS+  E-                 
#         PDG         Width
DECAY   1000014  7.01942291E+01   # NUML  decays
#          BR          NDA       ID1       ID2       ID3       ID4
      6.64568767E-02    2      1000022        14                       # NUML   -->  Z1SS   NUM                
      8.03760812E-03    2      1000023        14                       # NUML   -->  Z2SS   NUM                
      2.61949748E-02    2      1000025        14                       # NUML   -->  Z3SS   NUM                
      2.93733388E-01    2      1000035        14                       # NUML   -->  Z4SS   NUM                
      9.16009620E-02    2      1000024        13                       # NUML   -->  W1SS+  MU-                
      5.13976276E-01    2      1000037        13                       # NUML   -->  W2SS+  MU-                
#         PDG         Width
DECAY   1000016  7.15484924E+01   # NUTL  decays
#          BR          NDA       ID1       ID2       ID3       ID4
      6.42342120E-02    2      1000022        16                       # NUTL   -->  Z1SS   NUT                
      7.76861003E-03    2      1000023        16                       # NUTL   -->  Z2SS   NUT                
      2.53176894E-02    2      1000025        16                       # NUTL   -->  Z3SS   NUT                
      2.83839524E-01    2      1000035        16                       # NUTL   -->  Z4SS   NUT                
      1.20851569E-01    2      1000024        15                       # NUTL   -->  W1SS+  TAU-               
      4.97834891E-01    2      1000037        15                       # NUTL   -->  W2SS+  TAU-               
      1.53532470E-04    2           24   1000015                       # NUTL   -->  W+     TAU1-              
#         PDG         Width
DECAY   2000011  2.44737129E+01   # ER-   decays
#          BR          NDA       ID1       ID2       ID3       ID4
      1.91087916E-01    2      1000022        11                       # ER-    -->  Z1SS   E-                 
      9.16579925E-03    2      1000023        11                       # ER-    -->  Z2SS   E-                 
      7.94957221E-01    2      1000025        11                       # ER-    -->  Z3SS   E-                 
      4.78909165E-03    2      1000035        11                       # ER-    -->  Z4SS   E-                 
#         PDG         Width
DECAY   2000013  2.44737129E+01   # MUR-  decays
#          BR          NDA       ID1       ID2       ID3       ID4
      1.91087916E-01    2      1000022        13                       # MUR-   -->  Z1SS   MU-                
      9.16579925E-03    2      1000023        13                       # MUR-   -->  Z2SS   MU-                
      7.94957221E-01    2      1000025        13                       # MUR-   -->  Z3SS   MU-                
      4.78909165E-03    2      1000035        13                       # MUR-   -->  Z4SS   MU-                
#         PDG         Width
DECAY   2000015  7.14311981E+01   # TAU2- decays
#          BR          NDA       ID1       ID2       ID3       ID4
      1.51157966E-02    2      1000022        15                       # TAU2-  -->  Z1SS   TAU-               
      1.63551606E-02    2      1000023        15                       # TAU2-  -->  Z2SS   TAU-               
      1.41039640E-01    2      1000025        15                       # TAU2-  -->  Z3SS   TAU-               
      2.42479458E-01    2      1000035        15                       # TAU2-  -->  Z4SS   TAU-               
      2.02062745E-02    2     -1000024        16                       # TAU2-  -->  W1SS-  NUT                
      5.64696312E-01    2     -1000037        16                       # TAU2-  -->  W2SS-  NUT                
      7.19855452E-05    2           23   1000015                       # TAU2-  -->  Z0     TAU1-              
      3.53050600E-05    2           25   1000015                       # TAU2-  -->  HL0    TAU1-              
#         PDG         Width
DECAY   1000023  6.04656016E-05   # Z2SS  decays
#          BR          NDA       ID1       ID2       ID3       ID4
      7.59050308E-04    2      1000022        22                       # Z2SS   -->  Z1SS   GM                 
      6.46561990E-03    3     -1000024         2        -1             # Z2SS   -->  W1SS-  UP     DB          
      2.15520663E-03    3     -1000024        12       -11             # Z2SS   -->  W1SS-  NUE    E+          
      2.15520663E-03    3     -1000024        14       -13             # Z2SS   -->  W1SS-  NUM    MU+         
      6.46561990E-03    3      1000024         1        -2             # Z2SS   -->  W1SS+  DN     UB          
      2.15520663E-03    3      1000024        11       -12             # Z2SS   -->  W1SS+  E-     ANUE        
      2.15520663E-03    3      1000024        13       -14             # Z2SS   -->  W1SS+  MU-    ANUM        
      6.46561990E-03    3     -1000024         4        -3             # Z2SS   -->  W1SS-  CH     SB          
      2.15520663E-03    3     -1000024        16       -15             # Z2SS   -->  W1SS-  NUT    TAU+        
      6.46561990E-03    3      1000024         3        -4             # Z2SS   -->  W1SS+  ST     CB          
      2.15520663E-03    3      1000024        15       -16             # Z2SS   -->  W1SS+  TAU-   ANUT        
      1.16020553E-01    3      1000022         2        -2             # Z2SS   -->  Z1SS   UP     UB          
      1.49603009E-01    3      1000022         1        -1             # Z2SS   -->  Z1SS   DN     DB          
      1.49603009E-01    3      1000022         3        -3             # Z2SS   -->  Z1SS   ST     SB          
      1.16020553E-01    3      1000022         4        -4             # Z2SS   -->  Z1SS   CH     CB          
      1.25766069E-01    3      1000022         5        -5             # Z2SS   -->  Z1SS   BT     BB          
      3.39373089E-02    3      1000022        11       -11             # Z2SS   -->  Z1SS   E-     E+          
      3.39373089E-02    3      1000022        13       -13             # Z2SS   -->  Z1SS   MU-    MU+         
      3.29716615E-02    3      1000022        15       -15             # Z2SS   -->  Z1SS   TAU-   TAU+        
      6.75292462E-02    3      1000022        12       -12             # Z2SS   -->  Z1SS   NUE    ANUE        
      6.75292462E-02    3      1000022        14       -14             # Z2SS   -->  Z1SS   NUM    ANUM        
      6.75293356E-02    3      1000022        16       -16             # Z2SS   -->  Z1SS   NUT    ANUT        
#         PDG         Width
DECAY   1000025  1.63059914E-04   # Z3SS  decays
#          BR          NDA       ID1       ID2       ID3       ID4
      1.34485378E-03    2      1000022        22                       # Z3SS   -->  Z1SS   GM                 
      3.96036776E-05    2      1000023        22                       # Z3SS   -->  Z2SS   GM                 
      1.61246538E-01    3     -1000024         2        -1             # Z3SS   -->  W1SS-  UP     DB          
      5.37488498E-02    3     -1000024        12       -11             # Z3SS   -->  W1SS-  NUE    E+          
      5.37488498E-02    3     -1000024        14       -13             # Z3SS   -->  W1SS-  NUM    MU+         
      1.61246538E-01    3      1000024         1        -2             # Z3SS   -->  W1SS+  DN     UB          
      5.37488498E-02    3      1000024        11       -12             # Z3SS   -->  W1SS+  E-     ANUE        
      5.37488498E-02    3      1000024        13       -14             # Z3SS   -->  W1SS+  MU-    ANUM        
      1.61246538E-01    3     -1000024         4        -3             # Z3SS   -->  W1SS-  CH     SB          
      5.37488498E-02    3     -1000024        16       -15             # Z3SS   -->  W1SS-  NUT    TAU+        
      1.61246538E-01    3      1000024         3        -4             # Z3SS   -->  W1SS+  ST     CB          
      5.37488498E-02    3      1000024        15       -16             # Z3SS   -->  W1SS+  TAU-   ANUT        
      6.78056240E-05    3      1000022         2        -2             # Z3SS   -->  Z1SS   UP     UB          
      8.77541752E-05    3      1000022         1        -1             # Z3SS   -->  Z1SS   DN     DB          
      8.77541752E-05    3      1000022         3        -3             # Z3SS   -->  Z1SS   ST     SB          
      6.78056240E-05    3      1000022         4        -4             # Z3SS   -->  Z1SS   CH     CB          
      8.47488991E-05    3      1000022         5        -5             # Z3SS   -->  Z1SS   BT     BB          
      2.07835928E-05    3      1000022        11       -11             # Z3SS   -->  Z1SS   E-     E+          
      2.07835928E-05    3      1000022        13       -13             # Z3SS   -->  Z1SS   MU-    MU+         
      2.07891608E-05    3      1000022        15       -15             # Z3SS   -->  Z1SS   TAU-   TAU+        
      3.91405702E-05    3      1000022        12       -12             # Z3SS   -->  Z1SS   NUE    ANUE        
      3.91405702E-05    3      1000022        14       -14             # Z3SS   -->  Z1SS   NUM    ANUM        
      3.91264002E-05    3      1000022        16       -16             # Z3SS   -->  Z1SS   NUT    ANUT        
      3.73650203E-03    3      1000023         2        -2             # Z3SS   -->  Z2SS   UP     UB          
      4.81812935E-03    3      1000023         1        -1             # Z3SS   -->  Z2SS   DN     DB          
      4.81812935E-03    3      1000023         3        -3             # Z3SS   -->  Z2SS   ST     SB          
      3.73650203E-03    3      1000023         4        -4             # Z3SS   -->  Z2SS   CH     CB          
      3.69509985E-03    3      1000023         5        -5             # Z3SS   -->  Z2SS   BT     BB          
      1.09307619E-03    3      1000023        11       -11             # Z3SS   -->  Z2SS   E-     E+          
      1.09307619E-03    3      1000023        13       -13             # Z3SS   -->  Z2SS   MU-    MU+         
      1.04624894E-03    3      1000023        15       -15             # Z3SS   -->  Z2SS   TAU-   TAU+        
      2.17459071E-03    3      1000023        12       -12             # Z3SS   -->  Z2SS   NUE    ANUE        
      2.17459071E-03    3      1000023        14       -14             # Z3SS   -->  Z2SS   NUM    ANUM        
      2.17458699E-03    3      1000023        16       -16             # Z3SS   -->  Z2SS   NUT    ANUT        
#         PDG         Width
DECAY   1000035  2.01051426E+00   # Z4SS  decays
#          BR          NDA       ID1       ID2       ID3       ID4
      1.26677617E-06    2      1000022        22                       # Z4SS   -->  Z1SS   GM                 
      4.08286223E-06    2      1000023        22                       # Z4SS   -->  Z2SS   GM                 
      7.43484463E-07    2      1000025        22                       # Z4SS   -->  Z3SS   GM                 
      2.89035022E-01    2      1000024       -24                       # Z4SS   -->  W1SS+  W-                 
      2.89035022E-01    2     -1000024        24                       # Z4SS   -->  W1SS-  W+                 
      2.89788655E-08    3     -1000037         2        -1             # Z4SS   -->  W2SS-  UP     DB          
      9.65962244E-09    3     -1000037        12       -11             # Z4SS   -->  W2SS-  NUE    E+          
      9.65962244E-09    3     -1000037        14       -13             # Z4SS   -->  W2SS-  NUM    MU+         
      2.89788655E-08    3      1000037         1        -2             # Z4SS   -->  W2SS+  DN     UB          
      9.65962244E-09    3      1000037        11       -12             # Z4SS   -->  W2SS+  E-     ANUE        
      9.65962244E-09    3      1000037        13       -14             # Z4SS   -->  W2SS+  MU-    ANUM        
      2.89788655E-08    3     -1000037         4        -3             # Z4SS   -->  W2SS-  CH     SB          
      9.65962244E-09    3     -1000037        16       -15             # Z4SS   -->  W2SS-  NUT    TAU+        
      2.89788655E-08    3      1000037         3        -4             # Z4SS   -->  W2SS+  ST     CB          
      9.65962244E-09    3      1000037        15       -16             # Z4SS   -->  W2SS+  TAU-   ANUT        
      1.86854620E-02    2      1000022        23                       # Z4SS   -->  Z1SS   Z0                 
      2.31564894E-01    2      1000023        23                       # Z4SS   -->  Z2SS   Z0                 
      1.01938648E-02    2      1000025        23                       # Z4SS   -->  Z3SS   Z0                 
      7.01390335E-11    3      1000022         2        -2             # Z4SS   -->  Z1SS   UP     UB          
      3.19238802E-10    3      1000022         1        -1             # Z4SS   -->  Z1SS   DN     DB          
      3.19238802E-10    3      1000022         3        -3             # Z4SS   -->  Z1SS   ST     SB          
      7.01390127E-11    3      1000022         4        -4             # Z4SS   -->  Z1SS   CH     CB          
      1.21974651E-07    3      1000022         5        -5             # Z4SS   -->  Z1SS   BT     BB          
      2.04122374E-12    3      1000022        11       -11             # Z4SS   -->  Z1SS   E-     E+          
      2.04122374E-12    3      1000022        13       -13             # Z4SS   -->  Z1SS   MU-    MU+         
      2.31250237E-08    3      1000022        15       -15             # Z4SS   -->  Z1SS   TAU-   TAU+        
      2.38931319E-10    3      1000022        12       -12             # Z4SS   -->  Z1SS   NUE    ANUE        
      2.38931319E-10    3      1000022        14       -14             # Z4SS   -->  Z1SS   NUM    ANUM        
      2.53619736E-10    3      1000022        16       -16             # Z4SS   -->  Z1SS   NUT    ANUT        
      6.27449048E-12    3      1000023         2        -2             # Z4SS   -->  Z2SS   UP     UB          
      1.25819615E-11    3      1000023         1        -1             # Z4SS   -->  Z2SS   DN     DB          
      1.25819615E-11    3      1000023         3        -3             # Z4SS   -->  Z2SS   ST     SB          
      6.27448744E-12    3      1000023         4        -4             # Z4SS   -->  Z2SS   CH     CB          
      8.02457620E-08    3      1000023         5        -5             # Z4SS   -->  Z2SS   BT     BB          
      7.22334085E-13    3      1000023        11       -11             # Z4SS   -->  Z2SS   E-     E+          
      7.22334085E-13    3      1000023        13       -13             # Z4SS   -->  Z2SS   MU-    MU+         
      1.54347379E-08    3      1000023        15       -15             # Z4SS   -->  Z2SS   TAU-   TAU+        
      6.61611868E-12    3      1000023        12       -12             # Z4SS   -->  Z2SS   NUE    ANUE        
      6.61611868E-12    3      1000023        14       -14             # Z4SS   -->  Z2SS   NUM    ANUM        
      7.02307223E-12    3      1000023        16       -16             # Z4SS   -->  Z2SS   NUT    ANUT        
      1.23826727E-10    3      1000025         2        -2             # Z4SS   -->  Z3SS   UP     UB          
      1.18665798E-12    3      1000025         1        -1             # Z4SS   -->  Z3SS   DN     DB          
      1.18665798E-12    3      1000025         3        -3             # Z4SS   -->  Z3SS   ST     SB          
      1.23826671E-10    3      1000025         4        -4             # Z4SS   -->  Z3SS   CH     CB          
      6.41784270E-09    3      1000025         5        -5             # Z4SS   -->  Z3SS   BT     BB          
      1.32402075E-10    3      1000025        11       -11             # Z4SS   -->  Z3SS   E-     E+          
      1.32402075E-10    3      1000025        13       -13             # Z4SS   -->  Z3SS   MU-    MU+         
      1.38717349E-09    3      1000025        15       -15             # Z4SS   -->  Z3SS   TAU-   TAU+        
      2.77890870E-11    3      1000025        12       -12             # Z4SS   -->  Z3SS   NUE    ANUE        
      2.77890870E-11    3      1000025        14       -14             # Z4SS   -->  Z3SS   NUM    ANUM        
      2.94984558E-11    3      1000025        16       -16             # Z4SS   -->  Z3SS   NUT    ANUT        
      8.10192600E-02    2      1000022        25                       # Z4SS   -->  Z1SS   HL0                
      1.74411405E-02    2      1000023        25                       # Z4SS   -->  Z2SS   HL0                
      6.30190820E-02    2      1000025        25                       # Z4SS   -->  Z3SS   HL0                
#         PDG         Width
DECAY   1000024  7.59199975E-06   # W1SS+ decays
#          BR          NDA       ID1       ID2       ID3       ID4
      3.33332092E-01    3      1000022         2        -1             # W1SS+  -->  Z1SS   UP     DB          
      3.33332092E-01    3      1000022         4        -3             # W1SS+  -->  Z1SS   CH     SB          
      1.11111149E-01    3      1000022       -11        12             # W1SS+  -->  Z1SS   E+     NUE         
      1.11111149E-01    3      1000022       -13        14             # W1SS+  -->  Z1SS   MU+    NUM         
      1.11113481E-01    3      1000022       -15        16             # W1SS+  -->  Z1SS   TAU+   NUT         
#         PDG         Width
DECAY   1000037  1.90524828E+00   # W2SS+ decays
#          BR          NDA       ID1       ID2       ID3       ID4
      1.91490851E-10    3      1000022         2        -1             # W2SS+  -->  Z1SS   UP     DB          
      1.91490837E-10    3      1000022         4        -3             # W2SS+  -->  Z1SS   CH     SB          
      1.41268774E-10    3      1000022       -11        12             # W2SS+  -->  Z1SS   E+     NUE         
      1.41268774E-10    3      1000022       -13        14             # W2SS+  -->  Z1SS   MU+    NUM         
      2.53543977E-08    3      1000022       -15        16             # W2SS+  -->  Z1SS   TAU+   NUT         
      1.75520301E-01    2      1000022        24                       # W2SS+  -->  Z1SS   W+                 
      4.09534698E-11    3      1000023         2        -1             # W2SS+  -->  Z2SS   UP     DB          
      4.09534663E-11    3      1000023         4        -3             # W2SS+  -->  Z2SS   CH     SB          
      1.28786660E-11    3      1000023       -11        12             # W2SS+  -->  Z2SS   E+     NUE         
      1.28786660E-11    3      1000023       -13        14             # W2SS+  -->  Z2SS   MU+    NUM         
      1.20093233E-08    3      1000023       -15        16             # W2SS+  -->  Z2SS   TAU+   NUT         
      2.66253322E-01    2      1000023        24                       # W2SS+  -->  Z2SS   W+                 
      6.33426020E-11    3      1000025         2        -1             # W2SS+  -->  Z3SS   UP     DB          
      6.33425742E-11    3      1000025         4        -3             # W2SS+  -->  Z3SS   CH     SB          
      1.33753481E-10    3      1000025       -11        12             # W2SS+  -->  Z3SS   E+     NUE         
      1.33753481E-10    3      1000025       -13        14             # W2SS+  -->  Z3SS   MU+    NUM         
      1.59145730E-09    3      1000025       -15        16             # W2SS+  -->  Z3SS   TAU+   NUT         
      1.11911483E-01    2      1000025        24                       # W2SS+  -->  Z3SS   W+                 
      2.55095333E-01    2      1000024        23                       # W2SS+  -->  W1SS+  Z0                 
      4.35358111E-10    3      1000024         1        -1             # W2SS+  -->  W1SS+  DN     DB          
      4.35357833E-10    3      1000024         3        -3             # W2SS+  -->  W1SS+  ST     SB          
      1.14969027E-10    3      1000024         2        -2             # W2SS+  -->  W1SS+  UP     UB          
      1.14969027E-10    3      1000024         4        -4             # W2SS+  -->  W1SS+  CH     CB          
      3.54089813E-11    3      1000024        12       -12             # W2SS+  -->  W1SS+  NUE    ANUE        
      3.54089813E-11    3      1000024        14       -14             # W2SS+  -->  W1SS+  NUM    ANUM        
      5.00152905E-11    3      1000024        16       -16             # W2SS+  -->  W1SS+  NUT    ANUT        
      1.33522610E-10    3      1000024        11       -11             # W2SS+  -->  W1SS+  E-     E+          
      1.33522610E-10    3      1000024        13       -13             # W2SS+  -->  W1SS+  MU-    MU+         
      1.41732334E-10    3      1000024        15       -15             # W2SS+  -->  W1SS+  TAU-   TAU+        
      1.91219494E-01    2      1000024        25                       # W2SS+  -->  W1SS+  HL0                
#         PDG         Width
DECAY        25  3.80122755E-03   # HL0   decays
#          BR          NDA       ID1       ID2       ID3       ID4
      5.80713833E-09    2           11       -11                       # HL0    -->  E-     E+                 
      2.45186791E-04    2           13       -13                       # HL0    -->  MU-    MU+                
      7.01391548E-02    2           15       -15                       # HL0    -->  TAU-   TAU+               
      7.28031773E-06    2            1        -1                       # HL0    -->  DN     DB                 
      2.94161355E-03    2            3        -3                       # HL0    -->  ST     SB                 
      6.30214989E-01    2            5        -5                       # HL0    -->  BT     BB                 
      2.22470658E-06    2            2        -2                       # HL0    -->  UP     UB                 
      4.13965397E-02    2            4        -4                       # HL0    -->  CH     CB                 
      2.71731033E-03    2           22        22                       # HL0    -->  GM     GM                 
      5.26060350E-02    2           21        21                       # HL0    -->  GL     GL                 
      1.00107510E-02    3           24        11       -12             # HL0    -->  W+     E-     ANUE        
      1.00107510E-02    3           24        13       -14             # HL0    -->  W+     MU-    ANUM        
      1.00107510E-02    3           24        15       -16             # HL0    -->  W+     TAU-   ANUT        
      3.00322510E-02    3           24        -2         1             # HL0    -->  W+     UB     DN          
      3.00322510E-02    3           24        -4         3             # HL0    -->  W+     CB     ST          
      1.00107510E-02    3          -24       -11        12             # HL0    -->  W-     E+     NUE         
      1.00107510E-02    3          -24       -13        14             # HL0    -->  W-     MU+    NUM         
      1.00107510E-02    3          -24       -15        16             # HL0    -->  W-     TAU+   NUT         
      3.00322510E-02    3          -24         2        -1             # HL0    -->  W-     UP     DB          
      3.00322510E-02    3          -24         4        -3             # HL0    -->  W-     CH     SB          
      1.33608480E-03    3           23        12       -12             # HL0    -->  Z0     NUE    ANUE        
      1.33608480E-03    3           23        14       -14             # HL0    -->  Z0     NUM    ANUM        
      1.33608480E-03    3           23        16       -16             # HL0    -->  Z0     NUT    ANUT        
      6.72438066E-04    3           23        11       -11             # HL0    -->  Z0     E-     E+          
      6.72438066E-04    3           23        13       -13             # HL0    -->  Z0     MU-    MU+         
      6.72438066E-04    3           23        15       -15             # HL0    -->  Z0     TAU-   TAU+        
      2.30371580E-03    3           23         2        -2             # HL0    -->  Z0     UP     UB          
      2.30371580E-03    3           23         4        -4             # HL0    -->  Z0     CH     CB          
      2.96775345E-03    3           23         1        -1             # HL0    -->  Z0     DN     DB          
      2.96775345E-03    3           23         3        -3             # HL0    -->  Z0     ST     SB          
      2.96775345E-03    3           23         5        -5             # HL0    -->  Z0     BT     BB          
#         PDG         Width
DECAY        35  1.47400265E+01   # HH0   decays
#          BR          NDA       ID1       ID2       ID3       ID4
      2.61079136E-09    2           11       -11                       # HH0    -->  E-     E+                 
      1.10232308E-04    2           13       -13                       # HH0    -->  MU-    MU+                
      3.15716378E-02    2           15       -15                       # HH0    -->  TAU-   TAU+               
      3.19823130E-06    2            1        -1                       # HH0    -->  DN     DB                 
      1.29224733E-03    2            3        -3                       # HH0    -->  ST     SB                 
      1.94827691E-01    2            5        -5                       # HH0    -->  BT     BB                 
      2.11658104E-11    2            2        -2                       # HH0    -->  UP     UB                 
      2.98077964E-07    2            4        -4                       # HH0    -->  CH     CB                 
      1.35976039E-02    2            6        -6                       # HH0    -->  TP     TB                 
      4.00752270E-07    2           22        22                       # HH0    -->  GM     GM                 
      6.83571034E-06    2           21        21                       # HH0    -->  GL     GL                 
      5.17055560E-05    2           24       -24                       # HH0    -->  W+     W-                 
      2.62517442E-05    2           23        23                       # HH0    -->  Z0     Z0                 
      4.86541577E-02    2      1000022   1000022                       # HH0    -->  Z1SS   Z1SS               
      1.50671434E-02    2      1000022   1000023                       # HH0    -->  Z1SS   Z2SS               
      1.71527232E-03    2      1000022   1000025                       # HH0    -->  Z1SS   Z3SS               
      6.79425746E-02    2      1000022   1000035                       # HH0    -->  Z1SS   Z4SS               
      6.98621338E-03    2      1000023   1000023                       # HH0    -->  Z2SS   Z2SS               
      1.68773104E-02    2      1000023   1000025                       # HH0    -->  Z2SS   Z3SS               
      1.27085224E-01    2      1000023   1000035                       # HH0    -->  Z2SS   Z4SS               
      2.12734425E-03    2      1000025   1000025                       # HH0    -->  Z3SS   Z3SS               
      1.21371057E-02    2      1000025   1000035                       # HH0    -->  Z3SS   Z4SS               
      3.10876477E-03    2      1000035   1000035                       # HH0    -->  Z4SS   Z4SS               
      7.08238184E-02    2      1000024  -1000024                       # HH0    -->  W1SS+  W1SS-              
      5.23976609E-03    2      1000037  -1000037                       # HH0    -->  W2SS+  W2SS-              
      1.90282479E-01    2      1000024  -1000037                       # HH0    -->  W1SS+  W2SS-              
      1.90282479E-01    2     -1000024   1000037                       # HH0    -->  W1SS-  W2SS+              
      1.82200791E-04    2           25        25                       # HH0    -->  HL0    HL0                
#         PDG         Width
DECAY        36  1.46074123E+01   # HA0   decays
#          BR          NDA       ID1       ID2       ID3       ID4
      2.61759192E-09    2           11       -11                       # HA0    -->  E-     E+                 
      1.10519453E-04    2           13       -13                       # HA0    -->  MU-    MU+                
      3.16542685E-02    2           15       -15                       # HA0    -->  TAU-   TAU+               
      3.20673871E-06    2            1        -1                       # HA0    -->  DN     DB                 
      1.29568484E-03    2            3        -3                       # HA0    -->  ST     SB                 
      1.95354700E-01    2            5        -5                       # HA0    -->  BT     BB                 
      2.02677458E-11    2            2        -2                       # HA0    -->  UP     UB                 
      2.85655119E-07    2            4        -4                       # HA0    -->  CH     CB                 
      1.44739337E-02    2            6        -6                       # HA0    -->  TP     TB                 
      1.12856037E-06    2           22        22                       # HA0    -->  GM     GM                 
      2.14675310E-05    2           21        21                       # HA0    -->  GL     GL                 
      6.30239248E-02    2      1000022   1000022                       # HA0    -->  Z1SS   Z1SS               
      8.08020215E-03    2      1000022   1000023                       # HA0    -->  Z1SS   Z2SS               
      1.90297561E-03    2      1000022   1000025                       # HA0    -->  Z1SS   Z3SS               
      9.49340388E-02    2      1000022   1000035                       # HA0    -->  Z1SS   Z4SS               
      5.68882376E-03    2      1000023   1000023                       # HA0    -->  Z2SS   Z2SS               
      1.27108479E-02    2      1000023   1000025                       # HA0    -->  Z2SS   Z3SS               
      7.81555101E-02    2      1000023   1000035                       # HA0    -->  Z2SS   Z4SS               
      3.42610595E-03    2      1000025   1000025                       # HA0    -->  Z3SS   Z3SS               
      2.32574530E-02    2      1000025   1000035                       # HA0    -->  Z3SS   Z4SS               
      9.91848111E-03    2      1000035   1000035                       # HA0    -->  Z4SS   Z4SS               
      8.55124965E-02    2      1000024  -1000024                       # HA0    -->  W1SS+  W1SS-              
      1.68160051E-02    2      1000037  -1000037                       # HA0    -->  W2SS+  W2SS-              
      1.76803961E-01    2      1000024  -1000037                       # HA0    -->  W1SS+  W2SS-              
      1.76803961E-01    2     -1000024   1000037                       # HA0    -->  W1SS-  W2SS+              
      5.00633214E-05    2           25        23                       # HA0    -->  HL0    Z0                 
#         PDG         Width
DECAY        37  1.41558304E+01   # H+    decays
#          BR          NDA       ID1       ID2       ID3       ID4
      2.70981615E-09    2           12       -11                       # H+     -->  NUE    E+                 
      1.14413328E-04    2           14       -13                       # H+     -->  NUM    MU+                
      3.27695273E-02    2           16       -15                       # H+     -->  NUT    TAU+               
      3.05135291E-06    2            2        -1                       # H+     -->  UP     DB                 
      1.23316038E-03    2            4        -3                       # H+     -->  CH     SB                 
      1.88130915E-01    2            6        -5                       # H+     -->  TP     BB                 
      1.06870746E-02    2      1000024   1000022                       # H+     -->  W1SS+  Z1SS               
      1.54382419E-02    2      1000024   1000023                       # H+     -->  W1SS+  Z2SS               
      1.00708961E-01    2      1000024   1000025                       # H+     -->  W1SS+  Z3SS               
      1.96915358E-01    2      1000024   1000035                       # H+     -->  W1SS+  Z4SS               
      2.06706390E-01    2      1000037   1000022                       # H+     -->  W2SS+  Z1SS               
      1.95889756E-01    2      1000037   1000023                       # H+     -->  W2SS+  Z2SS               
      5.12792654E-02    2      1000037   1000025                       # H+     -->  W2SS+  Z3SS               
      7.20057506E-05    2      1000037   1000035                       # H+     -->  W2SS+  Z4SS               
      5.18071975E-05    2           25        24                       # H+     -->  HL0    W+                 
