#  ISAJET SUSY parameters in SUSY Les Houches Accord 2 format
#  Created by ISALHA 2.0 Last revision: H Baer 27 May 2014
Block SPINFO   # Program information
     1   ISASUGRA/ISASUSY from ISAJET   # Spectrum Calculator
     2   7.87   18-JUL-2017 13:55:55    # Version number
Block MODSEL   # Model selection
     1    13   # Non-universal supergravity model                  
Block SMINPUTS   # Standard Model inputs
     1     1.28000000E+02   # alpha_em^(-1)
     2     1.16570000E-05   # G_Fermi
     3     1.19999997E-01   # alpha_s(M_Z)
     4     9.11699982E+01   # m_{Z}(pole)
     5     4.19999981E+00   # m_{b}(m_{b})
     6     1.72500000E+02   # m_{top}(pole)
     7     1.77699995E+00   # m_{tau}(pole)
Block MINPAR   # SUSY breaking input parameters
     1     5.00000000E+03   # m_0
     2     3.00000000E+03   # m_{1/2}
     3     1.50000000E+01   # tan(beta)
     4     1.00000000E+00   # sign(mu)
     5    -8.00000000E+03   # A_0
Block EXTPAR   # Non-universal SUSY breaking parameters
     0     1.26091704E+16   # Input scale
    21     8.21659063E+04   # Down type Higgs mass squared
    22     5.76921760E+07   #  Up  type Higgs mass squared
Block MASS   # Scalar and gaugino mass spectrum
#  PDG code   mass                 particle
         6     1.72500000E+02   #  top            
        24     8.04229965E+01   #  W^+
        25     1.25377434E+02   #  h^0            
        35     1.00666858E+03   #  H^0            
        36     1.00000000E+03   #  A^0            
        37     1.00322870E+03   #  H^+            
   1000001     7.39564258E+03   #  dnl            
   1000002     7.39520264E+03   #  upl            
   1000003     7.39564258E+03   #  stl            
   1000004     7.39520264E+03   #  chl            
   1000005     5.81003320E+03   #  b1             
   1000006     3.61829565E+03   #  t1             
   1000011     5.48860596E+03   #  el-            
   1000012     5.49026611E+03   #  nuel           
   1000013     5.48860596E+03   #  mul-           
   1000014     5.49026611E+03   #  numl           
   1000015     4.65663770E+03   #  tau1           
   1000016     5.41656543E+03   #  nutl           
   1000021     6.31150879E+03   #  glss           
   1000022     1.12310341E+02   #  z1ss           
   1000023    -1.15914597E+02   #  z2ss           
   1000024     1.18915939E+02   #  w1ss           
   1000025     1.34844263E+03   #  z3ss           
   1000035     2.51265430E+03   #  z4ss           
   1000037     2.48438599E+03   #  w2ss           
   1000039     1.00000002E+20   #  gvss
   2000001     7.17460742E+03   #  dnr            
   2000002     7.38778027E+03   #  upr            
   2000003     7.17460742E+03   #  str            
   2000004     7.38778027E+03   #  chr            
   2000005     6.96594434E+03   #  b2             
   2000006     5.80606543E+03   #  t2             
   2000011     4.83079590E+03   #  er-            
   2000013     4.83079590E+03   #  mur-           
   2000015     5.41269824E+03   #  tau2           
Block ALPHA   # Effective Higgs mixing parameter
         -6.81513101E-02   # alpha
Block STOPMIX   # stop mixing matrix
  1  1     5.34009300E-02   # O_{11}
  1  2     9.98573124E-01   # O_{12}
  2  1    -9.98573124E-01   # O_{21}
  2  2     5.34009300E-02   # O_{22}
Block SBOTMIX   # sbottom mixing matrix
  1  1     9.99990165E-01   # O_{11}
  1  2     4.43876348E-03   # O_{12}
  2  1    -4.43876348E-03   # O_{21}
  2  2     9.99990165E-01   # O_{22}
Block STAUMIX   # stau mixing matrix
  1  1     4.75579314E-03   # O_{11}
  1  2     9.99988675E-01   # O_{12}
  2  1    -9.99988675E-01   # O_{21}
  2  2     4.75579314E-03   # O_{22}
Block NMIX   # neutralino mixing matrix
  1  1    -2.53249668E-02   #
  1  2     2.44607460E-02   #
  1  3    -7.12395370E-01   #
  1  4     7.00894713E-01   #
  2  1     1.88993867E-02   #
  2  2    -1.85210109E-02   #
  2  3    -7.01747954E-01   #
  2  4    -7.11933672E-01   #
  3  1     9.99491632E-01   #
  3  2     5.23453206E-03   #
  3  3    -4.76220250E-03   #
  3  4     3.10909506E-02   #
  4  1    -4.26442921E-03   #
  4  2     9.99515593E-01   #
  4  3     4.45555896E-03   #
  4  4    -3.05076875E-02   #
Block UMIX   # chargino U mixing matrix
  1  1    -5.44941891E-03   # U_{11}
  1  2     9.99985158E-01   # U_{12}
  2  1    -9.99985158E-01   # U_{21}
  2  2    -5.44941891E-03   # U_{22}
Block VMIX   # chargino V mixing matrix
  1  1    -4.40418385E-02   # V_{11}
  1  2     9.99029696E-01   # V_{12}
  2  1    -9.99029696E-01   # V_{21}
  2  2    -4.40418385E-02   # V_{22}
Block GAUGE Q=  4.50386426E+03   #
     1     3.57516885E-01   # g`
     2     6.52405202E-01   # g_2
     3     1.21965361E+00   # g_3
Block YU Q=  4.50386426E+03   #
  3  3     8.03156912E-01   # y_t
Block YD Q=  4.50386426E+03   #
  3  3     1.81625456E-01   # y_b
Block YE Q=  4.50386426E+03   #
  3  3     1.48918480E-01   # y_tau
Block HMIX Q=  4.50386426E+03   # Higgs mixing parameters
     1     1.10000000E+02   # mu(Q)
     2     1.42622490E+01   # tan(beta)(Q)
     3     2.52605408E+02   # Higgs vev at Q
     4     1.00000000E+06   # m_A^2(Q)
Block MSOFT Q=  4.50386426E+03   # DRbar SUSY breaking parameters
     1     1.35188281E+03   # M_1(Q)          
     2     2.42465430E+03   # M_2(Q)          
     3     5.91836523E+03   # M_3(Q)          
    21     9.82160750E+05   # MHd^2(Q)        
    22     9.03775781E+04   # MHu^2(Q)        
    31     5.46580518E+03   # MeL(Q)          
    32     5.46580518E+03   # MmuL(Q)         
    33     5.39412500E+03   # MtauL(Q)        
    34     4.82660400E+03   # MeR(Q)          
    35     4.82660400E+03   # MmuR(Q)         
    36     4.65661230E+03   # MtauR(Q)        
    41     7.09507471E+03   # MqL1(Q)         
    42     7.09507471E+03   # MqL2(Q)         
    43     5.61838037E+03   # MqL3(Q)         
    44     7.08742725E+03   # MuR(Q)          
    45     7.08742725E+03   # McR(Q)          
    46     3.61043433E+03   # MtR(Q)          
    47     6.87097266E+03   # MdR(Q)          
    48     6.87097266E+03   # MsR(Q)          
    49     6.78848535E+03   # MbR(Q)          
Block AU Q=  4.50386426E+03   #
  1  1    -7.76007227E+03   # A_u
  2  2    -7.76007227E+03   # A_c
  3  3    -7.76007227E+03   # A_t
Block AD Q=  4.50386426E+03   #
  1  1    -1.32863174E+04   # A_d
  2  2    -1.32863174E+04   # A_s
  3  3    -1.32863174E+04   # A_b
Block AE Q=  4.50386426E+03   #
  1  1    -9.30286523E+03   # A_e
  2  2    -9.30286523E+03   # A_mu
  3  3    -9.30286523E+03   # A_tau
#  ISAJET decay tables in SUSY Les Houches accord format
#  Created by ISALHD. Last revision: C. Balazs, 2005 May 25
Block DCINFO                           # Program information
     1   ISASUGRA from ISAJET          # Spectrum Calculator
     2   7.87   18-JUL-2017 13:55:55   # Version number
#         PDG         Width
DECAY         6  1.46776152E+00   # TP    decays
#          BR          NDA       ID1       ID2       ID3       ID4
      3.33333313E-01    3            2        -1         5             # TP     -->  UP     DB     BT          
      3.33333313E-01    3            4        -3         5             # TP     -->  CH     SB     BT          
      1.11111097E-01    3          -11        12         5             # TP     -->  E+     NUE    BT          
      1.11111097E-01    3          -13        14         5             # TP     -->  MU+    NUM    BT          
      1.11111097E-01    3          -15        16         5             # TP     -->  TAU+   NUT    BT          
#         PDG         Width
DECAY   1000021  6.03783112E+01   # GLSS  decays
#          BR          NDA       ID1       ID2       ID3       ID4
      5.52110521E-07    3      1000024         1        -2             # GLSS   -->  W1SS+  DN     UB          
      5.52110521E-07    3     -1000024         2        -1             # GLSS   -->  W1SS-  UP     DB          
      5.52110521E-07    3      1000024         3        -4             # GLSS   -->  W1SS+  ST     CB          
      5.52110521E-07    3     -1000024         4        -3             # GLSS   -->  W1SS-  CH     SB          
      3.51065319E-05    3      1000024         5        -6             # GLSS   -->  W1SS+  BT     TB          
      3.51065319E-05    3     -1000024         6        -5             # GLSS   -->  W1SS-  TP     BB          
      3.14195175E-04    3      1000037         1        -2             # GLSS   -->  W2SS+  DN     UB          
      3.14195175E-04    3     -1000037         2        -1             # GLSS   -->  W2SS-  UP     DB          
      3.14195175E-04    3      1000037         3        -4             # GLSS   -->  W2SS+  ST     CB          
      3.14195175E-04    3     -1000037         4        -3             # GLSS   -->  W2SS-  CH     SB          
      6.87646429E-09    3      1000037         5        -6             # GLSS   -->  W2SS+  BT     TB          
      6.87646429E-09    3     -1000037         6        -5             # GLSS   -->  W2SS-  TP     BB          
      2.51478005E-10    2      1000022        21                       # GLSS   -->  Z1SS   GL                 
      2.11088263E-07    3      1000022         2        -2             # GLSS   -->  Z1SS   UP     UB          
      2.71879713E-07    3      1000022         1        -1             # GLSS   -->  Z1SS   DN     DB          
      2.71879713E-07    3      1000022         3        -3             # GLSS   -->  Z1SS   ST     SB          
      2.11088263E-07    3      1000022         4        -4             # GLSS   -->  Z1SS   CH     CB          
      3.57660829E-05    3      1000022         5        -5             # GLSS   -->  Z1SS   BT     BB          
      1.47349757E-10    2      1000023        21                       # GLSS   -->  Z2SS   GL                 
      1.14087364E-07    3      1000023         2        -2             # GLSS   -->  Z2SS   UP     UB          
      1.47355081E-07    3      1000023         1        -1             # GLSS   -->  Z2SS   DN     DB          
      1.47355081E-07    3      1000023         3        -3             # GLSS   -->  Z2SS   ST     SB          
      1.14087364E-07    3      1000023         4        -4             # GLSS   -->  Z2SS   CH     CB          
      3.47696223E-05    3      1000023         5        -5             # GLSS   -->  Z2SS   BT     BB          
      2.58972676E-07    2      1000025        21                       # GLSS   -->  Z3SS   GL                 
      1.53022949E-04    3      1000025         2        -2             # GLSS   -->  Z3SS   UP     UB          
      5.24001953E-05    3      1000025         1        -1             # GLSS   -->  Z3SS   DN     DB          
      5.24001953E-05    3      1000025         3        -3             # GLSS   -->  Z3SS   ST     SB          
      1.53022949E-04    3      1000025         4        -4             # GLSS   -->  Z3SS   CH     CB          
      5.48968455E-05    3      1000025         5        -5             # GLSS   -->  Z3SS   BT     BB          
      1.58143117E-12    2      1000035        21                       # GLSS   -->  Z4SS   GL                 
      1.53963236E-04    3      1000035         2        -2             # GLSS   -->  Z4SS   UP     UB          
      1.54378067E-04    3      1000035         1        -1             # GLSS   -->  Z4SS   DN     DB          
      1.54378067E-04    3      1000035         3        -3             # GLSS   -->  Z4SS   ST     SB          
      1.53963236E-04    3      1000035         4        -4             # GLSS   -->  Z4SS   CH     CB          
      7.94194843E-09    3      1000035         5        -5             # GLSS   -->  Z4SS   BT     BB          
      2.35657599E-02    2     -1000005         5                       # GLSS   -->  BB1    BT                 
      2.35657599E-02    2      1000005        -5                       # GLSS   -->  BT1    BB                 
      4.51741457E-01    2     -1000006         6                       # GLSS   -->  TB1    TP                 
      4.51741457E-01    2      1000006        -6                       # GLSS   -->  TP1    TB                 
      2.34508216E-02    2     -2000006         6                       # GLSS   -->  TB2    TP                 
      2.34508216E-02    2      2000006        -6                       # GLSS   -->  TP2    TB                 
#         PDG         Width
DECAY   1000002  1.02162766E+02   # UPL   decays
#          BR          NDA       ID1       ID2       ID3       ID4
      1.19652505E-04    2      1000022         2                       # UPL    -->  Z1SS   UP                 
      6.90589877E-05    2      1000023         2                       # UPL    -->  Z2SS   UP                 
      1.01023763E-02    2      1000025         2                       # UPL    -->  Z3SS   UP                 
      2.37805381E-01    2      1000035         2                       # UPL    -->  Z4SS   UP                 
      2.72046655E-01    2      1000021         2                       # UPL    -->  GLSS   UP                 
      1.18142413E-03    2      1000024         1                       # UPL    -->  W1SS+  DN                 
      4.78675514E-01    2      1000037         1                       # UPL    -->  W2SS+  DN                 
#         PDG         Width
DECAY   1000001  1.02150055E+02   # DNL   decays
#          BR          NDA       ID1       ID2       ID3       ID4
      2.57957814E-04    2      1000022         1                       # DNL    -->  Z1SS   DN                 
      1.47207582E-04    2      1000023         1                       # DNL    -->  Z2SS   DN                 
      9.01226979E-03    2      1000025         1                       # DNL    -->  Z3SS   DN                 
      2.38601387E-01    2      1000035         1                       # DNL    -->  Z4SS   DN                 
      2.72268832E-01    2      1000021         1                       # DNL    -->  GLSS   DN                 
      1.80906918E-05    2     -1000024         2                       # DNL    -->  W1SS-  UP                 
      4.79694277E-01    2     -1000037         2                       # DNL    -->  W2SS-  UP                 
#         PDG         Width
DECAY   1000003  1.02150055E+02   # STL   decays
#          BR          NDA       ID1       ID2       ID3       ID4
      2.57957814E-04    2      1000022         3                       # STL    -->  Z1SS   ST                 
      1.47207582E-04    2      1000023         3                       # STL    -->  Z2SS   ST                 
      9.01226979E-03    2      1000025         3                       # STL    -->  Z3SS   ST                 
      2.38601387E-01    2      1000035         3                       # STL    -->  Z4SS   ST                 
      2.72268832E-01    2      1000021         3                       # STL    -->  GLSS   ST                 
      1.80906900E-05    2     -1000024         4                       # STL    -->  W1SS-  CH                 
      4.79694217E-01    2     -1000037         4                       # STL    -->  W2SS-  CH                 
#         PDG         Width
DECAY   1000004  1.02162735E+02   # CHL   decays
#          BR          NDA       ID1       ID2       ID3       ID4
      1.19652512E-04    2      1000022         4                       # CHL    -->  Z1SS   CH                 
      6.90589950E-05    2      1000023         4                       # CHL    -->  Z2SS   CH                 
      1.01023782E-02    2      1000025         4                       # CHL    -->  Z3SS   CH                 
      2.37805426E-01    2      1000035         4                       # CHL    -->  Z4SS   CH                 
      2.72046477E-01    2      1000021         4                       # CHL    -->  GLSS   CH                 
      1.18142448E-03    2      1000024         3                       # CHL    -->  W1SS+  ST                 
      4.78675634E-01    2      1000037         3                       # CHL    -->  W2SS+  ST                 
#         PDG         Width
DECAY   1000005  2.07988739E+02   # BT1   decays
#          BR          NDA       ID1       ID2       ID3       ID4
      9.90454108E-03    2      1000022         5                       # BT1    -->  Z1SS   BT                 
      9.55068599E-03    2      1000023         5                       # BT1    -->  Z2SS   BT                 
      3.33011174E-03    2      1000025         5                       # BT1    -->  Z3SS   BT                 
      7.77580589E-02    2      1000035         5                       # BT1    -->  Z4SS   BT                 
      3.39852273E-01    2     -1000024         6                       # BT1    -->  W1SS-  TP                 
      1.57566622E-01    2     -1000037         6                       # BT1    -->  W2SS-  TP                 
      4.00598794E-01    2          -24   1000006                       # BT1    -->  W-     TP1                
      1.43889408E-03    2          -37   1000006                       # BT1    -->  H-     TP1                
#         PDG         Width
DECAY   1000006  9.41265564E+01   # TP1   decays
#          BR          NDA       ID1       ID2       ID3       ID4
      2.30048478E-01    2      1000022         6                       # TP1    -->  Z1SS   TP                 
      2.37276807E-01    2      1000023         6                       # TP1    -->  Z2SS   TP                 
      6.42268732E-02    2      1000025         6                       # TP1    -->  Z3SS   TP                 
      8.61484466E-08    2      1000035         6                       # TP1    -->  Z4SS   TP                 
      4.68447685E-01    2      1000024         5                       # TP1    -->  W1SS+  BT                 
      1.23601414E-08    2      1000037         5                       # TP1    -->  W2SS+  BT                 
#         PDG         Width
DECAY   2000002  4.30762520E+01   # UPR   decays
#          BR          NDA       ID1       ID2       ID3       ID4
      2.48536060E-04    2      1000022         2                       # UPR    -->  Z1SS   UP                 
      1.38412041E-04    2      1000023         2                       # UPR    -->  Z2SS   UP                 
      3.61926883E-01    2      1000025         2                       # UPR    -->  Z3SS   UP                 
      5.51364155E-06    2      1000035         2                       # UPR    -->  Z4SS   UP                 
      6.37680650E-01    2      1000021         2                       # UPR    -->  GLSS   UP                 
#         PDG         Width
DECAY   2000001  2.25117226E+01   # DNR   decays
#          BR          NDA       ID1       ID2       ID3       ID4
      1.15459763E-04    2      1000022         1                       # DNR    -->  Z1SS   DN                 
      6.43005042E-05    2      1000023         1                       # DNR    -->  Z2SS   DN                 
      1.67443007E-01    2      1000025         1                       # DNR    -->  Z3SS   DN                 
      2.52123255E-06    2      1000035         1                       # DNR    -->  Z4SS   DN                 
      8.32374752E-01    2      1000021         1                       # DNR    -->  GLSS   DN                 
#         PDG         Width
DECAY   2000003  2.25117226E+01   # STR   decays
#          BR          NDA       ID1       ID2       ID3       ID4
      1.15459763E-04    2      1000022         3                       # STR    -->  Z1SS   ST                 
      6.43005042E-05    2      1000023         3                       # STR    -->  Z2SS   ST                 
      1.67443007E-01    2      1000025         3                       # STR    -->  Z3SS   ST                 
      2.52123255E-06    2      1000035         3                       # STR    -->  Z4SS   ST                 
      8.32374752E-01    2      1000021         3                       # STR    -->  GLSS   ST                 
#         PDG         Width
DECAY   2000004  4.30762253E+01   # CHR   decays
#          BR          NDA       ID1       ID2       ID3       ID4
      2.48536206E-04    2      1000022         4                       # CHR    -->  Z1SS   CH                 
      1.38412128E-04    2      1000023         4                       # CHR    -->  Z2SS   CH                 
      3.61927062E-01    2      1000025         4                       # CHR    -->  Z3SS   CH                 
      5.51364383E-06    2      1000035         4                       # CHR    -->  Z4SS   CH                 
      6.37680471E-01    2      1000021         4                       # CHR    -->  GLSS   CH                 
#         PDG         Width
DECAY   2000005  5.31721191E+01   # BT2   decays
#          BR          NDA       ID1       ID2       ID3       ID4
      4.59337793E-02    2      1000022         5                       # BT2    -->  Z1SS   BT                 
      4.46426831E-02    2      1000023         5                       # BT2    -->  Z2SS   BT                 
      6.85290098E-02    2      1000025         5                       # BT2    -->  Z3SS   BT                 
      1.73123026E-05    2      1000035         5                       # BT2    -->  Z4SS   BT                 
      2.15090081E-01    2      1000021         5                       # BT2    -->  GLSS   BT                 
      9.04199481E-02    2     -1000024         6                       # BT2    -->  W1SS-  TP                 
      3.02951030E-05    2     -1000037         6                       # BT2    -->  W2SS-  TP                 
      9.04136832E-05    2          -24   1000006                       # BT2    -->  W-     TP1                
      2.29594624E-03    2          -24   2000006                       # BT2    -->  W-     TP2                
      1.15309726E-03    2           23   1000005                       # BT2    -->  Z0     BT1                
      1.54651760E-03    2           25   1000005                       # BT2    -->  HL0    BT1                
      1.32606134E-01    2           36   1000005                       # BT2    -->  HA0    BT1                
      1.29891977E-01    2           35   1000005                       # BT2    -->  HH0    BT1                
      1.93944457E-03    2          -37   1000006                       # BT2    -->  H-     TP1                
      2.65813410E-01    2          -37   2000006                       # BT2    -->  H-     TP2                
#         PDG         Width
DECAY   2000006  2.27153717E+02   # TP2   decays
#          BR          NDA       ID1       ID2       ID3       ID4
      1.76933818E-02    2      1000024         5                       # TP2    -->  W1SS+  BT                 
      1.43724188E-01    2      1000037         5                       # TP2    -->  W2SS+  BT                 
      1.84321538E-01    2           23   1000006                       # TP2    -->  Z0     TP1                
      2.67396867E-01    2           25   1000006                       # TP2    -->  HL0    TP1                
      6.90537447E-04    2           35   1000006                       # TP2    -->  HH0    TP1                
      6.58942154E-04    2           36   1000006                       # TP2    -->  HA0    TP1                
      1.52604297E-01    2      1000022         6                       # TP2    -->  Z1SS   TP                 
      1.57533482E-01    2      1000023         6                       # TP2    -->  Z2SS   TP                 
      4.06407192E-03    2      1000025         6                       # TP2    -->  Z3SS   TP                 
      7.13125318E-02    2      1000035         6                       # TP2    -->  Z4SS   TP                 
#         PDG         Width
DECAY   1000011  4.98430290E+01   # EL-   decays
#          BR          NDA       ID1       ID2       ID3       ID4
      5.14659405E-05    2      1000022        11                       # EL-    -->  Z1SS   E-                 
      3.06364454E-05    2      1000023        11                       # EL-    -->  Z2SS   E-                 
      1.25868231E-01    2      1000025        11                       # EL-    -->  Z3SS   E-                 
      2.87958533E-01    2      1000035        11                       # EL-    -->  Z4SS   E-                 
      2.75037746E-05    2     -1000024        12                       # EL-    -->  W1SS-  NUE                
      5.86063623E-01    2     -1000037        12                       # EL-    -->  W2SS-  NUE                
#         PDG         Width
DECAY   1000013  4.98430290E+01   # MUL-  decays
#          BR          NDA       ID1       ID2       ID3       ID4
      5.14659405E-05    2      1000022        13                       # MUL-   -->  Z1SS   MU-                
      3.06364454E-05    2      1000023        13                       # MUL-   -->  Z2SS   MU-                
      1.25868231E-01    2      1000025        13                       # MUL-   -->  Z3SS   MU-                
      2.87958533E-01    2      1000035        13                       # MUL-   -->  Z4SS   MU-                
      2.75037746E-05    2     -1000024        14                       # MUL-   -->  W1SS-  NUM                
      5.86063623E-01    2     -1000037        14                       # MUL-   -->  W2SS-  NUM                
#         PDG         Width
DECAY   1000015  2.42065945E+01   # TAU1- decays
#          BR          NDA       ID1       ID2       ID3       ID4
      4.60179076E-02    2      1000022        15                       # TAU1-  -->  Z1SS   TAU-               
      4.42705229E-02    2      1000023        15                       # TAU1-  -->  Z2SS   TAU-               
      8.20383787E-01    2      1000025        15                       # TAU1-  -->  Z3SS   TAU-               
      1.32352752E-05    2      1000035        15                       # TAU1-  -->  Z4SS   TAU-               
      8.93045217E-02    2     -1000024        16                       # TAU1-  -->  W1SS-  NUT                
      1.00098605E-05    2     -1000037        16                       # TAU1-  -->  W2SS-  NUT                
#         PDG         Width
DECAY   1000012  4.98545151E+01   # NUEL  decays
#          BR          NDA       ID1       ID2       ID3       ID4
      6.82251703E-04    2      1000022        12                       # NUEL   -->  Z1SS   NUE                
      3.87048349E-04    2      1000023        12                       # NUEL   -->  Z2SS   NUE                
      1.21179037E-01    2      1000025        12                       # NUEL   -->  Z3SS   NUE                
      2.90786445E-01    2      1000035        12                       # NUEL   -->  Z4SS   NUE                
      1.79661182E-03    2      1000024        11                       # NUEL   -->  W1SS+  E-                 
      5.85168600E-01    2      1000037        11                       # NUEL   -->  W2SS+  E-                 
#         PDG         Width
DECAY   1000014  4.98545151E+01   # NUML  decays
#          BR          NDA       ID1       ID2       ID3       ID4
      6.82251703E-04    2      1000022        14                       # NUML   -->  Z1SS   NUM                
      3.87048349E-04    2      1000023        14                       # NUML   -->  Z2SS   NUM                
      1.21179037E-01    2      1000025        14                       # NUML   -->  Z3SS   NUM                
      2.90786445E-01    2      1000035        14                       # NUML   -->  Z4SS   NUM                
      1.79661182E-03    2      1000024        13                       # NUML   -->  W1SS+  MU-                
      5.85168600E-01    2      1000037        13                       # NUML   -->  W2SS+  MU-                
#         PDG         Width
DECAY   1000016  5.11085739E+01   # NUTL  decays
#          BR          NDA       ID1       ID2       ID3       ID4
      6.56562450E-04    2      1000022        16                       # NUTL   -->  Z1SS   NUT                
      3.72473965E-04    2      1000023        16                       # NUTL   -->  Z2SS   NUT                
      1.16209015E-01    2      1000025        16                       # NUTL   -->  Z3SS   NUT                
      2.75795698E-01    2      1000035        16                       # NUTL   -->  Z4SS   NUT                
      5.09356707E-02    2      1000024        15                       # NUTL   -->  W1SS+  TAU-               
      5.55231333E-01    2      1000037        15                       # NUTL   -->  W2SS+  TAU-               
      7.99232046E-04    2           24   1000015                       # NUTL   -->  W+     TAU1-              
#         PDG         Width
DECAY   2000011  2.08944626E+01   # ER-   decays
#          BR          NDA       ID1       ID2       ID3       ID4
      7.53380591E-04    2      1000022        11                       # ER-    -->  Z1SS   E-                 
      4.19547781E-04    2      1000023        11                       # ER-    -->  Z2SS   E-                 
      9.98815656E-01    2      1000025        11                       # ER-    -->  Z3SS   E-                 
      1.13792485E-05    2      1000035        11                       # ER-    -->  Z4SS   E-                 
#         PDG         Width
DECAY   2000013  2.08944626E+01   # MUR-  decays
#          BR          NDA       ID1       ID2       ID3       ID4
      7.53380591E-04    2      1000022        13                       # MUR-   -->  Z1SS   MU-                
      4.19547781E-04    2      1000023        13                       # MUR-   -->  Z2SS   MU-                
      9.98815656E-01    2      1000025        13                       # MUR-   -->  Z3SS   MU-                
      1.13792485E-05    2      1000035        13                       # MUR-   -->  Z4SS   MU-                
#         PDG         Width
DECAY   2000015  5.10410881E+01   # TAU2- decays
#          BR          NDA       ID1       ID2       ID3       ID4
      2.50023734E-02    2      1000022        15                       # TAU2-  -->  Z1SS   TAU-               
      2.43066289E-02    2      1000023        15                       # TAU2-  -->  Z2SS   TAU-               
      1.20786063E-01    2      1000025        15                       # TAU2-  -->  Z3SS   TAU-               
      2.73170978E-01    2      1000035        15                       # TAU2-  -->  Z4SS   TAU-               
      1.67372636E-05    2     -1000024        16                       # TAU2-  -->  W1SS-  NUT                
      5.56200683E-01    2     -1000037        16                       # TAU2-  -->  W2SS-  NUT                
      3.97620286E-04    2           23   1000015                       # TAU2-  -->  Z0     TAU1-              
      1.18939039E-04    2           25   1000015                       # TAU2-  -->  HL0    TAU1-              
#         PDG         Width
DECAY   1000023  5.43108780E-10   # Z2SS  decays
#          BR          NDA       ID1       ID2       ID3       ID4
      2.00811505E-01    2      1000022        22                       # Z2SS   -->  Z1SS   GM                 
      1.35222986E-01    3      1000022         2        -2             # Z2SS   -->  Z1SS   UP     UB          
      1.74370930E-01    3      1000022         1        -1             # Z2SS   -->  Z1SS   DN     DB          
      1.74370930E-01    3      1000022         3        -3             # Z2SS   -->  Z1SS   ST     SB          
      3.95559520E-02    3      1000022        11       -11             # Z2SS   -->  Z1SS   E-     E+          
      3.95559520E-02    3      1000022        13       -13             # Z2SS   -->  Z1SS   MU-    MU+         
      7.87039176E-02    3      1000022        12       -12             # Z2SS   -->  Z1SS   NUE    ANUE        
      7.87039176E-02    3      1000022        14       -14             # Z2SS   -->  Z1SS   NUM    ANUM        
      7.87039176E-02    3      1000022        16       -16             # Z2SS   -->  Z1SS   NUT    ANUT        
#         PDG         Width
DECAY   1000025  3.80448437E+00   # Z3SS  decays
#          BR          NDA       ID1       ID2       ID3       ID4
      7.46085007E-08    2      1000022        22                       # Z3SS   -->  Z1SS   GM                 
      7.41005621E-08    2      1000023        22                       # Z3SS   -->  Z2SS   GM                 
      2.06410334E-01    2      1000024       -24                       # Z3SS   -->  W1SS+  W-                 
      2.06410334E-01    2     -1000024        24                       # Z3SS   -->  W1SS-  W+                 
      4.13800031E-02    2      1000024       -37                       # Z3SS   -->  W1SS+  H-                 
      4.13800031E-02    2     -1000024        37                       # Z3SS   -->  W1SS-  H+                 
      7.06001222E-02    2      1000022        23                       # Z3SS   -->  Z1SS   Z0                 
      1.34546727E-01    2      1000023        23                       # Z3SS   -->  Z2SS   Z0                 
      1.23264440E-10    3      1000022         2        -2             # Z3SS   -->  Z1SS   UP     UB          
      2.46227882E-11    3      1000022         1        -1             # Z3SS   -->  Z1SS   DN     DB          
      2.46227882E-11    3      1000022         3        -3             # Z3SS   -->  Z1SS   ST     SB          
      1.23264440E-10    3      1000022         4        -4             # Z3SS   -->  Z1SS   CH     CB          
      6.10363093E-09    3      1000022         5        -5             # Z3SS   -->  Z1SS   BT     BB          
      1.12107579E-09    3      1000022        11       -11             # Z3SS   -->  Z1SS   E-     E+          
      1.12107579E-09    3      1000022        13       -13             # Z3SS   -->  Z1SS   MU-    MU+         
      1.22713260E-07    3      1000022        15       -15             # Z3SS   -->  Z1SS   TAU-   TAU+        
      3.02222275E-10    3      1000022        12       -12             # Z3SS   -->  Z1SS   NUE    ANUE        
      3.02222275E-10    3      1000022        14       -14             # Z3SS   -->  Z1SS   NUM    ANUM        
      3.19440280E-10    3      1000022        16       -16             # Z3SS   -->  Z1SS   NUT    ANUT        
      5.05795544E-11    3      1000023         2        -2             # Z3SS   -->  Z2SS   UP     UB          
      1.02458285E-11    3      1000023         1        -1             # Z3SS   -->  Z2SS   DN     DB          
      1.02458285E-11    3      1000023         3        -3             # Z3SS   -->  Z2SS   ST     SB          
      5.05795544E-11    3      1000023         4        -4             # Z3SS   -->  Z2SS   CH     CB          
      5.89630300E-09    3      1000023         5        -5             # Z3SS   -->  Z2SS   BT     BB          
      4.61277683E-10    3      1000023        11       -11             # Z3SS   -->  Z2SS   E-     E+          
      4.61277683E-10    3      1000023        13       -13             # Z3SS   -->  Z2SS   MU-    MU+         
      1.17868900E-07    3      1000023        15       -15             # Z3SS   -->  Z2SS   TAU-   TAU+        
      1.26303107E-10    3      1000023        12       -12             # Z3SS   -->  Z2SS   NUE    ANUE        
      1.26303107E-10    3      1000023        14       -14             # Z3SS   -->  Z2SS   NUM    ANUM        
      1.33517974E-10    3      1000023        16       -16             # Z3SS   -->  Z2SS   NUT    ANUT        
      1.40756130E-01    2      1000022        25                       # Z3SS   -->  Z1SS   HL0                
      2.49677058E-02    2      1000022        35                       # Z3SS   -->  Z1SS   HH0                
      1.56368800E-02    2      1000022        36                       # Z3SS   -->  Z1SS   HA0                
      7.84508884E-02    2      1000023        25                       # Z3SS   -->  Z2SS   HL0                
      1.43231843E-02    2      1000023        35                       # Z3SS   -->  Z2SS   HH0                
      2.51372904E-02    2      1000023        36                       # Z3SS   -->  Z2SS   HA0                
#         PDG         Width
DECAY   1000035  3.54187241E+01   # Z4SS  decays
#          BR          NDA       ID1       ID2       ID3       ID4
      4.24164938E-07    2      1000022        22                       # Z4SS   -->  Z1SS   GM                 
      6.41509985E-07    2      1000023        22                       # Z4SS   -->  Z2SS   GM                 
      5.03081077E-10    2      1000025        22                       # Z4SS   -->  Z3SS   GM                 
      1.47692159E-01    2      1000024       -24                       # Z4SS   -->  W1SS+  W-                 
      1.47692159E-01    2     -1000024        24                       # Z4SS   -->  W1SS-  W+                 
      1.03235662E-01    2      1000024       -37                       # Z4SS   -->  W1SS+  H-                 
      1.03235662E-01    2     -1000024        37                       # Z4SS   -->  W1SS-  H+                 
      9.28726990E-07    3     -1000037         2        -1             # Z4SS   -->  W2SS-  UP     DB          
      3.09575654E-07    3     -1000037        12       -11             # Z4SS   -->  W2SS-  NUE    E+          
      3.09575654E-07    3     -1000037        14       -13             # Z4SS   -->  W2SS-  NUM    MU+         
      9.28726990E-07    3      1000037         1        -2             # Z4SS   -->  W2SS+  DN     UB          
      3.09575654E-07    3      1000037        11       -12             # Z4SS   -->  W2SS+  E-     ANUE        
      3.09575654E-07    3      1000037        13       -14             # Z4SS   -->  W2SS+  MU-    ANUM        
      9.28726990E-07    3     -1000037         4        -3             # Z4SS   -->  W2SS-  CH     SB          
      3.09575654E-07    3     -1000037        16       -15             # Z4SS   -->  W2SS-  NUT    TAU+        
      9.28726990E-07    3      1000037         3        -4             # Z4SS   -->  W2SS+  ST     CB          
      3.09575654E-07    3      1000037        15       -16             # Z4SS   -->  W2SS+  TAU-   ANUT        
      4.86831889E-02    2      1000022        23                       # Z4SS   -->  Z1SS   Z0                 
      9.05446932E-02    2      1000023        23                       # Z4SS   -->  Z2SS   Z0                 
      4.62109092E-05    2      1000025        23                       # Z4SS   -->  Z3SS   Z0                 
      6.13383011E-10    3      1000022         2        -2             # Z4SS   -->  Z1SS   UP     UB          
      1.32594191E-09    3      1000022         1        -1             # Z4SS   -->  Z1SS   DN     DB          
      1.32594191E-09    3      1000022         3        -3             # Z4SS   -->  Z1SS   ST     SB          
      6.13383011E-10    3      1000022         4        -4             # Z4SS   -->  Z1SS   CH     CB          
      3.40950237E-07    3      1000022         5        -5             # Z4SS   -->  Z1SS   BT     BB          
      2.06552914E-10    3      1000022        11       -11             # Z4SS   -->  Z1SS   E-     E+          
      2.06552914E-10    3      1000022        13       -13             # Z4SS   -->  Z1SS   MU-    MU+         
      1.02050969E-07    3      1000022        15       -15             # Z4SS   -->  Z1SS   TAU-   TAU+        
      2.75933254E-09    3      1000022        12       -12             # Z4SS   -->  Z1SS   NUE    ANUE        
      2.75933254E-09    3      1000022        14       -14             # Z4SS   -->  Z1SS   NUM    ANUM        
      2.92804714E-09    3      1000022        16       -16             # Z4SS   -->  Z1SS   NUT    ANUT        
      2.98820302E-10    3      1000023         2        -2             # Z4SS   -->  Z2SS   UP     UB          
      6.38683662E-10    3      1000023         1        -1             # Z4SS   -->  Z2SS   DN     DB          
      6.38683662E-10    3      1000023         3        -3             # Z4SS   -->  Z2SS   ST     SB          
      2.98820302E-10    3      1000023         4        -4             # Z4SS   -->  Z2SS   CH     CB          
      3.28579006E-07    3      1000023         5        -5             # Z4SS   -->  Z2SS   BT     BB          
      1.04346552E-10    3      1000023        11       -11             # Z4SS   -->  Z2SS   E-     E+          
      1.04346552E-10    3      1000023        13       -13             # Z4SS   -->  Z2SS   MU-    MU+         
      9.88253177E-08    3      1000023        15       -15             # Z4SS   -->  Z2SS   TAU-   TAU+        
      1.32848588E-09    3      1000023        12       -12             # Z4SS   -->  Z2SS   NUE    ANUE        
      1.32848588E-09    3      1000023        14       -14             # Z4SS   -->  Z2SS   NUM    ANUM        
      1.41019874E-09    3      1000023        16       -16             # Z4SS   -->  Z2SS   NUT    ANUT        
      9.49615320E-09    3      1000025         2        -2             # Z4SS   -->  Z3SS   UP     UB          
      8.49302140E-09    3      1000025         1        -1             # Z4SS   -->  Z3SS   DN     DB          
      8.49302140E-09    3      1000025         3        -3             # Z4SS   -->  Z3SS   ST     SB          
      9.49615320E-09    3      1000025         4        -4             # Z4SS   -->  Z3SS   CH     CB          
      2.45536924E-08    3      1000025         5        -5             # Z4SS   -->  Z3SS   BT     BB          
      1.02483092E-07    3      1000025        11       -11             # Z4SS   -->  Z3SS   E-     E+          
      1.02483092E-07    3      1000025        13       -13             # Z4SS   -->  Z3SS   MU-    MU+         
      1.09267965E-07    3      1000025        15       -15             # Z4SS   -->  Z3SS   TAU-   TAU+        
      9.94261455E-08    3      1000025        12       -12             # Z4SS   -->  Z3SS   NUE    ANUE        
      9.94261455E-08    3      1000025        14       -14             # Z4SS   -->  Z3SS   NUM    ANUM        
      1.05804965E-07    3      1000025        16       -16             # Z4SS   -->  Z3SS   NUT    ANUT        
      9.05538276E-02    2      1000022        25                       # Z4SS   -->  Z1SS   HL0                
      5.12974299E-02    2      1000022        35                       # Z4SS   -->  Z1SS   HH0                
      5.43609634E-02    2      1000022        36                       # Z4SS   -->  Z1SS   HA0                
      5.92468902E-02    2      1000023        25                       # Z4SS   -->  Z2SS   HL0                
      5.26561588E-02    2      1000023        35                       # Z4SS   -->  Z2SS   HH0                
      5.01675755E-02    2      1000023        36                       # Z4SS   -->  Z2SS   HA0                
      5.77136583E-04    2      1000025        25                       # Z4SS   -->  Z3SS   HL0                
      1.74976174E-06    2      1000025        35                       # Z4SS   -->  Z3SS   HH0                
      3.17387077E-07    2      1000025        36                       # Z4SS   -->  Z3SS   HA0                
#         PDG         Width
DECAY   1000024  1.53290980E-08   # W1SS+ decays
#          BR          NDA       ID1       ID2       ID3       ID4
      3.26729894E-01    3      1000022         2        -1             # W1SS+  -->  Z1SS   UP     DB          
      3.26729894E-01    3      1000022         4        -3             # W1SS+  -->  Z1SS   CH     SB          
      1.08909987E-01    3      1000022       -11        12             # W1SS+  -->  Z1SS   E+     NUE         
      1.08909987E-01    3      1000022       -13        14             # W1SS+  -->  Z1SS   MU+    NUM         
      1.08911604E-01    3      1000022       -15        16             # W1SS+  -->  Z1SS   TAU+   NUT         
      6.60290103E-03    3      1000023         2        -1             # W1SS+  -->  Z2SS   UP     DB          
      6.60290103E-03    3      1000023         4        -3             # W1SS+  -->  Z2SS   CH     SB          
      2.20096670E-03    3      1000023       -11        12             # W1SS+  -->  Z2SS   E+     NUE         
      2.20096670E-03    3      1000023       -13        14             # W1SS+  -->  Z2SS   MU+    NUM         
      2.20094644E-03    3      1000023       -15        16             # W1SS+  -->  Z2SS   TAU+   NUT         
#         PDG         Width
DECAY   1000037  3.40959282E+01   # W2SS+ decays
#          BR          NDA       ID1       ID2       ID3       ID4
      1.61675706E-09    3      1000022         2        -1             # W2SS+  -->  Z1SS   UP     DB          
      1.61675706E-09    3      1000022         4        -3             # W2SS+  -->  Z1SS   CH     SB          
      2.55885868E-09    3      1000022       -11        12             # W2SS+  -->  Z1SS   E+     NUE         
      2.55885868E-09    3      1000022       -13        14             # W2SS+  -->  Z1SS   MU+    NUM         
      1.03390335E-07    3      1000022       -15        16             # W2SS+  -->  Z1SS   TAU+   NUT         
      1.39145285E-01    2      1000022        24                       # W2SS+  -->  Z1SS   W+                 
      1.07387900E-01    2      1000022        37                       # W2SS+  -->  Z1SS   H+                 
      1.08374731E-09    3      1000023         2        -1             # W2SS+  -->  Z2SS   UP     DB          
      1.08374731E-09    3      1000023         4        -3             # W2SS+  -->  Z2SS   CH     SB          
      1.58458247E-09    3      1000023       -11        12             # W2SS+  -->  Z2SS   E+     NUE         
      1.58458247E-09    3      1000023       -13        14             # W2SS+  -->  Z2SS   MU+    NUM         
      9.93029659E-08    3      1000023       -15        16             # W2SS+  -->  Z2SS   TAU+   NUT         
      1.34893671E-01    2      1000023        24                       # W2SS+  -->  Z2SS   W+                 
      1.04107417E-01    2      1000023        37                       # W2SS+  -->  Z2SS   H+                 
      1.67130132E-08    3      1000025         2        -1             # W2SS+  -->  Z3SS   UP     DB          
      1.67130132E-08    3      1000025         4        -3             # W2SS+  -->  Z3SS   CH     SB          
      1.87252283E-07    3      1000025       -11        12             # W2SS+  -->  Z3SS   E+     NUE         
      1.87252283E-07    3      1000025       -13        14             # W2SS+  -->  Z3SS   MU+    NUM         
      1.99429749E-07    3      1000025       -15        16             # W2SS+  -->  Z3SS   TAU+   NUT         
      4.62935492E-03    2      1000025        24                       # W2SS+  -->  Z3SS   W+                 
      1.69119039E-06    2      1000025        37                       # W2SS+  -->  Z3SS   H+                 
      1.44713342E-01    2      1000024        23                       # W2SS+  -->  W1SS+  Z0                 
      5.46998358E-09    3      1000024         1        -1             # W2SS+  -->  W1SS+  DN     DB          
      5.46998358E-09    3      1000024         3        -3             # W2SS+  -->  W1SS+  ST     SB          
      8.38836708E-11    3      1000024         2        -2             # W2SS+  -->  W1SS+  UP     UB          
      8.38836708E-11    3      1000024         4        -4             # W2SS+  -->  W1SS+  CH     CB          
      1.00207807E-10    3      1000024        12       -12             # W2SS+  -->  W1SS+  NUE    ANUE        
      1.00207807E-10    3      1000024        14       -14             # W2SS+  -->  W1SS+  NUM    ANUM        
      2.09074494E-10    3      1000024        16       -16             # W2SS+  -->  W1SS+  NUT    ANUT        
      6.52417453E-09    3      1000024        11       -11             # W2SS+  -->  W1SS+  E-     E+          
      6.52417453E-09    3      1000024        13       -13             # W2SS+  -->  W1SS+  MU-    MU+         
      6.92319224E-09    3      1000024        15       -15             # W2SS+  -->  W1SS+  TAU-   TAU+        
      1.54236361E-01    2      1000024        25                       # W2SS+  -->  W1SS+  HL0                
      1.05147615E-01    2      1000024        35                       # W2SS+  -->  W1SS+  HH0                
      1.05736516E-01    2      1000024        36                       # W2SS+  -->  W1SS+  HA0                
#         PDG         Width
DECAY        25  3.96787981E-03   # HL0   decays
#          BR          NDA       ID1       ID2       ID3       ID4
      5.62779157E-09    2           11       -11                       # HL0    -->  E-     E+                 
      2.37614513E-04    2           13       -13                       # HL0    -->  MU-    MU+                
      6.79747164E-02    2           15       -15                       # HL0    -->  TAU-   TAU+               
      7.05439152E-06    2            1        -1                       # HL0    -->  DN     DB                 
      2.85032834E-03    2            3        -3                       # HL0    -->  ST     SB                 
      6.10724986E-01    2            5        -5                       # HL0    -->  BT     BB                 
      2.15322120E-06    2            2        -2                       # HL0    -->  UP     UB                 
      4.00030948E-02    2            4        -4                       # HL0    -->  CH     CB                 
      2.65989755E-03    2           22        22                       # HL0    -->  GM     GM                 
      5.29700220E-02    2           21        21                       # HL0    -->  GL     GL                 
      1.11162281E-02    3           24        11       -12             # HL0    -->  W+     E-     ANUE        
      1.11162281E-02    3           24        13       -14             # HL0    -->  W+     MU-    ANUM        
      1.11162281E-02    3           24        15       -16             # HL0    -->  W+     TAU-   ANUT        
      3.33486833E-02    3           24        -2         1             # HL0    -->  W+     UB     DN          
      3.33486833E-02    3           24        -4         3             # HL0    -->  W+     CB     ST          
      1.11162281E-02    3          -24       -11        12             # HL0    -->  W-     E+     NUE         
      1.11162281E-02    3          -24       -13        14             # HL0    -->  W-     MU+    NUM         
      1.11162281E-02    3          -24       -15        16             # HL0    -->  W-     TAU+   NUT         
      3.33486833E-02    3          -24         2        -1             # HL0    -->  W-     UP     DB          
      3.33486833E-02    3          -24         4        -3             # HL0    -->  W-     CH     SB          
      1.53728703E-03    3           23        12       -12             # HL0    -->  Z0     NUE    ANUE        
      1.53728703E-03    3           23        14       -14             # HL0    -->  Z0     NUM    ANUM        
      1.53728703E-03    3           23        16       -16             # HL0    -->  Z0     NUT    ANUT        
      7.73701118E-04    3           23        11       -11             # HL0    -->  Z0     E-     E+          
      7.73701118E-04    3           23        13       -13             # HL0    -->  Z0     MU-    MU+         
      7.73701118E-04    3           23        15       -15             # HL0    -->  Z0     TAU-   TAU+        
      2.65063439E-03    3           23         2        -2             # HL0    -->  Z0     UP     UB          
      2.65063439E-03    3           23         4        -4             # HL0    -->  Z0     CH     CB          
      3.41467001E-03    3           23         1        -1             # HL0    -->  Z0     DN     DB          
      3.41467001E-03    3           23         3        -3             # HL0    -->  Z0     ST     SB          
      3.41467001E-03    3           23         5        -5             # HL0    -->  Z0     BT     BB          
#         PDG         Width
DECAY        35  3.55424833E+00   # HH0   decays
#          BR          NDA       ID1       ID2       ID3       ID4
      1.08273257E-08    2           11       -11                       # HH0    -->  E-     E+                 
      4.57149203E-04    2           13       -13                       # HH0    -->  MU-    MU+                
      1.30932108E-01    2           15       -15                       # HH0    -->  TAU-   TAU+               
      1.32635223E-05    2            1        -1                       # HH0    -->  DN     DB                 
      5.35913417E-03    2            3        -3                       # HH0    -->  ST     SB                 
      7.98854470E-01    2            5        -5                       # HH0    -->  BT     BB                 
      8.78774206E-11    2            2        -2                       # HH0    -->  UP     UB                 
      1.23757684E-06    2            4        -4                       # HH0    -->  CH     CB                 
      5.64553291E-02    2            6        -6                       # HH0    -->  TP     TB                 
      1.80103626E-07    2           22        22                       # HH0    -->  GM     GM                 
      2.47952612E-05    2           21        21                       # HH0    -->  GL     GL                 
      2.25278331E-04    2           24       -24                       # HH0    -->  W+     W-                 
      1.14377450E-04    2           23        23                       # HH0    -->  Z0     Z0                 
      1.43008237E-03    2      1000022   1000022                       # HH0    -->  Z1SS   Z1SS               
      1.06221065E-04    2      1000022   1000023                       # HH0    -->  Z1SS   Z2SS               
      1.02904276E-03    2      1000023   1000023                       # HH0    -->  Z2SS   Z2SS               
      4.15245118E-03    2      1000024  -1000024                       # HH0    -->  W1SS+  W1SS-              
      8.44887632E-04    2           25        25                       # HH0    -->  HL0    HL0                
#         PDG         Width
DECAY        36  3.54279137E+00   # HA0   decays
#          BR          NDA       ID1       ID2       ID3       ID4
      1.07926885E-08    2           11       -11                       # HA0    -->  E-     E+                 
      4.55686793E-04    2           13       -13                       # HA0    -->  MU-    MU+                
      1.30514860E-01    2           15       -15                       # HA0    -->  TAU-   TAU+               
      1.32218211E-05    2            1        -1                       # HA0    -->  DN     DB                 
      5.34228515E-03    2            3        -3                       # HA0    -->  ST     SB                 
      7.96378493E-01    2            5        -5                       # HA0    -->  BT     BB                 
      8.35666814E-11    2            2        -2                       # HA0    -->  UP     UB                 
      1.17779507E-06    2            4        -4                       # HA0    -->  CH     CB                 
      5.96780032E-02    2            6        -6                       # HA0    -->  TP     TB                 
      3.12952722E-07    2           22        22                       # HA0    -->  GM     GM                 
      7.74088039E-05    2           21        21                       # HA0    -->  GL     GL                 
      1.95685448E-03    2      1000022   1000022                       # HA0    -->  Z1SS   Z1SS               
      1.09446610E-05    2      1000022   1000023                       # HA0    -->  Z1SS   Z2SS               
      8.23305512E-04    2      1000023   1000023                       # HA0    -->  Z2SS   Z2SS               
      4.53078561E-03    2      1000024  -1000024                       # HA0    -->  W1SS+  W1SS-              
      2.16639033E-04    2           25        23                       # HA0    -->  HL0    Z0                 
#         PDG         Width
DECAY        37  3.11981368E+00   # H+    decays
#          BR          NDA       ID1       ID2       ID3       ID4
      1.22955095E-08    2           12       -11                       # H+     -->  NUE    E+                 
      5.19138586E-04    2           14       -13                       # H+     -->  NUM    MU+                
      1.48688316E-01    2           16       -15                       # H+     -->  NUT    TAU+               
      1.38451969E-05    2            2        -1                       # H+     -->  UP     DB                 
      5.59533667E-03    2            4        -3                       # H+     -->  CH     SB                 
      8.44655275E-01    2            6        -5                       # H+     -->  TP     BB                 
      3.80162928E-05    2      1000024   1000022                       # H+     -->  W1SS+  Z1SS               
      2.43436865E-04    2      1000024   1000023                       # H+     -->  W1SS+  Z2SS               
      2.46712763E-04    2           25        24                       # H+     -->  HL0    W+                 
