#  ISAJET SUSY parameters in SUSY Les Houches Accord 2 format
#  Created by ISALHA 2.0 Last revision: H Baer 27 May 2014
Block SPINFO   # Program information
     1   ISASUGRA/ISASUSY from ISAJET   # Spectrum Calculator
     2   7.87   18-JUL-2017 13:55:55    # Version number
Block MODSEL   # Model selection
     1    13   # Non-universal supergravity model                  
Block SMINPUTS   # Standard Model inputs
     1     1.28000000E+02   # alpha_em^(-1)
     2     1.16570000E-05   # G_Fermi
     3     1.19999997E-01   # alpha_s(M_Z)
     4     9.11699982E+01   # m_{Z}(pole)
     5     4.19999981E+00   # m_{b}(m_{b})
     6     1.72500000E+02   # m_{top}(pole)
     7     1.77699995E+00   # m_{tau}(pole)
Block MINPAR   # SUSY breaking input parameters
     1     5.00000000E+03   # m_0
     2     3.00000000E+03   # m_{1/2}
     3     1.50000000E+01   # tan(beta)
     4     1.00000000E+00   # sign(mu)
     5    -8.00000000E+03   # A_0
Block EXTPAR   # Non-universal SUSY breaking parameters
     0     1.24990635E+16   # Input scale
    21     7.40474219E+04   # Down type Higgs mass squared
    22     5.76788760E+07   #  Up  type Higgs mass squared
Block MASS   # Scalar and gaugino mass spectrum
#  PDG code   mass                 particle
         6     1.72500000E+02   #  top            
        24     8.04229965E+01   #  W^+
        25     1.25391640E+02   #  h^0            
        35     1.00666852E+03   #  H^0            
        36     1.00000000E+03   #  A^0            
        37     1.00322870E+03   #  H^+            
   1000001     7.39477148E+03   #  dnl            
   1000002     7.39433252E+03   #  upl            
   1000003     7.39477148E+03   #  stl            
   1000004     7.39433252E+03   #  chl            
   1000005     5.80967676E+03   #  b1             
   1000006     3.61781738E+03   #  t1             
   1000011     5.48834424E+03   #  el-            
   1000012     5.49000488E+03   #  nuel           
   1000013     5.48834424E+03   #  mul-           
   1000014     5.49000488E+03   #  numl           
   1000015     4.65675586E+03   #  tau1           
   1000016     5.41628174E+03   #  nutl           
   1000021     6.31115723E+03   #  glss           
   1000022     1.32994583E+02   #  z1ss           
   1000023    -1.36615204E+02   #  z2ss           
   1000024     1.40340652E+02   #  w1ss           
   1000025     1.34924512E+03   #  z3ss           
   1000035     2.51316577E+03   #  z4ss           
   1000037     2.48462622E+03   #  w2ss           
   1000039     1.00000002E+20   #  gvss
   2000001     7.17420996E+03   #  dnr            
   2000002     7.38693652E+03   #  upr            
   2000003     7.17420996E+03   #  str            
   2000004     7.38693652E+03   #  chr            
   2000005     6.96579053E+03   #  b2             
   2000006     5.80569873E+03   #  t2             
   2000011     4.83095850E+03   #  er-            
   2000013     4.83095850E+03   #  mur-           
   2000015     5.41241455E+03   #  tau2           
Block ALPHA   # Effective Higgs mixing parameter
         -6.81499392E-02   # alpha
Block STOPMIX   # stop mixing matrix
  1  1     5.34025952E-02   # O_{11}
  1  2     9.98573065E-01   # O_{12}
  2  1    -9.98573065E-01   # O_{21}
  2  2     5.34025952E-02   # O_{22}
Block SBOTMIX   # sbottom mixing matrix
  1  1     9.99991536E-01   # O_{11}
  1  2     4.12100926E-03   # O_{12}
  2  1    -4.12100926E-03   # O_{21}
  2  2     9.99991536E-01   # O_{22}
Block STAUMIX   # stau mixing matrix
  1  1     4.82564885E-03   # O_{11}
  1  2     9.99988377E-01   # O_{12}
  2  1    -9.99988377E-01   # O_{21}
  2  2     4.82564885E-03   # O_{22}
Block NMIX   # neutralino mixing matrix
  1  1    -2.57672891E-02   #
  1  2     2.47013159E-02   #
  1  3    -7.11564302E-01   #
  1  4     7.01713800E-01   #
  2  1     1.86120681E-02   #
  2  2    -1.83633808E-02   #
  2  3    -7.02585518E-01   #
  2  4    -7.11118817E-01   #
  3  1     9.99482453E-01   #
  3  2     5.93030453E-03   #
  3  3    -5.23791090E-03   #
  3  4     3.11813112E-02   #
  4  1    -4.95138019E-03   #
  4  2     9.99508858E-01   #
  4  3     4.70817089E-03   #
  4  4    -3.05918064E-02   #
Block UMIX   # chargino U mixing matrix
  1  1    -5.86020760E-03   # U_{11}
  1  2     9.99982834E-01   # U_{12}
  2  1    -9.99982834E-01   # U_{21}
  2  2    -5.86020760E-03   # U_{22}
Block VMIX   # chargino V mixing matrix
  1  1    -4.41737957E-02   # V_{11}
  1  2     9.99023855E-01   # V_{12}
  2  1    -9.99023855E-01   # V_{21}
  2  2    -4.41737957E-02   # V_{22}
Block GAUGE Q=  4.50343799E+03   #
     1     3.57521147E-01   # g`
     2     6.52398765E-01   # g_2
     3     1.21950877E+00   # g_3
Block YU Q=  4.50343799E+03   #
  3  3     8.03262413E-01   # y_t
Block YD Q=  4.50343799E+03   #
  3  3     1.81525767E-01   # y_b
Block YE Q=  4.50343799E+03   #
  3  3     1.48953140E-01   # y_tau
Block HMIX Q=  4.50343799E+03   # Higgs mixing parameters
     1     1.30000000E+02   # mu(Q)
     2     1.42623224E+01   # tan(beta)(Q)
     3     2.52605408E+02   # Higgs vev at Q
     4     1.00000000E+06   # m_A^2(Q)
Block MSOFT Q=  4.50343799E+03   # DRbar SUSY breaking parameters
     1     1.35268530E+03   # M_1(Q)          
     2     2.42517212E+03   # M_2(Q)          
     3     5.91805273E+03   # M_3(Q)          
    21     9.75400063E+05   # MHd^2(Q)        
    22     7.97039063E+04   # MHu^2(Q)        
    31     5.46554297E+03   # MeL(Q)          
    32     5.46554297E+03   # MmuL(Q)         
    33     5.39384082E+03   # MtauL(Q)        
    34     4.82676416E+03   # MeR(Q)          
    35     4.82676416E+03   # MmuR(Q)         
    36     4.65672803E+03   # MtauR(Q)        
    41     7.09421338E+03   # MqL1(Q)         
    42     7.09421338E+03   # MqL2(Q)         
    43     5.61803564E+03   # MqL3(Q)         
    44     7.08659375E+03   # MuR(Q)          
    45     7.08659375E+03   # McR(Q)          
    46     3.60997266E+03   # MtR(Q)          
    47     6.87059229E+03   # MdR(Q)          
    48     6.87059229E+03   # MsR(Q)          
    49     6.78834473E+03   # MbR(Q)          
Block AU Q=  4.50343799E+03   #
  1  1    -7.75745361E+03   # A_u
  2  2    -7.75745361E+03   # A_c
  3  3    -7.75745361E+03   # A_t
Block AD Q=  4.50343799E+03   #
  1  1    -1.32846904E+04   # A_d
  2  2    -1.32846904E+04   # A_s
  3  3    -1.32846904E+04   # A_b
Block AE Q=  4.50343799E+03   #
  1  1    -9.30180078E+03   # A_e
  2  2    -9.30180078E+03   # A_mu
  3  3    -9.30180078E+03   # A_tau
#  ISAJET decay tables in SUSY Les Houches accord format
#  Created by ISALHD. Last revision: C. Balazs, 2005 May 25
Block DCINFO                           # Program information
     1   ISASUGRA from ISAJET          # Spectrum Calculator
     2   7.87   18-JUL-2017 13:55:55   # Version number
#         PDG         Width
DECAY         6  1.46776152E+00   # TP    decays
#          BR          NDA       ID1       ID2       ID3       ID4
      3.33333313E-01    3            2        -1         5             # TP     -->  UP     DB     BT          
      3.33333313E-01    3            4        -3         5             # TP     -->  CH     SB     BT          
      1.11111097E-01    3          -11        12         5             # TP     -->  E+     NUE    BT          
      1.11111097E-01    3          -13        14         5             # TP     -->  MU+    NUM    BT          
      1.11111097E-01    3          -15        16         5             # TP     -->  TAU+   NUT    BT          
#         PDG         Width
DECAY   1000021  6.03842506E+01   # GLSS  decays
#          BR          NDA       ID1       ID2       ID3       ID4
      5.57266162E-07    3      1000024         1        -2             # GLSS   -->  W1SS+  DN     UB          
      5.57266162E-07    3     -1000024         2        -1             # GLSS   -->  W1SS-  UP     DB          
      5.57266162E-07    3      1000024         3        -4             # GLSS   -->  W1SS+  ST     CB          
      5.57266162E-07    3     -1000024         4        -3             # GLSS   -->  W1SS-  CH     SB          
      3.50252521E-05    3      1000024         5        -6             # GLSS   -->  W1SS+  BT     TB          
      3.50252521E-05    3     -1000024         6        -5             # GLSS   -->  W1SS-  TP     BB          
      3.14207340E-04    3      1000037         1        -2             # GLSS   -->  W2SS+  DN     UB          
      3.14207340E-04    3     -1000037         2        -1             # GLSS   -->  W2SS-  UP     DB          
      3.14207340E-04    3      1000037         3        -4             # GLSS   -->  W2SS+  ST     CB          
      3.14207340E-04    3     -1000037         4        -3             # GLSS   -->  W2SS-  CH     SB          
      6.41725562E-09    3      1000037         5        -6             # GLSS   -->  W2SS+  BT     TB          
      6.41725562E-09    3     -1000037         6        -5             # GLSS   -->  W2SS-  TP     BB          
      2.58813471E-10    2      1000022        21                       # GLSS   -->  Z1SS   GL                 
      2.17207258E-07    3      1000022         2        -2             # GLSS   -->  Z1SS   UP     UB          
      2.79356129E-07    3      1000022         1        -1             # GLSS   -->  Z1SS   DN     DB          
      2.79356129E-07    3      1000022         3        -3             # GLSS   -->  Z1SS   ST     SB          
      2.17207258E-07    3      1000022         4        -4             # GLSS   -->  Z1SS   CH     CB          
      3.56078235E-05    3      1000022         5        -5             # GLSS   -->  Z1SS   BT     BB          
      1.43379059E-10    2      1000023        21                       # GLSS   -->  Z2SS   GL                 
      1.11090550E-07    3      1000023         2        -2             # GLSS   -->  Z2SS   UP     UB          
      1.43648137E-07    3      1000023         1        -1             # GLSS   -->  Z2SS   DN     DB          
      1.43648137E-07    3      1000023         3        -3             # GLSS   -->  Z2SS   ST     SB          
      1.11090550E-07    3      1000023         4        -4             # GLSS   -->  Z2SS   CH     CB          
      3.47711211E-05    3      1000023         5        -5             # GLSS   -->  Z2SS   BT     BB          
      2.58624482E-07    2      1000025        21                       # GLSS   -->  Z3SS   GL                 
      1.53090892E-04    3      1000025         2        -2             # GLSS   -->  Z3SS   UP     UB          
      5.23169219E-05    3      1000025         1        -1             # GLSS   -->  Z3SS   DN     DB          
      5.23169219E-05    3      1000025         3        -3             # GLSS   -->  Z3SS   ST     SB          
      1.53090892E-04    3      1000025         4        -4             # GLSS   -->  Z3SS   CH     CB          
      5.48612225E-05    3      1000025         5        -5             # GLSS   -->  Z3SS   BT     BB          
      2.27595330E-12    2      1000035        21                       # GLSS   -->  Z4SS   GL                 
      1.53901361E-04    3      1000035         2        -2             # GLSS   -->  Z4SS   UP     UB          
      1.54393507E-04    3      1000035         1        -1             # GLSS   -->  Z4SS   DN     DB          
      1.54393507E-04    3      1000035         3        -3             # GLSS   -->  Z4SS   ST     SB          
      1.53901361E-04    3      1000035         4        -4             # GLSS   -->  Z4SS   CH     CB          
      7.64949792E-09    3      1000035         5        -5             # GLSS   -->  Z4SS   BT     BB          
      2.35653222E-02    2     -1000005         5                       # GLSS   -->  BB1    BT                 
      2.35653222E-02    2      1000005        -5                       # GLSS   -->  BT1    BB                 
      4.51741636E-01    2     -1000006         6                       # GLSS   -->  TB1    TP                 
      4.51741636E-01    2      1000006        -6                       # GLSS   -->  TP1    TB                 
      2.34512743E-02    2     -2000006         6                       # GLSS   -->  TB2    TP                 
      2.34512743E-02    2      2000006        -6                       # GLSS   -->  TP2    TB                 
#         PDG         Width
DECAY   1000002  1.02124435E+02   # UPL   decays
#          BR          NDA       ID1       ID2       ID3       ID4
      1.21595098E-04    2      1000022         2                       # UPL    -->  Z1SS   UP                 
      6.81038509E-05    2      1000023         2                       # UPL    -->  Z2SS   UP                 
      1.01785958E-02    2      1000025         2                       # UPL    -->  Z3SS   UP                 
      2.37763628E-01    2      1000035         2                       # UPL    -->  Z4SS   UP                 
      2.71938533E-01    2      1000021         2                       # UPL    -->  GLSS   UP                 
      1.18857855E-03    2      1000024         1                       # UPL    -->  W1SS+  DN                 
      4.78740960E-01    2      1000037         1                       # UPL    -->  W2SS+  DN                 
#         PDG         Width
DECAY   1000001  1.02109215E+02   # DNL   decays
#          BR          NDA       ID1       ID2       ID3       ID4
      2.63716414E-04    2      1000022         1                       # DNL    -->  Z1SS   DN                 
      1.44418125E-04    2      1000023         1                       # DNL    -->  Z2SS   DN                 
      8.94337986E-03    2      1000025         1                       # DNL    -->  Z3SS   DN                 
      2.38685489E-01    2      1000035         1                       # DNL    -->  Z4SS   DN                 
      2.72167146E-01    2      1000021         1                       # DNL    -->  GLSS   DN                 
      2.09225673E-05    2     -1000024         2                       # DNL    -->  W1SS-  UP                 
      4.79774922E-01    2     -1000037         2                       # DNL    -->  W2SS-  UP                 
#         PDG         Width
DECAY   1000003  1.02109207E+02   # STL   decays
#          BR          NDA       ID1       ID2       ID3       ID4
      2.63716414E-04    2      1000022         3                       # STL    -->  Z1SS   ST                 
      1.44418140E-04    2      1000023         3                       # STL    -->  Z2SS   ST                 
      8.94337986E-03    2      1000025         3                       # STL    -->  Z3SS   ST                 
      2.38685519E-01    2      1000035         3                       # STL    -->  Z4SS   ST                 
      2.72167176E-01    2      1000021         3                       # STL    -->  GLSS   ST                 
      2.09225673E-05    2     -1000024         4                       # STL    -->  W1SS-  CH                 
      4.79774922E-01    2     -1000037         4                       # STL    -->  W2SS-  CH                 
#         PDG         Width
DECAY   1000004  1.02124405E+02   # CHL   decays
#          BR          NDA       ID1       ID2       ID3       ID4
      1.21595112E-04    2      1000022         4                       # CHL    -->  Z1SS   CH                 
      6.81038728E-05    2      1000023         4                       # CHL    -->  Z2SS   CH                 
      1.01785976E-02    2      1000025         4                       # CHL    -->  Z3SS   CH                 
      2.37763643E-01    2      1000035         4                       # CHL    -->  Z4SS   CH                 
      2.71938384E-01    2      1000021         4                       # CHL    -->  GLSS   CH                 
      1.18857890E-03    2      1000024         3                       # CHL    -->  W1SS+  ST                 
      4.78741109E-01    2      1000037         3                       # CHL    -->  W2SS+  ST                 
#         PDG         Width
DECAY   1000005  2.07944412E+02   # BT1   decays
#          BR          NDA       ID1       ID2       ID3       ID4
      9.87088587E-03    2      1000022         5                       # BT1    -->  Z1SS   BT                 
      9.56091378E-03    2      1000023         5                       # BT1    -->  Z2SS   BT                 
      3.30409198E-03    2      1000025         5                       # BT1    -->  Z3SS   BT                 
      7.77697042E-02    2      1000035         5                       # BT1    -->  Z4SS   BT                 
      3.39877367E-01    2     -1000024         6                       # BT1    -->  W1SS-  TP                 
      1.57572418E-01    2     -1000037         6                       # BT1    -->  W2SS-  TP                 
      4.00744498E-01    2          -24   1000006                       # BT1    -->  W-     TP1                
      1.30007789E-03    2          -37   1000006                       # BT1    -->  H-     TP1                
#         PDG         Width
DECAY   1000006  9.40618591E+01   # TP1   decays
#          BR          NDA       ID1       ID2       ID3       ID4
      2.30587572E-01    2      1000022         6                       # TP1    -->  Z1SS   TP                 
      2.36746520E-01    2      1000023         6                       # TP1    -->  Z2SS   TP                 
      6.42343313E-02    2      1000025         6                       # TP1    -->  Z3SS   TP                 
      8.69195276E-08    2      1000035         6                       # TP1    -->  Z4SS   TP                 
      4.68431473E-01    2      1000024         5                       # TP1    -->  W1SS+  BT                 
      4.19439994E-09    2      1000037         5                       # TP1    -->  W2SS+  BT                 
#         PDG         Width
DECAY   2000002  4.30527115E+01   # UPR   decays
#          BR          NDA       ID1       ID2       ID3       ID4
      2.57356995E-04    2      1000022         2                       # UPR    -->  Z1SS   UP                 
      1.34267917E-04    2      1000023         2                       # UPR    -->  Z2SS   UP                 
      3.62041354E-01    2      1000025         2                       # UPR    -->  Z3SS   UP                 
      7.43506462E-06    2      1000035         2                       # UPR    -->  Z4SS   UP                 
      6.37559593E-01    2      1000021         2                       # UPR    -->  GLSS   UP                 
#         PDG         Width
DECAY   2000001  2.25102921E+01   # DNR   decays
#          BR          NDA       ID1       ID2       ID3       ID4
      1.19505559E-04    2      1000022         1                       # DNR    -->  Z1SS   DN                 
      6.23481319E-05    2      1000023         1                       # DNR    -->  Z2SS   DN                 
      1.67425364E-01    2      1000025         1                       # DNR    -->  Z3SS   DN                 
      3.39847520E-06    2      1000035         1                       # DNR    -->  Z4SS   DN                 
      8.32389355E-01    2      1000021         1                       # DNR    -->  GLSS   DN                 
#         PDG         Width
DECAY   2000003  2.25102921E+01   # STR   decays
#          BR          NDA       ID1       ID2       ID3       ID4
      1.19505559E-04    2      1000022         3                       # STR    -->  Z1SS   ST                 
      6.23481319E-05    2      1000023         3                       # STR    -->  Z2SS   ST                 
      1.67425364E-01    2      1000025         3                       # STR    -->  Z3SS   ST                 
      3.39847520E-06    2      1000035         3                       # STR    -->  Z4SS   ST                 
      8.32389355E-01    2      1000021         3                       # STR    -->  GLSS   ST                 
#         PDG         Width
DECAY   2000004  4.30526848E+01   # CHR   decays
#          BR          NDA       ID1       ID2       ID3       ID4
      2.57357140E-04    2      1000022         4                       # CHR    -->  Z1SS   CH                 
      1.34267990E-04    2      1000023         4                       # CHR    -->  Z2SS   CH                 
      3.62041503E-01    2      1000025         4                       # CHR    -->  Z3SS   CH                 
      7.43506826E-06    2      1000035         4                       # CHR    -->  Z4SS   CH                 
      6.37559414E-01    2      1000021         4                       # CHR    -->  GLSS   CH                 
#         PDG         Width
DECAY   2000005  5.31511002E+01   # BT2   decays
#          BR          NDA       ID1       ID2       ID3       ID4
      4.57883291E-02    2      1000022         5                       # BT2    -->  Z1SS   BT                 
      4.47025746E-02    2      1000023         5                       # BT2    -->  Z2SS   BT                 
      6.85474202E-02    2      1000025         5                       # BT2    -->  Z3SS   BT                 
      1.65663150E-05    2      1000035         5                       # BT2    -->  Z4SS   BT                 
      2.15304464E-01    2      1000021         5                       # BT2    -->  GLSS   BT                 
      9.03284773E-02    2     -1000024         6                       # BT2    -->  W1SS-  TP                 
      2.83035570E-05    2     -1000037         6                       # BT2    -->  W2SS-  TP                 
      7.79818292E-05    2          -24   1000006                       # BT2    -->  W-     TP1                
      1.98076316E-03    2          -24   2000006                       # BT2    -->  W-     TP2                
      9.94782895E-04    2           23   1000005                       # BT2    -->  Z0     BT1                
      1.60843018E-03    2           25   1000005                       # BT2    -->  HL0    BT1                
      1.32695168E-01    2           36   1000005                       # BT2    -->  HA0    BT1                
      1.29983813E-01    2           35   1000005                       # BT2    -->  HH0    BT1                
      1.94300362E-03    2          -37   1000006                       # BT2    -->  H-     TP1                
      2.65999973E-01    2          -37   2000006                       # BT2    -->  H-     TP2                
#         PDG         Width
DECAY   2000006  2.27095398E+02   # TP2   decays
#          BR          NDA       ID1       ID2       ID3       ID4
      1.76703222E-02    2      1000024         5                       # TP2    -->  W1SS+  BT                 
      1.43732384E-01    2      1000037         5                       # TP2    -->  W2SS+  BT                 
      1.84393868E-01    2           23   1000006                       # TP2    -->  Z0     TP1                
      2.67419308E-01    2           25   1000006                       # TP2    -->  HL0    TP1                
      6.25979214E-04    2           35   1000006                       # TP2    -->  HH0    TP1                
      5.95536549E-04    2           36   1000006                       # TP2    -->  HA0    TP1                
      1.52981550E-01    2      1000022         6                       # TP2    -->  Z1SS   TP                 
      1.57196581E-01    2      1000023         6                       # TP2    -->  Z2SS   TP                 
      4.09122277E-03    2      1000025         6                       # TP2    -->  Z3SS   TP                 
      7.12932870E-02    2      1000035         6                       # TP2    -->  Z4SS   TP                 
#         PDG         Width
DECAY   1000011  4.98360977E+01   # EL-   decays
#          BR          NDA       ID1       ID2       ID3       ID4
      5.14285093E-05    2      1000022        11                       # EL-    -->  Z1SS   E-                 
      3.06307520E-05    2      1000023        11                       # EL-    -->  Z2SS   E-                 
      1.26172692E-01    2      1000025        11                       # EL-    -->  Z3SS   E-                 
      2.87686259E-01    2      1000035        11                       # EL-    -->  Z4SS   E-                 
      3.17978156E-05    2     -1000024        12                       # EL-    -->  W1SS-  NUE                
      5.86027265E-01    2     -1000037        12                       # EL-    -->  W2SS-  NUE                
#         PDG         Width
DECAY   1000013  4.98360977E+01   # MUL-  decays
#          BR          NDA       ID1       ID2       ID3       ID4
      5.14285093E-05    2      1000022        13                       # MUL-   -->  Z1SS   MU-                
      3.06307520E-05    2      1000023        13                       # MUL-   -->  Z2SS   MU-                
      1.26172692E-01    2      1000025        13                       # MUL-   -->  Z3SS   MU-                
      2.87686259E-01    2      1000035        13                       # MUL-   -->  Z4SS   MU-                
      3.17978156E-05    2     -1000024        14                       # MUL-   -->  W1SS-  NUM                
      5.86027265E-01    2     -1000037        14                       # MUL-   -->  W2SS-  NUM                
#         PDG         Width
DECAY   1000015  2.42029171E+01   # TAU1- decays
#          BR          NDA       ID1       ID2       ID3       ID4
      4.59432825E-02    2      1000022        15                       # TAU1-  -->  Z1SS   TAU-               
      4.43712175E-02    2      1000023        15                       # TAU1-  -->  Z2SS   TAU-               
      8.20342898E-01    2      1000025        15                       # TAU1-  -->  Z3SS   TAU-               
      1.62944052E-05    2      1000035        15                       # TAU1-  -->  Z4SS   TAU-               
      8.93164501E-02    2     -1000024        16                       # TAU1-  -->  W1SS-  NUT                
      9.85563747E-06    2     -1000037        16                       # TAU1-  -->  W2SS-  NUT                
#         PDG         Width
DECAY   1000012  4.98387222E+01   # NUEL  decays
#          BR          NDA       ID1       ID2       ID3       ID4
      6.99508761E-04    2      1000022        12                       # NUEL   -->  Z1SS   NUE                
      3.78615397E-04    2      1000023        12                       # NUEL   -->  Z2SS   NUE                
      1.20879710E-01    2      1000025        12                       # NUEL   -->  Z3SS   NUE                
      2.91002572E-01    2      1000035        12                       # NUEL   -->  Z4SS   NUE                
      1.80721411E-03    2      1000024        11                       # NUEL   -->  W1SS+  E-                 
      5.85232377E-01    2      1000037        11                       # NUEL   -->  W2SS+  E-                 
#         PDG         Width
DECAY   1000014  4.98387222E+01   # NUML  decays
#          BR          NDA       ID1       ID2       ID3       ID4
      6.99508761E-04    2      1000022        14                       # NUML   -->  Z1SS   NUM                
      3.78615397E-04    2      1000023        14                       # NUML   -->  Z2SS   NUM                
      1.20879710E-01    2      1000025        14                       # NUML   -->  Z3SS   NUM                
      2.91002572E-01    2      1000035        14                       # NUML   -->  Z4SS   NUM                
      1.80721411E-03    2      1000024        13                       # NUML   -->  W1SS+  MU-                
      5.85232377E-01    2      1000037        13                       # NUML   -->  W2SS+  MU-                
#         PDG         Width
DECAY   1000016  5.10934753E+01   # NUTL  decays
#          BR          NDA       ID1       ID2       ID3       ID4
      6.73145871E-04    2      1000022        16                       # NUTL   -->  Z1SS   NUT                
      3.64345586E-04    2      1000023        16                       # NUTL   -->  Z2SS   NUT                
      1.15918197E-01    2      1000025        16                       # NUTL   -->  Z3SS   NUT                
      2.75989503E-01    2      1000035        16                       # NUTL   -->  Z4SS   NUT                
      5.09611852E-02    2      1000024        15                       # NUTL   -->  W1SS+  TAU-               
      5.55271804E-01    2      1000037        15                       # NUTL   -->  W2SS+  TAU-               
      8.21894733E-04    2           24   1000015                       # NUTL   -->  W+     TAU1-              
#         PDG         Width
DECAY   2000011  2.08911877E+01   # ER-   decays
#          BR          NDA       ID1       ID2       ID3       ID4
      7.79736496E-04    2      1000022        11                       # ER-    -->  Z1SS   E-                 
      4.06783482E-04    2      1000023        11                       # ER-    -->  Z2SS   E-                 
      9.98798132E-01    2      1000025        11                       # ER-    -->  Z3SS   E-                 
      1.53397232E-05    2      1000035        11                       # ER-    -->  Z4SS   E-                 
#         PDG         Width
DECAY   2000013  2.08911877E+01   # MUR-  decays
#          BR          NDA       ID1       ID2       ID3       ID4
      7.79736496E-04    2      1000022        13                       # MUR-   -->  Z1SS   MU-                
      4.06783482E-04    2      1000023        13                       # MUR-   -->  Z2SS   MU-                
      9.98798132E-01    2      1000025        13                       # MUR-   -->  Z3SS   MU-                
      1.53397232E-05    2      1000035        13                       # MUR-   -->  Z4SS   MU-                
#         PDG         Width
DECAY   2000015  5.10347328E+01   # TAU2- decays
#          BR          NDA       ID1       ID2       ID3       ID4
      2.49475222E-02    2      1000022        15                       # TAU2-  -->  Z1SS   TAU-               
      2.43687816E-02    2      1000023        15                       # TAU2-  -->  Z2SS   TAU-               
      1.21075928E-01    2      1000025        15                       # TAU2-  -->  Z3SS   TAU-               
      2.72903621E-01    2      1000035        15                       # TAU2-  -->  Z4SS   TAU-               
      1.99151382E-05    2     -1000024        16                       # TAU2-  -->  W1SS-  NUT                
      5.56150079E-01    2     -1000037        16                       # TAU2-  -->  W2SS-  NUT                
      4.08819586E-04    2           23   1000015                       # TAU2-  -->  Z0     TAU1-              
      1.25347302E-04    2           25   1000015                       # TAU2-  -->  HL0    TAU1-              
#         PDG         Width
DECAY   1000023  5.61768576E-10   # Z2SS  decays
#          BR          NDA       ID1       ID2       ID3       ID4
      2.04179198E-01    2      1000022        22                       # Z2SS   -->  Z1SS   GM                 
      1.34653166E-01    3      1000022         2        -2             # Z2SS   -->  Z1SS   UP     UB          
      1.73636168E-01    3      1000022         1        -1             # Z2SS   -->  Z1SS   DN     DB          
      1.73636168E-01    3      1000022         3        -3             # Z2SS   -->  Z1SS   ST     SB          
      3.93892676E-02    3      1000022        11       -11             # Z2SS   -->  Z1SS   E-     E+          
      3.93892676E-02    3      1000022        13       -13             # Z2SS   -->  Z1SS   MU-    MU+         
      7.83722773E-02    3      1000022        12       -12             # Z2SS   -->  Z1SS   NUE    ANUE        
      7.83722773E-02    3      1000022        14       -14             # Z2SS   -->  Z1SS   NUM    ANUM        
      7.83722773E-02    3      1000022        16       -16             # Z2SS   -->  Z1SS   NUT    ANUT        
#         PDG         Width
DECAY   1000025  3.80199575E+00   # Z3SS  decays
#          BR          NDA       ID1       ID2       ID3       ID4
      7.43715916E-08    2      1000022        22                       # Z3SS   -->  Z1SS   GM                 
      7.30653653E-08    2      1000023        22                       # Z3SS   -->  Z2SS   GM                 
      2.07697496E-01    2      1000024       -24                       # Z3SS   -->  W1SS+  W-                 
      2.07697496E-01    2     -1000024        24                       # Z3SS   -->  W1SS-  W+                 
      4.04330827E-02    2      1000024       -37                       # Z3SS   -->  W1SS+  H-                 
      4.04330827E-02    2     -1000024        37                       # Z3SS   -->  W1SS-  H+                 
      6.83480874E-02    2      1000022        23                       # Z3SS   -->  Z1SS   Z0                 
      1.37639463E-01    2      1000023        23                       # Z3SS   -->  Z2SS   Z0                 
      1.27856850E-10    3      1000022         2        -2             # Z3SS   -->  Z1SS   UP     UB          
      2.52098863E-11    3      1000022         1        -1             # Z3SS   -->  Z1SS   DN     DB          
      2.52098863E-11    3      1000022         3        -3             # Z3SS   -->  Z1SS   ST     SB          
      1.27856850E-10    3      1000022         4        -4             # Z3SS   -->  Z1SS   CH     CB          
      5.97052319E-09    3      1000022         5        -5             # Z3SS   -->  Z1SS   BT     BB          
      1.16245780E-09    3      1000022        11       -11             # Z3SS   -->  Z1SS   E-     E+          
      1.16245780E-09    3      1000022        13       -13             # Z3SS   -->  Z1SS   MU-    MU+         
      1.20550666E-07    3      1000022        15       -15             # Z3SS   -->  Z1SS   TAU-   TAU+        
      3.09887976E-10    3      1000022        12       -12             # Z3SS   -->  Z1SS   NUE    ANUE        
      3.09887976E-10    3      1000022        14       -14             # Z3SS   -->  Z1SS   NUM    ANUM        
      3.27551208E-10    3      1000022        16       -16             # Z3SS   -->  Z1SS   NUT    ANUT        
      4.70070163E-11    3      1000023         2        -2             # Z3SS   -->  Z2SS   UP     UB          
      9.52797303E-12    3      1000023         1        -1             # Z3SS   -->  Z2SS   DN     DB          
      9.52797303E-12    3      1000023         3        -3             # Z3SS   -->  Z2SS   ST     SB          
      4.70070163E-11    3      1000023         4        -4             # Z3SS   -->  Z2SS   CH     CB          
      5.79180526E-09    3      1000023         5        -5             # Z3SS   -->  Z2SS   BT     BB          
      4.28284519E-10    3      1000023        11       -11             # Z3SS   -->  Z2SS   E-     E+          
      4.28284519E-10    3      1000023        13       -13             # Z3SS   -->  Z2SS   MU-    MU+         
      1.16169687E-07    3      1000023        15       -15             # Z3SS   -->  Z2SS   TAU-   TAU+        
      1.17909807E-10    3      1000023        12       -12             # Z3SS   -->  Z2SS   NUE    ANUE        
      1.17909807E-10    3      1000023        14       -14             # Z3SS   -->  Z2SS   NUM    ANUM        
      1.24650595E-10    3      1000023        16       -16             # Z3SS   -->  Z2SS   NUT    ANUT        
      1.44458041E-01    2      1000022        25                       # Z3SS   -->  Z1SS   HL0                
      2.56280154E-02    2      1000022        35                       # Z3SS   -->  Z1SS   HH0                
      1.38125205E-02    2      1000022        36                       # Z3SS   -->  Z1SS   HA0                
      7.53010660E-02    2      1000023        25                       # Z3SS   -->  Z2SS   HL0                
      1.26275020E-02    2      1000023        35                       # Z3SS   -->  Z2SS   HH0                
      2.59237830E-02    2      1000023        36                       # Z3SS   -->  Z2SS   HA0                
#         PDG         Width
DECAY   1000035  3.54927711E+01   # Z4SS  decays
#          BR          NDA       ID1       ID2       ID3       ID4
      4.25154241E-07    2      1000022        22                       # Z4SS   -->  Z1SS   GM                 
      6.43517865E-07    2      1000023        22                       # Z4SS   -->  Z2SS   GM                 
      5.08260434E-10    2      1000025        22                       # Z4SS   -->  Z3SS   GM                 
      1.48343191E-01    2      1000024       -24                       # Z4SS   -->  W1SS+  W-                 
      1.48343191E-01    2     -1000024        24                       # Z4SS   -->  W1SS-  W+                 
      1.02657698E-01    2      1000024       -37                       # Z4SS   -->  W1SS+  H-                 
      1.02657698E-01    2     -1000024        37                       # Z4SS   -->  W1SS-  H+                 
      9.78036951E-07    3     -1000037         2        -1             # Z4SS   -->  W2SS-  UP     DB          
      3.26012298E-07    3     -1000037        12       -11             # Z4SS   -->  W2SS-  NUE    E+          
      3.26012298E-07    3     -1000037        14       -13             # Z4SS   -->  W2SS-  NUM    MU+         
      9.78036951E-07    3      1000037         1        -2             # Z4SS   -->  W2SS+  DN     UB          
      3.26012298E-07    3      1000037        11       -12             # Z4SS   -->  W2SS+  E-     ANUE        
      3.26012298E-07    3      1000037        13       -14             # Z4SS   -->  W2SS+  MU-    ANUM        
      9.78036951E-07    3     -1000037         4        -3             # Z4SS   -->  W2SS-  CH     SB          
      3.26012298E-07    3     -1000037        16       -15             # Z4SS   -->  W2SS-  NUT    TAU+        
      9.78036951E-07    3      1000037         3        -4             # Z4SS   -->  W2SS+  ST     CB          
      3.26012298E-07    3      1000037        15       -16             # Z4SS   -->  W2SS+  TAU-   ANUT        
      4.80083264E-02    2      1000022        23                       # Z4SS   -->  Z1SS   Z0                 
      9.17565525E-02    2      1000023        23                       # Z4SS   -->  Z2SS   Z0                 
      4.62918542E-05    2      1000025        23                       # Z4SS   -->  Z3SS   Z0                 
      6.27087049E-10    3      1000022         2        -2             # Z4SS   -->  Z1SS   UP     UB          
      1.36433731E-09    3      1000022         1        -1             # Z4SS   -->  Z1SS   DN     DB          
      1.36433731E-09    3      1000022         3        -3             # Z4SS   -->  Z1SS   ST     SB          
      6.27087049E-10    3      1000022         4        -4             # Z4SS   -->  Z1SS   CH     CB          
      3.37683758E-07    3      1000022         5        -5             # Z4SS   -->  Z1SS   BT     BB          
      2.07542539E-10    3      1000022        11       -11             # Z4SS   -->  Z1SS   E-     E+          
      2.07542539E-10    3      1000022        13       -13             # Z4SS   -->  Z1SS   MU-    MU+         
      1.01004716E-07    3      1000022        15       -15             # Z4SS   -->  Z1SS   TAU-   TAU+        
      2.84823809E-09    3      1000022        12       -12             # Z4SS   -->  Z1SS   NUE    ANUE        
      2.84823809E-09    3      1000022        14       -14             # Z4SS   -->  Z1SS   NUM    ANUM        
      3.02243053E-09    3      1000022        16       -16             # Z4SS   -->  Z1SS   NUT    ANUT        
      2.88113089E-10    3      1000023         2        -2             # Z4SS   -->  Z2SS   UP     UB          
      6.12894679E-10    3      1000023         1        -1             # Z4SS   -->  Z2SS   DN     DB          
      6.12894679E-10    3      1000023         3        -3             # Z4SS   -->  Z2SS   ST     SB          
      2.88113089E-10    3      1000023         4        -4             # Z4SS   -->  Z2SS   CH     CB          
      3.26733414E-07    3      1000023         5        -5             # Z4SS   -->  Z2SS   BT     BB          
      1.02033201E-10    3      1000023        11       -11             # Z4SS   -->  Z2SS   E-     E+          
      1.02033201E-10    3      1000023        13       -13             # Z4SS   -->  Z2SS   MU-    MU+         
      9.82577362E-08    3      1000023        15       -15             # Z4SS   -->  Z2SS   TAU-   TAU+        
      1.27255939E-09    3      1000023        12       -12             # Z4SS   -->  Z2SS   NUE    ANUE        
      1.27255939E-09    3      1000023        14       -14             # Z4SS   -->  Z2SS   NUM    ANUM        
      1.35092459E-09    3      1000023        16       -16             # Z4SS   -->  Z2SS   NUT    ANUT        
      9.54276924E-09    3      1000025         2        -2             # Z4SS   -->  Z3SS   UP     UB          
      8.40969872E-09    3      1000025         1        -1             # Z4SS   -->  Z3SS   DN     DB          
      8.40969872E-09    3      1000025         3        -3             # Z4SS   -->  Z3SS   ST     SB          
      9.54276924E-09    3      1000025         4        -4             # Z4SS   -->  Z3SS   CH     CB          
      2.43094451E-08    3      1000025         5        -5             # Z4SS   -->  Z3SS   BT     BB          
      1.02414766E-07    3      1000025        11       -11             # Z4SS   -->  Z3SS   E-     E+          
      1.02414766E-07    3      1000025        13       -13             # Z4SS   -->  Z3SS   MU-    MU+         
      1.09199249E-07    3      1000025        15       -15             # Z4SS   -->  Z3SS   TAU-   TAU+        
      9.90016957E-08    3      1000025        12       -12             # Z4SS   -->  Z3SS   NUE    ANUE        
      9.90016957E-08    3      1000025        14       -14             # Z4SS   -->  Z3SS   NUM    ANUM        
      1.05356328E-07    3      1000025        16       -16             # Z4SS   -->  Z3SS   NUT    ANUT        
      9.19907689E-02    2      1000022        25                       # Z4SS   -->  Z1SS   HL0                
      5.19857593E-02    2      1000022        35                       # Z4SS   -->  Z1SS   HH0                
      5.30009419E-02    2      1000022        36                       # Z4SS   -->  Z1SS   HA0                
      5.79600409E-02    2      1000023        25                       # Z4SS   -->  Z2SS   HL0                
      5.15451171E-02    2      1000023        35                       # Z4SS   -->  Z2SS   HH0                
      5.11132479E-02    2      1000023        36                       # Z4SS   -->  Z2SS   HA0                
      5.80047781E-04    2      1000025        25                       # Z4SS   -->  Z3SS   HL0                
      2.32204502E-06    2      1000025        35                       # Z4SS   -->  Z3SS   HH0                
      3.54664337E-07    2      1000025        36                       # Z4SS   -->  Z3SS   HA0                
#         PDG         Width
DECAY   1000024  2.65931757E-08   # W1SS+ decays
#          BR          NDA       ID1       ID2       ID3       ID4
      3.22140902E-01    3      1000022         2        -1             # W1SS+  -->  Z1SS   UP     DB          
      3.22140902E-01    3      1000022         4        -3             # W1SS+  -->  Z1SS   CH     SB          
      1.07380345E-01    3      1000022       -11        12             # W1SS+  -->  Z1SS   E+     NUE         
      1.07380345E-01    3      1000022       -13        14             # W1SS+  -->  Z1SS   MU+    NUM         
      1.07382171E-01    3      1000022       -15        16             # W1SS+  -->  Z1SS   TAU+   NUT         
      1.11917593E-02    3      1000023         2        -1             # W1SS+  -->  Z2SS   UP     DB          
      1.11917593E-02    3      1000023         4        -3             # W1SS+  -->  Z2SS   CH     SB          
      3.73058789E-03    3      1000023       -11        12             # W1SS+  -->  Z2SS   E+     NUE         
      3.73058789E-03    3      1000023       -13        14             # W1SS+  -->  Z2SS   MU+    NUM         
      3.73063027E-03    3      1000023       -15        16             # W1SS+  -->  Z2SS   TAU+   NUT         
#         PDG         Width
DECAY   1000037  3.41814728E+01   # W2SS+ decays
#          BR          NDA       ID1       ID2       ID3       ID4
      1.61358327E-09    3      1000022         2        -1             # W2SS+  -->  Z1SS   UP     DB          
      1.61358327E-09    3      1000022         4        -3             # W2SS+  -->  Z1SS   CH     SB          
      2.58100852E-09    3      1000022       -11        12             # W2SS+  -->  Z1SS   E+     NUE         
      2.58100852E-09    3      1000022       -13        14             # W2SS+  -->  Z1SS   MU+    NUM         
      1.02443515E-07    3      1000022       -15        16             # W2SS+  -->  Z1SS   TAU+   NUT         
      1.39190197E-01    2      1000022        24                       # W2SS+  -->  Z1SS   W+                 
      1.06565371E-01    2      1000022        37                       # W2SS+  -->  Z1SS   H+                 
      1.06953524E-09    3      1000023         2        -1             # W2SS+  -->  Z2SS   UP     DB          
      1.06953524E-09    3      1000023         4        -3             # W2SS+  -->  Z2SS   CH     SB          
      1.55171909E-09    3      1000023       -11        12             # W2SS+  -->  Z2SS   E+     NUE         
      1.55171909E-09    3      1000023       -13        14             # W2SS+  -->  Z2SS   MU+    NUM         
      9.87762263E-08    3      1000023       -15        16             # W2SS+  -->  Z2SS   TAU+   NUT         
      1.35293141E-01    2      1000023        24                       # W2SS+  -->  Z2SS   W+                 
      1.03791267E-01    2      1000023        37                       # W2SS+  -->  Z2SS   H+                 
      1.66509544E-08    3      1000025         2        -1             # W2SS+  -->  Z3SS   UP     DB          
      1.66509544E-08    3      1000025         4        -3             # W2SS+  -->  Z3SS   CH     SB          
      1.86503385E-07    3      1000025       -11        12             # W2SS+  -->  Z3SS   E+     NUE         
      1.86503385E-07    3      1000025       -13        14             # W2SS+  -->  Z3SS   MU+    NUM         
      1.98638148E-07    3      1000025       -15        16             # W2SS+  -->  Z3SS   TAU+   NUT         
      6.04214612E-03    2      1000025        24                       # W2SS+  -->  Z3SS   W+                 
      2.25346184E-06    2      1000025        37                       # W2SS+  -->  Z3SS   H+                 
      1.45189136E-01    2      1000024        23                       # W2SS+  -->  W1SS+  Z0                 
      5.45726708E-09    3      1000024         1        -1             # W2SS+  -->  W1SS+  DN     DB          
      5.45726708E-09    3      1000024         3        -3             # W2SS+  -->  W1SS+  ST     SB          
      9.62048358E-11    3      1000024         2        -2             # W2SS+  -->  W1SS+  UP     UB          
      9.62048358E-11    3      1000024         4        -4             # W2SS+  -->  W1SS+  CH     CB          
      1.14921683E-10    3      1000024        12       -12             # W2SS+  -->  W1SS+  NUE    ANUE        
      1.14921683E-10    3      1000024        14       -14             # W2SS+  -->  W1SS+  NUM    ANUM        
      2.39743420E-10    3      1000024        16       -16             # W2SS+  -->  W1SS+  NUT    ANUT        
      6.50871979E-09    3      1000024        11       -11             # W2SS+  -->  W1SS+  E-     E+          
      6.50871979E-09    3      1000024        13       -13             # W2SS+  -->  W1SS+  MU-    MU+         
      6.90703583E-09    3      1000024        15       -15             # W2SS+  -->  W1SS+  TAU-   TAU+        
      1.54212251E-01    2      1000024        25                       # W2SS+  -->  W1SS+  HL0                
      1.04558669E-01    2      1000024        35                       # W2SS+  -->  W1SS+  HH0                
      1.05154775E-01    2      1000024        36                       # W2SS+  -->  W1SS+  HA0                
#         PDG         Width
DECAY        25  3.96961253E-03   # HL0   decays
#          BR          NDA       ID1       ID2       ID3       ID4
      5.62574565E-09    2           11       -11                       # HL0    -->  E-     E+                 
      2.37528133E-04    2           13       -13                       # HL0    -->  MU-    MU+                
      6.79500252E-02    2           15       -15                       # HL0    -->  TAU-   TAU+               
      7.05181583E-06    2            1        -1                       # HL0    -->  DN     DB                 
      2.84928735E-03    2            3        -3                       # HL0    -->  ST     SB                 
      6.10502720E-01    2            5        -5                       # HL0    -->  BT     BB                 
      2.15252226E-06    2            2        -2                       # HL0    -->  UP     UB                 
      3.99894193E-02    2            4        -4                       # HL0    -->  CH     CB                 
      2.65879161E-03    2           22        22                       # HL0    -->  GM     GM                 
      5.29653877E-02    2           21        21                       # HL0    -->  GL     GL                 
      1.11291679E-02    3           24        11       -12             # HL0    -->  W+     E-     ANUE        
      1.11291679E-02    3           24        13       -14             # HL0    -->  W+     MU-    ANUM        
      1.11291679E-02    3           24        15       -16             # HL0    -->  W+     TAU-   ANUT        
      3.33875008E-02    3           24        -2         1             # HL0    -->  W+     UB     DN          
      3.33875008E-02    3           24        -4         3             # HL0    -->  W+     CB     ST          
      1.11291679E-02    3          -24       -11        12             # HL0    -->  W-     E+     NUE         
      1.11291679E-02    3          -24       -13        14             # HL0    -->  W-     MU+    NUM         
      1.11291679E-02    3          -24       -15        16             # HL0    -->  W-     TAU+   NUT         
      3.33875008E-02    3          -24         2        -1             # HL0    -->  W-     UP     DB          
      3.33875008E-02    3          -24         4        -3             # HL0    -->  W-     CH     SB          
      1.53964362E-03    3           23        12       -12             # HL0    -->  Z0     NUE    ANUE        
      1.53964362E-03    3           23        14       -14             # HL0    -->  Z0     NUM    ANUM        
      1.53964362E-03    3           23        16       -16             # HL0    -->  Z0     NUT    ANUT        
      7.74887158E-04    3           23        11       -11             # HL0    -->  Z0     E-     E+          
      7.74887158E-04    3           23        13       -13             # HL0    -->  Z0     MU-    MU+         
      7.74887158E-04    3           23        15       -15             # HL0    -->  Z0     TAU-   TAU+        
      2.65469775E-03    3           23         2        -2             # HL0    -->  Z0     UP     UB          
      2.65469775E-03    3           23         4        -4             # HL0    -->  Z0     CH     CB          
      3.41990474E-03    3           23         1        -1             # HL0    -->  Z0     DN     DB          
      3.41990474E-03    3           23         3        -3             # HL0    -->  Z0     ST     SB          
      3.41990474E-03    3           23         5        -5             # HL0    -->  Z0     BT     BB          
#         PDG         Width
DECAY        35  3.55321431E+00   # HH0   decays
#          BR          NDA       ID1       ID2       ID3       ID4
      1.08304787E-08    2           11       -11                       # HH0    -->  E-     E+                 
      4.57282295E-04    2           13       -13                       # HH0    -->  MU-    MU+                
      1.30970225E-01    2           15       -15                       # HH0    -->  TAU-   TAU+               
      1.32673858E-05    2            1        -1                       # HH0    -->  DN     DB                 
      5.36069507E-03    2            3        -3                       # HH0    -->  ST     SB                 
      7.98981249E-01    2            5        -5                       # HH0    -->  BT     BB                 
      8.78994516E-11    2            2        -2                       # HH0    -->  UP     UB                 
      1.23788709E-06    2            4        -4                       # HH0    -->  CH     CB                 
      5.64694814E-02    2            6        -6                       # HH0    -->  TP     TB                 
      1.83873354E-07    2           22        22                       # HH0    -->  GM     GM                 
      2.48170072E-05    2           21        21                       # HH0    -->  GL     GL                 
      2.24953750E-04    2           24       -24                       # HH0    -->  W+     W-                 
      1.14212649E-04    2           23        23                       # HH0    -->  Z0     Z0                 
      1.41686760E-03    2      1000022   1000022                       # HH0    -->  Z1SS   Z1SS               
      1.19335906E-04    2      1000022   1000023                       # HH0    -->  Z1SS   Z2SS               
      9.76289855E-04    2      1000023   1000023                       # HH0    -->  Z2SS   Z2SS               
      4.02891962E-03    2      1000024  -1000024                       # HH0    -->  W1SS+  W1SS-              
      8.40997847E-04    2           25        25                       # HH0    -->  HL0    HL0                
#         PDG         Width
DECAY        36  3.54235268E+00   # HA0   decays
#          BR          NDA       ID1       ID2       ID3       ID4
      1.07940252E-08    2           11       -11                       # HA0    -->  E-     E+                 
      4.55743226E-04    2           13       -13                       # HA0    -->  MU-    MU+                
      1.30531028E-01    2           15       -15                       # HA0    -->  TAU-   TAU+               
      1.32234582E-05    2            1        -1                       # HA0    -->  DN     DB                 
      5.34294685E-03    2            3        -3                       # HA0    -->  ST     SB                 
      7.96371579E-01    2            5        -5                       # HA0    -->  BT     BB                 
      8.35770272E-11    2            2        -2                       # HA0    -->  UP     UB                 
      1.17794093E-06    2            4        -4                       # HA0    -->  CH     CB                 
      5.96853942E-02    2            6        -6                       # HA0    -->  TP     TB                 
      3.08677755E-07    2           22        22                       # HA0    -->  GM     GM                 
      7.74026921E-05    2           21        21                       # HA0    -->  GL     GL                 
      1.98111520E-03    2      1000022   1000022                       # HA0    -->  Z1SS   Z1SS               
      1.50878559E-05    2      1000022   1000023                       # HA0    -->  Z1SS   Z2SS               
      7.98753288E-04    2      1000023   1000023                       # HA0    -->  Z2SS   Z2SS               
      4.50983783E-03    2      1000024  -1000024                       # HA0    -->  W1SS+  W1SS-              
      2.16288376E-04    2           25        23                       # HA0    -->  HL0    Z0                 
#         PDG         Width
DECAY        37  3.11950040E+00   # H+    decays
#          BR          NDA       ID1       ID2       ID3       ID4
      1.22967441E-08    2           12       -11                       # H+     -->  NUE    E+                 
      5.19190740E-04    2           14       -13                       # H+     -->  NUM    MU+                
      1.48703247E-01    2           16       -15                       # H+     -->  NUT    TAU+               
      1.38465875E-05    2            2        -1                       # H+     -->  UP     DB                 
      5.59589872E-03    2            4        -3                       # H+     -->  CH     SB                 
      8.44636083E-01    2            6        -5                       # H+     -->  TP     BB                 
      3.20656145E-05    2      1000024   1000022                       # H+     -->  W1SS+  Z1SS               
      2.53321516E-04    2      1000024   1000023                       # H+     -->  W1SS+  Z2SS               
      2.46307667E-04    2           25        24                       # H+     -->  HL0    W+                 
