#  ISAJET SUSY parameters in SUSY Les Houches Accord 2 format
#  Created by ISALHA 2.0 Last revision: H Baer 27 May 2014
Block SPINFO   # Program information
     1   ISASUGRA/ISASUSY from ISAJET   # Spectrum Calculator
     2   7.87   18-JUL-2017 13:55:55    # Version number
Block MODSEL   # Model selection
     1    13   # Non-universal supergravity model                  
Block SMINPUTS   # Standard Model inputs
     1     1.28000000E+02   # alpha_em^(-1)
     2     1.16570000E-05   # G_Fermi
     3     1.19999997E-01   # alpha_s(M_Z)
     4     9.11699982E+01   # m_{Z}(pole)
     5     4.19999981E+00   # m_{b}(m_{b})
     6     1.72500000E+02   # m_{top}(pole)
     7     1.77699995E+00   # m_{tau}(pole)
Block MINPAR   # SUSY breaking input parameters
     1     5.00000000E+03   # m_0
     2     3.50000000E+02   # m_{1/2}
     3     1.50000000E+01   # tan(beta)
     4     1.00000000E+00   # sign(mu)
     5    -8.00000000E+03   # A_0
Block EXTPAR   # Non-universal SUSY breaking parameters
     0     2.11238732E+16   # Input scale
    21     2.99974850E+06   # Down type Higgs mass squared
    22     3.70162800E+07   #  Up  type Higgs mass squared
Block MASS   # Scalar and gaugino mass spectrum
#  PDG code   mass                 particle
         6     1.72500000E+02   #  top            
        24     8.04229965E+01   #  W^+
        25     1.24080116E+02   #  h^0            
        35     1.00666553E+03   #  H^0            
        36     1.00000000E+03   #  A^0            
        37     1.00322870E+03   #  H^+            
   1000001     4.98295947E+03   #  dnl            
   1000002     4.98230762E+03   #  upl            
   1000003     4.98295947E+03   #  stl            
   1000004     4.98230811E+03   #  chl            
   1000005     3.49213428E+03   #  b1             
   1000006     1.43425159E+03   #  t1             
   1000011     5.08201123E+03   #  el-            
   1000012     5.08666602E+03   #  nuel           
   1000013     5.08201123E+03   #  mul-           
   1000014     5.08666602E+03   #  numl           
   1000015     4.66317090E+03   #  tau1           
   1000016     5.01155078E+03   #  nutl           
   1000021     1.01772217E+03   #  glss           
   1000022     1.39772552E+02   #  z1ss           
   1000023     1.98448898E+02   #  z2ss           
   1000024     1.89216003E+02   #  w1ss           
   1000025    -2.11737213E+02   #  z3ss           
   1000035     3.47282501E+02   #  z4ss           
   1000037     3.39129761E+02   #  w2ss           
   1000039     1.00000002E+20   #  gvss
   2000001     4.97049609E+03   #  dnr            
   2000002     5.13960645E+03   #  upr            
   2000003     4.97049609E+03   #  str            
   2000004     5.13960645E+03   #  chr            
   2000005     4.81724219E+03   #  b2             
   2000006     3.46842529E+03   #  t2             
   2000011     4.82325977E+03   #  er-            
   2000013     4.82325977E+03   #  mur-           
   2000015     5.00549561E+03   #  tau2           
Block ALPHA   # Effective Higgs mixing parameter
         -6.81004226E-02   # alpha
Block STOPMIX   # stop mixing matrix
  1  1     4.76704873E-02   # O_{11}
  1  2     9.98863101E-01   # O_{12}
  2  1    -9.98863101E-01   # O_{21}
  2  2     4.76704873E-02   # O_{22}
Block SBOTMIX   # sbottom mixing matrix
  1  1     9.99994576E-01   # O_{11}
  1  2     3.28763132E-03   # O_{12}
  2  1    -3.28763132E-03   # O_{21}
  2  2     9.99994576E-01   # O_{22}
Block STAUMIX   # stau mixing matrix
  1  1     8.32066871E-03   # O_{11}
  1  2     9.99965370E-01   # O_{12}
  2  1    -9.99965370E-01   # O_{21}
  2  2     8.32066871E-03   # O_{22}
Block NMIX   # neutralino mixing matrix
  1  1     8.10010314E-01   #
  1  2    -1.68188021E-01   #
  1  3     4.55360711E-01   #
  1  4    -3.29002559E-01   #
  2  1    -5.75432241E-01   #
  2  2    -3.79757077E-01   #
  2  3     5.16207397E-01   #
  2  4    -5.08126259E-01   #
  3  1     7.66381100E-02   #
  3  2    -9.39305425E-02   #
  3  3    -6.87991083E-01   #
  3  4    -7.15521991E-01   #
  4  1     8.29920992E-02   #
  4  2    -9.04806376E-01   #
  4  3    -2.29879186E-01   #
  4  4     3.48702580E-01   #
Block UMIX   # chargino U mixing matrix
  1  1    -3.24950367E-01   # U_{11}
  1  2     9.45731044E-01   # U_{12}
  2  1    -9.45731044E-01   # U_{21}
  2  2    -3.24950367E-01   # U_{22}
Block VMIX   # chargino V mixing matrix
  1  1    -4.89145875E-01   # V_{11}
  1  2     8.72201979E-01   # V_{12}
  2  1    -8.72201979E-01   # V_{21}
  2  2    -4.89145875E-01   # V_{22}
Block GAUGE Q=  2.27463892E+03   #
     1     3.57524902E-01   # g`
     2     6.52378976E-01   # g_2
     3     1.21928465E+00   # g_3
Block YU Q=  2.27463892E+03   #
  3  3     8.38592112E-01   # y_t
Block YD Q=  2.27463892E+03   #
  3  3     1.96022421E-01   # y_b
Block YE Q=  2.27463892E+03   #
  3  3     1.51498616E-01   # y_tau
Block HMIX Q=  2.27463892E+03   # Higgs mixing parameters
     1     2.00000000E+02   # mu(Q)
     2     1.43661833E+01   # tan(beta)(Q)
     3     2.52212753E+02   # Higgs vev at Q
     4     1.00000000E+06   # m_A^2(Q)
Block MSOFT Q=  2.27463892E+03   # DRbar SUSY breaking parameters
     1     1.57928757E+02   # M_1(Q)          
     2     2.91835968E+02   # M_2(Q)          
     3     8.30030518E+02   # M_3(Q)          
    21     9.33189500E+05   # MHd^2(Q)        
    22    -4.47893438E+04   # MHu^2(Q)        
    31     5.06584961E+03   # MeL(Q)          
    32     5.06584961E+03   # MmuL(Q)         
    33     4.99276172E+03   # MtauL(Q)        
    34     4.81970947E+03   # MeR(Q)          
    35     4.81970947E+03   # MmuR(Q)         
    36     4.66013721E+03   # MtauR(Q)        
    41     4.91268604E+03   # MqL1(Q)         
    42     4.91268604E+03   # MqL2(Q)         
    43     3.45191455E+03   # MqL3(Q)         
    44     5.06795459E+03   # MuR(Q)          
    45     5.06795459E+03   # McR(Q)          
    46     1.49887329E+03   # MtR(Q)          
    47     4.90065967E+03   # MdR(Q)          
    48     4.90065967E+03   # MsR(Q)          
    49     4.76389941E+03   # MbR(Q)          
Block AU Q=  2.27463892E+03   #
  1  1    -3.46533105E+03   # A_u
  2  2    -3.46533105E+03   # A_c
  3  3    -3.46533105E+03   # A_t
Block AD Q=  2.27463892E+03   #
  1  1    -7.67594287E+03   # A_d
  2  2    -7.67594287E+03   # A_s
  3  3    -7.67594287E+03   # A_b
Block AE Q=  2.27463892E+03   #
  1  1    -7.85193018E+03   # A_e
  2  2    -7.85193018E+03   # A_mu
  3  3    -7.85193018E+03   # A_tau
#  ISAJET decay tables in SUSY Les Houches accord format
#  Created by ISALHD. Last revision: C. Balazs, 2005 May 25
Block DCINFO                           # Program information
     1   ISASUGRA from ISAJET          # Spectrum Calculator
     2   7.87   18-JUL-2017 13:55:55   # Version number
#         PDG         Width
DECAY         6  1.46776152E+00   # TP    decays
#          BR          NDA       ID1       ID2       ID3       ID4
      3.33333313E-01    3            2        -1         5             # TP     -->  UP     DB     BT          
      3.33333313E-01    3            4        -3         5             # TP     -->  CH     SB     BT          
      1.11111097E-01    3          -11        12         5             # TP     -->  E+     NUE    BT          
      1.11111097E-01    3          -13        14         5             # TP     -->  MU+    NUM    BT          
      1.11111097E-01    3          -15        16         5             # TP     -->  TAU+   NUT    BT          
#         PDG         Width
DECAY   1000021  3.97747848E-03   # GLSS  decays
#          BR          NDA       ID1       ID2       ID3       ID4
      3.96111747E-04    3      1000024         1        -2             # GLSS   -->  W1SS+  DN     UB          
      3.96111747E-04    3     -1000024         2        -1             # GLSS   -->  W1SS-  UP     DB          
      3.96111660E-04    3      1000024         3        -4             # GLSS   -->  W1SS+  ST     CB          
      3.96111660E-04    3     -1000024         4        -3             # GLSS   -->  W1SS-  CH     SB          
      2.02353850E-01    3      1000024         5        -6             # GLSS   -->  W1SS+  BT     TB          
      2.02353850E-01    3     -1000024         6        -5             # GLSS   -->  W1SS-  TP     BB          
      1.22218626E-03    3      1000037         1        -2             # GLSS   -->  W2SS+  DN     UB          
      1.22218626E-03    3     -1000037         2        -1             # GLSS   -->  W2SS-  UP     DB          
      1.22218602E-03    3      1000037         3        -4             # GLSS   -->  W2SS+  ST     CB          
      1.22218602E-03    3     -1000037         4        -3             # GLSS   -->  W2SS-  CH     SB          
      4.68742810E-02    3      1000037         5        -6             # GLSS   -->  W2SS+  BT     TB          
      4.68742810E-02    3     -1000037         6        -5             # GLSS   -->  W2SS-  TP     BB          
      1.78543373E-03    2      1000022        21                       # GLSS   -->  Z1SS   GL                 
      3.90014902E-04    3      1000022         2        -2             # GLSS   -->  Z1SS   UP     UB          
      2.37233748E-04    3      1000022         1        -1             # GLSS   -->  Z1SS   DN     DB          
      2.37233748E-04    3      1000022         3        -3             # GLSS   -->  Z1SS   ST     SB          
      3.90014902E-04    3      1000022         4        -4             # GLSS   -->  Z1SS   CH     CB          
      9.57409502E-04    3      1000022         5        -5             # GLSS   -->  Z1SS   BT     BB          
      6.78137839E-02    3      1000022         6        -6             # GLSS   -->  Z1SS   TP     TB          
      8.97624996E-03    2      1000023        21                       # GLSS   -->  Z2SS   GL                 
      4.50104504E-04    3      1000023         2        -2             # GLSS   -->  Z2SS   UP     UB          
      1.37875555E-04    3      1000023         1        -1             # GLSS   -->  Z2SS   DN     DB          
      1.37875555E-04    3      1000023         3        -3             # GLSS   -->  Z2SS   ST     SB          
      4.50104359E-04    3      1000023         4        -4             # GLSS   -->  Z2SS   CH     CB          
      7.70558894E-04    3      1000023         5        -5             # GLSS   -->  Z2SS   BT     BB          
      1.73806444E-01    3      1000023         6        -6             # GLSS   -->  Z2SS   TP     TB          
      1.32763721E-02    2      1000025        21                       # GLSS   -->  Z3SS   GL                 
      5.54077724E-06    3      1000025         2        -2             # GLSS   -->  Z3SS   UP     UB          
      7.52878896E-06    3      1000025         1        -1             # GLSS   -->  Z3SS   DN     DB          
      7.52878896E-06    3      1000025         3        -3             # GLSS   -->  Z3SS   ST     SB          
      5.54077587E-06    3      1000025         4        -4             # GLSS   -->  Z3SS   CH     CB          
      6.29194023E-04    3      1000025         5        -5             # GLSS   -->  Z3SS   BT     BB          
      1.81856036E-01    3      1000025         6        -6             # GLSS   -->  Z3SS   TP     TB          
      2.54036160E-03    2      1000035        21                       # GLSS   -->  Z4SS   GL                 
      5.67230512E-04    3      1000035         2        -2             # GLSS   -->  Z4SS   UP     UB          
      6.04529167E-04    3      1000035         1        -1             # GLSS   -->  Z4SS   DN     DB          
      6.04529167E-04    3      1000035         3        -3             # GLSS   -->  Z4SS   ST     SB          
      5.67230221E-04    3      1000035         4        -4             # GLSS   -->  Z4SS   CH     CB          
      2.66795768E-03    3      1000035         5        -5             # GLSS   -->  Z4SS   BT     BB          
      3.51904370E-02    3      1000035         6        -6             # GLSS   -->  Z4SS   TP     TB          
#         PDG         Width
DECAY   1000002  3.04315796E+02   # UPL   decays
#          BR          NDA       ID1       ID2       ID3       ID4
      2.69437533E-05    2      1000022         2                       # UPL    -->  Z1SS   UP                 
      1.61713138E-02    2      1000023         2                       # UPL    -->  Z2SS   UP                 
      4.38260031E-04    2      1000025         2                       # UPL    -->  Z3SS   UP                 
      5.40105887E-02    2      1000035         2                       # UPL    -->  Z4SS   UP                 
      7.92585909E-01    2      1000021         2                       # UPL    -->  GLSS   UP                 
      3.28829847E-02    2      1000024         1                       # UPL    -->  W1SS+  DN                 
      1.03884004E-01    2      1000037         1                       # UPL    -->  W2SS+  DN                 
#         PDG         Width
DECAY   1000001  3.04318573E+02   # DNL   decays
#          BR          NDA       ID1       ID2       ID3       ID4
      6.89723622E-03    2      1000022         1                       # DNL    -->  Z1SS   DN                 
      5.17072156E-03    2      1000023         1                       # DNL    -->  Z2SS   DN                 
      8.00602545E-04    2      1000025         1                       # DNL    -->  Z3SS   DN                 
      5.77734038E-02    2      1000035         1                       # DNL    -->  Z4SS   DN                 
      7.92691290E-01    2      1000021         1                       # DNL    -->  GLSS   DN                 
      1.45138213E-02    2     -1000024         2                       # DNL    -->  W1SS-  UP                 
      1.22152887E-01    2     -1000037         2                       # DNL    -->  W2SS-  UP                 
#         PDG         Width
DECAY   1000003  3.04318542E+02   # STL   decays
#          BR          NDA       ID1       ID2       ID3       ID4
      6.89723669E-03    2      1000022         3                       # STL    -->  Z1SS   ST                 
      5.17072203E-03    2      1000023         3                       # STL    -->  Z2SS   ST                 
      8.00602662E-04    2      1000025         3                       # STL    -->  Z3SS   ST                 
      5.77734113E-02    2      1000035         3                       # STL    -->  Z4SS   ST                 
      7.92691350E-01    2      1000021         3                       # STL    -->  GLSS   ST                 
      1.45138195E-02    2     -1000024         4                       # STL    -->  W1SS-  CH                 
      1.22152887E-01    2     -1000037         4                       # STL    -->  W2SS-  CH                 
#         PDG         Width
DECAY   1000004  3.04315796E+02   # CHL   decays
#          BR          NDA       ID1       ID2       ID3       ID4
      2.69437533E-05    2      1000022         4                       # CHL    -->  Z1SS   CH                 
      1.61713138E-02    2      1000023         4                       # CHL    -->  Z2SS   CH                 
      4.38259973E-04    2      1000025         4                       # CHL    -->  Z3SS   CH                 
      5.40105887E-02    2      1000035         4                       # CHL    -->  Z4SS   CH                 
      7.92585850E-01    2      1000021         4                       # CHL    -->  GLSS   CH                 
      3.28829885E-02    2      1000024         3                       # CHL    -->  W1SS+  ST                 
      1.03884012E-01    2      1000037         3                       # CHL    -->  W2SS+  ST                 
#         PDG         Width
DECAY   1000005  2.88226440E+02   # BT1   decays
#          BR          NDA       ID1       ID2       ID3       ID4
      7.14189373E-03    2      1000022         5                       # BT1    -->  Z1SS   BT                 
      6.38756063E-03    2      1000023         5                       # BT1    -->  Z2SS   BT                 
      5.13772480E-03    2      1000025         5                       # BT1    -->  Z3SS   BT                 
      4.27913815E-02    2      1000035         5                       # BT1    -->  Z4SS   BT                 
      5.52125633E-01    2      1000021         5                       # BT1    -->  GLSS   BT                 
      1.32985204E-01    2     -1000024         6                       # BT1    -->  W1SS-  TP                 
      1.28213868E-01    2     -1000037         6                       # BT1    -->  W2SS-  TP                 
      1.25203699E-01    2          -24   1000006                       # BT1    -->  W-     TP1                
      1.30097642E-05    2          -37   1000006                       # BT1    -->  H-     TP1                
#         PDG         Width
DECAY   1000006  5.84207191E+01   # TP1   decays
#          BR          NDA       ID1       ID2       ID3       ID4
      3.26539159E-01    2      1000021         6                       # TP1    -->  GLSS   TP                 
      7.02996552E-02    2      1000022         6                       # TP1    -->  Z1SS   TP                 
      9.96180028E-02    2      1000023         6                       # TP1    -->  Z2SS   TP                 
      1.59890801E-01    2      1000025         6                       # TP1    -->  Z3SS   TP                 
      3.01205479E-02    2      1000035         6                       # TP1    -->  Z4SS   TP                 
      2.52403468E-01    2      1000024         5                       # TP1    -->  W1SS+  BT                 
      6.11283481E-02    2      1000037         5                       # TP1    -->  W2SS+  BT                 
#         PDG         Width
DECAY   2000002  2.61030670E+02   # UPR   decays
#          BR          NDA       ID1       ID2       ID3       ID4
      2.91603804E-02    2      1000022         2                       # UPR    -->  Z1SS   UP                 
      1.46942372E-02    2      1000023         2                       # UPR    -->  Z2SS   UP                 
      2.60536617E-04    2      1000025         2                       # UPR    -->  Z3SS   UP                 
      3.03775858E-04    2      1000035         2                       # UPR    -->  Z4SS   UP                 
      9.55581009E-01    2      1000021         2                       # UPR    -->  GLSS   UP                 
#         PDG         Width
DECAY   2000001  2.43378098E+02   # DNR   decays
#          BR          NDA       ID1       ID2       ID3       ID4
      7.56081380E-03    2      1000022         1                       # DNR    -->  Z1SS   DN                 
      3.80958198E-03    2      1000023         1                       # DNR    -->  Z2SS   DN                 
      6.75439514E-05    2      1000025         1                       # DNR    -->  Z3SS   DN                 
      7.87222525E-05    2      1000035         1                       # DNR    -->  Z4SS   DN                 
      9.88483369E-01    2      1000021         1                       # DNR    -->  GLSS   DN                 
#         PDG         Width
DECAY   2000003  2.43378098E+02   # STR   decays
#          BR          NDA       ID1       ID2       ID3       ID4
      7.56081380E-03    2      1000022         3                       # STR    -->  Z1SS   ST                 
      3.80958198E-03    2      1000023         3                       # STR    -->  Z2SS   ST                 
      6.75439514E-05    2      1000025         3                       # STR    -->  Z3SS   ST                 
      7.87222525E-05    2      1000035         3                       # STR    -->  Z4SS   ST                 
      9.88483369E-01    2      1000021         3                       # STR    -->  GLSS   ST                 
#         PDG         Width
DECAY   2000004  2.61030609E+02   # CHR   decays
#          BR          NDA       ID1       ID2       ID3       ID4
      2.91603804E-02    2      1000022         4                       # CHR    -->  Z1SS   CH                 
      1.46942390E-02    2      1000023         4                       # CHR    -->  Z2SS   CH                 
      2.60536646E-04    2      1000025         4                       # CHR    -->  Z3SS   CH                 
      3.03775887E-04    2      1000035         4                       # CHR    -->  Z4SS   CH                 
      9.55581069E-01    2      1000021         4                       # CHR    -->  GLSS   CH                 
#         PDG         Width
DECAY   2000005  2.71110931E+02   # BT2   decays
#          BR          NDA       ID1       ID2       ID3       ID4
      9.46446415E-03    2      1000022         5                       # BT2    -->  Z1SS   BT                 
      7.08857318E-03    2      1000023         5                       # BT2    -->  Z2SS   BT                 
      6.79204520E-03    2      1000025         5                       # BT2    -->  Z3SS   BT                 
      8.60199449E-04    2      1000035         5                       # BT2    -->  Z4SS   BT                 
      8.57511818E-01    2      1000021         5                       # BT2    -->  GLSS   BT                 
      1.25730550E-02    2     -1000024         6                       # BT2    -->  W1SS-  TP                 
      1.57917093E-03    2     -1000037         6                       # BT2    -->  W2SS-  TP                 
      4.98370355E-06    2          -24   1000006                       # BT2    -->  W-     TP1                
      3.21475090E-04    2          -24   2000006                       # BT2    -->  W-     TP2                
      1.55820831E-04    2           23   1000005                       # BT2    -->  Z0     BT1                
      3.46725050E-04    2           25   1000005                       # BT2    -->  HL0    BT1                
      2.54325978E-02    2           36   1000005                       # BT2    -->  HA0    BT1                
      2.51955241E-02    2           35   1000005                       # BT2    -->  HH0    BT1                
      8.87496790E-05    2          -37   1000006                       # BT2    -->  H-     TP1                
      5.25848418E-02    2          -37   2000006                       # BT2    -->  H-     TP2                
#         PDG         Width
DECAY   2000006  2.94142487E+02   # TP2   decays
#          BR          NDA       ID1       ID2       ID3       ID4
      5.31513214E-01    2      1000021         6                       # TP2    -->  GLSS   TP                 
      2.71390546E-02    2      1000024         5                       # TP2    -->  W1SS+  BT                 
      7.99798518E-02    2      1000037         5                       # TP2    -->  W2SS+  BT                 
      6.02007620E-02    2           23   1000006                       # TP2    -->  Z0     TP1                
      9.41875353E-02    2           25   1000006                       # TP2    -->  HL0    TP1                
      8.82007498E-06    2           35   1000006                       # TP2    -->  HH0    TP1                
      6.45519731E-06    2           36   1000006                       # TP2    -->  HA0    TP1                
      1.53985880E-02    2      1000022         6                       # TP2    -->  Z1SS   TP                 
      5.15298024E-02    2      1000023         6                       # TP2    -->  Z2SS   TP                 
      7.97204971E-02    2      1000025         6                       # TP2    -->  Z3SS   TP                 
      6.03155047E-02    2      1000035         6                       # TP2    -->  Z4SS   TP                 
#         PDG         Width
DECAY   1000011  7.01036072E+01   # EL-   decays
#          BR          NDA       ID1       ID2       ID3       ID4
      2.33799275E-02    2      1000022        11                       # EL-    -->  Z1SS   E-                 
      1.47378370E-01    2      1000023        11                       # EL-    -->  Z2SS   E-                 
      8.16211046E-04    2      1000025        11                       # EL-    -->  Z3SS   E-                 
      2.23163098E-01    2      1000035        11                       # EL-    -->  Z4SS   E-                 
      6.42638057E-02    2     -1000024        12                       # EL-    -->  W1SS-  NUE                
      5.40998578E-01    2     -1000037        12                       # EL-    -->  W2SS-  NUE                
#         PDG         Width
DECAY   1000013  7.01036072E+01   # MUL-  decays
#          BR          NDA       ID1       ID2       ID3       ID4
      2.33799275E-02    2      1000022        13                       # MUL-   -->  Z1SS   MU-                
      1.47378370E-01    2      1000023        13                       # MUL-   -->  Z2SS   MU-                
      8.16211046E-04    2      1000025        13                       # MUL-   -->  Z3SS   MU-                
      2.23163098E-01    2      1000035        13                       # MUL-   -->  Z4SS   MU-                
      6.42638057E-02    2     -1000024        14                       # MUL-   -->  W1SS-  NUM                
      5.40998578E-01    2     -1000037        14                       # MUL-   -->  W2SS-  NUM                
#         PDG         Width
DECAY   1000015  2.81089001E+01   # TAU1- decays
#          BR          NDA       ID1       ID2       ID3       ID4
      5.70121646E-01    2      1000022        15                       # TAU1-  -->  Z1SS   TAU-               
      2.99607337E-01    2      1000023        15                       # TAU1-  -->  Z2SS   TAU-               
      4.19993177E-02    2      1000025        15                       # TAU1-  -->  Z3SS   TAU-               
      9.08594951E-03    2      1000035        15                       # TAU1-  -->  Z4SS   TAU-               
      7.24896640E-02    2     -1000024        16                       # TAU1-  -->  W1SS-  NUT                
      6.69609476E-03    2     -1000037        16                       # TAU1-  -->  W2SS-  NUT                
#         PDG         Width
DECAY   1000012  7.01912994E+01   # NUEL  decays
#          BR          NDA       ID1       ID2       ID3       ID4
      1.14597395E-01    2      1000022        12                       # NUEL   -->  Z1SS   NUE                
      1.22578570E-03    2      1000023        12                       # NUEL   -->  Z2SS   NUE                
      5.62689127E-03    2      1000025        12                       # NUEL   -->  Z3SS   NUE                
      2.72983015E-01    2      1000035        12                       # NUEL   -->  Z4SS   NUE                
      1.45568073E-01    2      1000024        11                       # NUEL   -->  W1SS+  E-                 
      4.59998876E-01    2      1000037        11                       # NUEL   -->  W2SS+  E-                 
#         PDG         Width
DECAY   1000014  7.01912994E+01   # NUML  decays
#          BR          NDA       ID1       ID2       ID3       ID4
      1.14597395E-01    2      1000022        14                       # NUML   -->  Z1SS   NUM                
      1.22578570E-03    2      1000023        14                       # NUML   -->  Z2SS   NUM                
      5.62689127E-03    2      1000025        14                       # NUML   -->  Z3SS   NUM                
      2.72983015E-01    2      1000035        14                       # NUML   -->  Z4SS   NUM                
      1.45568073E-01    2      1000024        13                       # NUML   -->  W1SS+  MU-                
      4.59998876E-01    2      1000037        13                       # NUML   -->  W2SS+  MU-                
#         PDG         Width
DECAY   1000016  7.15425644E+01   # NUTL  decays
#          BR          NDA       ID1       ID2       ID3       ID4
      1.10767558E-01    2      1000022        16                       # NUTL   -->  Z1SS   NUT                
      1.18476502E-03    2      1000023        16                       # NUTL   -->  Z2SS   NUT                
      5.43851871E-03    2      1000025        16                       # NUTL   -->  Z3SS   NUT                
      2.63797373E-01    2      1000035        16                       # NUTL   -->  Z4SS   NUT                
      1.70597389E-01    2      1000024        15                       # NUTL   -->  W1SS+  TAU-               
      4.48037833E-01    2      1000037        15                       # NUTL   -->  W2SS+  TAU-               
      1.76458314E-04    2           24   1000015                       # NUTL   -->  W+     TAU1-              
#         PDG         Width
DECAY   2000011  2.44755630E+01   # ER-   decays
#          BR          NDA       ID1       ID2       ID3       ID4
      6.56535447E-01    2      1000022        11                       # ER-    -->  Z1SS   E-                 
      3.30767989E-01    2      1000023        11                       # ER-    -->  Z2SS   E-                 
      5.86436223E-03    2      1000025        11                       # ER-    -->  Z3SS   E-                 
      6.83227740E-03    2      1000035        11                       # ER-    -->  Z4SS   E-                 
#         PDG         Width
DECAY   2000013  2.44755630E+01   # MUR-  decays
#          BR          NDA       ID1       ID2       ID3       ID4
      6.56535447E-01    2      1000022        13                       # MUR-   -->  Z1SS   MU-                
      3.30767989E-01    2      1000023        13                       # MUR-   -->  Z2SS   MU-                
      5.86436223E-03    2      1000025        13                       # MUR-   -->  Z3SS   MU-                
      6.83227740E-03    2      1000035        13                       # MUR-   -->  Z4SS   MU-                
#         PDG         Width
DECAY   2000015  7.14253235E+01   # TAU2- decays
#          BR          NDA       ID1       ID2       ID3       ID4
      2.90986616E-02    2      1000022        15                       # TAU2-  -->  Z1SS   TAU-               
      1.51312172E-01    2      1000023        15                       # TAU2-  -->  Z2SS   TAU-               
      1.67635866E-02    2      1000025        15                       # TAU2-  -->  Z3SS   TAU-               
      2.17774168E-01    2      1000035        15                       # TAU2-  -->  Z4SS   TAU-               
      6.14000522E-02    2     -1000024        16                       # TAU2-  -->  W1SS-  NUT                
      5.23525655E-01    2     -1000037        16                       # TAU2-  -->  W2SS-  NUT                
      8.27255353E-05    2           23   1000015                       # TAU2-  -->  Z0     TAU1-              
      4.30288201E-05    2           25   1000015                       # TAU2-  -->  HL0    TAU1-              
#         PDG         Width
DECAY   1000023  1.03799284E-05   # Z2SS  decays
#          BR          NDA       ID1       ID2       ID3       ID4
      5.49235893E-03    2      1000022        22                       # Z2SS   -->  Z1SS   GM                 
      2.45820498E-03    3     -1000024         2        -1             # Z2SS   -->  W1SS-  UP     DB          
      8.19401641E-04    3     -1000024        12       -11             # Z2SS   -->  W1SS-  NUE    E+          
      8.19401641E-04    3     -1000024        14       -13             # Z2SS   -->  W1SS-  NUM    MU+         
      2.45820498E-03    3      1000024         1        -2             # Z2SS   -->  W1SS+  DN     UB          
      8.19401641E-04    3      1000024        11       -12             # Z2SS   -->  W1SS+  E-     ANUE        
      8.19401641E-04    3      1000024        13       -14             # Z2SS   -->  W1SS+  MU-    ANUM        
      2.45820498E-03    3     -1000024         4        -3             # Z2SS   -->  W1SS-  CH     SB          
      8.19401641E-04    3     -1000024        16       -15             # Z2SS   -->  W1SS-  NUT    TAU+        
      2.45820498E-03    3      1000024         3        -4             # Z2SS   -->  W1SS+  ST     CB          
      8.19401641E-04    3      1000024        15       -16             # Z2SS   -->  W1SS+  TAU-   ANUT        
      1.16498835E-01    3      1000022         2        -2             # Z2SS   -->  Z1SS   UP     UB          
      1.50200114E-01    3      1000022         1        -1             # Z2SS   -->  Z1SS   DN     DB          
      1.50200114E-01    3      1000022         3        -3             # Z2SS   -->  Z1SS   ST     SB          
      1.16498835E-01    3      1000022         4        -4             # Z2SS   -->  Z1SS   CH     CB          
      1.41585901E-01    3      1000022         5        -5             # Z2SS   -->  Z1SS   BT     BB          
      3.39052156E-02    3      1000022        11       -11             # Z2SS   -->  Z1SS   E-     E+          
      3.39052156E-02    3      1000022        13       -13             # Z2SS   -->  Z1SS   MU-    MU+         
      3.37296911E-02    3      1000022        15       -15             # Z2SS   -->  Z1SS   TAU-   TAU+        
      6.77449852E-02    3      1000022        12       -12             # Z2SS   -->  Z1SS   NUE    ANUE        
      6.77449852E-02    3      1000022        14       -14             # Z2SS   -->  Z1SS   NUM    ANUM        
      6.77445382E-02    3      1000022        16       -16             # Z2SS   -->  Z1SS   NUT    ANUT        
#         PDG         Width
DECAY   1000025  6.06861606E-04   # Z3SS  decays
#          BR          NDA       ID1       ID2       ID3       ID4
      1.97896152E-04    2      1000022        22                       # Z3SS   -->  Z1SS   GM                 
      6.55367871E-10    2      1000023        22                       # Z3SS   -->  Z2SS   GM                 
      3.11701931E-03    3     -1000024         2        -1             # Z3SS   -->  W1SS-  UP     DB          
      1.03900640E-03    3     -1000024        12       -11             # Z3SS   -->  W1SS-  NUE    E+          
      1.03900640E-03    3     -1000024        14       -13             # Z3SS   -->  W1SS-  NUM    MU+         
      3.11701931E-03    3      1000024         1        -2             # Z3SS   -->  W1SS+  DN     UB          
      1.03900640E-03    3      1000024        11       -12             # Z3SS   -->  W1SS+  E-     ANUE        
      1.03900640E-03    3      1000024        13       -14             # Z3SS   -->  W1SS+  MU-    ANUM        
      3.11701931E-03    3     -1000024         4        -3             # Z3SS   -->  W1SS-  CH     SB          
      1.03900640E-03    3     -1000024        16       -15             # Z3SS   -->  W1SS-  NUT    TAU+        
      3.11701931E-03    3      1000024         3        -4             # Z3SS   -->  W1SS+  ST     CB          
      1.03900640E-03    3      1000024        15       -16             # Z3SS   -->  W1SS+  TAU-   ANUT        
      1.16133332E-01    3      1000022         2        -2             # Z3SS   -->  Z1SS   UP     UB          
      1.49748281E-01    3      1000022         1        -1             # Z3SS   -->  Z1SS   DN     DB          
      1.49748281E-01    3      1000022         3        -3             # Z3SS   -->  Z1SS   ST     SB          
      1.16133332E-01    3      1000022         4        -4             # Z3SS   -->  Z1SS   CH     CB          
      1.44544125E-01    3      1000022         5        -5             # Z3SS   -->  Z1SS   BT     BB          
      3.39698754E-02    3      1000022        11       -11             # Z3SS   -->  Z1SS   E-     E+          
      3.39698754E-02    3      1000022        13       -13             # Z3SS   -->  Z1SS   MU-    MU+         
      3.37626003E-02    3      1000022        15       -15             # Z3SS   -->  Z1SS   TAU-   TAU+        
      6.75961226E-02    3      1000022        12       -12             # Z3SS   -->  Z1SS   NUE    ANUE        
      6.75961226E-02    3      1000022        14       -14             # Z3SS   -->  Z1SS   NUM    ANUM        
      6.75962418E-02    3      1000022        16       -16             # Z3SS   -->  Z1SS   NUT    ANUT        
      4.11351866E-05    3      1000023         2        -2             # Z3SS   -->  Z2SS   UP     UB          
      5.30415491E-05    3      1000023         1        -1             # Z3SS   -->  Z2SS   DN     DB          
      5.30415491E-05    3      1000023         3        -3             # Z3SS   -->  Z2SS   ST     SB          
      4.11351866E-05    3      1000023         4        -4             # Z3SS   -->  Z2SS   CH     CB          
      8.09806534E-06    3      1000023         5        -5             # Z3SS   -->  Z2SS   BT     BB          
      1.20328623E-05    3      1000023        11       -11             # Z3SS   -->  Z2SS   E-     E+          
      1.20328623E-05    3      1000023        13       -13             # Z3SS   -->  Z2SS   MU-    MU+         
      9.60976649E-06    3      1000023        15       -15             # Z3SS   -->  Z2SS   TAU-   TAU+        
      2.39414876E-05    3      1000023        12       -12             # Z3SS   -->  Z2SS   NUE    ANUE        
      2.39414876E-05    3      1000023        14       -14             # Z3SS   -->  Z2SS   NUM    ANUM        
      2.39414931E-05    3      1000023        16       -16             # Z3SS   -->  Z2SS   NUT    ANUT        
#         PDG         Width
DECAY   1000035  1.35976017E+00   # Z4SS  decays
#          BR          NDA       ID1       ID2       ID3       ID4
      2.00220214E-07    2      1000022        22                       # Z4SS   -->  Z1SS   GM                 
      1.54296117E-06    2      1000023        22                       # Z4SS   -->  Z2SS   GM                 
      3.20843378E-06    2      1000025        22                       # Z4SS   -->  Z3SS   GM                 
      3.44218642E-01    2      1000024       -24                       # Z4SS   -->  W1SS+  W-                 
      3.44218642E-01    2     -1000024        24                       # Z4SS   -->  W1SS-  W+                 
      3.66750221E-08    3     -1000037         2        -1             # Z4SS   -->  W2SS-  UP     DB          
      1.22250077E-08    3     -1000037        12       -11             # Z4SS   -->  W2SS-  NUE    E+          
      1.22250077E-08    3     -1000037        14       -13             # Z4SS   -->  W2SS-  NUM    MU+         
      3.66750221E-08    3      1000037         1        -2             # Z4SS   -->  W2SS+  DN     UB          
      1.22250077E-08    3      1000037        11       -12             # Z4SS   -->  W2SS+  E-     ANUE        
      1.22250077E-08    3      1000037        13       -14             # Z4SS   -->  W2SS+  MU-    ANUM        
      3.66750221E-08    3     -1000037         4        -3             # Z4SS   -->  W2SS-  CH     SB          
      1.22250077E-08    3     -1000037        16       -15             # Z4SS   -->  W2SS-  NUT    TAU+        
      3.66750221E-08    3      1000037         3        -4             # Z4SS   -->  W2SS+  ST     CB          
      1.22250077E-08    3      1000037        15       -16             # Z4SS   -->  W2SS+  TAU-   ANUT        
      7.11912347E-04    2      1000022        23                       # Z4SS   -->  Z1SS   Z0                 
      1.40871061E-02    2      1000023        23                       # Z4SS   -->  Z2SS   Z0                 
      1.76226005E-01    2      1000025        23                       # Z4SS   -->  Z3SS   Z0                 
      5.50006308E-12    3      1000022         2        -2             # Z4SS   -->  Z1SS   UP     UB          
      3.19615112E-10    3      1000022         1        -1             # Z4SS   -->  Z1SS   DN     DB          
      3.19615112E-10    3      1000022         3        -3             # Z4SS   -->  Z1SS   ST     SB          
      5.50006308E-12    3      1000022         4        -4             # Z4SS   -->  Z1SS   CH     CB          
      2.94804394E-08    3      1000022         5        -5             # Z4SS   -->  Z1SS   BT     BB          
      7.51095922E-11    3      1000022        11       -11             # Z4SS   -->  Z1SS   E-     E+          
      7.51095922E-11    3      1000022        13       -13             # Z4SS   -->  Z1SS   MU-    MU+         
      5.39378542E-09    3      1000022        15       -15             # Z4SS   -->  Z1SS   TAU-   TAU+        
      3.92590488E-10    3      1000022        12       -12             # Z4SS   -->  Z1SS   NUE    ANUE        
      3.92590488E-10    3      1000022        14       -14             # Z4SS   -->  Z1SS   NUM    ANUM        
      4.16723100E-10    3      1000022        16       -16             # Z4SS   -->  Z1SS   NUT    ANUT        
      2.03900521E-10    3      1000023         2        -2             # Z4SS   -->  Z2SS   UP     UB          
      6.95135755E-11    3      1000023         1        -1             # Z4SS   -->  Z2SS   DN     DB          
      6.95135755E-11    3      1000023         3        -3             # Z4SS   -->  Z2SS   ST     SB          
      2.03900410E-10    3      1000023         4        -4             # Z4SS   -->  Z2SS   CH     CB          
      1.87534948E-08    3      1000023         5        -5             # Z4SS   -->  Z2SS   BT     BB          
      1.21510982E-10    3      1000023        11       -11             # Z4SS   -->  Z2SS   E-     E+          
      1.21510982E-10    3      1000023        13       -13             # Z4SS   -->  Z2SS   MU-    MU+         
      3.69498476E-09    3      1000023        15       -15             # Z4SS   -->  Z2SS   TAU-   TAU+        
      1.21853059E-12    3      1000023        12       -12             # Z4SS   -->  Z2SS   NUE    ANUE        
      1.21853059E-12    3      1000023        14       -14             # Z4SS   -->  Z2SS   NUM    ANUM        
      1.29347509E-12    3      1000023        16       -16             # Z4SS   -->  Z2SS   NUT    ANUT        
      1.34129166E-12    3      1000025         2        -2             # Z4SS   -->  Z3SS   UP     UB          
      2.61378506E-12    3      1000025         1        -1             # Z4SS   -->  Z3SS   DN     DB          
      2.61378506E-12    3      1000025         3        -3             # Z4SS   -->  Z3SS   ST     SB          
      1.34129112E-12    3      1000025         4        -4             # Z4SS   -->  Z3SS   CH     CB          
      2.66538613E-08    3      1000025         5        -5             # Z4SS   -->  Z3SS   BT     BB          
      1.67600254E-13    3      1000025        11       -11             # Z4SS   -->  Z3SS   E-     E+          
      1.67600254E-13    3      1000025        13       -13             # Z4SS   -->  Z3SS   MU-    MU+         
      5.13605114E-09    3      1000025        15       -15             # Z4SS   -->  Z3SS   TAU-   TAU+        
      1.35912158E-12    3      1000025        12       -12             # Z4SS   -->  Z3SS   NUE    ANUE        
      1.35912158E-12    3      1000025        14       -14             # Z4SS   -->  Z3SS   NUM    ANUM        
      1.44273547E-12    3      1000025        16       -16             # Z4SS   -->  Z3SS   NUT    ANUT        
      9.00649931E-03    2      1000022        25                       # Z4SS   -->  Z1SS   HL0                
      1.10408366E-01    2      1000023        25                       # Z4SS   -->  Z2SS   HL0                
      1.11765927E-03    2      1000025        25                       # Z4SS   -->  Z3SS   HL0                
#         PDG         Width
DECAY   1000024  1.42551828E-04   # W1SS+ decays
#          BR          NDA       ID1       ID2       ID3       ID4
      3.33335698E-01    3      1000022         2        -1             # W1SS+  -->  Z1SS   UP     DB          
      3.33335698E-01    3      1000022         4        -3             # W1SS+  -->  Z1SS   CH     SB          
      1.11108787E-01    3      1000022       -11        12             # W1SS+  -->  Z1SS   E+     NUE         
      1.11108787E-01    3      1000022       -13        14             # W1SS+  -->  Z1SS   MU+    NUM         
      1.11111000E-01    3      1000022       -15        16             # W1SS+  -->  Z1SS   TAU+   NUT         
#         PDG         Width
DECAY   1000037  1.14383864E+00   # W2SS+ decays
#          BR          NDA       ID1       ID2       ID3       ID4
      2.26194966E-10    3      1000022         2        -1             # W2SS+  -->  Z1SS   UP     DB          
      2.26194966E-10    3      1000022         4        -3             # W2SS+  -->  Z1SS   CH     SB          
      3.84428767E-10    3      1000022       -11        12             # W2SS+  -->  Z1SS   E+     NUE         
      3.84428767E-10    3      1000022       -13        14             # W2SS+  -->  Z1SS   MU+    NUM         
      8.69875727E-09    3      1000022       -15        16             # W2SS+  -->  Z1SS   TAU+   NUT         
      4.20400240E-02    2      1000022        24                       # W2SS+  -->  Z1SS   W+                 
      9.82231588E-11    3      1000023         2        -1             # W2SS+  -->  Z2SS   UP     DB          
      9.82231518E-11    3      1000023         4        -3             # W2SS+  -->  Z2SS   CH     SB          
      8.49494711E-11    3      1000023       -11        12             # W2SS+  -->  Z2SS   E+     NUE         
      8.49494711E-11    3      1000023       -13        14             # W2SS+  -->  Z2SS   MU+    NUM         
      6.19658369E-09    3      1000023       -15        16             # W2SS+  -->  Z2SS   TAU+   NUT         
      3.12242568E-01    2      1000023        24                       # W2SS+  -->  Z2SS   W+                 
      9.98406045E-12    3      1000025         2        -1             # W2SS+  -->  Z3SS   UP     DB          
      9.98405785E-12    3      1000025         4        -3             # W2SS+  -->  Z3SS   CH     SB          
      3.06046855E-12    3      1000025       -11        12             # W2SS+  -->  Z3SS   E+     NUE         
      3.06046855E-12    3      1000025       -13        14             # W2SS+  -->  Z3SS   MU+    NUM         
      3.91753874E-09    3      1000025       -15        16             # W2SS+  -->  Z3SS   TAU+   NUT         
      2.28855103E-01    2      1000025        24                       # W2SS+  -->  Z3SS   W+                 
      2.75437295E-01    2      1000024        23                       # W2SS+  -->  W1SS+  Z0                 
      3.24097416E-10    3      1000024         1        -1             # W2SS+  -->  W1SS+  DN     DB          
      3.24097277E-10    3      1000024         3        -3             # W2SS+  -->  W1SS+  ST     SB          
      1.68076150E-10    3      1000024         2        -2             # W2SS+  -->  W1SS+  UP     UB          
      1.68076150E-10    3      1000024         4        -4             # W2SS+  -->  W1SS+  CH     CB          
      5.17718680E-11    3      1000024        12       -12             # W2SS+  -->  W1SS+  NUE    ANUE        
      5.17718680E-11    3      1000024        14       -14             # W2SS+  -->  W1SS+  NUM    ANUM        
      7.31086441E-11    3      1000024        16       -16             # W2SS+  -->  W1SS+  NUT    ANUT        
      9.94123880E-11    3      1000024        11       -11             # W2SS+  -->  W1SS+  E-     E+          
      9.94123880E-11    3      1000024        13       -13             # W2SS+  -->  W1SS+  MU-    MU+         
      1.05525741E-10    3      1000024        15       -15             # W2SS+  -->  W1SS+  TAU-   TAU+        
      1.41425014E-01    2      1000024        25                       # W2SS+  -->  W1SS+  HL0                
#         PDG         Width
DECAY        25  3.80021916E-03   # HL0   decays
#          BR          NDA       ID1       ID2       ID3       ID4
      5.80661297E-09    2           11       -11                       # HL0    -->  E-     E+                 
      2.45164643E-04    2           13       -13                       # HL0    -->  MU-    MU+                
      7.01328143E-02    2           15       -15                       # HL0    -->  TAU-   TAU+               
      7.27965835E-06    2            1        -1                       # HL0    -->  DN     DB                 
      2.94134743E-03    2            3        -3                       # HL0    -->  ST     SB                 
      6.30157948E-01    2            5        -5                       # HL0    -->  BT     BB                 
      2.22531185E-06    2            2        -2                       # HL0    -->  UP     UB                 
      4.14077714E-02    2            4        -4                       # HL0    -->  CH     CB                 
      2.69182120E-03    2           22        22                       # HL0    -->  GM     GM                 
      5.26160263E-02    2           21        21                       # HL0    -->  GL     GL                 
      1.00141354E-02    3           24        11       -12             # HL0    -->  W+     E-     ANUE        
      1.00141354E-02    3           24        13       -14             # HL0    -->  W+     MU-    ANUM        
      1.00141354E-02    3           24        15       -16             # HL0    -->  W+     TAU-   ANUT        
      3.00424080E-02    3           24        -2         1             # HL0    -->  W+     UB     DN          
      3.00424080E-02    3           24        -4         3             # HL0    -->  W+     CB     ST          
      1.00141354E-02    3          -24       -11        12             # HL0    -->  W-     E+     NUE         
      1.00141354E-02    3          -24       -13        14             # HL0    -->  W-     MU+    NUM         
      1.00141354E-02    3          -24       -15        16             # HL0    -->  W-     TAU+   NUT         
      3.00424080E-02    3          -24         2        -1             # HL0    -->  W-     UP     DB          
      3.00424080E-02    3          -24         4        -3             # HL0    -->  W-     CH     SB          
      1.33656105E-03    3           23        12       -12             # HL0    -->  Z0     NUE    ANUE        
      1.33656105E-03    3           23        14       -14             # HL0    -->  Z0     NUM    ANUM        
      1.33656105E-03    3           23        16       -16             # HL0    -->  Z0     NUT    ANUT        
      6.72677765E-04    3           23        11       -11             # HL0    -->  Z0     E-     E+          
      6.72677765E-04    3           23        13       -13             # HL0    -->  Z0     MU-    MU+         
      6.72677765E-04    3           23        15       -15             # HL0    -->  Z0     TAU-   TAU+        
      2.30453699E-03    3           23         2        -2             # HL0    -->  Z0     UP     UB          
      2.30453699E-03    3           23         4        -4             # HL0    -->  Z0     CH     CB          
      2.96881120E-03    3           23         1        -1             # HL0    -->  Z0     DN     DB          
      2.96881120E-03    3           23         3        -3             # HL0    -->  Z0     ST     SB          
      2.96881120E-03    3           23         5        -5             # HL0    -->  Z0     BT     BB          
#         PDG         Width
DECAY        35  1.41381788E+01   # HH0   decays
#          BR          NDA       ID1       ID2       ID3       ID4
      2.72193157E-09    2           11       -11                       # HH0    -->  E-     E+                 
      1.14924849E-04    2           13       -13                       # HH0    -->  MU-    MU+                
      3.29156257E-02    2           15       -15                       # HH0    -->  TAU-   TAU+               
      3.33437856E-06    2            1        -1                       # HH0    -->  DN     DB                 
      1.34725776E-03    2            3        -3                       # HH0    -->  ST     SB                 
      2.03086108E-01    2            5        -5                       # HH0    -->  BT     BB                 
      2.20588305E-11    2            2        -2                       # HH0    -->  UP     UB                 
      3.10654428E-07    2            4        -4                       # HH0    -->  CH     CB                 
      1.41713070E-02    2            6        -6                       # HH0    -->  TP     TB                 
      4.42910306E-07    2           22        22                       # HH0    -->  GM     GM                 
      7.11676375E-06    2           21        21                       # HH0    -->  GL     GL                 
      5.30506841E-05    2           24       -24                       # HH0    -->  W+     W-                 
      2.69346856E-05    2           23        23                       # HH0    -->  Z0     Z0                 
      3.73014621E-02    2      1000022   1000022                       # HH0    -->  Z1SS   Z1SS               
      2.59389505E-02    2      1000022   1000023                       # HH0    -->  Z1SS   Z2SS               
      4.28536832E-02    2      1000022   1000025                       # HH0    -->  Z1SS   Z3SS               
      1.58978291E-02    2      1000022   1000035                       # HH0    -->  Z1SS   Z4SS               
      4.32827946E-04    2      1000023   1000023                       # HH0    -->  Z2SS   Z2SS               
      9.56402291E-05    2      1000023   1000025                       # HH0    -->  Z2SS   Z3SS               
      3.46032232E-02    2      1000023   1000035                       # HH0    -->  Z2SS   Z4SS               
      4.47663339E-03    2      1000025   1000025                       # HH0    -->  Z3SS   Z3SS               
      1.28034979E-01    2      1000025   1000035                       # HH0    -->  Z3SS   Z4SS               
      8.68196785E-03    2      1000035   1000035                       # HH0    -->  Z4SS   Z4SS               
      9.32825208E-02    2      1000024  -1000024                       # HH0    -->  W1SS+  W1SS-              
      1.52722783E-02    2      1000037  -1000037                       # HH0    -->  W2SS+  W2SS-              
      1.70610115E-01    2      1000024  -1000037                       # HH0    -->  W1SS+  W2SS-              
      1.70610115E-01    2     -1000024   1000037                       # HH0    -->  W1SS-  W2SS+              
      1.81400421E-04    2           25        25                       # HH0    -->  HL0    HL0                
#         PDG         Width
DECAY        36  1.39924650E+01   # HA0   decays
#          BR          NDA       ID1       ID2       ID3       ID4
      2.73263101E-09    2           11       -11                       # HA0    -->  E-     E+                 
      1.15376613E-04    2           13       -13                       # HA0    -->  MU-    MU+                
      3.30454223E-02    2           15       -15                       # HA0    -->  TAU-   TAU+               
      3.34766992E-06    2            1        -1                       # HA0    -->  DN     DB                 
      1.35262811E-03    2            3        -3                       # HA0    -->  ST     SB                 
      2.03904793E-01    2            5        -5                       # HA0    -->  BT     BB                 
      2.11584812E-11    2            2        -2                       # HA0    -->  UP     UB                 
      2.98209216E-07    2            4        -4                       # HA0    -->  CH     CB                 
      1.51100410E-02    2            6        -6                       # HA0    -->  TP     TB                 
      9.91663910E-07    2           22        22                       # HA0    -->  GM     GM                 
      2.24450632E-05    2           21        21                       # HA0    -->  GL     GL                 
      4.92940210E-02    2      1000022   1000022                       # HA0    -->  Z1SS   Z1SS               
      3.79131101E-02    2      1000022   1000023                       # HA0    -->  Z1SS   Z2SS               
      2.63382960E-02    2      1000022   1000025                       # HA0    -->  Z1SS   Z3SS               
      2.17979960E-02    2      1000022   1000035                       # HA0    -->  Z1SS   Z4SS               
      6.70548645E-04    2      1000023   1000023                       # HA0    -->  Z2SS   Z2SS               
      2.65541807E-04    2      1000023   1000025                       # HA0    -->  Z2SS   Z3SS               
      6.23149276E-02    2      1000023   1000035                       # HA0    -->  Z2SS   Z4SS               
      4.11786139E-03    2      1000025   1000025                       # HA0    -->  Z3SS   Z3SS               
      6.99310675E-02    2      1000025   1000035                       # HA0    -->  Z3SS   Z4SS               
      2.49411073E-02    2      1000035   1000035                       # HA0    -->  Z4SS   Z4SS               
      1.28541410E-01    2      1000024  -1000024                       # HA0    -->  W1SS+  W1SS-              
      4.34699543E-02    2      1000037  -1000037                       # HA0    -->  W2SS+  W2SS-              
      1.38398647E-01    2      1000024  -1000037                       # HA0    -->  W1SS+  W2SS-              
      1.38398647E-01    2     -1000024   1000037                       # HA0    -->  W1SS-  W2SS+              
      5.14338353E-05    2           25        23                       # HA0    -->  HL0    Z0                 
#         PDG         Width
DECAY        37  1.35584192E+01   # H+    decays
#          BR          NDA       ID1       ID2       ID3       ID4
      2.82921597E-09    2           12       -11                       # H+     -->  NUE    E+                 
      1.19454613E-04    2           14       -13                       # H+     -->  NUM    MU+                
      3.42134163E-02    2           16       -15                       # H+     -->  NUT    TAU+               
      3.18580169E-06    2            2        -1                       # H+     -->  UP     DB                 
      1.28749583E-03    2            4        -3                       # H+     -->  CH     SB                 
      1.96388572E-01    2            6        -5                       # H+     -->  TP     BB                 
      6.21232726E-02    2      1000024   1000022                       # H+     -->  W1SS+  Z1SS               
      4.72916551E-02    2      1000024   1000023                       # H+     -->  W1SS+  Z2SS               
      3.55868600E-02    2      1000024   1000025                       # H+     -->  W1SS+  Z3SS               
      1.89298674E-01    2      1000024   1000035                       # H+     -->  W1SS+  Z4SS               
      6.28631264E-02    2      1000037   1000022                       # H+     -->  W2SS+  Z1SS               
      1.89380929E-01    2      1000037   1000023                       # H+     -->  W2SS+  Z2SS               
      1.81249678E-01    2      1000037   1000025                       # H+     -->  W2SS+  Z3SS               
      1.40363947E-04    2      1000037   1000035                       # H+     -->  W2SS+  Z4SS               
      5.32312479E-05    2           25        24                       # H+     -->  HL0    W+                 
