#  ISAJET SUSY parameters in SUSY Les Houches Accord 2 format
#  Created by ISALHA 2.0 Last revision: H Baer 27 May 2014
Block SPINFO   # Program information
     1   ISASUGRA/ISASUSY from ISAJET   # Spectrum Calculator
     2   7.87   18-JUL-2017 13:55:55    # Version number
Block MODSEL   # Model selection
     1    13   # Non-universal supergravity model                  
Block SMINPUTS   # Standard Model inputs
     1     1.28000000E+02   # alpha_em^(-1)
     2     1.16570000E-05   # G_Fermi
     3     1.19999997E-01   # alpha_s(M_Z)
     4     9.11699982E+01   # m_{Z}(pole)
     5     4.19999981E+00   # m_{b}(m_{b})
     6     1.72500000E+02   # m_{top}(pole)
     7     1.77699995E+00   # m_{tau}(pole)
Block MINPAR   # SUSY breaking input parameters
     1     5.00000000E+03   # m_0
     2     5.00000000E+02   # m_{1/2}
     3     1.50000000E+01   # tan(beta)
     4     1.00000000E+00   # sign(mu)
     5    -8.00000000E+03   # A_0
Block EXTPAR   # Non-universal SUSY breaking parameters
     0     1.97881792E+16   # Input scale
    21     2.99831450E+06   # Down type Higgs mass squared
    22     3.77004800E+07   #  Up  type Higgs mass squared
Block MASS   # Scalar and gaugino mass spectrum
#  PDG code   mass                 particle
         6     1.72500000E+02   #  top            
        24     8.04229965E+01   #  W^+
        25     1.24338249E+02   #  h^0            
        35     1.00666675E+03   #  H^0            
        36     1.00000000E+03   #  A^0            
        37     1.00322870E+03   #  H^+            
   1000001     5.03138477E+03   #  dnl            
   1000002     5.03073975E+03   #  upl            
   1000003     5.03138477E+03   #  stl            
   1000004     5.03074023E+03   #  chl            
   1000005     3.52796851E+03   #  b1             
   1000006     1.46277600E+03   #  t1             
   1000011     5.08898242E+03   #  el-            
   1000012     5.09371094E+03   #  nuel           
   1000013     5.08898242E+03   #  mul-           
   1000014     5.09371094E+03   #  numl           
   1000015     4.66112061E+03   #  tau1           
   1000016     5.01854980E+03   #  nutl           
   1000021     1.36118225E+03   #  glss           
   1000022     1.14181023E+02   #  z1ss           
   1000023    -1.40121490E+02   #  z2ss           
   1000024     1.31364838E+02   #  w1ss           
   1000025     2.34161438E+02   #  z3ss           
   1000035     4.57682587E+02   #  z4ss           
   1000037     4.48397522E+02   #  w2ss           
   1000039     1.00000002E+20   #  gvss
   2000001     5.01406592E+03   #  dnr            
   2000002     5.18504883E+03   #  upr            
   2000003     5.01406592E+03   #  str            
   2000004     5.18504932E+03   #  chr            
   2000005     4.85611328E+03   #  b2             
   2000006     3.50326074E+03   #  t2             
   2000011     4.82192041E+03   #  er-            
   2000013     4.82192041E+03   #  mur-           
   2000015     5.01241553E+03   #  tau2           
Block ALPHA   # Effective Higgs mixing parameter
         -6.81175888E-02   # alpha
Block STOPMIX   # stop mixing matrix
  1  1     4.96549942E-02   # O_{11}
  1  2     9.98766422E-01   # O_{12}
  2  1    -9.98766422E-01   # O_{21}
  2  2     4.96549942E-02   # O_{22}
Block SBOTMIX   # sbottom mixing matrix
  1  1     9.99995232E-01   # O_{11}
  1  2     3.08027491E-03   # O_{12}
  2  1    -3.08027491E-03   # O_{21}
  2  2     9.99995232E-01   # O_{22}
Block STAUMIX   # stau mixing matrix
  1  1     7.64739607E-03   # O_{11}
  1  2     9.99970734E-01   # O_{12}
  2  1    -9.99970734E-01   # O_{21}
  2  2     7.64739607E-03   # O_{22}
Block NMIX   # neutralino mixing matrix
  1  1     2.59074956E-01   #
  1  2    -1.68865860E-01   #
  1  3     7.14822471E-01   #
  1  4    -6.27210975E-01   #
  2  1     7.83911645E-02   #
  2  2    -8.63379017E-02   #
  2  3    -6.82170630E-01   #
  2  4    -7.21833706E-01   #
  3  1    -9.61921036E-01   #
  3  2    -9.11261588E-02   #
  3  3     1.33940473E-01   #
  3  4    -2.20146060E-01   #
  4  1     3.79895791E-02   #
  4  2    -9.77612436E-01   #
  4  3    -7.57122487E-02   #
  4  4     1.92609310E-01   #
Block UMIX   # chargino U mixing matrix
  1  1    -1.02063634E-01   # U_{11}
  1  2     9.94777858E-01   # U_{12}
  2  1    -9.94777858E-01   # U_{21}
  2  2    -1.02063634E-01   # U_{22}
Block VMIX   # chargino V mixing matrix
  1  1    -2.65955508E-01   # V_{11}
  1  2     9.63985324E-01   # V_{12}
  2  1    -9.63985324E-01   # V_{21}
  2  2    -2.65955508E-01   # V_{22}
Block GAUGE Q=  2.28541699E+03   #
     1     3.57524186E-01   # g`
     2     6.52380586E-01   # g_2
     3     1.21931875E+00   # g_3
Block YU Q=  2.28541699E+03   #
  3  3     8.34915817E-01   # y_t
Block YD Q=  2.28541699E+03   #
  3  3     1.94739565E-01   # y_b
Block YE Q=  2.28541699E+03   #
  3  3     1.51281208E-01   # y_tau
Block HMIX Q=  2.28541699E+03   # Higgs mixing parameters
     1     1.30000000E+02   # mu(Q)
     2     1.43664360E+01   # tan(beta)(Q)
     3     2.52221664E+02   # Higgs vev at Q
     4     1.00000000E+06   # m_A^2(Q)
Block MSOFT Q=  2.28541699E+03   # DRbar SUSY breaking parameters
     1     2.23318054E+02   # M_1(Q)          
     2     4.11246155E+02   # M_2(Q)          
     3     1.14166882E+03   # M_3(Q)          
    21     9.53951125E+05   # MHd^2(Q)        
    22    -3.44307930E+04   # MHu^2(Q)        
    31     5.07279053E+03   # MeL(Q)          
    32     5.07279053E+03   # MmuL(Q)         
    33     4.99965820E+03   # MtauL(Q)        
    34     4.81835449E+03   # MeR(Q)          
    35     4.81835449E+03   # MmuR(Q)         
    36     4.65812451E+03   # MtauR(Q)        
    41     4.95603369E+03   # MqL1(Q)         
    42     4.95603369E+03   # MqL2(Q)         
    43     3.48465601E+03   # MqL3(Q)         
    44     5.10852295E+03   # MuR(Q)          
    45     5.10852295E+03   # McR(Q)          
    46     1.49889441E+03   # MtR(Q)          
    47     4.93918604E+03   # MdR(Q)          
    48     4.93918604E+03   # MsR(Q)          
    49     4.80357373E+03   # MbR(Q)          
Block AU Q=  2.28541699E+03   #
  1  1    -3.73445776E+03   # A_u
  2  2    -3.73445776E+03   # A_c
  3  3    -3.73445776E+03   # A_t
Block AD Q=  2.28541699E+03   #
  1  1    -8.02548633E+03   # A_d
  2  2    -8.02548633E+03   # A_s
  3  3    -8.02548633E+03   # A_b
Block AE Q=  2.28541699E+03   #
  1  1    -7.93753857E+03   # A_e
  2  2    -7.93753857E+03   # A_mu
  3  3    -7.93753857E+03   # A_tau
#  ISAJET decay tables in SUSY Les Houches accord format
#  Created by ISALHD. Last revision: C. Balazs, 2005 May 25
Block DCINFO                           # Program information
     1   ISASUGRA from ISAJET          # Spectrum Calculator
     2   7.87   18-JUL-2017 13:55:55   # Version number
#         PDG         Width
DECAY         6  1.46776152E+00   # TP    decays
#          BR          NDA       ID1       ID2       ID3       ID4
      3.33333313E-01    3            2        -1         5             # TP     -->  UP     DB     BT          
      3.33333313E-01    3            4        -3         5             # TP     -->  CH     SB     BT          
      1.11111097E-01    3          -11        12         5             # TP     -->  E+     NUE    BT          
      1.11111097E-01    3          -13        14         5             # TP     -->  MU+    NUM    BT          
      1.11111097E-01    3          -15        16         5             # TP     -->  TAU+   NUT    BT          
#         PDG         Width
DECAY   1000021  3.71525586E-02   # GLSS  decays
#          BR          NDA       ID1       ID2       ID3       ID4
      4.36774098E-05    3      1000024         1        -2             # GLSS   -->  W1SS+  DN     UB          
      4.36774098E-05    3     -1000024         2        -1             # GLSS   -->  W1SS-  UP     DB          
      4.36773917E-05    3      1000024         3        -4             # GLSS   -->  W1SS+  ST     CB          
      4.36773917E-05    3     -1000024         4        -3             # GLSS   -->  W1SS-  CH     SB          
      2.27995411E-01    3      1000024         5        -6             # GLSS   -->  W1SS+  BT     TB          
      2.27995411E-01    3     -1000024         6        -5             # GLSS   -->  W1SS-  TP     BB          
      6.36455195E-04    3      1000037         1        -2             # GLSS   -->  W2SS+  DN     UB          
      6.36455195E-04    3     -1000037         2        -1             # GLSS   -->  W2SS-  UP     DB          
      6.36455021E-04    3      1000037         3        -4             # GLSS   -->  W2SS+  ST     CB          
      6.36455021E-04    3     -1000037         4        -3             # GLSS   -->  W2SS-  CH     SB          
      1.27392244E-02    3      1000037         5        -6             # GLSS   -->  W2SS+  BT     TB          
      1.27392244E-02    3     -1000037         6        -5             # GLSS   -->  W2SS-  TP     BB          
      3.17674293E-03    2      1000022        21                       # GLSS   -->  Z1SS   GL                 
      2.63342790E-05    3      1000022         2        -2             # GLSS   -->  Z1SS   UP     UB          
      3.16166552E-05    3      1000022         1        -1             # GLSS   -->  Z1SS   DN     DB          
      3.16166552E-05    3      1000022         3        -3             # GLSS   -->  Z1SS   ST     SB          
      2.63342699E-05    3      1000022         4        -4             # GLSS   -->  Z1SS   CH     CB          
      4.87722427E-04    3      1000022         5        -5             # GLSS   -->  Z1SS   BT     BB          
      1.67624652E-01    3      1000022         6        -6             # GLSS   -->  Z1SS   TP     TB          
      4.53642337E-03    2      1000023        21                       # GLSS   -->  Z2SS   GL                 
      3.19953028E-06    3      1000023         2        -2             # GLSS   -->  Z2SS   UP     UB          
      4.33726973E-06    3      1000023         1        -1             # GLSS   -->  Z2SS   DN     DB          
      4.33726973E-06    3      1000023         3        -3             # GLSS   -->  Z2SS   ST     SB          
      3.19952869E-06    3      1000023         4        -4             # GLSS   -->  Z2SS   CH     CB          
      3.48314148E-04    3      1000023         5        -5             # GLSS   -->  Z2SS   BT     BB          
      2.21099734E-01    3      1000023         6        -6             # GLSS   -->  Z2SS   TP     TB          
      1.23208016E-03    2      1000025        21                       # GLSS   -->  Z3SS   GL                 
      2.68656382E-04    3      1000025         2        -2             # GLSS   -->  Z3SS   UP     UB          
      7.01274475E-05    3      1000025         1        -1             # GLSS   -->  Z3SS   DN     DB          
      7.01274475E-05    3      1000025         3        -3             # GLSS   -->  Z3SS   ST     SB          
      2.68656237E-04    3      1000025         4        -4             # GLSS   -->  Z3SS   CH     CB          
      1.04643834E-04    3      1000025         5        -5             # GLSS   -->  Z3SS   BT     BB          
      1.02870263E-01    3      1000025         6        -6             # GLSS   -->  Z3SS   TP     TB          
      2.26875374E-04    2      1000035        21                       # GLSS   -->  Z4SS   GL                 
      3.03873996E-04    3      1000035         2        -2             # GLSS   -->  Z4SS   UP     UB          
      3.12322518E-04    3      1000035         1        -1             # GLSS   -->  Z4SS   DN     DB          
      3.12322518E-04    3      1000035         3        -3             # GLSS   -->  Z4SS   ST     SB          
      3.03873909E-04    3      1000035         4        -4             # GLSS   -->  Z4SS   CH     CB          
      1.39992021E-03    3      1000035         5        -5             # GLSS   -->  Z4SS   BT     BB          
      1.06617548E-02    3      1000035         6        -6             # GLSS   -->  Z4SS   TP     TB          
#         PDG         Width
DECAY   1000002  2.90882507E+02   # UPL   decays
#          BR          NDA       ID1       ID2       ID3       ID4
      1.07183261E-03    2      1000022         2                       # UPL    -->  Z1SS   UP                 
      3.76555254E-04    2      1000023         2                       # UPL    -->  Z2SS   UP                 
      5.18113654E-03    2      1000025         2                       # UPL    -->  Z3SS   UP                 
      6.74582049E-02    2      1000035         2                       # UPL    -->  Z4SS   UP                 
      7.82469153E-01    2      1000021         2                       # UPL    -->  GLSS   UP                 
      1.02844695E-02    2      1000024         1                       # UPL    -->  W1SS+  DN                 
      1.33158609E-01    2      1000037         1                       # UPL    -->  W2SS+  DN                 
#         PDG         Width
DECAY   1000001  2.90885254E+02   # DNL   decays
#          BR          NDA       ID1       ID2       ID3       ID4
      3.40380613E-03    2      1000022         1                       # DNL    -->  Z1SS   DN                 
      7.37157825E-04    2      1000023         1                       # DNL    -->  Z2SS   DN                 
      5.25048876E-04    2      1000025         1                       # DNL    -->  Z3SS   DN                 
      6.94154203E-02    2      1000035         1                       # DNL    -->  Z4SS   DN                 
      7.82584965E-01    2      1000021         1                       # DNL    -->  GLSS   DN                 
      1.51480839E-03    2     -1000024         2                       # DNL    -->  W1SS-  UP                 
      1.41818836E-01    2     -1000037         2                       # DNL    -->  W2SS-  UP                 
#         PDG         Width
DECAY   1000003  2.90885254E+02   # STL   decays
#          BR          NDA       ID1       ID2       ID3       ID4
      3.40380613E-03    2      1000022         3                       # STL    -->  Z1SS   ST                 
      7.37157825E-04    2      1000023         3                       # STL    -->  Z2SS   ST                 
      5.25048876E-04    2      1000025         3                       # STL    -->  Z3SS   ST                 
      6.94154203E-02    2      1000035         3                       # STL    -->  Z4SS   ST                 
      7.82584965E-01    2      1000021         3                       # STL    -->  GLSS   ST                 
      1.51480804E-03    2     -1000024         4                       # STL    -->  W1SS-  CH                 
      1.41818836E-01    2     -1000037         4                       # STL    -->  W2SS-  CH                 
#         PDG         Width
DECAY   1000004  2.90882538E+02   # CHL   decays
#          BR          NDA       ID1       ID2       ID3       ID4
      1.07183249E-03    2      1000022         4                       # CHL    -->  Z1SS   CH                 
      3.76555225E-04    2      1000023         4                       # CHL    -->  Z2SS   CH                 
      5.18113561E-03    2      1000025         4                       # CHL    -->  Z3SS   CH                 
      6.74581975E-02    2      1000035         4                       # CHL    -->  Z4SS   CH                 
      7.82469153E-01    2      1000021         4                       # CHL    -->  GLSS   CH                 
      1.02844685E-02    2      1000024         3                       # CHL    -->  W1SS+  ST                 
      1.33158609E-01    2      1000037         3                       # CHL    -->  W2SS+  ST                 
#         PDG         Width
DECAY   1000005  2.71996826E+02   # BT1   decays
#          BR          NDA       ID1       ID2       ID3       ID4
      7.81245250E-03    2      1000022         5                       # BT1    -->  Z1SS   BT                 
      5.29770693E-03    2      1000023         5                       # BT1    -->  Z2SS   BT                 
      5.66076546E-04    2      1000025         5                       # BT1    -->  Z3SS   BT                 
      5.12061901E-02    2      1000035         5                       # BT1    -->  Z4SS   BT                 
      5.10897338E-01    2      1000021         5                       # BT1    -->  GLSS   BT                 
      1.60581186E-01    2     -1000024         6                       # BT1    -->  W1SS-  TP                 
      1.16729029E-01    2     -1000037         6                       # BT1    -->  W2SS-  TP                 
      1.46708488E-01    2          -24   1000006                       # BT1    -->  W-     TP1                
      2.01563656E-04    2          -37   1000006                       # BT1    -->  H-     TP1                
#         PDG         Width
DECAY   1000006  4.07311134E+01   # TP1   decays
#          BR          NDA       ID1       ID2       ID3       ID4
      1.89651191E-01    2      1000022         6                       # TP1    -->  Z1SS   TP                 
      2.41996899E-01    2      1000023         6                       # TP1    -->  Z2SS   TP                 
      9.11581740E-02    2      1000025         6                       # TP1    -->  Z3SS   TP                 
      1.03640528E-02    2      1000035         6                       # TP1    -->  Z4SS   TP                 
      4.46464062E-01    2      1000024         5                       # TP1    -->  W1SS+  BT                 
      2.03656070E-02    2      1000037         5                       # TP1    -->  W2SS+  BT                 
#         PDG         Width
DECAY   2000002  2.47813980E+02   # UPR   decays
#          BR          NDA       ID1       ID2       ID3       ID4
      3.17155966E-03    2      1000022         2                       # UPR    -->  Z1SS   UP                 
      2.90230499E-04    2      1000023         2                       # UPR    -->  Z2SS   UP                 
      4.35861833E-02    2      1000025         2                       # UPR    -->  Z3SS   UP                 
      6.72013775E-05    2      1000035         2                       # UPR    -->  Z4SS   UP                 
      9.52884853E-01    2      1000021         2                       # UPR    -->  GLSS   UP                 
#         PDG         Width
DECAY   2000001  2.29501709E+02   # DNR   decays
#          BR          NDA       ID1       ID2       ID3       ID4
      8.27867363E-04    2      1000022         1                       # DNR    -->  Z1SS   DN                 
      7.57558373E-05    2      1000023         1                       # DNR    -->  Z2SS   DN                 
      1.13747744E-02    2      1000025         1                       # DNR    -->  Z3SS   DN                 
      1.75235455E-05    2      1000035         1                       # DNR    -->  Z4SS   DN                 
      9.87704098E-01    2      1000021         1                       # DNR    -->  GLSS   DN                 
#         PDG         Width
DECAY   2000003  2.29501709E+02   # STR   decays
#          BR          NDA       ID1       ID2       ID3       ID4
      8.27867363E-04    2      1000022         3                       # STR    -->  Z1SS   ST                 
      7.57558373E-05    2      1000023         3                       # STR    -->  Z2SS   ST                 
      1.13747744E-02    2      1000025         3                       # STR    -->  Z3SS   ST                 
      1.75235455E-05    2      1000035         3                       # STR    -->  Z4SS   ST                 
      9.87704098E-01    2      1000021         3                       # STR    -->  GLSS   ST                 
#         PDG         Width
DECAY   2000004  2.47813995E+02   # CHR   decays
#          BR          NDA       ID1       ID2       ID3       ID4
      3.17155942E-03    2      1000022         4                       # CHR    -->  Z1SS   CH                 
      2.90230470E-04    2      1000023         4                       # CHR    -->  Z2SS   CH                 
      4.35861759E-02    2      1000025         4                       # CHR    -->  Z3SS   CH                 
      6.72013703E-05    2      1000035         4                       # CHR    -->  Z4SS   CH                 
      9.52884853E-01    2      1000021         4                       # CHR    -->  GLSS   CH                 
#         PDG         Width
DECAY   2000005  2.58821472E+02   # BT2   decays
#          BR          NDA       ID1       ID2       ID3       ID4
      8.23821034E-03    2      1000022         5                       # BT2    -->  Z1SS   BT                 
      6.97790598E-03    2      1000023         5                       # BT2    -->  Z2SS   BT                 
      1.00431703E-02    2      1000025         5                       # BT2    -->  Z3SS   BT                 
      1.14985458E-04    2      1000035         5                       # BT2    -->  Z4SS   BT                 
      8.41692567E-01    2      1000021         5                       # BT2    -->  GLSS   BT                 
      1.45994052E-02    2     -1000024         6                       # BT2    -->  W1SS-  TP                 
      1.82954653E-04    2     -1000037         6                       # BT2    -->  W2SS-  TP                 
      5.05849630E-06    2          -24   1000006                       # BT2    -->  W-     TP1                
      2.98949424E-04    2          -24   2000006                       # BT2    -->  W-     TP2                
      1.44668491E-04    2           23   1000005                       # BT2    -->  Z0     BT1                
      3.14386445E-04    2           25   1000005                       # BT2    -->  HL0    BT1                
      2.88777538E-02    2           36   1000005                       # BT2    -->  HA0    BT1                
      2.86122523E-02    2           35   1000005                       # BT2    -->  HH0    BT1                
      1.25537335E-04    2          -37   1000006                       # BT2    -->  H-     TP1                
      5.97720705E-02    2          -37   2000006                       # BT2    -->  H-     TP2                
#         PDG         Width
DECAY   2000006  2.79494385E+02   # TP2   decays
#          BR          NDA       ID1       ID2       ID3       ID4
      4.86089438E-01    2      1000021         6                       # TP2    -->  GLSS   TP                 
      1.41959582E-02    2      1000024         5                       # TP2    -->  W1SS+  BT                 
      9.80347246E-02    2      1000037         5                       # TP2    -->  W2SS+  BT                 
      6.99662417E-02    2           23   1000006                       # TP2    -->  Z0     TP1                
      1.13071419E-01    2           25   1000006                       # TP2    -->  HL0    TP1                
      1.07405001E-04    2           35   1000006                       # TP2    -->  HH0    TP1                
      9.86620289E-05    2           36   1000006                       # TP2    -->  HA0    TP1                
      6.42465279E-02    2      1000022         6                       # TP2    -->  Z1SS   TP                 
      8.58099610E-02    2      1000023         6                       # TP2    -->  Z2SS   TP                 
      1.25760380E-02    2      1000025         6                       # TP2    -->  Z3SS   TP                 
      5.58036119E-02    2      1000035         6                       # TP2    -->  Z4SS   TP                 
#         PDG         Width
DECAY   1000011  6.97273407E+01   # EL-   decays
#          BR          NDA       ID1       ID2       ID3       ID4
      2.15081323E-04    2      1000022        11                       # EL-    -->  Z1SS   E-                 
      5.73856058E-04    2      1000023        11                       # EL-    -->  Z2SS   E-                 
      1.17524296E-01    2      1000025        11                       # EL-    -->  Z3SS   E-                 
      2.76673049E-01    2      1000035        11                       # EL-    -->  Z4SS   E-                 
      6.39194436E-03    2     -1000024        12                       # EL-    -->  W1SS-  NUE                
      5.98621726E-01    2     -1000037        12                       # EL-    -->  W2SS-  NUE                
#         PDG         Width
DECAY   1000013  6.97273407E+01   # MUL-  decays
#          BR          NDA       ID1       ID2       ID3       ID4
      2.15081323E-04    2      1000022        13                       # MUL-   -->  Z1SS   MU-                
      5.73856058E-04    2      1000023        13                       # MUL-   -->  Z2SS   MU-                
      1.17524296E-01    2      1000025        13                       # MUL-   -->  Z3SS   MU-                
      2.76673049E-01    2      1000035        13                       # MUL-   -->  Z4SS   MU-                
      6.39194436E-03    2     -1000024        14                       # MUL-   -->  W1SS-  NUM                
      5.98621726E-01    2     -1000037        14                       # MUL-   -->  W2SS-  NUM                
#         PDG         Width
DECAY   1000015  2.80389404E+01   # TAU1- decays
#          BR          NDA       ID1       ID2       ID3       ID4
      9.79749188E-02    2      1000022        15                       # TAU1-  -->  Z1SS   TAU-               
      4.17262353E-02    2      1000023        15                       # TAU1-  -->  Z2SS   TAU-               
      7.79594421E-01    2      1000025        15                       # TAU1-  -->  Z3SS   TAU-               
      1.41250365E-03    2      1000035        15                       # TAU1-  -->  Z4SS   TAU-               
      7.89091215E-02    2     -1000024        16                       # TAU1-  -->  W1SS-  NUT                
      3.82856990E-04    2     -1000037        16                       # TAU1-  -->  W2SS-  NUT                
#         PDG         Width
DECAY   1000012  6.98172226E+01   # NUEL  decays
#          BR          NDA       ID1       ID2       ID3       ID4
      2.97228787E-02    2      1000022        12                       # NUEL   -->  Z1SS   NUE                
      5.13631338E-03    2      1000023        12                       # NUEL   -->  Z2SS   NUE                
      5.85508421E-02    2      1000025        12                       # NUEL   -->  Z3SS   NUE                
      3.01253617E-01    2      1000035        12                       # NUEL   -->  Z4SS   NUE                
      4.33864333E-02    2      1000024        11                       # NUEL   -->  W1SS+  E-                 
      5.61949909E-01    2      1000037        11                       # NUEL   -->  W2SS+  E-                 
#         PDG         Width
DECAY   1000014  6.98172226E+01   # NUML  decays
#          BR          NDA       ID1       ID2       ID3       ID4
      2.97228787E-02    2      1000022        14                       # NUML   -->  Z1SS   NUM                
      5.13631338E-03    2      1000023        14                       # NUML   -->  Z2SS   NUM                
      5.85508421E-02    2      1000025        14                       # NUML   -->  Z3SS   NUM                
      3.01253617E-01    2      1000035        14                       # NUML   -->  Z4SS   NUM                
      4.33864333E-02    2      1000024        13                       # NUML   -->  W1SS+  MU-                
      5.61949909E-01    2      1000037        13                       # NUML   -->  W2SS+  MU-                
#         PDG         Width
DECAY   1000016  7.11612396E+01   # NUTL  decays
#          BR          NDA       ID1       ID2       ID3       ID4
      2.87303347E-02    2      1000022        16                       # NUTL   -->  Z1SS   NUT                
      4.96471813E-03    2      1000023        16                       # NUTL   -->  Z2SS   NUT                
      5.65901287E-02    2      1000025        16                       # NUTL   -->  Z3SS   NUT                
      2.91059554E-01    2      1000035        16                       # NUTL   -->  Z4SS   NUT                
      7.52014443E-02    2      1000024        15                       # NUTL   -->  W1SS+  TAU-               
      5.43291688E-01    2      1000037        15                       # NUTL   -->  W2SS+  TAU-               
      1.62092358E-04    2           24   1000015                       # NUTL   -->  W+     TAU1-              
#         PDG         Width
DECAY   2000011  2.44159203E+01   # ER-   decays
#          BR          NDA       ID1       ID2       ID3       ID4
      6.73456341E-02    2      1000022        11                       # ER-    -->  Z1SS   E-                 
      6.16234727E-03    2      1000023        11                       # ER-    -->  Z2SS   E-                 
      9.25068259E-01    2      1000025        11                       # ER-    -->  Z3SS   E-                 
      1.42368488E-03    2      1000035        11                       # ER-    -->  Z4SS   E-                 
#         PDG         Width
DECAY   2000013  2.44159203E+01   # MUR-  decays
#          BR          NDA       ID1       ID2       ID3       ID4
      6.73456341E-02    2      1000022        13                       # MUR-   -->  Z1SS   MU-                
      6.16234727E-03    2      1000023        13                       # MUR-   -->  Z2SS   MU-                
      9.25068259E-01    2      1000025        13                       # MUR-   -->  Z3SS   MU-                
      1.42368488E-03    2      1000035        13                       # MUR-   -->  Z4SS   MU-                
#         PDG         Width
DECAY   2000015  7.10421677E+01   # TAU2- decays
#          BR          NDA       ID1       ID2       ID3       ID4
      1.70594752E-02    2      1000022        15                       # TAU2-  -->  Z1SS   TAU-               
      1.63369365E-02    2      1000023        15                       # TAU2-  -->  Z2SS   TAU-               
      1.14301667E-01    2      1000025        15                       # TAU2-  -->  Z3SS   TAU-               
      2.67621338E-01    2      1000035        15                       # TAU2-  -->  Z4SS   TAU-               
      5.96126122E-03    2     -1000024        16                       # TAU2-  -->  W1SS-  NUT                
      5.78606129E-01    2     -1000037        16                       # TAU2-  -->  W2SS-  NUT                
      7.61640986E-05    2           23   1000015                       # TAU2-  -->  Z0     TAU1-              
      3.69985792E-05    2           25   1000015                       # TAU2-  -->  HL0    TAU1-              
#         PDG         Width
DECAY   1000023  8.46439798E-06   # Z2SS  decays
#          BR          NDA       ID1       ID2       ID3       ID4
      2.54953536E-03    2      1000022        22                       # Z2SS   -->  Z1SS   GM                 
      2.34890636E-03    3     -1000024         2        -1             # Z2SS   -->  W1SS-  UP     DB          
      7.82968826E-04    3     -1000024        12       -11             # Z2SS   -->  W1SS-  NUE    E+          
      7.82968826E-04    3     -1000024        14       -13             # Z2SS   -->  W1SS-  NUM    MU+         
      2.34890636E-03    3      1000024         1        -2             # Z2SS   -->  W1SS+  DN     UB          
      7.82968826E-04    3      1000024        11       -12             # Z2SS   -->  W1SS+  E-     ANUE        
      7.82968826E-04    3      1000024        13       -14             # Z2SS   -->  W1SS+  MU-    ANUM        
      2.34890636E-03    3     -1000024         4        -3             # Z2SS   -->  W1SS-  CH     SB          
      7.82968826E-04    3     -1000024        16       -15             # Z2SS   -->  W1SS-  NUT    TAU+        
      2.34890636E-03    3      1000024         3        -4             # Z2SS   -->  W1SS+  ST     CB          
      7.82968826E-04    3      1000024        15       -16             # Z2SS   -->  W1SS+  TAU-   ANUT        
      1.22438274E-01    3      1000022         2        -2             # Z2SS   -->  Z1SS   UP     UB          
      1.57881498E-01    3      1000022         1        -1             # Z2SS   -->  Z1SS   DN     DB          
      1.57881498E-01    3      1000022         3        -3             # Z2SS   -->  Z1SS   ST     SB          
      1.22438274E-01    3      1000022         4        -4             # Z2SS   -->  Z1SS   CH     CB          
      1.03816174E-01    3      1000022         5        -5             # Z2SS   -->  Z1SS   BT     BB          
      3.58153358E-02    3      1000022        11       -11             # Z2SS   -->  Z1SS   E-     E+          
      3.58153358E-02    3      1000022        13       -13             # Z2SS   -->  Z1SS   MU-    MU+         
      3.34794410E-02    3      1000022        15       -15             # Z2SS   -->  Z1SS   TAU-   TAU+        
      7.12636933E-02    3      1000022        12       -12             # Z2SS   -->  Z1SS   NUE    ANUE        
      7.12636933E-02    3      1000022        14       -14             # Z2SS   -->  Z1SS   NUM    ANUM        
      7.12637380E-02    3      1000022        16       -16             # Z2SS   -->  Z1SS   NUT    ANUT        
#         PDG         Width
DECAY   1000025  7.63281211E-02   # Z3SS  decays
#          BR          NDA       ID1       ID2       ID3       ID4
      9.26012831E-08    2      1000022        22                       # Z3SS   -->  Z1SS   GM                 
      1.12960241E-09    2      1000023        22                       # Z3SS   -->  Z2SS   GM                 
      4.64934647E-01    2      1000024       -24                       # Z3SS   -->  W1SS+  W-                 
      4.64934647E-01    2     -1000024        24                       # Z3SS   -->  W1SS-  W+                 
      5.54328896E-02    2      1000022        23                       # Z3SS   -->  Z1SS   Z0                 
      1.46913305E-02    2      1000023        23                       # Z3SS   -->  Z2SS   Z0                 
      8.81279494E-11    3      1000022         2        -2             # Z3SS   -->  Z1SS   UP     UB          
      7.67160554E-12    3      1000022         1        -1             # Z3SS   -->  Z1SS   DN     DB          
      7.67160554E-12    3      1000022         3        -3             # Z3SS   -->  Z1SS   ST     SB          
      8.81279147E-11    3      1000022         4        -4             # Z3SS   -->  Z1SS   CH     CB          
      5.26401072E-06    3      1000022         5        -5             # Z3SS   -->  Z1SS   BT     BB          
      1.86970314E-10    3      1000022        11       -11             # Z3SS   -->  Z1SS   E-     E+          
      1.86970314E-10    3      1000022        13       -13             # Z3SS   -->  Z1SS   MU-    MU+         
      1.06919163E-06    3      1000022        15       -15             # Z3SS   -->  Z1SS   TAU-   TAU+        
      3.06325729E-11    3      1000022        12       -12             # Z3SS   -->  Z1SS   NUE    ANUE        
      3.06325729E-11    3      1000022        14       -14             # Z3SS   -->  Z1SS   NUM    ANUM        
      3.25116774E-11    3      1000022        16       -16             # Z3SS   -->  Z1SS   NUT    ANUT        
      1.30074131E-12    3      1000023         2        -2             # Z3SS   -->  Z2SS   UP     UB          
      1.26467630E-13    3      1000023         1        -1             # Z3SS   -->  Z2SS   DN     DB          
      1.26467630E-13    3      1000023         3        -3             # Z3SS   -->  Z2SS   ST     SB          
      1.30074087E-12    3      1000023         4        -4             # Z3SS   -->  Z2SS   CH     CB          
      2.15858851E-08    3      1000023         5        -5             # Z3SS   -->  Z2SS   BT     BB          
      2.50290348E-12    3      1000023        11       -11             # Z3SS   -->  Z2SS   E-     E+          
      2.50290348E-12    3      1000023        13       -13             # Z3SS   -->  Z2SS   MU-    MU+         
      4.52410820E-09    3      1000023        15       -15             # Z3SS   -->  Z2SS   TAU-   TAU+        
      7.25577584E-13    3      1000023        12       -12             # Z3SS   -->  Z2SS   NUE    ANUE        
      7.25577584E-13    3      1000023        14       -14             # Z3SS   -->  Z2SS   NUM    ANUM        
      7.70097311E-13    3      1000023        16       -16             # Z3SS   -->  Z2SS   NUT    ANUT        
#         PDG         Width
DECAY   1000035  3.36417699E+00   # Z4SS  decays
#          BR          NDA       ID1       ID2       ID3       ID4
      1.73532965E-06    2      1000022        22                       # Z4SS   -->  Z1SS   GM                 
      3.90332207E-06    2      1000023        22                       # Z4SS   -->  Z2SS   GM                 
      2.80608958E-07    2      1000025        22                       # Z4SS   -->  Z3SS   GM                 
      2.56940752E-01    2      1000024       -24                       # Z4SS   -->  W1SS+  W-                 
      2.56940752E-01    2     -1000024        24                       # Z4SS   -->  W1SS-  W+                 
      3.30455769E-08    3     -1000037         2        -1             # Z4SS   -->  W2SS-  UP     DB          
      1.10151932E-08    3     -1000037        12       -11             # Z4SS   -->  W2SS-  NUE    E+          
      1.10151932E-08    3     -1000037        14       -13             # Z4SS   -->  W2SS-  NUM    MU+         
      3.30455769E-08    3      1000037         1        -2             # Z4SS   -->  W2SS+  DN     UB          
      1.10151932E-08    3      1000037        11       -12             # Z4SS   -->  W2SS+  E-     ANUE        
      1.10151932E-08    3      1000037        13       -14             # Z4SS   -->  W2SS+  MU-    ANUM        
      3.30455769E-08    3     -1000037         4        -3             # Z4SS   -->  W2SS-  CH     SB          
      1.10151932E-08    3     -1000037        16       -15             # Z4SS   -->  W2SS-  NUT    TAU+        
      3.30455769E-08    3      1000037         3        -4             # Z4SS   -->  W2SS+  ST     CB          
      1.10151932E-08    3      1000037        15       -16             # Z4SS   -->  W2SS+  TAU-   ANUT        
      3.64657640E-02    2      1000022        23                       # Z4SS   -->  Z1SS   Z0                 
      2.31161848E-01    2      1000023        23                       # Z4SS   -->  Z2SS   Z0                 
      4.66344180E-03    2      1000025        23                       # Z4SS   -->  Z3SS   Z0                 
      1.55485055E-10    3      1000022         2        -2             # Z4SS   -->  Z1SS   UP     UB          
      5.06830466E-10    3      1000022         1        -1             # Z4SS   -->  Z1SS   DN     DB          
      5.06830466E-10    3      1000022         3        -3             # Z4SS   -->  Z1SS   ST     SB          
      1.55485000E-10    3      1000022         4        -4             # Z4SS   -->  Z1SS   CH     CB          
      5.30010595E-07    3      1000022         5        -5             # Z4SS   -->  Z1SS   BT     BB          
      2.90682170E-12    3      1000022        11       -11             # Z4SS   -->  Z1SS   E-     E+          
      2.90682170E-12    3      1000022        13       -13             # Z4SS   -->  Z1SS   MU-    MU+         
      1.01966535E-07    3      1000022        15       -15             # Z4SS   -->  Z1SS   TAU-   TAU+        
      3.42345069E-10    3      1000022        12       -12             # Z4SS   -->  Z1SS   NUE    ANUE        
      3.42345069E-10    3      1000022        14       -14             # Z4SS   -->  Z1SS   NUM    ANUM        
      3.63396896E-10    3      1000022        16       -16             # Z4SS   -->  Z1SS   NUT    ANUT        
      2.05803881E-11    3      1000023         2        -2             # Z4SS   -->  Z2SS   UP     UB          
      4.14079084E-11    3      1000023         1        -1             # Z4SS   -->  Z2SS   DN     DB          
      4.14079084E-11    3      1000023         3        -3             # Z4SS   -->  Z2SS   ST     SB          
      2.05803811E-11    3      1000023         4        -4             # Z4SS   -->  Z2SS   CH     CB          
      4.13490852E-07    3      1000023         5        -5             # Z4SS   -->  Z2SS   BT     BB          
      2.31849435E-12    3      1000023        11       -11             # Z4SS   -->  Z2SS   E-     E+          
      2.31849435E-12    3      1000023        13       -13             # Z4SS   -->  Z2SS   MU-    MU+         
      7.99043249E-08    3      1000023        15       -15             # Z4SS   -->  Z2SS   TAU-   TAU+        
      2.23171238E-11    3      1000023        12       -12             # Z4SS   -->  Z2SS   NUE    ANUE        
      2.23171238E-11    3      1000023        14       -14             # Z4SS   -->  Z2SS   NUM    ANUM        
      2.36905062E-11    3      1000023        16       -16             # Z4SS   -->  Z2SS   NUT    ANUT        
      1.91691635E-10    3      1000025         2        -2             # Z4SS   -->  Z3SS   UP     UB          
      1.99426396E-11    3      1000025         1        -1             # Z4SS   -->  Z3SS   DN     DB          
      1.99426396E-11    3      1000025         3        -3             # Z4SS   -->  Z3SS   ST     SB          
      1.91691565E-10    3      1000025         4        -4             # Z4SS   -->  Z3SS   CH     CB          
      5.72815617E-09    3      1000025         5        -5             # Z4SS   -->  Z3SS   BT     BB          
      3.19135385E-10    3      1000025        11       -11             # Z4SS   -->  Z3SS   E-     E+          
      3.19135385E-10    3      1000025        13       -13             # Z4SS   -->  Z3SS   MU-    MU+         
      1.43955325E-09    3      1000025        15       -15             # Z4SS   -->  Z3SS   TAU-   TAU+        
      1.71411496E-10    3      1000025        12       -12             # Z4SS   -->  Z3SS   NUE    ANUE        
      1.71411496E-10    3      1000025        14       -14             # Z4SS   -->  Z3SS   NUM    ANUM        
      1.81965470E-10    3      1000025        16       -16             # Z4SS   -->  Z3SS   NUT    ANUT        
      1.36095211E-01    2      1000022        25                       # Z4SS   -->  Z1SS   HL0                
      3.98732461E-02    2      1000023        25                       # Z4SS   -->  Z2SS   HL0                
      3.78518365E-02    2      1000025        25                       # Z4SS   -->  Z3SS   HL0                
#         PDG         Width
DECAY   1000024  1.61600087E-06   # W1SS+ decays
#          BR          NDA       ID1       ID2       ID3       ID4
      3.33332062E-01    3      1000022         2        -1             # W1SS+  -->  Z1SS   UP     DB          
      3.33332062E-01    3      1000022         4        -3             # W1SS+  -->  Z1SS   CH     SB          
      1.11111216E-01    3      1000022       -11        12             # W1SS+  -->  Z1SS   E+     NUE         
      1.11111216E-01    3      1000022       -13        14             # W1SS+  -->  Z1SS   MU+    NUM         
      1.11113407E-01    3      1000022       -15        16             # W1SS+  -->  Z1SS   TAU+   NUT         
#         PDG         Width
DECAY   1000037  3.29533839E+00   # W2SS+ decays
#          BR          NDA       ID1       ID2       ID3       ID4
      3.25966226E-10    3      1000022         2        -1             # W2SS+  -->  Z1SS   UP     DB          
      3.25966171E-10    3      1000022         4        -3             # W2SS+  -->  Z1SS   CH     SB          
      2.05245695E-10    3      1000022       -11        12             # W2SS+  -->  Z1SS   E+     NUE         
      2.05245695E-10    3      1000022       -13        14             # W2SS+  -->  Z1SS   MU+    NUM         
      9.87343896E-08    3      1000022       -15        16             # W2SS+  -->  Z1SS   TAU+   NUT         
      2.17428252E-01    2      1000022        24                       # W2SS+  -->  Z1SS   W+                 
      1.20518318E-10    3      1000023         2        -1             # W2SS+  -->  Z2SS   UP     DB          
      1.20518290E-10    3      1000023         4        -3             # W2SS+  -->  Z2SS   CH     SB          
      4.08851668E-11    3      1000023       -11        12             # W2SS+  -->  Z2SS   E+     NUE         
      4.08851668E-11    3      1000023       -13        14             # W2SS+  -->  Z2SS   MU+    NUM         
      6.71312606E-08    3      1000023       -15        16             # W2SS+  -->  Z2SS   TAU+   NUT         
      2.60487467E-01    2      1000023        24                       # W2SS+  -->  Z2SS   W+                 
      1.53929938E-10    3      1000025         2        -1             # W2SS+  -->  Z3SS   UP     DB          
      1.53929869E-10    3      1000025         4        -3             # W2SS+  -->  Z3SS   CH     SB          
      4.16255586E-10    3      1000025       -11        12             # W2SS+  -->  Z3SS   E+     NUE         
      4.16255586E-10    3      1000025       -13        14             # W2SS+  -->  Z3SS   MU+    NUM         
      1.50942758E-09    3      1000025       -15        16             # W2SS+  -->  Z3SS   TAU+   NUT         
      4.99460213E-02    2      1000025        24                       # W2SS+  -->  Z3SS   W+                 
      2.45347679E-01    2      1000024        23                       # W2SS+  -->  W1SS+  Z0                 
      8.58803972E-10    3      1000024         1        -1             # W2SS+  -->  W1SS+  DN     DB          
      8.58803584E-10    3      1000024         3        -3             # W2SS+  -->  W1SS+  ST     SB          
      1.34618858E-10    3      1000024         2        -2             # W2SS+  -->  W1SS+  UP     UB          
      1.34618858E-10    3      1000024         4        -4             # W2SS+  -->  W1SS+  CH     CB          
      4.28683165E-11    3      1000024        12       -12             # W2SS+  -->  W1SS+  NUE    ANUE        
      4.28683165E-11    3      1000024        14       -14             # W2SS+  -->  W1SS+  NUM    ANUM        
      6.09986436E-11    3      1000024        16       -16             # W2SS+  -->  W1SS+  NUT    ANUT        
      2.72321388E-10    3      1000024        11       -11             # W2SS+  -->  W1SS+  E-     E+          
      2.72321388E-10    3      1000024        13       -13             # W2SS+  -->  W1SS+  MU-    MU+         
      2.89070212E-10    3      1000024        15       -15             # W2SS+  -->  W1SS+  TAU-   TAU+        
      2.26790369E-01    2      1000024        25                       # W2SS+  -->  W1SS+  HL0                
#         PDG         Width
DECAY        25  3.83243617E-03   # HL0   decays
#          BR          NDA       ID1       ID2       ID3       ID4
      5.77268233E-09    2           11       -11                       # HL0    -->  E-     E+                 
      2.43732022E-04    2           13       -13                       # HL0    -->  MU-    MU+                
      6.97233528E-02    2           15       -15                       # HL0    -->  TAU-   TAU+               
      7.23689845E-06    2            1        -1                       # HL0    -->  DN     DB                 
      2.92407023E-03    2            3        -3                       # HL0    -->  ST     SB                 
      6.26470387E-01    2            5        -5                       # HL0    -->  BT     BB                 
      2.21112282E-06    2            2        -2                       # HL0    -->  UP     UB                 
      4.11307551E-02    2            4        -4                       # HL0    -->  CH     CB                 
      2.69846618E-03    2           22        22                       # HL0    -->  GM     GM                 
      5.25815971E-02    2           21        21                       # HL0    -->  GL     GL                 
      1.02283023E-02    3           24        11       -12             # HL0    -->  W+     E-     ANUE        
      1.02283023E-02    3           24        13       -14             # HL0    -->  W+     MU-    ANUM        
      1.02283023E-02    3           24        15       -16             # HL0    -->  W+     TAU-   ANUT        
      3.06849070E-02    3           24        -2         1             # HL0    -->  W+     UB     DN          
      3.06849070E-02    3           24        -4         3             # HL0    -->  W+     CB     ST          
      1.02283023E-02    3          -24       -11        12             # HL0    -->  W-     E+     NUE         
      1.02283023E-02    3          -24       -13        14             # HL0    -->  W-     MU+    NUM         
      1.02283023E-02    3          -24       -15        16             # HL0    -->  W-     TAU+   NUT         
      3.06849070E-02    3          -24         2        -1             # HL0    -->  W-     UP     DB          
      3.06849070E-02    3          -24         4        -3             # HL0    -->  W-     CH     SB          
      1.37523806E-03    3           23        12       -12             # HL0    -->  Z0     NUE    ANUE        
      1.37523806E-03    3           23        14       -14             # HL0    -->  Z0     NUM    ANUM        
      1.37523806E-03    3           23        16       -16             # HL0    -->  Z0     NUT    ANUT        
      6.92143571E-04    3           23        11       -11             # HL0    -->  Z0     E-     E+          
      6.92143571E-04    3           23        13       -13             # HL0    -->  Z0     MU-    MU+         
      6.92143571E-04    3           23        15       -15             # HL0    -->  Z0     TAU-   TAU+        
      2.37122527E-03    3           23         2        -2             # HL0    -->  Z0     UP     UB          
      2.37122527E-03    3           23         4        -4             # HL0    -->  Z0     CH     CB          
      3.05472221E-03    3           23         1        -1             # HL0    -->  Z0     DN     DB          
      3.05472221E-03    3           23         3        -3             # HL0    -->  Z0     ST     SB          
      3.05472221E-03    3           23         5        -5             # HL0    -->  Z0     BT     BB          
#         PDG         Width
DECAY        35  1.27061348E+01   # HH0   decays
#          BR          NDA       ID1       ID2       ID3       ID4
      3.02870351E-09    2           11       -11                       # HH0    -->  E-     E+                 
      1.27877312E-04    2           13       -13                       # HH0    -->  MU-    MU+                
      3.66253406E-02    2           15       -15                       # HH0    -->  TAU-   TAU+               
      3.71017541E-06    2            1        -1                       # HH0    -->  DN     DB                 
      1.49909873E-03    2            3        -3                       # HH0    -->  ST     SB                 
      2.25337505E-01    2            5        -5                       # HH0    -->  BT     BB                 
      2.45573527E-11    2            2        -2                       # HH0    -->  UP     UB                 
      3.45841045E-07    2            4        -4                       # HH0    -->  CH     CB                 
      1.57764405E-02    2            6        -6                       # HH0    -->  TP     TB                 
      3.58164328E-07    2           22        22                       # HH0    -->  GM     GM                 
      7.82586812E-06    2           21        21                       # HH0    -->  GL     GL                 
      6.03600711E-05    2           24       -24                       # HH0    -->  W+     W-                 
      3.06457805E-05    2           23        23                       # HH0    -->  Z0     Z0                 
      2.68351678E-02    2      1000022   1000022                       # HH0    -->  Z1SS   Z1SS               
      6.35038689E-03    2      1000022   1000023                       # HH0    -->  Z1SS   Z2SS               
      1.79840922E-02    2      1000022   1000025                       # HH0    -->  Z1SS   Z3SS               
      7.38302022E-02    2      1000022   1000035                       # HH0    -->  Z1SS   Z4SS               
      5.27111208E-03    2      1000023   1000023                       # HH0    -->  Z2SS   Z2SS               
      3.42188701E-02    2      1000023   1000025                       # HH0    -->  Z2SS   Z3SS               
      1.24437004E-01    2      1000023   1000035                       # HH0    -->  Z2SS   Z4SS               
      1.24686863E-03    2      1000025   1000025                       # HH0    -->  Z3SS   Z3SS               
      2.64887256E-03    2      1000025   1000035                       # HH0    -->  Z3SS   Z4SS               
      1.86743739E-04    2      1000035   1000035                       # HH0    -->  Z4SS   Z4SS               
      3.97090539E-02    2      1000024  -1000024                       # HH0    -->  W1SS+  W1SS-              
      4.01726487E-04    2      1000037  -1000037                       # HH0    -->  W2SS+  W2SS-              
      1.93598151E-01    2      1000024  -1000037                       # HH0    -->  W1SS+  W2SS-              
      1.93598151E-01    2     -1000024   1000037                       # HH0    -->  W1SS-  W2SS+              
      2.14041909E-04    2           25        25                       # HH0    -->  HL0    HL0                
#         PDG         Width
DECAY        36  1.25477343E+01   # HA0   decays
#          BR          NDA       ID1       ID2       ID3       ID4
      3.04726289E-09    2           11       -11                       # HA0    -->  E-     E+                 
      1.28660933E-04    2           13       -13                       # HA0    -->  MU-    MU+                
      3.68502326E-02    2           15       -15                       # HA0    -->  TAU-   TAU+               
      3.73311650E-06    2            1        -1                       # HA0    -->  DN     DB                 
      1.50836806E-03    2            3        -3                       # HA0    -->  ST     SB                 
      2.26740986E-01    2            5        -5                       # HA0    -->  BT     BB                 
      2.35946436E-11    2            2        -2                       # HA0    -->  UP     UB                 
      3.32544658E-07    2            4        -4                       # HA0    -->  CH     CB                 
      1.68497935E-02    2            6        -6                       # HA0    -->  TP     TB                 
      8.40860821E-07    2           22        22                       # HA0    -->  GM     GM                 
      2.47264798E-05    2           21        21                       # HA0    -->  GL     GL                 
      3.60694118E-02    2      1000022   1000022                       # HA0    -->  Z1SS   Z1SS               
      2.98558059E-03    2      1000022   1000023                       # HA0    -->  Z1SS   Z2SS               
      2.48499699E-02    2      1000022   1000025                       # HA0    -->  Z1SS   Z3SS               
      1.20256864E-01    2      1000022   1000035                       # HA0    -->  Z1SS   Z4SS               
      4.31777397E-03    2      1000023   1000023                       # HA0    -->  Z2SS   Z2SS               
      2.33360622E-02    2      1000023   1000025                       # HA0    -->  Z2SS   Z3SS               
      6.77793548E-02    2      1000023   1000035                       # HA0    -->  Z2SS   Z4SS               
      2.49579479E-03    2      1000025   1000025                       # HA0    -->  Z3SS   Z3SS               
      7.82048609E-03    2      1000025   1000035                       # HA0    -->  Z3SS   Z4SS               
      2.10254826E-03    2      1000035   1000035                       # HA0    -->  Z4SS   Z4SS               
      4.73763123E-02    2      1000024  -1000024                       # HA0    -->  W1SS+  W1SS-              
      3.97849828E-03    2      1000037  -1000037                       # HA0    -->  W2SS+  W2SS-              
      1.87232524E-01    2      1000024  -1000037                       # HA0    -->  W1SS+  W2SS-              
      1.87232524E-01    2     -1000024   1000037                       # HA0    -->  W1SS-  W2SS+              
      5.86364804E-05    2           25        23                       # HA0    -->  HL0    Z0                 
#         PDG         Width
DECAY        37  1.21173534E+01   # H+    decays
#          BR          NDA       ID1       ID2       ID3       ID4
      3.16568283E-09    2           12       -11                       # H+     -->  NUE    E+                 
      1.33660840E-04    2           14       -13                       # H+     -->  NUM    MU+                
      3.82822752E-02    2           16       -15                       # H+     -->  NUT    TAU+               
      3.56467581E-06    2            2        -1                       # H+     -->  UP     DB                 
      1.44061237E-03    2            4        -3                       # H+     -->  CH     SB                 
      2.19167709E-01    2            6        -5                       # H+     -->  TP     BB                 
      2.01212964E-03    2      1000024   1000022                       # H+     -->  W1SS+  Z1SS               
      6.56998437E-03    2      1000024   1000023                       # H+     -->  W1SS+  Z2SS               
      1.07593387E-01    2      1000024   1000025                       # H+     -->  W1SS+  Z3SS               
      1.95633426E-01    2      1000024   1000035                       # H+     -->  W1SS+  Z4SS               
      2.20712259E-01    2      1000037   1000022                       # H+     -->  W2SS+  Z1SS               
      1.95660159E-01    2      1000037   1000023                       # H+     -->  W2SS+  Z2SS               
      1.27224093E-02    2      1000037   1000025                       # H+     -->  W2SS+  Z3SS               
      7.54290659E-06    2      1000037   1000035                       # H+     -->  W2SS+  Z4SS               
      6.08918344E-05    2           25        24                       # H+     -->  HL0    W+                 
