#  ISAJET SUSY parameters in SUSY Les Houches Accord 2 format
#  Created by ISALHA 2.0 Last revision: H Baer 27 May 2014
Block SPINFO   # Program information
     1   ISASUGRA/ISASUSY from ISAJET   # Spectrum Calculator
     2   7.85   04-NOV-2015 13:42:47    # Version number
Block MODSEL   # Model selection
     1     2   # Minimal gauge mediated (GMSB) model               
Block SMINPUTS   # Standard Model inputs
     1     1.28000000E+02   # alpha_em^(-1)
     2     1.16570000E-05   # G_Fermi
     3     1.19999997E-01   # alpha_s(M_Z)
     4     9.11699982E+01   # m_{Z}(pole)
     5     4.19999981E+00   # m_{b}(m_{b})
     6     1.73000000E+02   # m_{top}(pole)
     7     1.77699995E+00   # m_{tau}(pole)
Block MINPAR   # SUSY breaking input parameters
     1     2.75000000E+05   # Lambda scale of soft SSB
     2     5.00000000E+05   # M_mess overall messenger scale
     3     4.30000000E+01   # tan(beta)
     4     1.00000000E+00   # sign(mu)
     5     1.00000000E+00   # N_5 messenger index
     6     1.00000000E+05   # c_grav gravitino mass factor
    51     1.00000000E+00   # N5_1  U(1)_Y messenger index
    52     1.00000000E+00   # N5_2 SU(2)_L messenger index
    53     1.00000000E+00   # N5_3 SU(3)_C messenger index
   101     1.00000000E+00   # Rsl
   102     0.00000000E+00   # dmH_d^2
   103     0.00000000E+00   # dmH_u^2
   104     0.00000000E+00   # d_Y
Block MASS   # Scalar and gaugino mass spectrum
#  PDG code   mass                 particle
         6     1.73000000E+02   #  top            
        24     8.04229965E+01   #  W^+
        25     1.19042191E+02   #  h^0            
        35     1.08191528E+03   #  H^0            
        36     1.07483093E+03   #  A^0            
        37     1.08542810E+03   #  H^+            
   1000001     2.86403955E+03   #  dnl            
   1000002     2.86290283E+03   #  upl            
   1000003     2.86403955E+03   #  stl            
   1000004     2.86290332E+03   #  chl            
   1000005     2.62563452E+03   #  b1             
   1000006     2.48224243E+03   #  t1             
   1000011     9.67390747E+02   #  el-            
   1000012     9.59349243E+02   #  nuel           
   1000013     9.67390808E+02   #  mul-           
   1000014     9.59349243E+02   #  numl           
   1000015     4.08593933E+02   #  tau1           
   1000016     9.43251770E+02   #  nutl           
   1000021     2.10635107E+03   #  glss           
   1000022     3.98353210E+02   #  z1ss           
   1000023     7.61912354E+02   #  z2ss           
   1000024     7.62546326E+02   #  w1ss           
   1000025    -9.91390686E+02   #  z3ss           
   1000035     1.00367059E+03   #  z4ss           
   1000037     1.00412170E+03   #  w2ss           
   1000039     3.30773601E-03   #  gvss
   2000001     2.71526074E+03   #  dnr            
   2000002     2.72905591E+03   #  upr            
   2000003     2.71526074E+03   #  str            
   2000004     2.72905640E+03   #  chr            
   2000005     2.72306836E+03   #  b2             
   2000006     2.73734180E+03   #  t2             
   2000011     4.78357788E+02   #  er-            
   2000013     4.78357819E+02   #  mur-           
   2000015     9.53173950E+02   #  tau2           
Block ALPHA   # Effective Higgs mixing parameter
         -2.36649849E-02   # alpha
Block STOPMIX   # stop mixing matrix
  1  1     3.95183899E-02   # O_{11}
  1  2     9.99218822E-01   # O_{12}
  2  1    -9.99218822E-01   # O_{21}
  2  2     3.95183899E-02   # O_{22}
Block SBOTMIX   # sbottom mixing matrix
  1  1     2.20357925E-01   # O_{11}
  1  2     9.75419104E-01   # O_{12}
  2  1    -9.75419104E-01   # O_{21}
  2  2     2.20357925E-01   # O_{22}
Block STAUMIX   # stau mixing matrix
  1  1     9.64167416E-02   # O_{11}
  1  2     9.95341063E-01   # O_{12}
  2  1    -9.95341063E-01   # O_{21}
  2  2     9.64167416E-02   # O_{22}
Block NMIX   # neutralino mixing matrix
  1  1     9.98407304E-01   #
  1  2    -5.05185314E-03   #
  1  3     5.19908965E-02   #
  1  4    -2.13092044E-02   #
  2  1     1.75020210E-02   #
  2  2     9.72513855E-01   #
  2  3    -1.83067232E-01   #
  2  4     1.42816916E-01   #
  3  1     2.15054806E-02   #
  3  2    -2.93521862E-02   #
  3  3    -7.05799460E-01   #
  3  4    -7.07476318E-01   #
  4  1     4.91310060E-02   #
  4  2    -2.30931938E-01   #
  4  3    -6.82371080E-01   #
  4  4     6.91828012E-01   #
Block UMIX   # chargino U mixing matrix
  1  1    -9.67470884E-01   # U_{11}
  1  2     2.52982378E-01   # U_{12}
  2  1    -2.52982378E-01   # U_{21}
  2  2    -9.67470884E-01   # U_{22}
Block VMIX   # chargino V mixing matrix
  1  1    -9.80462313E-01   # V_{11}
  1  2     1.96707040E-01   # V_{12}
  2  1    -1.96707040E-01   # V_{21}
  2  2    -9.80462313E-01   # V_{22}
Block GAUGE Q=  2.52603882E+03   #
     1     3.57524991E-01   # g`
     2     6.52378619E-01   # g_2
     3     1.21928000E+00   # g_3
Block YU Q=  2.52603882E+03   #
  3  3     8.38043451E-01   # y_t
Block YD Q=  2.52603882E+03   #
  3  3     5.02782404E-01   # y_b
Block YE Q=  2.52603882E+03   #
  3  3     4.63050663E-01   # y_tau
Block HMIX Q=  2.52603882E+03   # Higgs mixing parameters
     1     9.80118042E+02   # mu(Q)
     2     4.21498489E+01   # tan(beta)(Q)
     3     2.51665970E+02   # Higgs vev at Q
     4     1.15526150E+06   # m_A^2(Q)
Block MSOFT Q=  2.52603882E+03   # DRbar SUSY breaking parameters
     1     4.06484436E+02   # M_1(Q)          
     2     7.45188354E+02   # M_2(Q)          
     3     1.91457153E+03   # M_3(Q)          
    21     2.64374250E+05   # MHd^2(Q)        
    22    -8.02330688E+05   # MHu^2(Q)        
    31     9.59315674E+02   # MeL(Q)          
    32     9.59315674E+02   # MmuL(Q)         
    33     9.43546875E+02   # MtauL(Q)        
    34     4.76504303E+02   # MeR(Q)          
    35     4.76504303E+02   # MmuR(Q)         
    36     4.24259521E+02   # MtauR(Q)        
    41     2.76907715E+03   # MqL1(Q)         
    42     2.76907715E+03   # MqL2(Q)         
    43     2.63708057E+03   # MqL3(Q)         
    44     2.63310547E+03   # MuR(Q)          
    45     2.63310547E+03   # McR(Q)          
    46     2.41967261E+03   # MtR(Q)          
    47     2.61874072E+03   # MdR(Q)          
    48     2.61874072E+03   # MsR(Q)          
    49     2.54294214E+03   # MbR(Q)          
Block AU Q=  2.52603882E+03   #
  1  1    -5.54848633E+02   # A_u
  2  2    -5.54848633E+02   # A_c
  3  3    -5.54848633E+02   # A_t
Block AD Q=  2.52603882E+03   #
  1  1    -5.95675964E+02   # A_d
  2  2    -5.95675964E+02   # A_s
  3  3    -5.95675964E+02   # A_b
Block AE Q=  2.52603882E+03   #
  1  1    -5.65606804E+01   # A_e
  2  2    -5.65606804E+01   # A_mu
  3  3    -5.65606804E+01   # A_tau
#  ISAJET decay tables in SUSY Les Houches accord format
#  Created by ISALHD. Last revision: C. Balazs, 2005 May 25
Block DCINFO                           # Program information
     1   ISASUGRA from ISAJET          # Spectrum Calculator
     2   7.85   04-NOV-2015 13:42:47   # Version number
#         PDG         Width
DECAY         6  1.16039467E+00   # TP    decays
#          BR          NDA       ID1       ID2       ID3       ID4
      3.33333343E-01    3            2        -1         5             # TP     -->  UP     DB     BT          
      3.33333343E-01    3            4        -3         5             # TP     -->  CH     SB     BT          
      1.11111112E-01    3          -11        12         5             # TP     -->  E+     NUE    BT          
      1.11111112E-01    3          -13        14         5             # TP     -->  MU+    NUM    BT          
      1.11111112E-01    3          -15        16         5             # TP     -->  TAU+   NUT    BT          
#         PDG         Width
DECAY   1000021  6.22451901E-02   # GLSS  decays
#          BR          NDA       ID1       ID2       ID3       ID4
      4.74603996E-02    3      1000024         1        -2             # GLSS   -->  W1SS+  DN     UB          
      4.74603996E-02    3     -1000024         2        -1             # GLSS   -->  W1SS-  UP     DB          
      4.74603809E-02    3      1000024         3        -4             # GLSS   -->  W1SS+  ST     CB          
      4.74603809E-02    3     -1000024         4        -3             # GLSS   -->  W1SS-  CH     SB          
      5.59810847E-02    3      1000024         5        -6             # GLSS   -->  W1SS+  BT     TB          
      5.59810847E-02    3     -1000024         6        -5             # GLSS   -->  W1SS-  TP     BB          
      1.42796047E-03    3      1000037         1        -2             # GLSS   -->  W2SS+  DN     UB          
      1.42796047E-03    3     -1000037         2        -1             # GLSS   -->  W2SS-  UP     DB          
      1.42795988E-03    3      1000037         3        -4             # GLSS   -->  W2SS+  ST     CB          
      1.42795988E-03    3     -1000037         4        -3             # GLSS   -->  W2SS-  CH     SB          
      1.04132704E-01    3      1000037         5        -6             # GLSS   -->  W2SS+  BT     TB          
      1.04132704E-01    3     -1000037         6        -5             # GLSS   -->  W2SS-  TP     BB          
      2.20866673E-06    2      1000022        21                       # GLSS   -->  Z1SS   GL                 
      2.97897570E-02    3      1000022         2        -2             # GLSS   -->  Z1SS   UP     UB          
      8.77203792E-03    3      1000022         1        -1             # GLSS   -->  Z1SS   DN     DB          
      8.77203792E-03    3      1000022         3        -3             # GLSS   -->  Z1SS   ST     SB          
      2.97897253E-02    3      1000022         4        -4             # GLSS   -->  Z1SS   CH     CB          
      1.13655366E-02    3      1000022         5        -5             # GLSS   -->  Z1SS   BT     BB          
      4.22362313E-02    3      1000022         6        -6             # GLSS   -->  Z1SS   TP     TB          
      1.80325500E-04    2      1000023        21                       # GLSS   -->  Z2SS   GL                 
      2.38767322E-02    3      1000023         2        -2             # GLSS   -->  Z2SS   UP     UB          
      2.35065762E-02    3      1000023         1        -1             # GLSS   -->  Z2SS   DN     DB          
      2.35065762E-02    3      1000023         3        -3             # GLSS   -->  Z2SS   ST     SB          
      2.38767099E-02    3      1000023         4        -4             # GLSS   -->  Z2SS   CH     CB          
      3.57155465E-02    3      1000023         5        -5             # GLSS   -->  Z2SS   BT     BB          
      2.12279018E-02    3      1000023         6        -6             # GLSS   -->  Z2SS   TP     TB          
      2.31221505E-03    2      1000025        21                       # GLSS   -->  Z3SS   GL                 
      6.09015387E-06    3      1000025         2        -2             # GLSS   -->  Z3SS   UP     UB          
      7.37768778E-06    3      1000025         1        -1             # GLSS   -->  Z3SS   DN     DB          
      7.37768778E-06    3      1000025         3        -3             # GLSS   -->  Z3SS   ST     SB          
      6.09014660E-06    3      1000025         4        -4             # GLSS   -->  Z3SS   CH     CB          
      2.81134248E-02    3      1000025         5        -5             # GLSS   -->  Z3SS   BT     BB          
      6.22486733E-02    3      1000025         6        -6             # GLSS   -->  Z3SS   TP     TB          
      2.16555549E-03    2      1000035        21                       # GLSS   -->  Z4SS   GL                 
      7.17369432E-04    3      1000035         2        -2             # GLSS   -->  Z4SS   UP     UB          
      8.14267492E-04    3      1000035         1        -1             # GLSS   -->  Z4SS   DN     DB          
      8.14267492E-04    3      1000035         3        -3             # GLSS   -->  Z4SS   ST     SB          
      7.17368734E-04    3      1000035         4        -4             # GLSS   -->  Z4SS   CH     CB          
      2.62722392E-02    3      1000035         5        -5             # GLSS   -->  Z4SS   BT     BB          
      7.73987994E-02    3      1000035         6        -6             # GLSS   -->  Z4SS   TP     TB          
      7.00926778E-17    2      1000039        21                       # GLSS   -->  GVSS   GL                 
#         PDG         Width
DECAY   1000002  6.48327942E+01   # UPL   decays
#          BR          NDA       ID1       ID2       ID3       ID4
      5.65477787E-03    2      1000022         2                       # UPL    -->  Z1SS   UP                 
      1.52780592E-01    2      1000023         2                       # UPL    -->  Z2SS   UP                 
      9.29732560E-05    2      1000025         2                       # UPL    -->  Z3SS   UP                 
      7.04291509E-03    2      1000035         2                       # UPL    -->  Z4SS   UP                 
      5.14905512E-01    2      1000021         2                       # UPL    -->  GLSS   UP                 
      3.08460116E-01    2      1000024         1                       # UPL    -->  W1SS+  DN                 
      1.10631222E-02    2      1000037         1                       # UPL    -->  W2SS+  DN                 
#         PDG         Width
DECAY   1000001  6.48609085E+01   # DNL   decays
#          BR          NDA       ID1       ID2       ID3       ID4
      6.31544320E-03    2      1000022         1                       # DNL    -->  Z1SS   DN                 
      1.50791600E-01    2      1000023         1                       # DNL    -->  Z2SS   DN                 
      1.59600371E-04    2      1000025         1                       # DNL    -->  Z3SS   DN                 
      8.23338423E-03    2      1000035         1                       # DNL    -->  Z4SS   DN                 
      5.15832663E-01    2      1000021         1                       # DNL    -->  GLSS   DN                 
      3.00365299E-01    2     -1000024         2                       # DNL    -->  W1SS-  UP                 
      1.83020271E-02    2     -1000037         2                       # DNL    -->  W2SS-  UP                 
#         PDG         Width
DECAY   1000003  6.48609009E+01   # STL   decays
#          BR          NDA       ID1       ID2       ID3       ID4
      6.31544413E-03    2      1000022         3                       # STL    -->  Z1SS   ST                 
      1.50791630E-01    2      1000023         3                       # STL    -->  Z2SS   ST                 
      1.59600400E-04    2      1000025         3                       # STL    -->  Z3SS   ST                 
      8.23338516E-03    2      1000035         3                       # STL    -->  Z4SS   ST                 
      5.15832722E-01    2      1000021         3                       # STL    -->  GLSS   ST                 
      3.00365180E-01    2     -1000024         4                       # STL    -->  W1SS-  CH                 
      1.83020197E-02    2     -1000037         4                       # STL    -->  W2SS-  CH                 
#         PDG         Width
DECAY   1000004  6.48327560E+01   # CHL   decays
#          BR          NDA       ID1       ID2       ID3       ID4
      5.65477973E-03    2      1000022         4                       # CHL    -->  Z1SS   CH                 
      1.52780622E-01    2      1000023         4                       # CHL    -->  Z2SS   CH                 
      9.29732705E-05    2      1000025         4                       # CHL    -->  Z3SS   CH                 
      7.04291742E-03    2      1000035         4                       # CHL    -->  Z4SS   CH                 
      5.14905214E-01    2      1000021         4                       # CHL    -->  GLSS   CH                 
      3.08460355E-01    2      1000024         3                       # CHL    -->  W1SS+  ST                 
      1.10631315E-02    2      1000037         3                       # CHL    -->  W2SS+  ST                 
#         PDG         Width
DECAY   1000005  4.13290100E+01   # BT1   decays
#          BR          NDA       ID1       ID2       ID3       ID4
      3.71909738E-02    2      1000022         5                       # BT1    -->  Z1SS   BT                 
      3.76800559E-02    2      1000023         5                       # BT1    -->  Z2SS   BT                 
      1.13738537E-01    2      1000025         5                       # BT1    -->  Z3SS   BT                 
      9.22833905E-02    2      1000035         5                       # BT1    -->  Z4SS   BT                 
      4.52571183E-01    2      1000021         5                       # BT1    -->  GLSS   BT                 
      7.26992786E-02    2     -1000024         6                       # BT1    -->  W1SS-  TP                 
      1.93821877E-01    2     -1000037         6                       # BT1    -->  W2SS-  TP                 
      1.47039555E-05    2          -24   1000006                       # BT1    -->  W-     TP1                
#         PDG         Width
DECAY   1000006  6.16346207E+01   # TP1   decays
#          BR          NDA       ID1       ID2       ID3       ID4
      1.59768462E-01    2      1000021         6                       # TP1    -->  GLSS   TP                 
      8.54592174E-02    2      1000022         6                       # TP1    -->  Z1SS   TP                 
      1.17829805E-02    2      1000023         6                       # TP1    -->  Z2SS   TP                 
      1.89235613E-01    2      1000025         6                       # TP1    -->  Z3SS   TP                 
      1.74487501E-01    2      1000035         6                       # TP1    -->  Z4SS   TP                 
      2.27941424E-02    2      1000024         5                       # TP1    -->  W1SS+  BT                 
      3.56472105E-01    2      1000037         5                       # TP1    -->  W2SS+  BT                 
#         PDG         Width
DECAY   2000002  3.07368622E+01   # UPR   decays
#          BR          NDA       ID1       ID2       ID3       ID4
      1.91636473E-01    2      1000022         2                       # UPR    -->  Z1SS   UP                 
      5.22708833E-05    2      1000023         2                       # UPR    -->  Z2SS   UP                 
      6.99423399E-05    2      1000025         2                       # UPR    -->  Z3SS   UP                 
      3.62289167E-04    2      1000035         2                       # UPR    -->  Z4SS   UP                 
      8.07879031E-01    2      1000021         2                       # UPR    -->  GLSS   UP                 
#         PDG         Width
DECAY   2000001  2.54494953E+01   # DNR   decays
#          BR          NDA       ID1       ID2       ID3       ID4
      5.75446561E-02    2      1000022         1                       # DNR    -->  Z1SS   DN                 
      1.56758470E-05    2      1000023         1                       # DNR    -->  Z2SS   DN                 
      2.09465943E-05    2      1000025         1                       # DNR    -->  Z3SS   DN                 
      1.08490014E-04    2      1000035         1                       # DNR    -->  Z4SS   DN                 
      9.42310214E-01    2      1000021         1                       # DNR    -->  GLSS   DN                 
#         PDG         Width
DECAY   2000003  2.54494953E+01   # STR   decays
#          BR          NDA       ID1       ID2       ID3       ID4
      5.75446561E-02    2      1000022         3                       # STR    -->  Z1SS   ST                 
      1.56758470E-05    2      1000023         3                       # STR    -->  Z2SS   ST                 
      2.09465943E-05    2      1000025         3                       # STR    -->  Z3SS   ST                 
      1.08490014E-04    2      1000035         3                       # STR    -->  Z4SS   ST                 
      9.42310214E-01    2      1000021         3                       # STR    -->  GLSS   ST                 
#         PDG         Width
DECAY   2000004  3.07368202E+01   # CHR   decays
#          BR          NDA       ID1       ID2       ID3       ID4
      1.91636682E-01    2      1000022         4                       # CHR    -->  Z1SS   CH                 
      5.22709342E-05    2      1000023         4                       # CHR    -->  Z2SS   CH                 
      6.99424127E-05    2      1000025         4                       # CHR    -->  Z3SS   CH                 
      3.62289516E-04    2      1000035         4                       # CHR    -->  Z4SS   CH                 
      8.07878792E-01    2      1000021         4                       # CHR    -->  GLSS   CH                 
#         PDG         Width
DECAY   2000005  8.89882355E+01   # BT2   decays
#          BR          NDA       ID1       ID2       ID3       ID4
      3.68092465E-03    2      1000022         5                       # BT2    -->  Z1SS   BT                 
      9.30966511E-02    2      1000023         5                       # BT2    -->  Z2SS   BT                 
      5.87180518E-02    2      1000025         5                       # BT2    -->  Z3SS   BT                 
      6.64787069E-02    2      1000035         5                       # BT2    -->  Z4SS   BT                 
      2.74040490E-01    2      1000021         5                       # BT2    -->  GLSS   BT                 
      1.84817702E-01    2     -1000024         6                       # BT2    -->  W1SS-  TP                 
      3.18227291E-01    2     -1000037         6                       # BT2    -->  W2SS-  TP                 
      8.87544244E-04    2          -24   1000006                       # BT2    -->  W-     TP1                
      5.26499971E-05    2           23   1000005                       # BT2    -->  Z0     BT1                
#         PDG         Width
DECAY   2000006  9.11570358E+01   # TP2   decays
#          BR          NDA       ID1       ID2       ID3       ID4
      2.59569049E-01    2      1000021         6                       # TP2    -->  GLSS   TP                 
      2.10409164E-01    2      1000024         5                       # TP2    -->  W1SS+  BT                 
      1.16578765E-01    2      1000037         5                       # TP2    -->  W2SS+  BT                 
      5.28535864E-04    2           23   1000006                       # TP2    -->  Z0     TP1                
      2.04146747E-03    2           25   1000006                       # TP2    -->  HL0    TP1                
      1.21257070E-03    2           24   1000005                       # TP2    -->  W+     BT1                
      3.87467048E-03    2      1000022         6                       # TP2    -->  Z1SS   TP                 
      1.04121059E-01    2      1000023         6                       # TP2    -->  Z2SS   TP                 
      1.49178013E-01    2      1000025         6                       # TP2    -->  Z3SS   TP                 
      1.52486712E-01    2      1000035         6                       # TP2    -->  Z4SS   TP                 
#         PDG         Width
DECAY   1000011  2.48939514E+00   # EL-   decays
#          BR          NDA       ID1       ID2       ID3       ID4
      3.33458453E-01    2      1000022        11                       # EL-    -->  Z1SS   E-                 
      2.27471992E-01    2      1000023        11                       # EL-    -->  Z2SS   E-                 
      4.39063281E-01    2     -1000024        12                       # EL-    -->  W1SS-  NUE                
      2.90185903E-06    3      1000015        11       -15             # EL-    -->  TAU1-  E-     TAU+        
      3.39195867E-06    3     -1000015        11        15             # EL-    -->  TAU1+  E-     TAU-        
      3.58129817E-20    2           11   1000039                       # EL-    -->  E-     GVSS               
#         PDG         Width
DECAY   1000013  2.48939586E+00   # MUL-  decays
#          BR          NDA       ID1       ID2       ID3       ID4
      3.33458334E-01    2      1000022        13                       # MUL-   -->  Z1SS   MU-                
      2.27471992E-01    2      1000023        13                       # MUL-   -->  Z2SS   MU-                
      4.39063370E-01    2     -1000024        14                       # MUL-   -->  W1SS-  NUM                
      2.90186131E-06    3      1000015        13       -15             # MUL-   -->  TAU1-  MU-    TAU+        
      3.39196049E-06    3     -1000015        13        15             # MUL-   -->  TAU1+  MU-    TAU-        
      3.58129817E-20    2           13   1000039                       # MUL-   -->  MU-    GVSS               
#         PDG         Width
DECAY   1000015  0   # TAU1- decays
#          BR          NDA       ID1       ID2       ID3       ID4
      1.00000000E+00    2      1000022        15                       # TAU1-  -->  Z1SS   TAU-               
      2.39809715E-19    2           15   1000039                       # TAU1-  -->  TAU-   GVSS               
#         PDG         Width
DECAY   1000012  2.41136813E+00   # NUEL  decays
#          BR          NDA       ID1       ID2       ID3       ID4
      3.51762235E-01    2      1000022        12                       # NUEL   -->  Z1SS   NUE                
      2.11702496E-01    2      1000023        12                       # NUEL   -->  Z2SS   NUE                
      4.36502725E-01    2      1000024        11                       # NUEL   -->  W1SS+  E-                 
      4.87743591E-06    3      1000015        12       -15             # NUEL   -->  TAU1-  NUE    TAU+        
      4.17191904E-06    3     -1000015        12        15             # NUEL   -->  TAU1+  NUE    TAU-        
      2.35149309E-05    3     -1000015        11        16             # NUEL   -->  TAU1+  E-     NUT         
      3.54605026E-20    2           12   1000039                       # NUEL   -->  NUE    GVSS               
#         PDG         Width
DECAY   1000014  2.41136885E+00   # NUML  decays
#          BR          NDA       ID1       ID2       ID3       ID4
      3.51762146E-01    2      1000022        14                       # NUML   -->  Z1SS   NUM                
      2.11702451E-01    2      1000023        14                       # NUML   -->  Z2SS   NUM                
      4.36502546E-01    2      1000024        13                       # NUML   -->  W1SS+  MU-                
      4.87743500E-06    3      1000015        14       -15             # NUML   -->  TAU1-  NUM    TAU+        
      4.17191768E-06    3     -1000015        14        15             # NUML   -->  TAU1+  NUM    TAU-        
      2.38066496E-05    3     -1000015        13        16             # NUML   -->  TAU1+  MU-    NUT         
      3.54604929E-20    2           14   1000039                       # NUML   -->  NUM    GVSS               
#         PDG         Width
DECAY   1000016  4.82704973E+00   # NUTL  decays
#          BR          NDA       ID1       ID2       ID3       ID4
      1.70306087E-01    2      1000022        16                       # NUTL   -->  Z1SS   NUT                
      9.21131298E-02    2      1000023        16                       # NUTL   -->  Z2SS   NUT                
      1.95560127E-01    2      1000024        15                       # NUTL   -->  W1SS+  TAU-               
      5.41979015E-01    2           24   1000015                       # NUTL   -->  W+     TAU1-              
      3.99604905E-05    3     -1000015        16        15             # NUTL   -->  TAU1+  NUT    TAU-        
      1.71597469E-06    3      1000015        16       -15             # NUTL   -->  TAU1-  NUT    TAU+        
      1.62772536E-20    2           16   1000039                       # NUTL   -->  NUT    GVSS               
#         PDG         Width
DECAY   2000011  2.27875859E-01   # ER-   decays
#          BR          NDA       ID1       ID2       ID3       ID4
      1.00000000E+00    2      1000022        11                       # ER-    -->  Z1SS   E-                 
      1.01551177E-10    3      1000015        11       -15             # ER-    -->  TAU1-  E-     TAU+        
      1.08413611E-10    3     -1000015        11        15             # ER-    -->  TAU1+  E-     TAU-        
      2.66812710E-15    3      1000015        12       -16             # ER-    -->  TAU1-  NUE    ANUT        
      1.15661991E-20    2           11   1000039                       # ER-    -->  E-     GVSS               
#         PDG         Width
DECAY   2000013  2.27875769E-01   # MUR-  decays
#          BR          NDA       ID1       ID2       ID3       ID4
      1.00000000E+00    2      1000022        13                       # MUR-   -->  Z1SS   MU-                
      1.01551392E-10    3      1000015        13       -15             # MUR-   -->  TAU1-  MU-    TAU+        
      1.08413847E-10    3     -1000015        13        15             # MUR-   -->  TAU1+  MU-    TAU-        
      1.13574532E-10    3      1000015        14       -16             # MUR-   -->  TAU1-  NUM    ANUT        
      1.15662048E-20    2           13   1000039                       # MUR-   -->  MU-    GVSS               
#         PDG         Width
DECAY   2000015  5.07715988E+00   # TAU2- decays
#          BR          NDA       ID1       ID2       ID3       ID4
      1.62091836E-01    2      1000022        15                       # TAU2-  -->  Z1SS   TAU-               
      9.81166735E-02    2      1000023        15                       # TAU2-  -->  Z2SS   TAU-               
      1.83160886E-01    2     -1000024        16                       # TAU2-  -->  W1SS-  NUT                
      2.68087983E-01    2           23   1000015                       # TAU2-  -->  Z0     TAU1-              
      2.88542598E-01    2           25   1000015                       # TAU2-  -->  HL0    TAU1-              
#         PDG         Width
DECAY   1000022  0   # Z1SS  decays
#          BR          NDA       ID1       ID2       ID3       ID4
      7.85900712E-01    2      1000039        22                       # Z1SS   -->  GVSS   GM                 
      1.76759902E-02    3      1000039        11       -11             # Z1SS   -->  GVSS   E-     E+          
      1.96280256E-01    2      1000039        23                       # Z1SS   -->  GVSS   Z0                 
      1.43053971E-04    2      1000039        25                       # Z1SS   -->  GVSS   HL0                
#         PDG         Width
DECAY   1000023  1.55687466E-01   # Z2SS  decays
#          BR          NDA       ID1       ID2       ID3       ID4
      8.43146950E-07    2      1000022        22                       # Z2SS   -->  Z1SS   GM                 
      1.62656736E-02    2      1000022        23                       # Z2SS   -->  Z1SS   Z0                 
      2.22618084E-07    3      1000022         2        -2             # Z2SS   -->  Z1SS   UP     UB          
      2.44142996E-07    3      1000022         1        -1             # Z2SS   -->  Z1SS   DN     DB          
      2.44142996E-07    3      1000022         3        -3             # Z2SS   -->  Z1SS   ST     SB          
      2.22617956E-07    3      1000022         4        -4             # Z2SS   -->  Z1SS   CH     CB          
      8.46574403E-06    3      1000022         5        -5             # Z2SS   -->  Z1SS   BT     BB          
      1.29969325E-04    3      1000022        11       -11             # Z2SS   -->  Z1SS   E-     E+          
      1.29969267E-04    3      1000022        13       -13             # Z2SS   -->  Z1SS   MU-    MU+         
      1.39259137E-04    3      1000022        15       -15             # Z2SS   -->  Z1SS   TAU-   TAU+        
      1.37096111E-04    3      1000022        12       -12             # Z2SS   -->  Z1SS   NUE    ANUE        
      1.37096111E-04    3      1000022        14       -14             # Z2SS   -->  Z1SS   NUM    ANUM        
      1.53980742E-04    3      1000022        16       -16             # Z2SS   -->  Z1SS   NUT    ANUT        
      1.71795800E-01    2      1000022        25                       # Z2SS   -->  Z1SS   HL0                
      1.39920809E-03    2      2000011       -11                       # Z2SS   -->  ER-    E+                 
      1.39920809E-03    2     -2000011        11                       # Z2SS   -->  ER+    E-                 
      1.39920786E-03    2      2000013       -13                       # Z2SS   -->  MUR-   MU+                
      1.39920786E-03    2     -2000013        13                       # Z2SS   -->  MUR+   MU-                
      4.02752042E-01    2      1000015       -15                       # Z2SS   -->  TAU1-  TAU+               
      4.02752042E-01    2     -1000015        15                       # Z2SS   -->  TAU1+  TAU-               
      4.06126068E-20    2      1000039        22                       # Z2SS   -->  GVSS   GM                 
      9.57096638E-22    3      1000039        11       -11             # Z2SS   -->  GVSS   E-     E+          
      1.18414433E-19    2      1000039        23                       # Z2SS   -->  GVSS   Z0                 
      1.50656529E-21    2      1000039        25                       # Z2SS   -->  GVSS   HL0                
#         PDG         Width
DECAY   1000025  4.78541660E+00   # Z3SS  decays
#          BR          NDA       ID1       ID2       ID3       ID4
      5.77900856E-08    2      1000022        22                       # Z3SS   -->  Z1SS   GM                 
      1.84817011E-07    2      1000023        22                       # Z3SS   -->  Z2SS   GM                 
      1.92644000E-01    2      1000024       -24                       # Z3SS   -->  W1SS+  W-                 
      1.92644000E-01    2     -1000024        24                       # Z3SS   -->  W1SS-  W+                 
      1.03012376E-01    2      1000022        23                       # Z3SS   -->  Z1SS   Z0                 
      1.89451024E-01    2      1000023        23                       # Z3SS   -->  Z2SS   Z0                 
      1.61487212E-10    3      1000022         2        -2             # Z3SS   -->  Z1SS   UP     UB          
      4.34965605E-11    3      1000022         1        -1             # Z3SS   -->  Z1SS   DN     DB          
      4.34965605E-11    3      1000022         3        -3             # Z3SS   -->  Z1SS   ST     SB          
      1.61487101E-10    3      1000022         4        -4             # Z3SS   -->  Z1SS   CH     CB          
      1.92393472E-05    3      1000022         5        -5             # Z3SS   -->  Z1SS   BT     BB          
      4.70617033E-06    3      1000022        15       -15             # Z3SS   -->  Z1SS   TAU-   TAU+        
      9.35181793E-12    3      1000023         2        -2             # Z3SS   -->  Z2SS   UP     UB          
      1.58113574E-11    3      1000023         1        -1             # Z3SS   -->  Z2SS   DN     DB          
      1.58113574E-11    3      1000023         3        -3             # Z3SS   -->  Z2SS   ST     SB          
      9.35181012E-12    3      1000023         4        -4             # Z3SS   -->  Z2SS   CH     CB          
      7.99940381E-07    3      1000023         5        -5             # Z3SS   -->  Z2SS   BT     BB          
      1.87878371E-07    3      1000023        15       -15             # Z3SS   -->  Z2SS   TAU-   TAU+        
      1.80114321E-02    2      1000022        25                       # Z3SS   -->  Z1SS   HL0                
      2.68440577E-03    2      1000023        25                       # Z3SS   -->  Z2SS   HL0                
      3.06618887E-07    2      1000011       -11                       # Z3SS   -->  EL-    E+                 
      3.06618887E-07    2     -1000011        11                       # Z3SS   -->  EL+    E-                 
      3.06614425E-07    2      1000013       -13                       # Z3SS   -->  MUL-   MU+                
      3.06614425E-07    2     -1000013        13                       # Z3SS   -->  MUL+   MU-                
      1.43413286E-04    2      2000011       -11                       # Z3SS   -->  ER-    E+                 
      1.43413286E-04    2     -2000011        11                       # Z3SS   -->  ER+    E-                 
      1.43413286E-04    2      2000013       -13                       # Z3SS   -->  MUR-   MU+                
      1.43413286E-04    2     -2000013        13                       # Z3SS   -->  MUR+   MU-                
      1.49185106E-01    2      1000015       -15                       # Z3SS   -->  TAU1-  TAU+               
      1.49185106E-01    2     -1000015        15                       # Z3SS   -->  TAU1+  TAU-               
      1.27862673E-03    2      2000015       -15                       # Z3SS   -->  TAU2-  TAU+               
      1.27862673E-03    2     -2000015        15                       # Z3SS   -->  TAU2+  TAU-               
      2.98920577E-06    2      1000012       -12                       # Z3SS   -->  NUEL   ANUE               
      2.98920577E-06    2     -1000012        12                       # Z3SS   -->  ANUEL  NUE                
      2.98920577E-06    2      1000014       -14                       # Z3SS   -->  NUML   ANUM               
      2.98920577E-06    2     -1000014        14                       # Z3SS   -->  ANUML  NUM                
      6.63631454E-06    2      1000016       -16                       # Z3SS   -->  NUTL   ANUT               
      6.63631454E-06    2     -1000016        16                       # Z3SS   -->  ANUTL  NUT                
      4.66883185E-25    2      1000039        22                       # Z3SS   -->  GVSS   GM                 
      1.12065827E-26    3      1000039        11       -11             # Z3SS   -->  GVSS   E-     E+          
      4.88436217E-21    2      1000039        23                       # Z3SS   -->  GVSS   Z0                 
      5.20741578E-21    2      1000039        25                       # Z3SS   -->  GVSS   HL0                
#         PDG         Width
DECAY   1000035  5.22589827E+00   # Z4SS  decays
#          BR          NDA       ID1       ID2       ID3       ID4
      3.37327428E-08    2      1000022        22                       # Z4SS   -->  Z1SS   GM                 
      6.56698091E-08    2      1000023        22                       # Z4SS   -->  Z2SS   GM                 
      2.23317823E-10    2      1000025        22                       # Z4SS   -->  Z3SS   GM                 
      2.18900368E-01    2      1000024       -24                       # Z4SS   -->  W1SS+  W-                 
      2.18900368E-01    2     -1000024        24                       # Z4SS   -->  W1SS-  W+                 
      1.68392863E-02    2      1000022        23                       # Z4SS   -->  Z1SS   Z0                 
      3.92131601E-03    2      1000023        23                       # Z4SS   -->  Z2SS   Z0                 
      5.11169196E-09    3      1000022         2        -2             # Z4SS   -->  Z1SS   UP     UB          
      4.42167991E-09    3      1000022         1        -1             # Z4SS   -->  Z1SS   DN     DB          
      4.42167991E-09    3      1000022         3        -3             # Z4SS   -->  Z1SS   ST     SB          
      5.11168752E-09    3      1000022         4        -4             # Z4SS   -->  Z1SS   CH     CB          
      1.67783237E-05    3      1000022         5        -5             # Z4SS   -->  Z1SS   BT     BB          
      4.10186385E-06    3      1000022        15       -15             # Z4SS   -->  Z1SS   TAU-   TAU+        
      2.45134313E-09    3      1000023         2        -2             # Z4SS   -->  Z2SS   UP     UB          
      2.82264723E-09    3      1000023         1        -1             # Z4SS   -->  Z2SS   DN     DB          
      2.82264723E-09    3      1000023         3        -3             # Z4SS   -->  Z2SS   ST     SB          
      2.45134135E-09    3      1000023         4        -4             # Z4SS   -->  Z2SS   CH     CB          
      7.60192279E-07    3      1000023         5        -5             # Z4SS   -->  Z2SS   BT     BB          
      1.76869236E-07    3      1000023        15       -15             # Z4SS   -->  Z2SS   TAU-   TAU+        
      6.33084962E-09    3      1000025         2        -2             # Z4SS   -->  Z3SS   UP     UB          
      8.16391488E-09    3      1000025         1        -1             # Z4SS   -->  Z3SS   DN     DB          
      8.16391488E-09    3      1000025         3        -3             # Z4SS   -->  Z3SS   ST     SB          
      6.33084962E-09    3      1000025         4        -4             # Z4SS   -->  Z3SS   CH     CB          
      7.40276729E-10    3      1000025         5        -5             # Z4SS   -->  Z3SS   BT     BB          
      1.85194904E-09    3      1000025        11       -11             # Z4SS   -->  Z3SS   E-     E+          
      1.85194904E-09    3      1000025        13       -13             # Z4SS   -->  Z3SS   MU-    MU+         
      1.43048917E-09    3      1000025        15       -15             # Z4SS   -->  Z3SS   TAU-   TAU+        
      3.68479602E-09    3      1000025        12       -12             # Z4SS   -->  Z3SS   NUE    ANUE        
      3.68479602E-09    3      1000025        14       -14             # Z4SS   -->  Z3SS   NUM    ANUM        
      3.68479602E-09    3      1000025        16       -16             # Z4SS   -->  Z3SS   NUT    ANUT        
      9.61041674E-02    2      1000022        25                       # Z4SS   -->  Z1SS   HL0                
      1.89768717E-01    2      1000023        25                       # Z4SS   -->  Z2SS   HL0                
      8.47099946E-05    2      1000011       -11                       # Z4SS   -->  EL-    E+                 
      8.47099946E-05    2     -1000011        11                       # Z4SS   -->  EL+    E-                 
      8.47093615E-05    2      1000013       -13                       # Z4SS   -->  MUL-   MU+                
      8.47093615E-05    2     -1000013        13                       # Z4SS   -->  MUL+   MU-                
      7.04197737E-04    2      2000011       -11                       # Z4SS   -->  ER-    E+                 
      7.04197737E-04    2     -2000011        11                       # Z4SS   -->  ER+    E-                 
      7.04197679E-04    2      2000013       -13                       # Z4SS   -->  MUR-   MU+                
      7.04197679E-04    2     -2000013        13                       # Z4SS   -->  MUR+   MU-                
      1.23362698E-01    2      1000015       -15                       # Z4SS   -->  TAU1-  TAU+               
      1.23362698E-01    2     -1000015        15                       # Z4SS   -->  TAU1+  TAU-               
      2.06345995E-03    2      2000015       -15                       # Z4SS   -->  TAU2-  TAU+               
      2.06345995E-03    2     -2000015        15                       # Z4SS   -->  TAU2+  TAU-               
      2.00606359E-04    2      1000012       -12                       # Z4SS   -->  NUEL   ANUE               
      2.00606373E-04    2     -1000012        12                       # Z4SS   -->  ANUEL  NUE                
      2.00606359E-04    2      1000014       -14                       # Z4SS   -->  NUML   ANUM               
      2.00606373E-04    2     -1000014        14                       # Z4SS   -->  ANUML  NUM                
      3.66700202E-04    2      1000016       -16                       # Z4SS   -->  NUTL   ANUT               
      3.66700202E-04    2     -1000016        16                       # Z4SS   -->  ANUTL  NUT                
      9.53177413E-23    2      1000039        22                       # Z4SS   -->  GVSS   GM                 
      2.28985396E-24    3      1000039        11       -11             # Z4SS   -->  GVSS   E-     E+          
      5.97912440E-21    2      1000039        23                       # Z4SS   -->  GVSS   Z0                 
      4.42092333E-21    2      1000039        25                       # Z4SS   -->  GVSS   HL0                
#         PDG         Width
DECAY   1000024  1.48445249E-01   # W1SS+ decays
#          BR          NDA       ID1       ID2       ID3       ID4
      4.93644507E-07    3      1000022         2        -1             # W1SS+  -->  Z1SS   UP     DB          
      4.93644336E-07    3      1000022         4        -3             # W1SS+  -->  Z1SS   CH     SB          
      2.83866219E-04    3      1000022       -11        12             # W1SS+  -->  Z1SS   E+     NUE         
      2.83866160E-04    3      1000022       -13        14             # W1SS+  -->  Z1SS   MU+    NUM         
      3.11967771E-04    3      1000022       -15        16             # W1SS+  -->  Z1SS   TAU+   NUT         
      1.86204612E-01    2      1000022        24                       # W1SS+  -->  Z1SS   W+                 
      3.37901582E-13    3      1000023       -11        12             # W1SS+  -->  Z2SS   E+     NUE         
      3.37901582E-13    3      1000023       -13        14             # W1SS+  -->  Z2SS   MU+    NUM         
      8.12914670E-01    2     -1000015        16                       # W1SS+  -->  TAU1+  NUT                
#         PDG         Width
DECAY   1000037  4.84724474E+00   # W2SS+ decays
#          BR          NDA       ID1       ID2       ID3       ID4
      7.88178944E-09    3      1000022         2        -1             # W2SS+  -->  Z1SS   UP     DB          
      7.88178678E-09    3      1000022         4        -3             # W2SS+  -->  Z1SS   CH     SB          
      4.22622452E-06    3      1000022       -15        16             # W2SS+  -->  Z1SS   TAU+   NUT         
      1.09391436E-01    2      1000022        24                       # W2SS+  -->  Z1SS   W+                 
      1.93453364E-09    3      1000023         2        -1             # W2SS+  -->  Z2SS   UP     DB          
      1.93453320E-09    3      1000023         4        -3             # W2SS+  -->  Z2SS   CH     SB          
      2.64178709E-07    3      1000023       -15        16             # W2SS+  -->  Z2SS   TAU+   NUT         
      2.03204080E-01    2      1000023        24                       # W2SS+  -->  Z2SS   W+                 
      2.81447985E-08    3      1000025         2        -1             # W2SS+  -->  Z3SS   UP     DB          
      2.81447985E-08    3      1000025         4        -3             # W2SS+  -->  Z3SS   CH     SB          
      9.38156752E-09    3      1000025       -11        12             # W2SS+  -->  Z3SS   E+     NUE         
      9.38156752E-09    3      1000025       -13        14             # W2SS+  -->  Z3SS   MU+    NUM         
      9.38157463E-09    3      1000025       -15        16             # W2SS+  -->  Z3SS   TAU+   NUT         
      8.60186787E-16    3      1000035       -11        12             # W2SS+  -->  Z4SS   E+     NUE         
      8.60186787E-16    3      1000035       -13        14             # W2SS+  -->  Z4SS   MU+    NUM         
      2.56488885E-04    2      1000012       -11                       # W2SS+  -->  NUEL   E+                 
      2.56488216E-04    2      1000014       -13                       # W2SS+  -->  NUML   MU+                
      6.04770891E-03    2      1000016       -15                       # W2SS+  -->  NUTL   TAU+               
      2.87873787E-04    2     -1000011        12                       # W2SS+  -->  EL+    NUE                
      2.87872826E-04    2     -1000013        14                       # W2SS+  -->  MUL+   NUM                
      2.63676524E-01    2     -1000015        16                       # W2SS+  -->  TAU1+  NUT                
      8.62557557E-04    2     -2000015        16                       # W2SS+  -->  TAU2+  NUT                
      2.03530297E-01    2      1000024        23                       # W2SS+  -->  W1SS+  Z0                 
      2.80422996E-09    3      1000024         1        -1             # W2SS+  -->  W1SS+  DN     DB          
      2.80422796E-09    3      1000024         3        -3             # W2SS+  -->  W1SS+  ST     SB          
      4.50822180E-09    3      1000024         2        -2             # W2SS+  -->  W1SS+  UP     UB          
      4.50822180E-09    3      1000024         4        -4             # W2SS+  -->  W1SS+  CH     CB          
      2.12194055E-01    2      1000024        25                       # W2SS+  -->  W1SS+  HL0                
#         PDG         Width
DECAY        25  4.47674654E-03   # HL0   decays
#          BR          NDA       ID1       ID2       ID3       ID4
      4.68095873E-09    2           11       -11                       # HL0    -->  E-     E+                 
      1.97637593E-04    2           13       -13                       # HL0    -->  MU-    MU+                
      5.65310344E-02    2           15       -15                       # HL0    -->  TAU-   TAU+               
      5.87205341E-06    2            1        -1                       # HL0    -->  DN     DB                 
      2.37260386E-03    2            3        -3                       # HL0    -->  ST     SB                 
      7.73990452E-01    2            5        -5                       # HL0    -->  BT     BB                 
      1.81377766E-06    2            2        -2                       # HL0    -->  UP     UB                 
      3.39640006E-02    2            4        -4                       # HL0    -->  CH     CB                 
      1.90516037E-03    2           22        22                       # HL0    -->  GM     GM                 
      3.99528220E-02    2           21        21                       # HL0    -->  GL     GL                 
      4.63901553E-03    3           24        11       -12             # HL0    -->  W+     E-     ANUE        
      4.63901553E-03    3           24        13       -14             # HL0    -->  W+     MU-    ANUM        
      4.63901553E-03    3           24        15       -16             # HL0    -->  W+     TAU-   ANUT        
      1.39170475E-02    3           24        -2         1             # HL0    -->  W+     UB     DN          
      1.39170475E-02    3           24        -4         3             # HL0    -->  W+     CB     ST          
      4.63901553E-03    3          -24       -11        12             # HL0    -->  W-     E+     NUE         
      4.63901553E-03    3          -24       -13        14             # HL0    -->  W-     MU+    NUM         
      4.63901553E-03    3          -24       -15        16             # HL0    -->  W-     TAU+   NUT         
      1.39170475E-02    3          -24         2        -1             # HL0    -->  W-     UP     DB          
      1.39170475E-02    3          -24         4        -3             # HL0    -->  W-     CH     SB          
      5.18143352E-04    3           23        12       -12             # HL0    -->  Z0     NUE    ANUE        
      5.18143352E-04    3           23        14       -14             # HL0    -->  Z0     NUM    ANUM        
      5.18143352E-04    3           23        16       -16             # HL0    -->  Z0     NUT    ANUT        
      2.60776345E-04    3           23        11       -11             # HL0    -->  Z0     E-     E+          
      2.60776345E-04    3           23        13       -13             # HL0    -->  Z0     MU-    MU+         
      2.60776345E-04    3           23        15       -15             # HL0    -->  Z0     TAU-   TAU+        
      8.93397606E-04    3           23         2        -2             # HL0    -->  Z0     UP     UB          
      8.93397606E-04    3           23         4        -4             # HL0    -->  Z0     CH     CB          
      1.15091633E-03    3           23         1        -1             # HL0    -->  Z0     DN     DB          
      1.15091633E-03    3           23         3        -3             # HL0    -->  Z0     ST     SB          
      1.15091633E-03    3           23         5        -5             # HL0    -->  Z0     BT     BB          
#         PDG         Width
DECAY        35  2.92292252E+01   # HH0   decays
#          BR          NDA       ID1       ID2       ID3       ID4
      1.16304832E-08    2           11       -11                       # HH0    -->  E-     E+                 
      4.91059967E-04    2           13       -13                       # HH0    -->  MU-    MU+                
      1.40644833E-01    2           15       -15                       # HH0    -->  TAU-   TAU+               
      1.42389163E-05    2            1        -1                       # HH0    -->  DN     DB                 
      5.75324241E-03    2            3        -3                       # HH0    -->  ST     SB                 
      8.52101028E-01    2            5        -5                       # HH0    -->  BT     BB                 
      1.38044860E-12    2            2        -2                       # HH0    -->  UP     UB                 
      1.92768788E-08    2            4        -4                       # HH0    -->  CH     CB                 
      9.03241162E-04    2            6        -6                       # HH0    -->  TP     TB                 
      1.39781582E-08    2           22        22                       # HH0    -->  GM     GM                 
      2.81259372E-06    2           21        21                       # HH0    -->  GL     GL                 
      2.33049468E-06    2           24       -24                       # HH0    -->  W+     W-                 
      1.18496371E-06    2           23        23                       # HH0    -->  Z0     Z0                 
      7.84129297E-05    2      1000022   1000022                       # HH0    -->  Z1SS   Z1SS               
      6.19164348E-06    2           25        25                       # HH0    -->  HL0    HL0                
      1.61382573E-07    2      2000011  -2000011                       # HH0    -->  ER-    ER+                
      1.59717047E-07    2      2000013  -2000013                       # HH0    -->  MUR-   MUR+               
      1.08571953E-06    2      1000015  -1000015                       # HH0    -->  TAU1-  TAU1+              
#         PDG         Width
DECAY        36  2.90451145E+01   # HA0   decays
#          BR          NDA       ID1       ID2       ID3       ID4
      1.16277938E-08    2           11       -11                       # HA0    -->  E-     E+                 
      4.90946462E-04    2           13       -13                       # HA0    -->  MU-    MU+                
      1.40613824E-01    2           15       -15                       # HA0    -->  TAU-   TAU+               
      1.42363879E-05    2            1        -1                       # HA0    -->  DN     DB                 
      5.75222122E-03    2            3        -3                       # HA0    -->  ST     SB                 
      8.51982415E-01    2            5        -5                       # HA0    -->  BT     BB                 
      1.33239069E-12    2            2        -2                       # HA0    -->  UP     UB                 
      1.86201472E-08    2            4        -4                       # HA0    -->  CH     CB                 
      9.54573392E-04    2            6        -6                       # HA0    -->  TP     TB                 
      4.03696596E-08    2           22        22                       # HA0    -->  GM     GM                 
      1.28717229E-05    2           21        21                       # HA0    -->  GL     GL                 
      1.76583315E-04    2      1000022   1000022                       # HA0    -->  Z1SS   Z1SS               
      2.26923976E-06    2           25        23                       # HA0    -->  HL0    Z0                 
#         PDG         Width
DECAY        37  2.61441021E+01   # H+    decays
#          BR          NDA       ID1       ID2       ID3       ID4
      1.30454048E-08    2           12       -11                       # H+     -->  NUE    E+                 
      5.50800527E-04    2           14       -13                       # H+     -->  NUM    MU+                
      1.57756865E-01    2           16       -15                       # H+     -->  NUT    TAU+               
      1.46895154E-05    2            2        -1                       # H+     -->  UP     DB                 
      5.93530759E-03    2            4        -3                       # H+     -->  CH     SB                 
      8.35739732E-01    2            6        -5                       # H+     -->  TP     BB                 
      2.57814690E-06    2           25        24                       # H+     -->  HL0    W+                 
