#  ISAJET SUSY parameters in SUSY Les Houches Accord 2 format
#  Created by ISALHA 2.0 Last revision: H Baer 27 May 2014
Block SPINFO   # Program information
     1   ISASUGRA/ISASUSY from ISAJET   # Spectrum Calculator
     2   7.85   04-NOV-2015 13:42:47    # Version number
Block MODSEL   # Model selection
     1     2   # Minimal gauge mediated (GMSB) model               
Block SMINPUTS   # Standard Model inputs
     1     1.28000000E+02   # alpha_em^(-1)
     2     1.16570000E-05   # G_Fermi
     3     1.19999997E-01   # alpha_s(M_Z)
     4     9.11699982E+01   # m_{Z}(pole)
     5     4.19999981E+00   # m_{b}(m_{b})
     6     1.73339996E+02   # m_{top}(pole)
     7     1.77699995E+00   # m_{tau}(pole)
Block MINPAR   # SUSY breaking input parameters
     1     5.50000000E+05   # Lambda scale of soft SSB
     2     1.00000000E+06   # M_mess overall messenger scale
     3     4.80000000E+01   # tan(beta)
     4     1.00000000E+00   # sign(mu)
     5     1.00000000E+00   # N_5 messenger index
     6     1.00000000E+05   # c_grav gravitino mass factor
    51     1.00000000E+00   # N5_1  U(1)_Y messenger index
    52     1.00000000E+00   # N5_2 SU(2)_L messenger index
    53     1.00000000E+00   # N5_3 SU(3)_C messenger index
   101     1.00000000E+00   # Rsl
   102     0.00000000E+00   # dmH_d^2
   103     0.00000000E+00   # dmH_u^2
   104     0.00000000E+00   # d_Y
Block MASS   # Scalar and gaugino mass spectrum
#  PDG code   mass                 particle
         6     1.73339996E+02   #  top            
        24     8.04229965E+01   #  W^+
        25     1.22135002E+02   #  h^0            
        35     1.94974719E+03   #  H^0            
        36     1.93699805E+03   #  A^0            
        37     1.95178052E+03   #  H^+            
   1000001     5.45421777E+03   #  dnl            
   1000002     5.45362158E+03   #  upl            
   1000003     5.45421777E+03   #  stl            
   1000004     5.45362158E+03   #  chl            
   1000005     4.96327930E+03   #  b1             
   1000006     4.70720947E+03   #  t1             
   1000011     1.91562830E+03   #  el-            
   1000012     1.90577979E+03   #  nuel           
   1000013     1.91562830E+03   #  mul-           
   1000014     1.90577979E+03   #  numl           
   1000015     8.00990417E+02   #  tau1           
   1000016     1.86666443E+03   #  nutl           
   1000021     3.95588843E+03   #  glss           
   1000022     8.04741577E+02   #  z1ss           
   1000023     1.52324780E+03   #  z2ss           
   1000024     1.52371423E+03   #  w1ss           
   1000025    -1.78322473E+03   #  z3ss           
   1000035     1.79323145E+03   #  z4ss           
   1000037     1.79427124E+03   #  w2ss           
   1000039     1.32309441E-02   #  gvss
   2000001     5.14732422E+03   #  dnr            
   2000002     5.17759473E+03   #  upr            
   2000003     5.14732422E+03   #  str            
   2000004     5.17759473E+03   #  chr            
   2000005     5.17410791E+03   #  b2             
   2000006     5.20246631E+03   #  t2             
   2000011     9.64642334E+02   #  er-            
   2000013     9.64642334E+02   #  mur-           
   2000015     1.87303564E+03   #  tau2           
Block ALPHA   # Effective Higgs mixing parameter
         -2.09482834E-02   # alpha
Block STOPMIX   # stop mixing matrix
  1  1     1.88364126E-02   # O_{11}
  1  2     9.99822557E-01   # O_{12}
  2  1    -9.99822557E-01   # O_{21}
  2  2     1.88364126E-02   # O_{22}
Block SBOTMIX   # sbottom mixing matrix
  1  1     1.22817136E-01   # O_{11}
  1  2     9.92429316E-01   # O_{12}
  2  1    -9.92429316E-01   # O_{21}
  2  2     1.22817136E-01   # O_{22}
Block STAUMIX   # stau mixing matrix
  1  1     4.54993024E-02   # O_{11}
  1  2     9.98964369E-01   # O_{12}
  2  1    -9.98964369E-01   # O_{21}
  2  2     4.54993024E-02   # O_{22}
Block NMIX   # neutralino mixing matrix
  1  1     9.99471188E-01   #
  1  2    -1.59659074E-03   #
  1  3     2.96720695E-02   #
  1  4    -1.32054240E-02   #
  2  1     7.67560210E-03   #
  2  2     9.80549634E-01   #
  2  3    -1.49060383E-01   #
  2  4     1.27453342E-01   #
  3  1    -1.16118081E-02   #
  3  2     1.55980727E-02   #
  3  3     7.06719935E-01   #
  3  4     7.07226038E-01   #
  4  1     2.93873027E-02   #
  4  2    -1.95643649E-01   #
  4  3    -6.90975666E-01   #
  4  4     6.95278585E-01   #
Block UMIX   # chargino U mixing matrix
  1  1    -9.78839040E-01   # U_{11}
  1  2     2.04631671E-01   # U_{12}
  2  1    -2.04631671E-01   # U_{21}
  2  2    -9.78839040E-01   # U_{22}
Block VMIX   # chargino V mixing matrix
  1  1    -9.84634638E-01   # V_{11}
  1  2     1.74627200E-01   # V_{12}
  2  1    -1.74627200E-01   # V_{21}
  2  2    -9.84634638E-01   # V_{22}
Block GAUGE Q=  4.80362061E+03   #
     1     3.57515603E-01   # g`
     2     6.52412236E-01   # g_2
     3     1.21976948E+00   # g_3
Block YU Q=  4.80362061E+03   #
  3  3     8.22018862E-01   # y_t
Block YD Q=  4.80362061E+03   #
  3  3     5.26290417E-01   # y_b
Block YE Q=  4.80362061E+03   #
  3  3     5.27210474E-01   # y_tau
Block HMIX Q=  4.80362061E+03   # Higgs mixing parameters
     1     1.76389417E+03   # mu(Q)
     2     4.72631226E+01   # tan(beta)(Q)
     3     2.52289795E+02   # Higgs vev at Q
     4     3.75196150E+06   # m_A^2(Q)
Block MSOFT Q=  4.80362061E+03   # DRbar SUSY breaking parameters
     1     8.19596130E+02   # M_1(Q)          
     2     1.47624011E+03   # M_2(Q)          
     3     3.61242871E+03   # M_3(Q)          
    21     9.32669938E+05   # MHd^2(Q)        
    22    -2.51569000E+06   # MHu^2(Q)        
    31     1.90094031E+03   # MeL(Q)          
    32     1.90094031E+03   # MmuL(Q)         
    33     1.86269324E+03   # MtauL(Q)        
    34     9.63197327E+02   # MeR(Q)          
    35     9.63197327E+02   # MmuR(Q)         
    36     8.28858948E+02   # MtauR(Q)        
    41     5.27768311E+03   # MqL1(Q)         
    42     5.27768311E+03   # MqL2(Q)         
    43     5.02023047E+03   # MqL3(Q)         
    44     4.99781885E+03   # MuR(Q)          
    45     4.99781885E+03   # McR(Q)          
    46     4.59635645E+03   # MtR(Q)          
    47     4.96691895E+03   # MdR(Q)          
    48     4.96691895E+03   # MsR(Q)          
    49     4.80362256E+03   # MbR(Q)          
Block AU Q=  4.80362061E+03   #
  1  1    -1.01817780E+03   # A_u
  2  2    -1.01817780E+03   # A_c
  3  3    -1.01817780E+03   # A_t
Block AD Q=  4.80362061E+03   #
  1  1    -1.08396362E+03   # A_d
  2  2    -1.08396362E+03   # A_s
  3  3    -1.08396362E+03   # A_b
Block AE Q=  4.80362061E+03   #
  1  1    -1.10689026E+02   # A_e
  2  2    -1.10689026E+02   # A_mu
  3  3    -1.10689026E+02   # A_tau
#  ISAJET decay tables in SUSY Les Houches accord format
#  Created by ISALHD. Last revision: C. Balazs, 2005 May 25
Block DCINFO                           # Program information
     1   ISASUGRA from ISAJET          # Spectrum Calculator
     2   7.85   04-NOV-2015 13:42:47   # Version number
#         PDG         Width
DECAY         6  1.16968346E+00   # TP    decays
#          BR          NDA       ID1       ID2       ID3       ID4
      3.33333343E-01    3            2        -1         5             # TP     -->  UP     DB     BT          
      3.33333343E-01    3            4        -3         5             # TP     -->  CH     SB     BT          
      1.11111112E-01    3          -11        12         5             # TP     -->  E+     NUE    BT          
      1.11111112E-01    3          -13        14         5             # TP     -->  MU+    NUM    BT          
      1.11111112E-01    3          -15        16         5             # TP     -->  TAU+   NUT    BT          
#         PDG         Width
DECAY   1000021  1.11723140E-01   # GLSS  decays
#          BR          NDA       ID1       ID2       ID3       ID4
      3.97895053E-02    3      1000024         1        -2             # GLSS   -->  W1SS+  DN     UB          
      3.97895053E-02    3     -1000024         2        -1             # GLSS   -->  W1SS-  UP     DB          
      3.97895053E-02    3      1000024         3        -4             # GLSS   -->  W1SS+  ST     CB          
      3.97895053E-02    3     -1000024         4        -3             # GLSS   -->  W1SS-  CH     SB          
      5.27488701E-02    3      1000024         5        -6             # GLSS   -->  W1SS+  BT     TB          
      5.27488701E-02    3     -1000024         6        -5             # GLSS   -->  W1SS-  TP     BB          
      1.05320127E-03    3      1000037         1        -2             # GLSS   -->  W2SS+  DN     UB          
      1.05320127E-03    3     -1000037         2        -1             # GLSS   -->  W2SS-  UP     DB          
      1.05320127E-03    3      1000037         3        -4             # GLSS   -->  W2SS+  ST     CB          
      1.05320127E-03    3     -1000037         4        -3             # GLSS   -->  W2SS-  CH     SB          
      1.18311644E-01    3      1000037         5        -6             # GLSS   -->  W2SS+  BT     TB          
      1.18311644E-01    3     -1000037         6        -5             # GLSS   -->  W2SS-  TP     BB          
      9.04374610E-06    2      1000022        21                       # GLSS   -->  Z1SS   GL                 
      2.71909647E-02    3      1000022         2        -2             # GLSS   -->  Z1SS   UP     UB          
      7.95846898E-03    3      1000022         1        -1             # GLSS   -->  Z1SS   DN     DB          
      7.95846898E-03    3      1000022         3        -3             # GLSS   -->  Z1SS   ST     SB          
      2.71909647E-02    3      1000022         4        -4             # GLSS   -->  Z1SS   CH     CB          
      1.01457769E-02    3      1000022         5        -5             # GLSS   -->  Z1SS   BT     BB          
      4.47030365E-02    3      1000022         6        -6             # GLSS   -->  Z1SS   TP     TB          
      6.48263886E-05    2      1000023        21                       # GLSS   -->  Z2SS   GL                 
      1.99210979E-02    3      1000023         2        -2             # GLSS   -->  Z2SS   UP     UB          
      1.97942089E-02    3      1000023         1        -1             # GLSS   -->  Z2SS   DN     DB          
      1.97942089E-02    3      1000023         3        -3             # GLSS   -->  Z2SS   ST     SB          
      1.99210979E-02    3      1000023         4        -4             # GLSS   -->  Z2SS   CH     CB          
      2.92502288E-02    3      1000023         5        -5             # GLSS   -->  Z2SS   BT     BB          
      2.37246174E-02    3      1000023         6        -6             # GLSS   -->  Z2SS   TP     TB          
      1.04579888E-03    2      1000025        21                       # GLSS   -->  Z3SS   GL                 
      1.80161840E-06    3      1000025         2        -2             # GLSS   -->  Z3SS   UP     UB          
      2.17157981E-06    3      1000025         1        -1             # GLSS   -->  Z3SS   DN     DB          
      2.17157981E-06    3      1000025         3        -3             # GLSS   -->  Z3SS   ST     SB          
      1.80161840E-06    3      1000025         4        -4             # GLSS   -->  Z3SS   CH     CB          
      3.18469033E-02    3      1000025         5        -5             # GLSS   -->  Z3SS   BT     BB          
      8.23289305E-02    3      1000025         6        -6             # GLSS   -->  Z3SS   TP     TB          
      9.97971860E-04    2      1000035        21                       # GLSS   -->  Z4SS   GL                 
      5.38928143E-04    3      1000035         2        -2             # GLSS   -->  Z4SS   UP     UB          
      5.93338918E-04    3      1000035         1        -1             # GLSS   -->  Z4SS   DN     DB          
      5.93338918E-04    3      1000035         3        -3             # GLSS   -->  Z4SS   ST     SB          
      5.38928143E-04    3      1000035         4        -4             # GLSS   -->  Z4SS   CH     CB          
      3.06746960E-02    3      1000035         5        -5             # GLSS   -->  Z4SS   BT     BB          
      8.77143517E-02    3      1000035         6        -6             # GLSS   -->  Z4SS   TP     TB          
      5.70271682E-17    2      1000039        21                       # GLSS   -->  GVSS   GL                 
#         PDG         Width
DECAY   1000002  1.23190681E+02   # UPL   decays
#          BR          NDA       ID1       ID2       ID3       ID4
      5.87510411E-03    2      1000022         2                       # UPL    -->  Z1SS   UP                 
      1.52739748E-01    2      1000023         2                       # UPL    -->  Z2SS   UP                 
      2.69702432E-05    2      1000025         2                       # UPL    -->  Z3SS   UP                 
      5.36570139E-03    2      1000035         2                       # UPL    -->  Z4SS   UP                 
      5.19837976E-01    2      1000021         2                       # UPL    -->  GLSS   UP                 
      3.07116628E-01    2      1000024         1                       # UPL    -->  W1SS+  DN                 
      9.03783832E-03    2      1000037         1                       # UPL    -->  W2SS+  DN                 
#         PDG         Width
DECAY   1000001  1.23205658E+02   # DNL   decays
#          BR          NDA       ID1       ID2       ID3       ID4
      6.08361652E-03    2      1000022         1                       # DNL    -->  Z1SS   DN                 
      1.51869833E-01    2      1000023         1                       # DNL    -->  Z2SS   DN                 
      4.66998354E-05    2      1000025         1                       # DNL    -->  Z3SS   DN                 
      5.99048659E-03    2      1000035         1                       # DNL    -->  Z4SS   DN                 
      5.20079017E-01    2      1000021         1                       # DNL    -->  GLSS   DN                 
      3.03519398E-01    2     -1000024         2                       # DNL    -->  W1SS-  UP                 
      1.24109257E-02    2     -1000037         2                       # DNL    -->  W2SS-  UP                 
#         PDG         Width
DECAY   1000003  1.23205650E+02   # STL   decays
#          BR          NDA       ID1       ID2       ID3       ID4
      6.08361652E-03    2      1000022         3                       # STL    -->  Z1SS   ST                 
      1.51869833E-01    2      1000023         3                       # STL    -->  Z2SS   ST                 
      4.66998354E-05    2      1000025         3                       # STL    -->  Z3SS   ST                 
      5.99048659E-03    2      1000035         3                       # STL    -->  Z4SS   ST                 
      5.20079076E-01    2      1000021         3                       # STL    -->  GLSS   ST                 
      3.03519398E-01    2     -1000024         4                       # STL    -->  W1SS-  CH                 
      1.24109238E-02    2     -1000037         4                       # STL    -->  W2SS-  CH                 
#         PDG         Width
DECAY   1000004  1.23190636E+02   # CHL   decays
#          BR          NDA       ID1       ID2       ID3       ID4
      5.87510597E-03    2      1000022         4                       # CHL    -->  Z1SS   CH                 
      1.52739778E-01    2      1000023         4                       # CHL    -->  Z2SS   CH                 
      2.69702450E-05    2      1000025         4                       # CHL    -->  Z3SS   CH                 
      5.36570232E-03    2      1000035         4                       # CHL    -->  Z4SS   CH                 
      5.19837856E-01    2      1000021         4                       # CHL    -->  GLSS   CH                 
      3.07116747E-01    2      1000024         3                       # CHL    -->  W1SS+  ST                 
      9.03784111E-03    2      1000037         3                       # CHL    -->  W2SS+  ST                 
#         PDG         Width
DECAY   1000005  7.91296158E+01   # BT1   decays
#          BR          NDA       ID1       ID2       ID3       ID4
      3.46020386E-02    2      1000022         5                       # BT1    -->  Z1SS   BT                 
      1.79856550E-02    2      1000023         5                       # BT1    -->  Z2SS   BT                 
      1.27158105E-01    2      1000025         5                       # BT1    -->  Z3SS   BT                 
      1.14008114E-01    2      1000035         5                       # BT1    -->  Z4SS   BT                 
      4.40501601E-01    2      1000021         5                       # BT1    -->  GLSS   BT                 
      3.46563682E-02    2     -1000024         6                       # BT1    -->  W1SS-  TP                 
      2.31083438E-01    2     -1000037         6                       # BT1    -->  W2SS-  TP                 
      4.67783502E-06    2          -24   1000006                       # BT1    -->  W-     TP1                
#         PDG         Width
DECAY   1000006  1.18825073E+02   # TP1   decays
#          BR          NDA       ID1       ID2       ID3       ID4
      1.76764444E-01    2      1000021         6                       # TP1    -->  GLSS   TP                 
      8.41325298E-02    2      1000022         6                       # TP1    -->  Z1SS   TP                 
      7.68740103E-03    2      1000023         6                       # TP1    -->  Z2SS   TP                 
      1.84933379E-01    2      1000025         6                       # TP1    -->  Z3SS   TP                 
      1.76509574E-01    2      1000035         6                       # TP1    -->  Z4SS   TP                 
      1.45531697E-02    2      1000024         5                       # TP1    -->  W1SS+  BT                 
      3.55419517E-01    2      1000037         5                       # TP1    -->  W2SS+  BT                 
#         PDG         Width
DECAY   2000002  5.82733154E+01   # UPR   decays
#          BR          NDA       ID1       ID2       ID3       ID4
      1.91062048E-01    2      1000022         2                       # UPR    -->  Z1SS   UP                 
      9.87337626E-06    2      1000023         2                       # UPR    -->  Z2SS   UP                 
      2.10378439E-05    2      1000025         2                       # UPR    -->  Z3SS   UP                 
      1.34339702E-04    2      1000035         2                       # UPR    -->  Z4SS   UP                 
      8.08772683E-01    2      1000021         2                       # UPR    -->  GLSS   UP                 
#         PDG         Width
DECAY   2000001  4.81081734E+01   # DNR   decays
#          BR          NDA       ID1       ID2       ID3       ID4
      5.74864000E-02    2      1000022         1                       # DNR    -->  Z1SS   DN                 
      2.96577809E-06    2      1000023         1                       # DNR    -->  Z2SS   DN                 
      6.31343300E-06    2      1000025         1                       # DNR    -->  Z3SS   DN                 
      4.03135455E-05    2      1000035         1                       # DNR    -->  Z4SS   DN                 
      9.42463994E-01    2      1000021         1                       # DNR    -->  GLSS   DN                 
#         PDG         Width
DECAY   2000003  4.81081734E+01   # STR   decays
#          BR          NDA       ID1       ID2       ID3       ID4
      5.74864000E-02    2      1000022         3                       # STR    -->  Z1SS   ST                 
      2.96577809E-06    2      1000023         3                       # STR    -->  Z2SS   ST                 
      6.31343300E-06    2      1000025         3                       # STR    -->  Z3SS   ST                 
      4.03135455E-05    2      1000035         3                       # STR    -->  Z4SS   ST                 
      9.42463994E-01    2      1000021         3                       # STR    -->  GLSS   ST                 
#         PDG         Width
DECAY   2000004  5.82732773E+01   # CHR   decays
#          BR          NDA       ID1       ID2       ID3       ID4
      1.91062152E-01    2      1000022         4                       # CHR    -->  Z1SS   CH                 
      9.87338080E-06    2      1000023         4                       # CHR    -->  Z2SS   CH                 
      2.10378530E-05    2      1000025         4                       # CHR    -->  Z3SS   CH                 
      1.34339760E-04    2      1000035         4                       # CHR    -->  Z4SS   CH                 
      8.08772624E-01    2      1000021         4                       # CHR    -->  GLSS   CH                 
#         PDG         Width
DECAY   2000005  1.74489883E+02   # BT2   decays
#          BR          NDA       ID1       ID2       ID3       ID4
      3.83238983E-03    2      1000022         5                       # BT2    -->  Z1SS   BT                 
      9.70769152E-02    2      1000023         5                       # BT2    -->  Z2SS   BT                 
      6.23783916E-02    2      1000025         5                       # BT2    -->  Z3SS   BT                 
      6.68176934E-02    2      1000035         5                       # BT2    -->  Z4SS   BT                 
      2.68678963E-01    2      1000021         5                       # BT2    -->  GLSS   BT                 
      1.95548162E-01    2     -1000024         6                       # BT2    -->  W1SS-  TP                 
      2.99292445E-01    2     -1000037         6                       # BT2    -->  W2SS-  TP                 
      8.83116387E-04    2          -24   1000006                       # BT2    -->  W-     TP1                
      1.45012420E-03    2           23   1000005                       # BT2    -->  Z0     BT1                
      4.04177094E-03    2           25   1000005                       # BT2    -->  HL0    BT1                
#         PDG         Width
DECAY   2000006  1.77810776E+02   # TP2   decays
#          BR          NDA       ID1       ID2       ID3       ID4
      2.68746138E-01    2      1000021         6                       # TP2    -->  GLSS   TP                 
      2.03357413E-01    2      1000024         5                       # TP2    -->  W1SS+  BT                 
      1.24664553E-01    2      1000037         5                       # TP2    -->  W2SS+  BT                 
      5.24238800E-04    2           23   1000006                       # TP2    -->  Z0     TP1                
      2.06608861E-03    2           25   1000006                       # TP2    -->  HL0    TP1                
      4.70614061E-03    2           24   1000005                       # TP2    -->  W+     BT1                
      3.88787244E-03    2      1000022         6                       # TP2    -->  Z1SS   TP                 
      1.02226190E-01    2      1000023         6                       # TP2    -->  Z2SS   TP                 
      1.44649729E-01    2      1000025         6                       # TP2    -->  Z3SS   TP                 
      1.45171613E-01    2      1000035         6                       # TP2    -->  Z4SS   TP                 
#         PDG         Width
DECAY   1000011  4.79687786E+00   # EL-   decays
#          BR          NDA       ID1       ID2       ID3       ID4
      3.42022210E-01    2      1000022        11                       # EL-    -->  Z1SS   E-                 
      2.20412254E-01    2      1000023        11                       # EL-    -->  Z2SS   E-                 
      2.54293968E-06    2      1000025        11                       # EL-    -->  Z3SS   E-                 
      8.28762481E-04    2      1000035        11                       # EL-    -->  Z4SS   E-                 
      4.34615135E-01    2     -1000024        12                       # EL-    -->  W1SS-  NUE                
      2.11909157E-03    2     -1000037        12                       # EL-    -->  W2SS-  NUE                
      3.53673317E-20    2           11   1000039                       # EL-    -->  E-     GVSS               
#         PDG         Width
DECAY   1000013  4.79687786E+00   # MUL-  decays
#          BR          NDA       ID1       ID2       ID3       ID4
      3.42022240E-01    2      1000022        13                       # MUL-   -->  Z1SS   MU-                
      2.20412239E-01    2      1000023        13                       # MUL-   -->  Z2SS   MU-                
      2.54293877E-06    2      1000025        13                       # MUL-   -->  Z3SS   MU-                
      8.28762189E-04    2      1000035        13                       # MUL-   -->  Z4SS   MU-                
      4.34615135E-01    2     -1000024        14                       # MUL-   -->  W1SS-  NUM                
      2.11909157E-03    2     -1000037        14                       # MUL-   -->  W2SS-  NUM                
      3.53673317E-20    2           13   1000039                       # MUL-   -->  MU-    GVSS               
#         PDG         Width
DECAY   1000015  0   # TAU1- decays
#          BR          NDA       ID1       ID2       ID3       ID4
      1.00000000E+00    2           15   1000039                       # TAU1-  -->  TAU-   GVSS               
#         PDG         Width
DECAY   1000012  4.67692137E+00   # NUEL  decays
#          BR          NDA       ID1       ID2       ID3       ID4
      3.51505786E-01    2      1000022        12                       # NUEL   -->  Z1SS   NUE                
      2.13258088E-01    2      1000023        12                       # NUEL   -->  Z2SS   NUE                
      1.28403444E-05    2      1000025        12                       # NUEL   -->  Z3SS   NUE                
      1.01092050E-03    2      1000035        12                       # NUEL   -->  Z4SS   NUE                
      4.32862401E-01    2      1000024        11                       # NUEL   -->  W1SS+  E-                 
      1.34995487E-03    2      1000037        11                       # NUEL   -->  W2SS+  E-                 
      3.53515345E-20    2           12   1000039                       # NUEL   -->  NUE    GVSS               
#         PDG         Width
DECAY   1000014  4.67692137E+00   # NUML  decays
#          BR          NDA       ID1       ID2       ID3       ID4
      3.51505786E-01    2      1000022        14                       # NUML   -->  Z1SS   NUM                
      2.13258088E-01    2      1000023        14                       # NUML   -->  Z2SS   NUM                
      1.28403444E-05    2      1000025        14                       # NUML   -->  Z3SS   NUM                
      1.01092050E-03    2      1000035        14                       # NUML   -->  Z4SS   NUM                
      4.32862401E-01    2      1000024        13                       # NUML   -->  W1SS+  MU-                
      1.34995428E-03    2      1000037        13                       # NUML   -->  W2SS+  MU-                
      3.53515345E-20    2           14   1000039                       # NUML   -->  NUM    GVSS               
#         PDG         Width
DECAY   1000016  8.93115139E+00   # NUTL  decays
#          BR          NDA       ID1       ID2       ID3       ID4
      1.76994503E-01    2      1000022        16                       # NUTL   -->  Z1SS   NUT                
      9.36094224E-02    2      1000023        16                       # NUTL   -->  Z2SS   NUT                
      3.24692792E-06    2      1000025        16                       # NUTL   -->  Z3SS   NUT                
      2.34779043E-04    2      1000035        16                       # NUTL   -->  Z4SS   NUT                
      1.94921985E-01    2      1000024        15                       # NUTL   -->  W1SS+  TAU-               
      6.63727382E-03    2      1000037        15                       # NUTL   -->  W2SS+  TAU-               
      5.27598798E-01    2           24   1000015                       # NUTL   -->  W+     TAU1-              
      1.66889327E-20    2           16   1000039                       # NUTL   -->  NUT    GVSS               
#         PDG         Width
DECAY   2000011  4.53091115E-01   # ER-   decays
#          BR          NDA       ID1       ID2       ID3       ID4
      1.00000000E+00    2      1000022        11                       # ER-    -->  Z1SS   E-                 
      1.21582980E-10    3      1000015        11       -15             # ER-    -->  TAU1-  E-     TAU+        
      1.46855375E-10    3     -1000015        11        15             # ER-    -->  TAU1+  E-     TAU-        
      1.24506787E-14    3      1000015        12       -16             # ER-    -->  TAU1-  NUE    ANUT        
      1.21241349E-20    2           11   1000039                       # ER-    -->  E-     GVSS               
#         PDG         Width
DECAY   2000013  4.53091025E-01   # MUR-  decays
#          BR          NDA       ID1       ID2       ID3       ID4
      1.00000000E+00    2      1000022        13                       # MUR-   -->  Z1SS   MU-                
      1.21583008E-10    3      1000015        13       -15             # MUR-   -->  TAU1-  MU-    TAU+        
      1.46855403E-10    3     -1000015        13        15             # MUR-   -->  TAU1+  MU-    TAU-        
      5.29944477E-10    3      1000015        14       -16             # MUR-   -->  TAU1-  NUM    ANUT        
      1.21241373E-20    2           13   1000039                       # MUR-   -->  MU-    GVSS               
#         PDG         Width
DECAY   2000015  9.83197784E+00   # TAU2- decays
#          BR          NDA       ID1       ID2       ID3       ID4
      1.60652921E-01    2      1000022        15                       # TAU2-  -->  Z1SS   TAU-               
      9.00906026E-02    2      1000023        15                       # TAU2-  -->  Z2SS   TAU-               
      4.50662663E-03    2      1000025        15                       # TAU2-  -->  Z3SS   TAU-               
      3.72279552E-03    2      1000035        15                       # TAU2-  -->  Z4SS   TAU-               
      1.72747150E-01    2     -1000024        16                       # TAU2-  -->  W1SS-  NUT                
      6.26791094E-04    2     -1000037        16                       # TAU2-  -->  W2SS-  NUT                
      2.45243475E-01    2           23   1000015                       # TAU2-  -->  Z0     TAU1-              
      3.22409660E-01    2           25   1000015                       # TAU2-  -->  HL0    TAU1-              
#         PDG         Width
DECAY   1000022  0   # Z1SS  decays
#          BR          NDA       ID1       ID2       ID3       ID4
      5.00000000E-01    2      1000015       -15                       # Z1SS   -->  TAU1-  TAU+               
      5.00000000E-01    2     -1000015        15                       # Z1SS   -->  TAU1+  TAU-               
      5.40951471E-18    2      1000039        22                       # Z1SS   -->  GVSS   GM                 
      1.27973746E-19    3      1000039        11       -11             # Z1SS   -->  GVSS   E-     E+          
      1.56424910E-18    2      1000039        23                       # Z1SS   -->  GVSS   Z0                 
      5.09257349E-22    2      1000039        25                       # Z1SS   -->  GVSS   HL0                
#         PDG         Width
DECAY   1000023  1.95645839E-01   # Z2SS  decays
#          BR          NDA       ID1       ID2       ID3       ID4
      5.67993709E-07    2      1000022        22                       # Z2SS   -->  Z1SS   GM                 
      1.71105601E-02    2      1000022        23                       # Z2SS   -->  Z1SS   Z0                 
      4.36334346E-07    3      1000022         2        -2             # Z2SS   -->  Z1SS   UP     UB          
      4.48751052E-07    3      1000022         1        -1             # Z2SS   -->  Z1SS   DN     DB          
      4.48751052E-07    3      1000022         3        -3             # Z2SS   -->  Z1SS   ST     SB          
      4.36334346E-07    3      1000022         4        -4             # Z2SS   -->  Z1SS   CH     CB          
      1.15649254E-05    3      1000022         5        -5             # Z2SS   -->  Z1SS   BT     BB          
      2.16707980E-04    3      1000022        11       -11             # Z2SS   -->  Z1SS   E-     E+          
      2.16707980E-04    3      1000022        13       -13             # Z2SS   -->  Z1SS   MU-    MU+         
      2.52708473E-04    3      1000022        15       -15             # Z2SS   -->  Z1SS   TAU-   TAU+        
      2.23225361E-04    3      1000022        12       -12             # Z2SS   -->  Z1SS   NUE    ANUE        
      2.23225361E-04    3      1000022        14       -14             # Z2SS   -->  Z1SS   NUM    ANUM        
      2.58019922E-04    3      1000022        16       -16             # Z2SS   -->  Z1SS   NUT    ANUT        
      1.97570056E-01    2      1000022        25                       # Z2SS   -->  Z1SS   HL0                
      4.18489159E-04    2      2000011       -11                       # Z2SS   -->  ER-    E+                 
      4.18489159E-04    2     -2000011        11                       # Z2SS   -->  ER+    E-                 
      4.18489100E-04    2      2000013       -13                       # Z2SS   -->  MUR-   MU+                
      4.18489100E-04    2     -2000013        13                       # Z2SS   -->  MUR+   MU-                
      3.91120464E-01    2      1000015       -15                       # Z2SS   -->  TAU1-  TAU+               
      3.91120464E-01    2     -1000015        15                       # Z2SS   -->  TAU1+  TAU-               
      6.32553803E-20    2      1000039        22                       # Z2SS   -->  GVSS   GM                 
      1.56335702E-21    3      1000039        11       -11             # Z2SS   -->  GVSS   E-     E+          
      2.01248519E-19    2      1000039        23                       # Z2SS   -->  GVSS   Z0                 
      2.07546886E-21    2      1000039        25                       # Z2SS   -->  GVSS   HL0                
#         PDG         Width
DECAY   1000025  7.47965145E+00   # Z3SS  decays
#          BR          NDA       ID1       ID2       ID3       ID4
      6.29105301E-08    2      1000022        22                       # Z3SS   -->  Z1SS   GM                 
      9.44617753E-08    2      1000023        22                       # Z3SS   -->  Z2SS   GM                 
      1.51428550E-01    2      1000024       -24                       # Z3SS   -->  W1SS+  W-                 
      1.51428550E-01    2     -1000024        24                       # Z3SS   -->  W1SS-  W+                 
      1.14663474E-01    2      1000022        23                       # Z3SS   -->  Z1SS   Z0                 
      1.55145958E-01    2      1000023        23                       # Z3SS   -->  Z2SS   Z0                 
      3.07966222E-11    3      1000022         2        -2             # Z3SS   -->  Z1SS   UP     UB          
      7.80876665E-12    3      1000022         1        -1             # Z3SS   -->  Z1SS   DN     DB          
      7.80876665E-12    3      1000022         3        -3             # Z3SS   -->  Z1SS   ST     SB          
      3.07966222E-11    3      1000022         4        -4             # Z3SS   -->  Z1SS   CH     CB          
      1.61365606E-05    3      1000022         5        -5             # Z3SS   -->  Z1SS   BT     BB          
      1.64632130E-09    3      1000022        11       -11             # Z3SS   -->  Z1SS   E-     E+          
      1.64632130E-09    3      1000022        13       -13             # Z3SS   -->  Z1SS   MU-    MU+         
      1.85743265E-05    3      1000022        15       -15             # Z3SS   -->  Z1SS   TAU-   TAU+        
      1.00697841E-08    3      1000022        12       -12             # Z3SS   -->  Z1SS   NUE    ANUE        
      1.00697841E-08    3      1000022        14       -14             # Z3SS   -->  Z1SS   NUM    ANUM        
      1.31697311E-08    3      1000022        16       -16             # Z3SS   -->  Z1SS   NUT    ANUT        
      2.74979746E-13    3      1000023         2        -2             # Z3SS   -->  Z2SS   UP     UB          
      4.73158134E-13    3      1000023         1        -1             # Z3SS   -->  Z2SS   DN     DB          
      4.73158134E-13    3      1000023         3        -3             # Z3SS   -->  Z2SS   ST     SB          
      2.74979746E-13    3      1000023         4        -4             # Z3SS   -->  Z2SS   CH     CB          
      1.12704406E-07    3      1000023         5        -5             # Z3SS   -->  Z2SS   BT     BB          
      4.36261895E-11    3      1000023        11       -11             # Z3SS   -->  Z2SS   E-     E+          
      4.36261895E-11    3      1000023        13       -13             # Z3SS   -->  Z2SS   MU-    MU+         
      1.13862814E-06    3      1000023        15       -15             # Z3SS   -->  Z2SS   TAU-   TAU+        
      2.69142542E-10    3      1000023        12       -12             # Z3SS   -->  Z2SS   NUE    ANUE        
      2.69142542E-10    3      1000023        14       -14             # Z3SS   -->  Z2SS   NUM    ANUM        
      4.22612362E-10    3      1000023        16       -16             # Z3SS   -->  Z2SS   NUT    ANUT        
      1.71007495E-02    2      1000022        25                       # Z3SS   -->  Z1SS   HL0                
      9.13125812E-04    2      1000023        25                       # Z3SS   -->  Z2SS   HL0                
      4.09058266E-05    2      2000011       -11                       # Z3SS   -->  ER-    E+                 
      4.09058266E-05    2     -2000011        11                       # Z3SS   -->  ER+    E-                 
      4.09058266E-05    2      2000013       -13                       # Z3SS   -->  MUR-   MU+                
      4.09058266E-05    2     -2000013        13                       # Z3SS   -->  MUR+   MU-                
      2.04559907E-01    2      1000015       -15                       # Z3SS   -->  TAU1-  TAU+               
      2.04559907E-01    2     -1000015        15                       # Z3SS   -->  TAU1+  TAU-               
      1.12438058E-25    2      1000039        22                       # Z3SS   -->  GVSS   GM                 
      2.80828107E-27    3      1000039        11       -11             # Z3SS   -->  GVSS   E-     E+          
      3.76619937E-21    2      1000039        23                       # Z3SS   -->  GVSS   Z0                 
      4.05395281E-21    2      1000039        25                       # Z3SS   -->  GVSS   HL0                
#         PDG         Width
DECAY   1000035  8.17936611E+00   # Z4SS  decays
#          BR          NDA       ID1       ID2       ID3       ID4
      2.99661949E-08    2      1000022        22                       # Z4SS   -->  Z1SS   GM                 
      2.40972096E-08    2      1000023        22                       # Z4SS   -->  Z2SS   GM                 
      2.46566986E-11    2      1000025        22                       # Z4SS   -->  Z3SS   GM                 
      1.69973254E-01    2      1000024       -24                       # Z4SS   -->  W1SS+  W-                 
      1.69973254E-01    2     -1000024        24                       # Z4SS   -->  W1SS-  W+                 
      1.53378639E-02    2      1000022        23                       # Z4SS   -->  Z1SS   Z0                 
      1.19833974E-03    2      1000023        23                       # Z4SS   -->  Z2SS   Z0                 
      2.04978834E-09    3      1000022         2        -2             # Z4SS   -->  Z1SS   UP     UB          
      1.90629756E-09    3      1000022         1        -1             # Z4SS   -->  Z1SS   DN     DB          
      1.90629756E-09    3      1000022         3        -3             # Z4SS   -->  Z1SS   ST     SB          
      2.04978834E-09    3      1000022         4        -4             # Z4SS   -->  Z1SS   CH     CB          
      1.40442398E-05    3      1000022         5        -5             # Z4SS   -->  Z1SS   BT     BB          
      1.18162325E-06    3      1000022        11       -11             # Z4SS   -->  Z1SS   E-     E+          
      1.18162325E-06    3      1000022        13       -13             # Z4SS   -->  Z1SS   MU-    MU+         
      2.01175590E-05    3      1000022        15       -15             # Z4SS   -->  Z1SS   TAU-   TAU+        
      1.75518107E-06    3      1000022        12       -12             # Z4SS   -->  Z1SS   NUE    ANUE        
      1.75518107E-06    3      1000022        14       -14             # Z4SS   -->  Z1SS   NUM    ANUM        
      2.21404821E-06    3      1000022        16       -16             # Z4SS   -->  Z1SS   NUT    ANUT        
      1.79076365E-10    3      1000023         2        -2             # Z4SS   -->  Z2SS   UP     UB          
      1.98680475E-10    3      1000023         1        -1             # Z4SS   -->  Z2SS   DN     DB          
      1.98680475E-10    3      1000023         3        -3             # Z4SS   -->  Z2SS   ST     SB          
      1.79076365E-10    3      1000023         4        -4             # Z4SS   -->  Z2SS   CH     CB          
      1.06249679E-07    3      1000023         5        -5             # Z4SS   -->  Z2SS   BT     BB          
      5.07937301E-08    3      1000023        11       -11             # Z4SS   -->  Z2SS   E-     E+          
      5.07937301E-08    3      1000023        13       -13             # Z4SS   -->  Z2SS   MU-    MU+         
      1.42460522E-06    3      1000023        15       -15             # Z4SS   -->  Z2SS   TAU-   TAU+        
      7.62787522E-08    3      1000023        12       -12             # Z4SS   -->  Z2SS   NUE    ANUE        
      7.62787522E-08    3      1000023        14       -14             # Z4SS   -->  Z2SS   NUM    ANUM        
      1.16204937E-07    3      1000023        16       -16             # Z4SS   -->  Z2SS   NUT    ANUT        
      1.50327073E-09    3      1000025         2        -2             # Z4SS   -->  Z3SS   UP     UB          
      1.93848471E-09    3      1000025         1        -1             # Z4SS   -->  Z3SS   DN     DB          
      1.93848471E-09    3      1000025         3        -3             # Z4SS   -->  Z3SS   ST     SB          
      1.50327073E-09    3      1000025         4        -4             # Z4SS   -->  Z3SS   CH     CB          
      4.39764530E-10    3      1000025        11       -11             # Z4SS   -->  Z3SS   E-     E+          
      4.39764530E-10    3      1000025        13       -13             # Z4SS   -->  Z3SS   MU-    MU+         
      3.06211334E-10    3      1000025        15       -15             # Z4SS   -->  Z3SS   TAU-   TAU+        
      8.74829986E-10    3      1000025        12       -12             # Z4SS   -->  Z3SS   NUE    ANUE        
      8.74829986E-10    3      1000025        14       -14             # Z4SS   -->  Z3SS   NUM    ANUM        
      8.74767703E-10    3      1000025        16       -16             # Z4SS   -->  Z3SS   NUT    ANUT        
      1.15168303E-01    2      1000022        25                       # Z4SS   -->  Z1SS   HL0                
      1.73047051E-01    2      1000023        25                       # Z4SS   -->  Z2SS   HL0                
      2.43157017E-04    2      2000011       -11                       # Z4SS   -->  ER-    E+                 
      2.43157017E-04    2     -2000011        11                       # Z4SS   -->  ER+    E-                 
      2.43157017E-04    2      2000013       -13                       # Z4SS   -->  MUR-   MU+                
      2.43157017E-04    2     -2000013        13                       # Z4SS   -->  MUR+   MU-                
      1.77142546E-01    2      1000015       -15                       # Z4SS   -->  TAU1-  TAU+               
      1.77142546E-01    2     -1000015        15                       # Z4SS   -->  TAU1+  TAU-               
      6.99203203E-23    2      1000039        22                       # Z4SS   -->  GVSS   GM                 
      1.74699598E-24    3      1000039        11       -11             # Z4SS   -->  GVSS   E-     E+          
      4.22259345E-21    2      1000039        23                       # Z4SS   -->  GVSS   Z0                 
      3.39008301E-21    2      1000039        25                       # Z4SS   -->  GVSS   HL0                
#         PDG         Width
DECAY   1000024  1.83960170E-01   # W1SS+ decays
#          BR          NDA       ID1       ID2       ID3       ID4
      9.45943384E-07    3      1000022         2        -1             # W1SS+  -->  Z1SS   UP     DB          
      9.45943384E-07    3      1000022         4        -3             # W1SS+  -->  Z1SS   CH     SB          
      4.70766536E-04    3      1000022       -11        12             # W1SS+  -->  Z1SS   E+     NUE         
      4.70766536E-04    3      1000022       -13        14             # W1SS+  -->  Z1SS   MU+    NUM         
      5.46543917E-04    3      1000022       -15        16             # W1SS+  -->  Z1SS   TAU+   NUT         
      2.06054240E-01    2      1000022        24                       # W1SS+  -->  Z1SS   W+                 
      3.17677510E-16    3      1000023       -11        12             # W1SS+  -->  Z2SS   E+     NUE         
      3.17677510E-16    3      1000023       -13        14             # W1SS+  -->  Z2SS   MU+    NUM         
      7.92455792E-01    2     -1000015        16                       # W1SS+  -->  TAU1+  NUT                
#         PDG         Width
DECAY   1000037  7.64988756E+00   # W2SS+ decays
#          BR          NDA       ID1       ID2       ID3       ID4
      3.54704111E-09    3      1000022         2        -1             # W2SS+  -->  Z1SS   UP     DB          
      3.54704111E-09    3      1000022         4        -3             # W2SS+  -->  Z1SS   CH     SB          
      2.93454582E-06    3      1000022       -11        12             # W2SS+  -->  Z1SS   E+     NUE         
      2.93454582E-06    3      1000022       -13        14             # W2SS+  -->  Z1SS   MU+    NUM         
      2.50092071E-05    3      1000022       -15        16             # W2SS+  -->  Z1SS   TAU+   NUT         
      1.21476695E-01    2      1000022        24                       # W2SS+  -->  Z1SS   W+                 
      1.32196573E-10    3      1000023         2        -1             # W2SS+  -->  Z2SS   UP     DB          
      1.32196573E-10    3      1000023         4        -3             # W2SS+  -->  Z2SS   CH     SB          
      4.95733161E-08    3      1000023       -11        12             # W2SS+  -->  Z2SS   E+     NUE         
      4.95733161E-08    3      1000023       -13        14             # W2SS+  -->  Z2SS   MU+    NUM         
      1.54021745E-06    3      1000023       -15        16             # W2SS+  -->  Z2SS   TAU+   NUT         
      1.52465940E-01    2      1000023        24                       # W2SS+  -->  Z2SS   W+                 
      8.99989949E-09    3      1000025         2        -1             # W2SS+  -->  Z3SS   UP     DB          
      8.99989949E-09    3      1000025         4        -3             # W2SS+  -->  Z3SS   CH     SB          
      2.99987257E-09    3      1000025       -11        12             # W2SS+  -->  Z3SS   E+     NUE         
      2.99987257E-09    3      1000025       -13        14             # W2SS+  -->  Z3SS   MU+    NUM         
      3.00046321E-09    3      1000025       -15        16             # W2SS+  -->  Z3SS   TAU+   NUT         
      5.43729219E-14    3      1000035         2        -1             # W2SS+  -->  Z4SS   UP     DB          
      1.81499797E-14    3      1000035       -11        12             # W2SS+  -->  Z4SS   E+     NUE         
      1.81499797E-14    3      1000035       -13        14             # W2SS+  -->  Z4SS   MU+    NUM         
      3.79404932E-01    2     -1000015        16                       # W2SS+  -->  TAU1+  NUT                
      1.57483920E-01    2      1000024        23                       # W2SS+  -->  W1SS+  Z0                 
      2.18980417E-10    3      1000024         1        -1             # W2SS+  -->  W1SS+  DN     DB          
      2.18980417E-10    3      1000024         3        -3             # W2SS+  -->  W1SS+  ST     SB          
      2.97023128E-10    3      1000024         2        -2             # W2SS+  -->  W1SS+  UP     UB          
      2.97023128E-10    3      1000024         4        -4             # W2SS+  -->  W1SS+  CH     CB          
      9.78771197E-08    3      1000024        12       -12             # W2SS+  -->  W1SS+  NUE    ANUE        
      9.78771197E-08    3      1000024        14       -14             # W2SS+  -->  W1SS+  NUM    ANUM        
      7.93900767E-08    3      1000024        11       -11             # W2SS+  -->  W1SS+  E-     E+          
      7.93900767E-08    3      1000024        13       -13             # W2SS+  -->  W1SS+  MU-    MU+         
      1.23135521E-07    3      1000024        15       -15             # W2SS+  -->  W1SS+  TAU-   TAU+        
      1.89135477E-01    2      1000024        25                       # W2SS+  -->  W1SS+  HL0                
#         PDG         Width
DECAY        25  4.68325289E-03   # HL0   decays
#          BR          NDA       ID1       ID2       ID3       ID4
      4.48218840E-09    2           11       -11                       # HL0    -->  E-     E+                 
      1.89245242E-04    2           13       -13                       # HL0    -->  MU-    MU+                
      5.41341454E-02    2           15       -15                       # HL0    -->  TAU-   TAU+               
      5.62056084E-06    2            1        -1                       # HL0    -->  DN     DB                 
      2.27098865E-03    2            3        -3                       # HL0    -->  ST     SB                 
      7.38152623E-01    2            5        -5                       # HL0    -->  BT     BB                 
      1.77819300E-06    2            2        -2                       # HL0    -->  UP     UB                 
      3.31675895E-02    2            4        -4                       # HL0    -->  CH     CB                 
      2.01799045E-03    2           22        22                       # HL0    -->  GM     GM                 
      4.16282751E-02    2           21        21                       # HL0    -->  GL     GL                 
      6.47443486E-03    3           24        11       -12             # HL0    -->  W+     E-     ANUE        
      6.47443486E-03    3           24        13       -14             # HL0    -->  W+     MU-    ANUM        
      6.47443486E-03    3           24        15       -16             # HL0    -->  W+     TAU-   ANUT        
      1.94233060E-02    3           24        -2         1             # HL0    -->  W+     UB     DN          
      1.94233060E-02    3           24        -4         3             # HL0    -->  W+     CB     ST          
      6.47443486E-03    3          -24       -11        12             # HL0    -->  W-     E+     NUE         
      6.47443486E-03    3          -24       -13        14             # HL0    -->  W-     MU+    NUM         
      6.47443486E-03    3          -24       -15        16             # HL0    -->  W-     TAU+   NUT         
      1.94233060E-02    3          -24         2        -1             # HL0    -->  W-     UP     DB          
      1.94233060E-02    3          -24         4        -3             # HL0    -->  W-     CH     SB          
      8.13288440E-04    3           23        12       -12             # HL0    -->  Z0     NUE    ANUE        
      8.13288440E-04    3           23        14       -14             # HL0    -->  Z0     NUM    ANUM        
      8.13288440E-04    3           23        16       -16             # HL0    -->  Z0     NUT    ANUT        
      4.09319939E-04    3           23        11       -11             # HL0    -->  Z0     E-     E+          
      4.09319939E-04    3           23        13       -13             # HL0    -->  Z0     MU-    MU+         
      4.09319939E-04    3           23        15       -15             # HL0    -->  Z0     TAU-   TAU+        
      1.40229531E-03    3           23         2        -2             # HL0    -->  Z0     UP     UB          
      1.40229531E-03    3           23         4        -4             # HL0    -->  Z0     CH     CB          
      1.80650188E-03    3           23         1        -1             # HL0    -->  Z0     DN     DB          
      1.80650188E-03    3           23         3        -3             # HL0    -->  Z0     ST     SB          
      1.80650188E-03    3           23         5        -5             # HL0    -->  Z0     BT     BB          
#         PDG         Width
DECAY        35  6.19393845E+01   # HH0   decays
#          BR          NDA       ID1       ID2       ID3       ID4
      1.23249482E-08    2           11       -11                       # HH0    -->  E-     E+                 
      5.20381553E-04    2           13       -13                       # HH0    -->  MU-    MU+                
      1.49044514E-01    2           15       -15                       # HH0    -->  TAU-   TAU+               
      1.50206224E-05    2            1        -1                       # HH0    -->  DN     DB                 
      6.06909208E-03    2            3        -3                       # HH0    -->  ST     SB                 
      8.43720317E-01    2            5        -5                       # HH0    -->  BT     BB                 
      9.15661752E-13    2            2        -2                       # HH0    -->  UP     UB                 
      1.19581944E-08    2            4        -4                       # HH0    -->  CH     CB                 
      6.14929886E-04    2            6        -6                       # HH0    -->  TP     TB                 
      4.15689838E-09    2           22        22                       # HH0    -->  GM     GM                 
      6.83587530E-07    2           21        21                       # HH0    -->  GL     GL                 
      5.36352502E-07    2           24       -24                       # HH0    -->  W+     W-                 
      2.74502952E-07    2           23        23                       # HH0    -->  Z0     Z0                 
      1.24920298E-05    2      1000022   1000022                       # HH0    -->  Z1SS   Z1SS               
      1.43783052E-06    2           25        25                       # HH0    -->  HL0    HL0                
      1.03712132E-08    2      2000011  -2000011                       # HH0    -->  ER-    ER+                
      1.02371391E-08    2      2000013  -2000013                       # HH0    -->  MUR-   MUR+               
      2.86407726E-07    2      1000015  -1000015                       # HH0    -->  TAU1-  TAU1+              
#         PDG         Width
DECAY        36  6.15401611E+01   # HA0   decays
#          BR          NDA       ID1       ID2       ID3       ID4
      1.23238495E-08    2           11       -11                       # HA0    -->  E-     E+                 
      5.20335161E-04    2           13       -13                       # HA0    -->  MU-    MU+                
      1.49031714E-01    2           15       -15                       # HA0    -->  TAU-   TAU+               
      1.50200040E-05    2            1        -1                       # HA0    -->  DN     DB                 
      6.06884202E-03    2            3        -3                       # HA0    -->  ST     SB                 
      8.43694866E-01    2            5        -5                       # HA0    -->  BT     BB                 
      9.05338196E-13    2            2        -2                       # HA0    -->  UP     UB                 
      1.18319496E-08    2            4        -4                       # HA0    -->  CH     CB                 
      6.23855216E-04    2            6        -6                       # HA0    -->  TP     TB                 
      1.69220762E-08    2           22        22                       # HA0    -->  GM     GM                 
      4.70744362E-06    2           21        21                       # HA0    -->  GL     GL                 
      4.01152429E-05    2      1000022   1000022                       # HA0    -->  Z1SS   Z1SS               
      5.31771889E-07    2           25        23                       # HA0    -->  HL0    Z0                 
#         PDG         Width
DECAY        37  5.72309380E+01   # H+    decays
#          BR          NDA       ID1       ID2       ID3       ID4
      1.33529108E-08    2           12       -11                       # H+     -->  NUE    E+                 
      5.63783979E-04    2           14       -13                       # H+     -->  NUM    MU+                
      1.61476105E-01    2           16       -15                       # H+     -->  NUT    TAU+               
      1.50357746E-05    2            2        -1                       # H+     -->  UP     DB                 
      6.07521972E-03    2            4        -3                       # H+     -->  CH     SB                 
      8.31869245E-01    2            6        -5                       # H+     -->  TP     BB                 
      5.78396623E-07    2           25        24                       # H+     -->  HL0    W+                 
