#  ISAJET SUSY parameters in SUSY Les Houches Accord 2 format
#  Created by ISALHA 2.0 Last revision: H Baer 27 May 2014
Block SPINFO   # Program information
     1   ISASUGRA/ISASUSY from ISAJET   # Spectrum Calculator
     2   7.85   04-NOV-2015 13:42:47    # Version number
Block MODSEL   # Model selection
     1     2   # Minimal gauge mediated (GMSB) model               
Block SMINPUTS   # Standard Model inputs
     1     1.28000000E+02   # alpha_em^(-1)
     2     1.16570000E-05   # G_Fermi
     3     1.19999997E-01   # alpha_s(M_Z)
     4     9.11699982E+01   # m_{Z}(pole)
     5     4.19999981E+00   # m_{b}(m_{b})
     6     1.73339996E+02   # m_{top}(pole)
     7     1.77699995E+00   # m_{tau}(pole)
Block MINPAR   # SUSY breaking input parameters
     1     6.00000000E+05   # Lambda scale of soft SSB
     2     1.00000000E+06   # M_mess overall messenger scale
     3     4.60000000E+01   # tan(beta)
     4     1.00000000E+00   # sign(mu)
     5     1.00000000E+00   # N_5 messenger index
     6     1.00000000E+05   # c_grav gravitino mass factor
    51     1.00000000E+00   # N5_1  U(1)_Y messenger index
    52     1.00000000E+00   # N5_2 SU(2)_L messenger index
    53     1.00000000E+00   # N5_3 SU(3)_C messenger index
   101     1.00000000E+00   # Rsl
   102     0.00000000E+00   # dmH_d^2
   103     0.00000000E+00   # dmH_u^2
   104     0.00000000E+00   # d_Y
Block MASS   # Scalar and gaugino mass spectrum
#  PDG code   mass                 particle
         6     1.73339996E+02   #  top            
        24     8.04229965E+01   #  W^+
        25     1.22439209E+02   #  h^0            
        35     2.16744116E+03   #  H^0            
        36     2.15326953E+03   #  A^0            
        37     2.16924707E+03   #  H^+            
   1000001     5.93069580E+03   #  dnl            
   1000002     5.93014697E+03   #  upl            
   1000003     5.93069580E+03   #  stl            
   1000004     5.93014697E+03   #  chl            
   1000005     5.41584424E+03   #  b1             
   1000006     5.12523682E+03   #  t1             
   1000011     2.08682544E+03   #  el-            
   1000012     2.07633423E+03   #  nuel           
   1000013     2.08682544E+03   #  mul-           
   1000014     2.07633423E+03   #  numl           
   1000015     8.92879578E+02   #  tau1           
   1000016     2.03628308E+03   #  nutl           
   1000021     4.32862061E+03   #  glss           
   1000022     8.89862549E+02   #  z1ss           
   1000023     1.67868591E+03   #  z2ss           
   1000024     1.67925928E+03   #  w1ss           
   1000025    -1.89470789E+03   #  z3ss           
   1000035     1.90669788E+03   #  z4ss           
   1000037     1.90773975E+03   #  w2ss           
   1000039     1.44337574E-02   #  gvss
   2000001     5.59596094E+03   #  dnr            
   2000002     5.62909326E+03   #  upr            
   2000003     5.59596094E+03   #  str            
   2000004     5.62909326E+03   #  chr            
   2000005     5.63903662E+03   #  b2             
   2000006     5.67020801E+03   #  t2             
   2000011     1.05173096E+03   #  er-            
   2000013     1.05173096E+03   #  mur-           
   2000015     2.04291455E+03   #  tau2           
Block ALPHA   # Effective Higgs mixing parameter
         -2.18363348E-02   # alpha
Block STOPMIX   # stop mixing matrix
  1  1     1.67732276E-02   # O_{11}
  1  2     9.99859333E-01   # O_{12}
  2  1    -9.99859333E-01   # O_{21}
  2  2     1.67732276E-02   # O_{22}
Block SBOTMIX   # sbottom mixing matrix
  1  1     1.12828359E-01   # O_{11}
  1  2     9.93614495E-01   # O_{12}
  2  1    -9.93614495E-01   # O_{21}
  2  2     1.12828359E-01   # O_{22}
Block STAUMIX   # stau mixing matrix
  1  1     3.80834788E-02   # O_{11}
  1  2     9.99274552E-01   # O_{12}
  2  1    -9.99274552E-01   # O_{21}
  2  2     3.80834788E-02   # O_{22}
Block NMIX   # neutralino mixing matrix
  1  1     9.99507785E-01   #
  1  2    -1.38978707E-03   #
  1  3     2.84427721E-02   #
  1  4    -1.31628532E-02   #
  2  1     8.28622561E-03   #
  2  2     9.72955644E-01   #
  2  3    -1.72820240E-01   #
  2  4     1.53041378E-01   #
  3  1    -1.07788518E-02   #
  3  2     1.43899526E-02   #
  3  3     7.06771255E-01   #
  3  4     7.07213521E-01   #
  4  1     2.82725487E-02   #
  4  2    -2.30538815E-01   #
  4  3    -6.85418367E-01   #
  4  4     6.90111399E-01   #
Block UMIX   # chargino U mixing matrix
  1  1    -9.72387850E-01   # U_{11}
  1  2     2.33370617E-01   # U_{12}
  2  1    -2.33370617E-01   # U_{21}
  2  2    -9.72387850E-01   # U_{22}
Block VMIX   # chargino V mixing matrix
  1  1    -9.78580594E-01   # V_{11}
  1  2     2.05864176E-01   # V_{12}
  2  1    -2.05864176E-01   # V_{21}
  2  2    -9.78580594E-01   # V_{22}
Block GAUGE Q=  5.23119434E+03   #
     1     3.57515603E-01   # g`
     2     6.52412236E-01   # g_2
     3     1.21976948E+00   # g_3
Block YU Q=  5.23119434E+03   #
  3  3     8.19643795E-01   # y_t
Block YD Q=  5.23119434E+03   #
  3  3     5.02932191E-01   # y_b
Block YE Q=  5.23119434E+03   #
  3  3     5.04070222E-01   # y_tau
Block HMIX Q=  5.23119434E+03   # Higgs mixing parameters
     1     1.87340381E+03   # mu(Q)
     2     4.51301270E+01   # tan(beta)(Q)
     3     2.52368103E+02   # Higgs vev at Q
     4     4.63656950E+06   # m_A^2(Q)
Block MSOFT Q=  5.23119434E+03   # DRbar SUSY breaking parameters
     1     9.06225891E+02   # M_1(Q)          
     2     1.62850342E+03   # M_2(Q)          
     3     3.95782422E+03   # M_3(Q)          
    21     1.42297400E+06   # MHd^2(Q)        
    22    -2.83089250E+06   # MHu^2(Q)        
    31     2.07066577E+03   # MeL(Q)          
    32     2.07066577E+03   # MmuL(Q)         
    33     2.03152295E+03   # MtauL(Q)        
    34     1.05033398E+03   # MeR(Q)          
    35     1.05033398E+03   # MmuR(Q)         
    36     9.16597229E+02   # MtauR(Q)        
    41     5.73711719E+03   # MqL1(Q)         
    42     5.73711719E+03   # MqL2(Q)         
    43     5.46946045E+03   # MqL3(Q)         
    44     5.43183203E+03   # MuR(Q)          
    45     5.43183203E+03   # McR(Q)          
    46     5.00330713E+03   # MtR(Q)          
    47     5.39803760E+03   # MdR(Q)          
    48     5.39803760E+03   # MsR(Q)          
    49     5.23833350E+03   # MbR(Q)          
Block AU Q=  5.23119434E+03   #
  1  1    -1.09848083E+03   # A_u
  2  2    -1.09848083E+03   # A_c
  3  3    -1.09848083E+03   # A_t
Block AD Q=  5.23119434E+03   #
  1  1    -1.17240234E+03   # A_d
  2  2    -1.17240234E+03   # A_s
  3  3    -1.17240234E+03   # A_b
Block AE Q=  5.23119434E+03   #
  1  1    -1.24063042E+02   # A_e
  2  2    -1.24063042E+02   # A_mu
  3  3    -1.24063042E+02   # A_tau
#  ISAJET decay tables in SUSY Les Houches accord format
#  Created by ISALHD. Last revision: C. Balazs, 2005 May 25
Block DCINFO                           # Program information
     1   ISASUGRA from ISAJET          # Spectrum Calculator
     2   7.85   04-NOV-2015 13:42:47   # Version number
#         PDG         Width
DECAY         6  1.16968346E+00   # TP    decays
#          BR          NDA       ID1       ID2       ID3       ID4
      3.33333343E-01    3            2        -1         5             # TP     -->  UP     DB     BT          
      3.33333343E-01    3            4        -3         5             # TP     -->  CH     SB     BT          
      1.11111112E-01    3          -11        12         5             # TP     -->  E+     NUE    BT          
      1.11111112E-01    3          -13        14         5             # TP     -->  MU+    NUM    BT          
      1.11111112E-01    3          -15        16         5             # TP     -->  TAU+   NUT    BT          
#         PDG         Width
DECAY   1000021  1.27766952E-01   # GLSS  decays
#          BR          NDA       ID1       ID2       ID3       ID4
      3.81673910E-02    3      1000024         1        -2             # GLSS   -->  W1SS+  DN     UB          
      3.81673910E-02    3     -1000024         2        -1             # GLSS   -->  W1SS-  UP     DB          
      3.81673910E-02    3      1000024         3        -4             # GLSS   -->  W1SS+  ST     CB          
      3.81673910E-02    3     -1000024         4        -3             # GLSS   -->  W1SS-  CH     SB          
      5.15970401E-02    3      1000024         5        -6             # GLSS   -->  W1SS+  BT     TB          
      5.15970401E-02    3     -1000024         6        -5             # GLSS   -->  W1SS-  TP     BB          
      1.49193127E-03    3      1000037         1        -2             # GLSS   -->  W2SS+  DN     UB          
      1.49193127E-03    3     -1000037         2        -1             # GLSS   -->  W2SS-  UP     DB          
      1.49193127E-03    3      1000037         3        -4             # GLSS   -->  W2SS+  ST     CB          
      1.49193127E-03    3     -1000037         4        -3             # GLSS   -->  W2SS-  CH     SB          
      1.21377923E-01    3      1000037         5        -6             # GLSS   -->  W2SS+  BT     TB          
      1.21377923E-01    3     -1000037         6        -5             # GLSS   -->  W2SS-  TP     BB          
      9.75831517E-06    2      1000022        21                       # GLSS   -->  Z1SS   GL                 
      2.66744606E-02    3      1000022         2        -2             # GLSS   -->  Z1SS   UP     UB          
      7.80464429E-03    3      1000022         1        -1             # GLSS   -->  Z1SS   DN     DB          
      7.80464429E-03    3      1000022         3        -3             # GLSS   -->  Z1SS   ST     SB          
      2.66744606E-02    3      1000022         4        -4             # GLSS   -->  Z1SS   CH     CB          
      9.73630231E-03    3      1000022         5        -5             # GLSS   -->  Z1SS   BT     BB          
      4.40840833E-02    3      1000022         6        -6             # GLSS   -->  Z1SS   TP     TB          
      7.46891892E-05    2      1000023        21                       # GLSS   -->  Z2SS   GL                 
      1.90614909E-02    3      1000023         2        -2             # GLSS   -->  Z2SS   UP     UB          
      1.89321414E-02    3      1000023         1        -1             # GLSS   -->  Z2SS   DN     DB          
      1.89321414E-02    3      1000023         3        -3             # GLSS   -->  Z2SS   ST     SB          
      1.90614909E-02    3      1000023         4        -4             # GLSS   -->  Z2SS   CH     CB          
      2.81075612E-02    3      1000023         5        -5             # GLSS   -->  Z2SS   BT     BB          
      2.38509569E-02    3      1000023         6        -6             # GLSS   -->  Z2SS   TP     TB          
      9.33304604E-04    2      1000025        21                       # GLSS   -->  Z3SS   GL                 
      1.65222173E-06    3      1000025         2        -2             # GLSS   -->  Z3SS   UP     UB          
      1.98876069E-06    3      1000025         1        -1             # GLSS   -->  Z3SS   DN     DB          
      1.98876069E-06    3      1000025         3        -3             # GLSS   -->  Z3SS   ST     SB          
      1.65222173E-06    3      1000025         4        -4             # GLSS   -->  Z3SS   CH     CB          
      3.05261500E-02    3      1000025         5        -5             # GLSS   -->  Z3SS   BT     BB          
      8.78751278E-02    3      1000025         6        -6             # GLSS   -->  Z3SS   TP     TB          
      8.73606594E-04    2      1000035        21                       # GLSS   -->  Z4SS   GL                 
      7.94473279E-04    3      1000035         2        -2             # GLSS   -->  Z4SS   UP     UB          
      8.61153472E-04    3      1000035         1        -1             # GLSS   -->  Z4SS   DN     DB          
      8.61153472E-04    3      1000035         3        -3             # GLSS   -->  Z4SS   ST     SB          
      7.94473279E-04    3      1000035         4        -4             # GLSS   -->  Z4SS   CH     CB          
      2.92905718E-02    3      1000035         5        -5             # GLSS   -->  Z4SS   BT     BB          
      9.17866528E-02    3      1000035         6        -6             # GLSS   -->  Z4SS   TP     TB          
      6.57289494E-17    2      1000039        21                       # GLSS   -->  GVSS   GL                 
#         PDG         Width
DECAY   1000002  1.31219315E+02   # UPL   decays
#          BR          NDA       ID1       ID2       ID3       ID4
      6.00257004E-03    2      1000022         2                       # UPL    -->  Z1SS   UP                 
      1.52851880E-01    2      1000023         2                       # UPL    -->  Z2SS   UP                 
      2.36406268E-05    2      1000025         2                       # UPL    -->  Z3SS   UP                 
      7.76689779E-03    2      1000035         2                       # UPL    -->  Z4SS   UP                 
      5.12146592E-01    2      1000021         2                       # UPL    -->  GLSS   UP                 
      3.08249176E-01    2      1000024         1                       # UPL    -->  W1SS+  DN                 
      1.29592409E-02    2      1000037         1                       # UPL    -->  W2SS+  DN                 
#         PDG         Width
DECAY   1000001  1.31233459E+02   # DNL   decays
#          BR          NDA       ID1       ID2       ID3       ID4
      6.18755445E-03    2      1000022         1                       # DNL    -->  Z1SS   DN                 
      1.51903436E-01    2      1000023         1                       # DNL    -->  Z2SS   DN                 
      4.10752873E-05    2      1000025         1                       # DNL    -->  Z3SS   DN                 
      8.49761162E-03    2      1000035         1                       # DNL    -->  Z4SS   DN                 
      5.12350857E-01    2      1000021         1                       # DNL    -->  GLSS   DN                 
      3.04365337E-01    2     -1000024         2                       # DNL    -->  W1SS-  UP                 
      1.66541412E-02    2     -1000037         2                       # DNL    -->  W2SS-  UP                 
#         PDG         Width
DECAY   1000003  1.31233459E+02   # STL   decays
#          BR          NDA       ID1       ID2       ID3       ID4
      6.18755445E-03    2      1000022         3                       # STL    -->  Z1SS   ST                 
      1.51903436E-01    2      1000023         3                       # STL    -->  Z2SS   ST                 
      4.10752873E-05    2      1000025         3                       # STL    -->  Z3SS   ST                 
      8.49761255E-03    2      1000035         3                       # STL    -->  Z4SS   ST                 
      5.12350857E-01    2      1000021         3                       # STL    -->  GLSS   ST                 
      3.04365307E-01    2     -1000024         4                       # STL    -->  W1SS-  CH                 
      1.66541394E-02    2     -1000037         4                       # STL    -->  W2SS-  CH                 
#         PDG         Width
DECAY   1000004  1.31219284E+02   # CHL   decays
#          BR          NDA       ID1       ID2       ID3       ID4
      6.00257097E-03    2      1000022         4                       # CHL    -->  Z1SS   CH                 
      1.52851880E-01    2      1000023         4                       # CHL    -->  Z2SS   CH                 
      2.36406304E-05    2      1000025         4                       # CHL    -->  Z3SS   CH                 
      7.76689872E-03    2      1000035         4                       # CHL    -->  Z4SS   CH                 
      5.12146533E-01    2      1000021         4                       # CHL    -->  GLSS   CH                 
      3.08249235E-01    2      1000024         3                       # CHL    -->  W1SS+  ST                 
      1.29592437E-02    2      1000037         3                       # CHL    -->  W2SS+  ST                 
#         PDG         Width
DECAY   1000005  8.21949387E+01   # BT1   decays
#          BR          NDA       ID1       ID2       ID3       ID4
      3.61312442E-02    2      1000022         5                       # BT1    -->  Z1SS   BT                 
      1.99033618E-02    2      1000023         5                       # BT1    -->  Z2SS   BT                 
      1.24753632E-01    2      1000025         5                       # BT1    -->  Z3SS   BT                 
      1.09018266E-01    2      1000035         5                       # BT1    -->  Z4SS   BT                 
      4.50260699E-01    2      1000021         5                       # BT1    -->  GLSS   BT                 
      3.75711806E-02    2     -1000024         6                       # BT1    -->  W1SS-  TP                 
      2.22357050E-01    2     -1000037         6                       # BT1    -->  W2SS-  TP                 
      4.55313238E-06    2          -24   1000006                       # BT1    -->  W-     TP1                
#         PDG         Width
DECAY   1000006  1.29065033E+02   # TP1   decays
#          BR          NDA       ID1       ID2       ID3       ID4
      1.67953908E-01    2      1000021         6                       # TP1    -->  GLSS   TP                 
      8.42198208E-02    2      1000022         6                       # TP1    -->  Z1SS   TP                 
      1.05410032E-02    2      1000023         6                       # TP1    -->  Z2SS   TP                 
      1.87113345E-01    2      1000025         6                       # TP1    -->  Z3SS   TP                 
      1.75949812E-01    2      1000035         6                       # TP1    -->  Z4SS   TP                 
      1.92449335E-02    2      1000024         5                       # TP1    -->  W1SS+  BT                 
      3.54977190E-01    2      1000037         5                       # TP1    -->  W2SS+  BT                 
#         PDG         Width
DECAY   2000002  6.11295662E+01   # UPR   decays
#          BR          NDA       ID1       ID2       ID3       ID4
      1.97694167E-01    2      1000022         2                       # UPR    -->  Z1SS   UP                 
      1.18636362E-05    2      1000023         2                       # UPR    -->  Z2SS   UP                 
      1.90154915E-05    2      1000025         2                       # UPR    -->  Z3SS   UP                 
      1.30401415E-04    2      1000035         2                       # UPR    -->  Z4SS   UP                 
      8.02144587E-01    2      1000021         2                       # UPR    -->  GLSS   UP                 
#         PDG         Width
DECAY   2000001  5.01135101E+01   # DNR   decays
#          BR          NDA       ID1       ID2       ID3       ID4
      5.98965921E-02    2      1000022         1                       # DNR    -->  Z1SS   DN                 
      3.58825241E-06    2      1000023         1                       # DNR    -->  Z2SS   DN                 
      5.74726528E-06    2      1000025         1                       # DNR    -->  Z3SS   DN                 
      3.94109702E-05    2      1000035         1                       # DNR    -->  Z4SS   DN                 
      9.40054655E-01    2      1000021         1                       # DNR    -->  GLSS   DN                 
#         PDG         Width
DECAY   2000003  5.01135101E+01   # STR   decays
#          BR          NDA       ID1       ID2       ID3       ID4
      5.98965921E-02    2      1000022         3                       # STR    -->  Z1SS   ST                 
      3.58825241E-06    2      1000023         3                       # STR    -->  Z2SS   ST                 
      5.74726528E-06    2      1000025         3                       # STR    -->  Z3SS   ST                 
      3.94109702E-05    2      1000035         3                       # STR    -->  Z4SS   ST                 
      9.40054655E-01    2      1000021         3                       # STR    -->  GLSS   ST                 
#         PDG         Width
DECAY   2000004  6.11295319E+01   # CHR   decays
#          BR          NDA       ID1       ID2       ID3       ID4
      1.97694257E-01    2      1000022         4                       # CHR    -->  Z1SS   CH                 
      1.18636408E-05    2      1000023         4                       # CHR    -->  Z2SS   CH                 
      1.90155006E-05    2      1000025         4                       # CHR    -->  Z3SS   CH                 
      1.30401473E-04    2      1000035         4                       # CHR    -->  Z4SS   CH                 
      8.02144468E-01    2      1000021         4                       # CHR    -->  GLSS   CH                 
#         PDG         Width
DECAY   2000005  1.87231445E+02   # BT2   decays
#          BR          NDA       ID1       ID2       ID3       ID4
      3.91282002E-03    2      1000022         5                       # BT2    -->  Z1SS   BT                 
      9.74994451E-02    2      1000023         5                       # BT2    -->  Z2SS   BT                 
      5.89662530E-02    2      1000025         5                       # BT2    -->  Z3SS   BT                 
      6.45017400E-02    2      1000035         5                       # BT2    -->  Z4SS   BT                 
      2.64798135E-01    2      1000021         5                       # BT2    -->  GLSS   BT                 
      1.99223727E-01    2     -1000024         6                       # BT2    -->  W1SS-  TP                 
      3.05199295E-01    2     -1000037         6                       # BT2    -->  W2SS-  TP                 
      8.77541141E-04    2          -24   1000006                       # BT2    -->  W-     TP1                
      1.40971516E-03    2           23   1000005                       # BT2    -->  Z0     BT1                
      3.61132412E-03    2           25   1000005                       # BT2    -->  HL0    BT1                
#         PDG         Width
DECAY   2000006  1.90864044E+02   # TP2   decays
#          BR          NDA       ID1       ID2       ID3       ID4
      2.65647709E-01    2      1000021         6                       # TP2    -->  GLSS   TP                 
      2.04177216E-01    2      1000024         5                       # TP2    -->  W1SS+  BT                 
      1.19397506E-01    2      1000037         5                       # TP2    -->  W2SS+  BT                 
      5.20008849E-04    2           23   1000006                       # TP2    -->  Z0     TP1                
      2.08993116E-03    2           25   1000006                       # TP2    -->  HL0    TP1                
      4.55717649E-03    2           24   1000005                       # TP2    -->  W+     BT1                
      3.95422801E-03    2      1000022         6                       # TP2    -->  Z1SS   TP                 
      1.03950396E-01    2      1000023         6                       # TP2    -->  Z2SS   TP                 
      1.47913665E-01    2      1000025         6                       # TP2    -->  Z3SS   TP                 
      1.47792161E-01    2      1000035         6                       # TP2    -->  Z4SS   TP                 
#         PDG         Width
DECAY   1000011  4.91148376E+00   # EL-   decays
#          BR          NDA       ID1       ID2       ID3       ID4
      3.59474331E-01    2      1000022        11                       # EL-    -->  Z1SS   E-                 
      2.12837711E-01    2      1000023        11                       # EL-    -->  Z2SS   E-                 
      3.95456209E-06    2      1000025        11                       # EL-    -->  Z3SS   E-                 
      2.25574127E-03    2      1000035        11                       # EL-    -->  Z4SS   E-                 
      4.20171410E-01    2     -1000024        12                       # EL-    -->  W1SS-  NUE                
      5.25683258E-03    2     -1000037        12                       # EL-    -->  W2SS-  NUE                
      4.45292617E-20    2           11   1000039                       # EL-    -->  E-     GVSS               
#         PDG         Width
DECAY   1000013  4.91148376E+00   # MUL-  decays
#          BR          NDA       ID1       ID2       ID3       ID4
      3.59474331E-01    2      1000022        13                       # MUL-   -->  Z1SS   MU-                
      2.12837696E-01    2      1000023        13                       # MUL-   -->  Z2SS   MU-                
      3.95456163E-06    2      1000025        13                       # MUL-   -->  Z3SS   MU-                
      2.25574081E-03    2      1000035        13                       # MUL-   -->  Z4SS   MU-                
      4.20171440E-01    2     -1000024        14                       # MUL-   -->  W1SS-  NUM                
      5.25683304E-03    2     -1000037        14                       # MUL-   -->  W2SS-  NUM                
      4.45292617E-20    2           13   1000039                       # MUL-   -->  MU-    GVSS               
#         PDG         Width
DECAY   1000015  0   # TAU1- decays
#          BR          NDA       ID1       ID2       ID3       ID4
      1.00000000E+00    2      1000022        15                       # TAU1-  -->  Z1SS   TAU-               
      1.89922290E-17    2           15   1000039                       # TAU1-  -->  TAU-   GVSS               
#         PDG         Width
DECAY   1000012  4.78370905E+00   # NUEL  decays
#          BR          NDA       ID1       ID2       ID3       ID4
      3.69286895E-01    2      1000022        12                       # NUEL   -->  Z1SS   NUE                
      2.05536604E-01    2      1000023        12                       # NUEL   -->  Z2SS   NUE                
      2.11019797E-05    2      1000025        12                       # NUEL   -->  Z3SS   NUE                
      2.71748146E-03    2      1000035        12                       # NUEL   -->  Z4SS   NUE                
      4.18678790E-01    2      1000024        11                       # NUEL   -->  W1SS+  E-                 
      3.75914271E-03    2      1000037        11                       # NUEL   -->  W2SS+  E-                 
      4.45809314E-20    2           12   1000039                       # NUEL   -->  NUE    GVSS               
#         PDG         Width
DECAY   1000014  4.78370857E+00   # NUML  decays
#          BR          NDA       ID1       ID2       ID3       ID4
      3.69286895E-01    2      1000022        14                       # NUML   -->  Z1SS   NUM                
      2.05536604E-01    2      1000023        14                       # NUML   -->  Z2SS   NUM                
      2.11019815E-05    2      1000025        14                       # NUML   -->  Z3SS   NUM                
      2.71748169E-03    2      1000035        14                       # NUML   -->  Z4SS   NUM                
      4.18678761E-01    2      1000024        13                       # NUML   -->  W1SS+  MU-                
      3.75914224E-03    2      1000037        13                       # NUML   -->  W2SS+  MU-                
      4.45809347E-20    2           14   1000039                       # NUML   -->  NUM    GVSS               
#         PDG         Width
DECAY   1000016  8.58761215E+00   # NUTL  decays
#          BR          NDA       ID1       ID2       ID3       ID4
      1.98152125E-01    2      1000022        16                       # NUTL   -->  Z1SS   NUT                
      9.60803479E-02    2      1000023        16                       # NUTL   -->  Z2SS   NUT                
      7.42001384E-06    2      1000025        16                       # NUTL   -->  Z3SS   NUT                
      9.17764031E-04    2      1000035        16                       # NUTL   -->  Z4SS   NUT                
      2.01899499E-01    2      1000024        15                       # NUTL   -->  W1SS+  TAU-               
      1.80509854E-02    2      1000037        15                       # NUTL   -->  W2SS+  TAU-               
      4.84891862E-01    2           24   1000015                       # NUTL   -->  W+     TAU1-              
      2.25292107E-20    2           16   1000039                       # NUTL   -->  NUT    GVSS               
#         PDG         Width
DECAY   2000011  4.31417644E-01   # ER-   decays
#          BR          NDA       ID1       ID2       ID3       ID4
      1.00000000E+00    2      1000022        11                       # ER-    -->  Z1SS   E-                 
      7.83858048E-11    3      1000015        11       -15             # ER-    -->  TAU1-  E-     TAU+        
      9.46652548E-11    3     -1000015        11        15             # ER-    -->  TAU1+  E-     TAU-        
      7.96045545E-15    3      1000015        12       -16             # ER-    -->  TAU1-  NUE    ANUT        
      1.64836336E-20    2           11   1000039                       # ER-    -->  E-     GVSS               
#         PDG         Width
DECAY   2000013  4.31417555E-01   # MUR-  decays
#          BR          NDA       ID1       ID2       ID3       ID4
      1.00000000E+00    2      1000022        13                       # MUR-   -->  Z1SS   MU-                
      7.83858187E-11    3      1000015        13       -15             # MUR-   -->  TAU1-  MU-    TAU+        
      9.46652756E-11    3     -1000015        13        15             # MUR-   -->  TAU1+  MU-    TAU-        
      3.38875455E-10    3      1000015        14       -16             # MUR-   -->  TAU1-  NUM    ANUT        
      1.64836384E-20    2           13   1000039                       # MUR-   -->  MU-    GVSS               
#         PDG         Width
DECAY   2000015  9.59969330E+00   # TAU2- decays
#          BR          NDA       ID1       ID2       ID3       ID4
      1.77153528E-01    2      1000022        15                       # TAU2-  -->  Z1SS   TAU-               
      9.20345932E-02    2      1000023        15                       # TAU2-  -->  Z2SS   TAU-               
      1.03442194E-02    2      1000025        15                       # TAU2-  -->  Z3SS   TAU-               
      9.22265742E-03    2      1000035        15                       # TAU2-  -->  Z4SS   TAU-               
      1.75440103E-01    2     -1000024        16                       # TAU2-  -->  W1SS-  NUT                
      2.00835709E-03    2     -1000037        16                       # TAU2-  -->  W2SS-  NUT                
      2.22088560E-01    2           23   1000015                       # TAU2-  -->  Z0     TAU1-              
      3.11707973E-01    2           25   1000015                       # TAU2-  -->  HL0    TAU1-              
#         PDG         Width
DECAY   1000022  0   # Z1SS  decays
#          BR          NDA       ID1       ID2       ID3       ID4
      7.60139406E-01    2      1000039        22                       # Z1SS   -->  GVSS   GM                 
      1.81094464E-02    3      1000039        11       -11             # Z1SS   -->  GVSS   E-     E+          
      2.21678898E-01    2      1000039        23                       # Z1SS   -->  GVSS   Z0                 
      7.22593031E-05    2      1000039        25                       # Z1SS   -->  GVSS   HL0                
#         PDG         Width
DECAY   1000023  2.47725129E-01   # Z2SS  decays
#          BR          NDA       ID1       ID2       ID3       ID4
      4.81034931E-07    2      1000022        22                       # Z2SS   -->  Z1SS   GM                 
      2.00471729E-02    2      1000022        23                       # Z2SS   -->  Z1SS   Z0                 
      3.90890705E-07    3      1000022         2        -2             # Z2SS   -->  Z1SS   UP     UB          
      3.99982497E-07    3      1000022         1        -1             # Z2SS   -->  Z1SS   DN     DB          
      3.99982497E-07    3      1000022         3        -3             # Z2SS   -->  Z1SS   ST     SB          
      3.90890705E-07    3      1000022         4        -4             # Z2SS   -->  Z1SS   CH     CB          
      1.06977723E-05    3      1000022         5        -5             # Z2SS   -->  Z1SS   BT     BB          
      1.98905982E-04    3      1000022        11       -11             # Z2SS   -->  Z1SS   E-     E+          
      1.98905982E-04    3      1000022        13       -13             # Z2SS   -->  Z1SS   MU-    MU+         
      2.32055463E-04    3      1000022        15       -15             # Z2SS   -->  Z1SS   TAU-   TAU+        
      2.04256343E-04    3      1000022        12       -12             # Z2SS   -->  Z1SS   NUE    ANUE        
      2.04256343E-04    3      1000022        14       -14             # Z2SS   -->  Z1SS   NUM    ANUM        
      2.34687905E-04    3      1000022        16       -16             # Z2SS   -->  Z1SS   NUT    ANUT        
      2.34891653E-01    2      1000022        25                       # Z2SS   -->  Z1SS   HL0                
      4.36651055E-04    2      2000011       -11                       # Z2SS   -->  ER-    E+                 
      4.36651055E-04    2     -2000011        11                       # Z2SS   -->  ER+    E-                 
      4.36651055E-04    2      2000013       -13                       # Z2SS   -->  MUR-   MU+                
      4.36651055E-04    2     -2000013        13                       # Z2SS   -->  MUR+   MU-                
      3.71014357E-01    2      1000015       -15                       # Z2SS   -->  TAU1-  TAU+               
      3.71014357E-01    2     -1000015        15                       # Z2SS   -->  TAU1+  TAU-               
      6.73495431E-20    2      1000039        22                       # Z2SS   -->  GVSS   GM                 
      1.67539354E-21    3      1000039        11       -11             # Z2SS   -->  GVSS   E-     E+          
      2.15274065E-19    2      1000039        23                       # Z2SS   -->  GVSS   Z0                 
      3.24137347E-21    2      1000039        25                       # Z2SS   -->  GVSS   HL0                
#         PDG         Width
DECAY   1000025  6.45687294E+00   # Z3SS  decays
#          BR          NDA       ID1       ID2       ID3       ID4
      8.29031208E-08    2      1000022        22                       # Z3SS   -->  Z1SS   GM                 
      7.13510815E-08    2      1000023        22                       # Z3SS   -->  Z2SS   GM                 
      1.31255671E-01    2      1000024       -24                       # Z3SS   -->  W1SS+  W-                 
      1.31255671E-01    2     -1000024        24                       # Z3SS   -->  W1SS-  W+                 
      1.40729889E-01    2      1000022        23                       # Z3SS   -->  Z1SS   Z0                 
      1.36685029E-01    2      1000023        23                       # Z3SS   -->  Z2SS   Z0                 
      2.58212063E-11    3      1000022         2        -2             # Z3SS   -->  Z1SS   UP     UB          
      6.48937197E-12    3      1000022         1        -1             # Z3SS   -->  Z1SS   DN     DB          
      6.48937197E-12    3      1000022         3        -3             # Z3SS   -->  Z1SS   ST     SB          
      2.58212063E-11    3      1000022         4        -4             # Z3SS   -->  Z1SS   CH     CB          
      1.28326137E-05    3      1000022         5        -5             # Z3SS   -->  Z1SS   BT     BB          
      1.17110432E-09    3      1000022        11       -11             # Z3SS   -->  Z1SS   E-     E+          
      1.17110432E-09    3      1000022        13       -13             # Z3SS   -->  Z1SS   MU-    MU+         
      1.41138644E-05    3      1000022        15       -15             # Z3SS   -->  Z1SS   TAU-   TAU+        
      7.18236537E-09    3      1000022        12       -12             # Z3SS   -->  Z1SS   NUE    ANUE        
      7.18236537E-09    3      1000022        14       -14             # Z3SS   -->  Z1SS   NUM    ANUM        
      8.92964636E-09    3      1000022        16       -16             # Z3SS   -->  Z1SS   NUT    ANUT        
      7.91187726E-14    3      1000023         2        -2             # Z3SS   -->  Z2SS   UP     UB          
      1.36550683E-13    3      1000023         1        -1             # Z3SS   -->  Z2SS   DN     DB          
      1.36550683E-13    3      1000023         3        -3             # Z3SS   -->  Z2SS   ST     SB          
      7.91187726E-14    3      1000023         4        -4             # Z3SS   -->  Z2SS   CH     CB          
      3.20769686E-08    3      1000023         5        -5             # Z3SS   -->  Z2SS   BT     BB          
      1.03197373E-11    3      1000023        11       -11             # Z3SS   -->  Z2SS   E-     E+          
      1.03197373E-11    3      1000023        13       -13             # Z3SS   -->  Z2SS   MU-    MU+         
      2.89722522E-07    3      1000023        15       -15             # Z3SS   -->  Z2SS   TAU-   TAU+        
      6.34350350E-11    3      1000023        12       -12             # Z3SS   -->  Z2SS   NUE    ANUE        
      6.34350350E-11    3      1000023        14       -14             # Z3SS   -->  Z2SS   NUM    ANUM        
      9.06328484E-11    3      1000023        16       -16             # Z3SS   -->  Z2SS   NUT    ANUT        
      1.92168429E-02    2      1000022        25                       # Z3SS   -->  Z1SS   HL0                
      4.36891540E-04    2      1000023        25                       # Z3SS   -->  Z2SS   HL0                
      4.15040995E-05    2      2000011       -11                       # Z3SS   -->  ER-    E+                 
      4.15040995E-05    2     -2000011        11                       # Z3SS   -->  ER+    E-                 
      4.15040995E-05    2      2000013       -13                       # Z3SS   -->  MUR-   MU+                
      4.15040995E-05    2     -2000013        13                       # Z3SS   -->  MUR+   MU-                
      2.20113263E-01    2      1000015       -15                       # Z3SS   -->  TAU1-  TAU+               
      2.20113263E-01    2     -1000015        15                       # Z3SS   -->  TAU1+  TAU-               
      1.32187561E-25    2      1000039        22                       # Z3SS   -->  GVSS   GM                 
      3.31483898E-27    3      1000039        11       -11             # Z3SS   -->  GVSS   E-     E+          
      4.95966267E-21    2      1000039        23                       # Z3SS   -->  GVSS   Z0                 
      5.36370809E-21    2      1000039        25                       # Z3SS   -->  GVSS   HL0                
#         PDG         Width
DECAY   1000035  7.22808170E+00   # Z4SS  decays
#          BR          NDA       ID1       ID2       ID3       ID4
      3.51375462E-08    2      1000022        22                       # Z4SS   -->  Z1SS   GM                 
      1.83725124E-08    2      1000023        22                       # Z4SS   -->  Z2SS   GM                 
      5.54896545E-11    2      1000025        22                       # Z4SS   -->  Z3SS   GM                 
      1.61831558E-01    2      1000024       -24                       # Z4SS   -->  W1SS+  W-                 
      1.61831558E-01    2     -1000024        24                       # Z4SS   -->  W1SS-  W+                 
      1.65717974E-02    2      1000022        23                       # Z4SS   -->  Z1SS   Z0                 
      7.16150738E-04    2      1000023        23                       # Z4SS   -->  Z2SS   Z0                 
      2.60853117E-09    3      1000022         2        -2             # Z4SS   -->  Z1SS   UP     UB          
      2.53475085E-09    3      1000022         1        -1             # Z4SS   -->  Z1SS   DN     DB          
      2.53475085E-09    3      1000022         3        -3             # Z4SS   -->  Z1SS   ST     SB          
      2.60853117E-09    3      1000022         4        -4             # Z4SS   -->  Z1SS   CH     CB          
      1.07687438E-05    3      1000022         5        -5             # Z4SS   -->  Z1SS   BT     BB          
      1.48386653E-06    3      1000022        11       -11             # Z4SS   -->  Z1SS   E-     E+          
      1.48386653E-06    3      1000022        13       -13             # Z4SS   -->  Z1SS   MU-    MU+         
      1.54513436E-05    3      1000022        15       -15             # Z4SS   -->  Z1SS   TAU-   TAU+        
      2.05777042E-06    3      1000022        12       -12             # Z4SS   -->  Z1SS   NUE    ANUE        
      2.05777042E-06    3      1000022        14       -14             # Z4SS   -->  Z1SS   NUM    ANUM        
      2.49161667E-06    3      1000022        16       -16             # Z4SS   -->  Z1SS   NUT    ANUT        
      9.03804809E-11    3      1000023         2        -2             # Z4SS   -->  Z2SS   UP     UB          
      9.82255388E-11    3      1000023         1        -1             # Z4SS   -->  Z2SS   DN     DB          
      9.82255388E-11    3      1000023         3        -3             # Z4SS   -->  Z2SS   ST     SB          
      9.03804809E-11    3      1000023         4        -4             # Z4SS   -->  Z2SS   CH     CB          
      3.04506358E-08    3      1000023         5        -5             # Z4SS   -->  Z2SS   BT     BB          
      2.27670949E-08    3      1000023        11       -11             # Z4SS   -->  Z2SS   E-     E+          
      2.27670949E-08    3      1000023        13       -13             # Z4SS   -->  Z2SS   MU-    MU+         
      3.91089571E-07    3      1000023        15       -15             # Z4SS   -->  Z2SS   TAU-   TAU+        
      3.17804982E-08    3      1000023        12       -12             # Z4SS   -->  Z2SS   NUE    ANUE        
      3.17804982E-08    3      1000023        14       -14             # Z4SS   -->  Z2SS   NUM    ANUM        
      4.49711379E-08    3      1000023        16       -16             # Z4SS   -->  Z2SS   NUT    ANUT        
      4.11850642E-09    3      1000025         2        -2             # Z4SS   -->  Z3SS   UP     UB          
      5.31085842E-09    3      1000025         1        -1             # Z4SS   -->  Z3SS   DN     DB          
      5.31085842E-09    3      1000025         3        -3             # Z4SS   -->  Z3SS   ST     SB          
      4.11850642E-09    3      1000025         4        -4             # Z4SS   -->  Z3SS   CH     CB          
      3.89722005E-10    3      1000025         5        -5             # Z4SS   -->  Z3SS   BT     BB          
      1.20480448E-09    3      1000025        11       -11             # Z4SS   -->  Z3SS   E-     E+          
      1.20480448E-09    3      1000025        13       -13             # Z4SS   -->  Z3SS   MU-    MU+         
      9.29420763E-10    3      1000025        15       -15             # Z4SS   -->  Z3SS   TAU-   TAU+        
      2.39687625E-09    3      1000025        12       -12             # Z4SS   -->  Z3SS   NUE    ANUE        
      2.39687625E-09    3      1000025        14       -14             # Z4SS   -->  Z3SS   NUM    ANUM        
      2.39680720E-09    3      1000025        16       -16             # Z4SS   -->  Z3SS   NUT    ANUT        
      1.36949092E-01    2      1000022        25                       # Z4SS   -->  Z1SS   HL0                
      1.54205978E-01    2      1000023        25                       # Z4SS   -->  Z2SS   HL0                
      2.59567838E-04    2      2000011       -11                       # Z4SS   -->  ER-    E+                 
      2.59567838E-04    2     -2000011        11                       # Z4SS   -->  ER+    E-                 
      2.59567838E-04    2      2000013       -13                       # Z4SS   -->  MUR-   MU+                
      2.59567838E-04    2     -2000013        13                       # Z4SS   -->  MUR+   MU-                
      1.83409572E-01    2      1000015       -15                       # Z4SS   -->  TAU1-  TAU+               
      1.83409572E-01    2     -1000015        15                       # Z4SS   -->  TAU1+  TAU-               
      1.43379471E-22    2      1000039        22                       # Z4SS   -->  GVSS   GM                 
      3.59699550E-24    3      1000039        11       -11             # Z4SS   -->  GVSS   E-     E+          
      5.63022786E-21    2      1000039        23                       # Z4SS   -->  GVSS   Z0                 
      4.31706773E-21    2      1000039        25                       # Z4SS   -->  GVSS   HL0                
#         PDG         Width
DECAY   1000024  2.23943204E-01   # W1SS+ decays
#          BR          NDA       ID1       ID2       ID3       ID4
      8.81871586E-07    3      1000022         2        -1             # W1SS+  -->  Z1SS   UP     DB          
      8.81871586E-07    3      1000022         4        -3             # W1SS+  -->  Z1SS   CH     SB          
      4.50187887E-04    3      1000022       -11        12             # W1SS+  -->  Z1SS   E+     NUE         
      4.50187887E-04    3      1000022       -13        14             # W1SS+  -->  Z1SS   MU+    NUM         
      5.21065609E-04    3      1000022       -15        16             # W1SS+  -->  Z1SS   TAU+   NUT         
      2.39149675E-01    2      1000022        24                       # W1SS+  -->  Z1SS   W+                 
      6.56578416E-13    3      1000023       -11        12             # W1SS+  -->  Z2SS   E+     NUE         
      6.56578416E-13    3      1000023       -13        14             # W1SS+  -->  Z2SS   MU+    NUM         
      7.59427130E-01    2     -1000015        16                       # W1SS+  -->  TAU1+  NUT                
#         PDG         Width
DECAY   1000037  6.59372234E+00   # W2SS+ decays
#          BR          NDA       ID1       ID2       ID3       ID4
      4.74168838E-09    3      1000022         2        -1             # W2SS+  -->  Z1SS   UP     DB          
      4.74168838E-09    3      1000022         4        -3             # W2SS+  -->  Z1SS   CH     SB          
      3.51493122E-06    3      1000022       -11        12             # W2SS+  -->  Z1SS   E+     NUE         
      3.51493122E-06    3      1000022       -13        14             # W2SS+  -->  Z1SS   MU+    NUM         
      2.01145576E-05    3      1000022       -15        16             # W2SS+  -->  Z1SS   TAU+   NUT         
      1.46057561E-01    2      1000022        24                       # W2SS+  -->  Z1SS   W+                 
      6.49598708E-11    3      1000023         2        -1             # W2SS+  -->  Z2SS   UP     DB          
      6.49598708E-11    3      1000023         4        -3             # W2SS+  -->  Z2SS   CH     SB          
      1.99011119E-08    3      1000023       -11        12             # W2SS+  -->  Z2SS   E+     NUE         
      1.99011119E-08    3      1000023       -13        14             # W2SS+  -->  Z2SS   MU+    NUM         
      4.13723569E-07    3      1000023       -15        16             # W2SS+  -->  Z2SS   TAU+   NUT         
      1.33788913E-01    2      1000023        24                       # W2SS+  -->  Z2SS   W+                 
      2.36684290E-08    3      1000025         2        -1             # W2SS+  -->  Z3SS   UP     DB          
      2.36684290E-08    3      1000025         4        -3             # W2SS+  -->  Z3SS   CH     SB          
      7.88930610E-09    3      1000025       -11        12             # W2SS+  -->  Z3SS   E+     NUE         
      7.88930610E-09    3      1000025       -13        14             # W2SS+  -->  Z3SS   MU+    NUM         
      7.89004329E-09    3      1000025       -15        16             # W2SS+  -->  Z3SS   TAU+   NUT         
      5.33728708E-14    3      1000035         2        -1             # W2SS+  -->  Z4SS   UP     DB          
      1.78167519E-14    3      1000035       -11        12             # W2SS+  -->  Z4SS   E+     NUE         
      1.78167519E-14    3      1000035       -13        14             # W2SS+  -->  Z4SS   MU+    NUM         
      4.04384762E-01    2     -1000015        16                       # W2SS+  -->  TAU1+  NUT                
      1.41126812E-01    2      1000024        23                       # W2SS+  -->  W1SS+  Z0                 
      1.12449071E-10    3      1000024         1        -1             # W2SS+  -->  W1SS+  DN     DB          
      1.12449071E-10    3      1000024         3        -3             # W2SS+  -->  W1SS+  ST     SB          
      1.42624940E-10    3      1000024         2        -2             # W2SS+  -->  W1SS+  UP     UB          
      1.42624940E-10    3      1000024         4        -4             # W2SS+  -->  W1SS+  CH     CB          
      4.01396818E-08    3      1000024        12       -12             # W2SS+  -->  W1SS+  NUE    ANUE        
      4.01396818E-08    3      1000024        14       -14             # W2SS+  -->  W1SS+  NUM    ANUM        
      3.43986528E-08    3      1000024        11       -11             # W2SS+  -->  W1SS+  E-     E+          
      3.43986528E-08    3      1000024        13       -13             # W2SS+  -->  W1SS+  MU-    MU+         
      4.90613452E-08    3      1000024        15       -15             # W2SS+  -->  W1SS+  TAU-   TAU+        
      1.74614072E-01    2      1000024        25                       # W2SS+  -->  W1SS+  HL0                
#         PDG         Width
DECAY        25  4.70819836E-03   # HL0   decays
#          BR          NDA       ID1       ID2       ID3       ID4
      4.46036497E-09    2           11       -11                       # HL0    -->  E-     E+                 
      1.88323815E-04    2           13       -13                       # HL0    -->  MU-    MU+                
      5.38709126E-02    2           15       -15                       # HL0    -->  TAU-   TAU+               
      5.59298906E-06    2            1        -1                       # HL0    -->  DN     DB                 
      2.25984794E-03    2            3        -3                       # HL0    -->  ST     SB                 
      7.34272480E-01    2            5        -5                       # HL0    -->  BT     BB                 
      1.77311279E-06    2            2        -2                       # HL0    -->  UP     UB                 
      3.30603048E-02    2            4        -4                       # HL0    -->  CH     CB                 
      2.02744361E-03    2           22        22                       # HL0    -->  GM     GM                 
      4.17494848E-02    2           21        21                       # HL0    -->  GL     GL                 
      6.67646155E-03    3           24        11       -12             # HL0    -->  W+     E-     ANUE        
      6.67646155E-03    3           24        13       -14             # HL0    -->  W+     MU-    ANUM        
      6.67646155E-03    3           24        15       -16             # HL0    -->  W+     TAU-   ANUT        
      2.00293846E-02    3           24        -2         1             # HL0    -->  W+     UB     DN          
      2.00293846E-02    3           24        -4         3             # HL0    -->  W+     CB     ST          
      6.67646155E-03    3          -24       -11        12             # HL0    -->  W-     E+     NUE         
      6.67646155E-03    3          -24       -13        14             # HL0    -->  W-     MU+    NUM         
      6.67646155E-03    3          -24       -15        16             # HL0    -->  W-     TAU+   NUT         
      2.00293846E-02    3          -24         2        -1             # HL0    -->  W-     UP     DB          
      2.00293846E-02    3          -24         4        -3             # HL0    -->  W-     CH     SB          
      8.47183517E-04    3           23        12       -12             # HL0    -->  Z0     NUE    ANUE        
      8.47183517E-04    3           23        14       -14             # HL0    -->  Z0     NUM    ANUM        
      8.47183517E-04    3           23        16       -16             # HL0    -->  Z0     NUT    ANUT        
      4.26378974E-04    3           23        11       -11             # HL0    -->  Z0     E-     E+          
      4.26378974E-04    3           23        13       -13             # HL0    -->  Z0     MU-    MU+         
      4.26378974E-04    3           23        15       -15             # HL0    -->  Z0     TAU-   TAU+        
      1.46073813E-03    3           23         2        -2             # HL0    -->  Z0     UP     UB          
      1.46073813E-03    3           23         4        -4             # HL0    -->  Z0     CH     CB          
      1.88179058E-03    3           23         1        -1             # HL0    -->  Z0     DN     DB          
      1.88179058E-03    3           23         3        -3             # HL0    -->  Z0     ST     SB          
      1.88179058E-03    3           23         5        -5             # HL0    -->  Z0     BT     BB          
#         PDG         Width
DECAY        35  6.26265068E+01   # HH0   decays
#          BR          NDA       ID1       ID2       ID3       ID4
      1.24450370E-08    2           11       -11                       # HH0    -->  E-     E+                 
      5.25451964E-04    2           13       -13                       # HH0    -->  MU-    MU+                
      1.50496885E-01    2           15       -15                       # HH0    -->  TAU-   TAU+               
      1.51553731E-05    2            1        -1                       # HH0    -->  DN     DB                 
      6.12353673E-03    2            3        -3                       # HH0    -->  ST     SB                 
      8.42092216E-01    2            5        -5                       # HH0    -->  BT     BB                 
      1.09308504E-12    2            2        -2                       # HH0    -->  UP     UB                 
      1.41102001E-08    2            4        -4                       # HH0    -->  CH     CB                 
      7.30657426E-04    2            6        -6                       # HH0    -->  TP     TB                 
      3.24664229E-09    2           22        22                       # HH0    -->  GM     GM                 
      5.25375128E-07    2           21        21                       # HH0    -->  GL     GL                 
      5.31319074E-07    2           24       -24                       # HH0    -->  W+     W-                 
      2.72077955E-07    2           23        23                       # HH0    -->  Z0     Z0                 
      1.30195194E-05    2      1000022   1000022                       # HH0    -->  Z1SS   Z1SS               
      1.47746687E-06    2           25        25                       # HH0    -->  HL0    HL0                
      1.67503149E-08    2      2000011  -2000011                       # HH0    -->  ER-    ER+                
      1.65512830E-08    2      2000013  -2000013                       # HH0    -->  MUR-   MUR+               
      2.14178471E-07    2      1000015  -1000015                       # HH0    -->  TAU1-  TAU1+              
#         PDG         Width
DECAY        36  6.22226486E+01   # HA0   decays
#          BR          NDA       ID1       ID2       ID3       ID4
      1.24439694E-08    2           11       -11                       # HA0    -->  E-     E+                 
      5.25406853E-04    2           13       -13                       # HA0    -->  MU-    MU+                
      1.50484368E-01    2           15       -15                       # HA0    -->  TAU-   TAU+               
      1.51547838E-05    2            1        -1                       # HA0    -->  DN     DB                 
      6.12329924E-03    2            3        -3                       # HA0    -->  ST     SB                 
      8.42066944E-01    2            5        -5                       # HA0    -->  BT     BB                 
      1.08298938E-12    2            2        -2                       # HA0    -->  UP     UB                 
      1.39899088E-08    2            4        -4                       # HA0    -->  CH     CB                 
      7.39028445E-04    2            6        -6                       # HA0    -->  TP     TB                 
      1.58505991E-08    2           22        22                       # HA0    -->  GM     GM                 
      4.20747392E-06    2           21        21                       # HA0    -->  GL     GL                 
      4.10349203E-05    2      1000022   1000022                       # HA0    -->  Z1SS   Z1SS               
      5.27619989E-07    2           25        23                       # HA0    -->  HL0    Z0                 
#         PDG         Width
DECAY        37  5.80450134E+01   # H+    decays
#          BR          NDA       ID1       ID2       ID3       ID4
      1.34385729E-08    2           12       -11                       # H+     -->  NUE    E+                 
      5.67400770E-04    2           14       -13                       # H+     -->  NUM    MU+                
      1.62512064E-01    2           16       -15                       # H+     -->  NUT    TAU+               
      1.51322329E-05    2            2        -1                       # H+     -->  UP     DB                 
      6.11419696E-03    2            4        -3                       # H+     -->  CH     SB                 
      8.30790639E-01    2            6        -5                       # H+     -->  TP     BB                 
      5.71550629E-07    2           25        24                       # H+     -->  HL0    W+                 
