#  ISAJET SUSY parameters in SUSY Les Houches Accord 2 format
#  Created by ISALHA 2.0 Last revision: H Baer 27 May 2014
Block SPINFO   # Program information
     1   ISASUGRA/ISASUSY from ISAJET   # Spectrum Calculator
     2   7.85   04-NOV-2015 13:42:47    # Version number
Block MODSEL   # Model selection
     1     2   # Minimal gauge mediated (GMSB) model               
Block SMINPUTS   # Standard Model inputs
     1     1.28000000E+02   # alpha_em^(-1)
     2     1.16570000E-05   # G_Fermi
     3     1.19999997E-01   # alpha_s(M_Z)
     4     9.11699982E+01   # m_{Z}(pole)
     5     4.19999981E+00   # m_{b}(m_{b})
     6     1.73000000E+02   # m_{top}(pole)
     7     1.77699995E+00   # m_{tau}(pole)
Block MINPAR   # SUSY breaking input parameters
     1     1.47000000E+06   # Lambda scale of soft SSB
     2     2.00000000E+06   # M_mess overall messenger scale
     3     4.00000000E+01   # tan(beta)
     4     1.00000000E+00   # sign(mu)
     5     1.00000000E+00   # N_5 messenger index
     6     1.00000000E+05   # c_grav gravitino mass factor
    51     1.00000000E+00   # N5_1  U(1)_Y messenger index
    52     1.00000000E+00   # N5_2 SU(2)_L messenger index
    53     1.00000000E+00   # N5_3 SU(3)_C messenger index
   101     1.00000000E+00   # Rsl
   102     0.00000000E+00   # dmH_d^2
   103     0.00000000E+00   # dmH_u^2
   104     0.00000000E+00   # d_Y
Block MASS   # Scalar and gaugino mass spectrum
#  PDG code   mass                 particle
         6     1.73000000E+02   #  top            
        24     8.04229965E+01   #  W^+
        25     1.24742935E+02   #  h^0            
        35     5.33950342E+03   #  H^0            
        36     5.30460352E+03   #  A^0            
        37     5.34020215E+03   #  H^+            
   1000001     1.37828516E+04   #  dnl            
   1000002     1.37826152E+04   #  upl            
   1000003     1.37828516E+04   #  stl            
   1000004     1.37826152E+04   #  chl            
   1000005     1.26814629E+04   #  b1             
   1000006     1.19228066E+04   #  t1             
   1000011     5.04359961E+03   #  el-            
   1000012     5.02254736E+03   #  nuel           
   1000013     5.04359961E+03   #  mul-           
   1000014     5.02254736E+03   #  numl           
   1000015     2.33538257E+03   #  tau1           
   1000016     4.94083691E+03   #  nutl           
   1000021     1.02141006E+04   #  glss           
   1000022     2.30300293E+03   #  z1ss           
   1000023     3.75227661E+03   #  z2ss           
   1000024     3.82952148E+03   #  w1ss           
   1000025    -3.75707764E+03   #  z3ss           
   1000035     4.26698682E+03   #  z4ss           
   1000037     4.18576953E+03   #  w2ss           
   1000039     7.07254112E-02   #  gvss
   2000001     1.29429570E+04   #  dnr            
   2000002     1.30305049E+04   #  upr            
   2000003     1.29429570E+04   #  str            
   2000004     1.30305049E+04   #  chr            
   2000005     1.32126338E+04   #  b2             
   2000006     1.32875820E+04   #  t2             
   2000011     2.59561060E+03   #  er-            
   2000013     2.59561060E+03   #  mur-           
   2000015     4.95340088E+03   #  tau2           
Block ALPHA   # Effective Higgs mixing parameter
         -2.50148829E-02   # alpha
Block STOPMIX   # stop mixing matrix
  1  1     5.98851824E-03   # O_{11}
  1  2     9.99982059E-01   # O_{12}
  2  1    -9.99982059E-01   # O_{21}
  2  2     5.98851824E-03   # O_{22}
Block SBOTMIX   # sbottom mixing matrix
  1  1     5.43214343E-02   # O_{11}
  1  2     9.98523474E-01   # O_{12}
  2  1    -9.98523474E-01   # O_{21}
  2  2     5.43214343E-02   # O_{22}
Block STAUMIX   # stau mixing matrix
  1  1     5.56986220E-03   # O_{11}
  1  2     9.99984503E-01   # O_{12}
  2  1    -9.99984503E-01   # O_{21}
  2  2     5.56986220E-03   # O_{22}
Block NMIX   # neutralino mixing matrix
  1  1     9.99804139E-01   #
  1  2    -3.52694383E-06   #
  1  3     1.70505550E-02   #
  1  4    -1.00461245E-02   #
  2  1    -1.90701187E-02   #
  2  2    -9.87778455E-02   #
  2  3     7.03945875E-01   #
  2  4    -7.03092694E-01   #
  3  1    -4.95219650E-03   #
  3  2     6.30230550E-03   #
  3  3     7.07030416E-01   #
  3  4     7.07137585E-01   #
  4  1     1.85809261E-03   #
  4  2    -9.95089591E-01   #
  4  3    -6.53995275E-02   #
  4  4     7.42712915E-02   #
Block UMIX   # chargino U mixing matrix
  1  1    -1.25008658E-01   # U_{11}
  1  2     9.92155671E-01   # U_{12}
  2  1    -9.92155671E-01   # U_{21}
  2  2    -1.25008658E-01   # U_{22}
Block VMIX   # chargino V mixing matrix
  1  1    -1.37400806E-01   # V_{11}
  1  2     9.90515530E-01   # V_{12}
  2  1    -9.90515530E-01   # V_{21}
  2  2    -1.37400806E-01   # V_{22}
Block GAUGE Q=  1.22016777E+04   #
     1     3.57524991E-01   # g`
     2     6.52378619E-01   # g_2
     3     1.21928000E+00   # g_3
Block YU Q=  1.22016777E+04   #
  3  3     7.94992387E-01   # y_t
Block YD Q=  1.22016777E+04   #
  3  3     4.02411044E-01   # y_b
Block YE Q=  1.22016777E+04   #
  3  3     4.34948057E-01   # y_tau
Block HMIX Q=  1.22016777E+04   # Higgs mixing parameters
     1     3.70011084E+03   # mu(Q)
     2     3.87181854E+01   # tan(beta)(Q)
     3     2.53174591E+02   # Higgs vev at Q
     4     2.81388180E+07   # m_A^2(Q)
Block MSOFT Q=  1.22016777E+04   # DRbar SUSY breaking parameters
     1     2.34378687E+03   # M_1(Q)          
     2     4.11566699E+03   # M_2(Q)          
     3     9.41299414E+03   # M_3(Q)          
    21     1.50418640E+07   # MHd^2(Q)        
    22    -1.06808500E+07   # MHu^2(Q)        
    31     5.00344873E+03   # MeL(Q)          
    32     5.00344873E+03   # MmuL(Q)         
    33     4.92395312E+03   # MtauL(Q)        
    34     2.59319116E+03   # MeR(Q)          
    35     2.59319116E+03   # MmuR(Q)         
    36     2.34741113E+03   # MtauR(Q)        
    41     1.33239209E+04   # MqL1(Q)         
    42     1.33239209E+04   # MqL2(Q)         
    43     1.28003916E+04   # MqL3(Q)         
    44     1.25610713E+04   # MuR(Q)          
    45     1.25610713E+04   # McR(Q)          
    46     1.16309668E+04   # MtR(Q)          
    47     1.24721221E+04   # MdR(Q)          
    48     1.24721221E+04   # MsR(Q)          
    49     1.22376387E+04   # MbR(Q)          
Block AU Q=  1.22016777E+04   #
  1  1    -2.46470508E+03   # A_u
  2  2    -2.46470508E+03   # A_c
  3  3    -2.46470508E+03   # A_t
Block AD Q=  1.22016777E+04   #
  1  1    -2.64728540E+03   # A_d
  2  2    -2.64728540E+03   # A_s
  3  3    -2.64728540E+03   # A_b
Block AE Q=  1.22016777E+04   #
  1  1    -3.37637390E+02   # A_e
  2  2    -3.37637390E+02   # A_mu
  3  3    -3.37637390E+02   # A_tau
#  ISAJET decay tables in SUSY Les Houches accord format
#  Created by ISALHD. Last revision: C. Balazs, 2005 May 25
Block DCINFO                           # Program information
     1   ISASUGRA from ISAJET          # Spectrum Calculator
     2   7.85   04-NOV-2015 13:42:47   # Version number
#         PDG         Width
DECAY         6  1.16039467E+00   # TP    decays
#          BR          NDA       ID1       ID2       ID3       ID4
      3.33333343E-01    3            2        -1         5             # TP     -->  UP     DB     BT          
      3.33333343E-01    3            4        -3         5             # TP     -->  CH     SB     BT          
      1.11111112E-01    3          -11        12         5             # TP     -->  E+     NUE    BT          
      1.11111112E-01    3          -13        14         5             # TP     -->  MU+    NUM    BT          
      1.11111112E-01    3          -15        16         5             # TP     -->  TAU+   NUT    BT          
#         PDG         Width
DECAY   1000021  3.26068103E-01   # GLSS  decays
#          BR          NDA       ID1       ID2       ID3       ID4
      6.85950916E-04    3      1000024         1        -2             # GLSS   -->  W1SS+  DN     UB          
      6.85950916E-04    3     -1000024         2        -1             # GLSS   -->  W1SS-  UP     DB          
      6.85950916E-04    3      1000024         3        -4             # GLSS   -->  W1SS+  ST     CB          
      6.85950916E-04    3     -1000024         4        -3             # GLSS   -->  W1SS-  CH     SB          
      1.34936810E-01    3      1000024         5        -6             # GLSS   -->  W1SS+  BT     TB          
      1.34936810E-01    3     -1000024         6        -5             # GLSS   -->  W1SS-  TP     BB          
      3.33757140E-02    3      1000037         1        -2             # GLSS   -->  W2SS+  DN     UB          
      3.33757140E-02    3     -1000037         2        -1             # GLSS   -->  W2SS-  UP     DB          
      3.33757140E-02    3      1000037         3        -4             # GLSS   -->  W2SS+  ST     CB          
      3.33757140E-02    3     -1000037         4        -3             # GLSS   -->  W2SS-  CH     SB          
      4.54641432E-02    3      1000037         5        -6             # GLSS   -->  W2SS+  BT     TB          
      4.54641432E-02    3     -1000037         6        -5             # GLSS   -->  W2SS-  TP     BB          
      1.45433405E-05    2      1000022        21                       # GLSS   -->  Z1SS   GL                 
      2.46630609E-02    3      1000022         2        -2             # GLSS   -->  Z1SS   UP     UB          
      7.20852567E-03    3      1000022         1        -1             # GLSS   -->  Z1SS   DN     DB          
      7.20852567E-03    3      1000022         3        -3             # GLSS   -->  Z1SS   ST     SB          
      2.46630609E-02    3      1000022         4        -4             # GLSS   -->  Z1SS   CH     CB          
      8.32802430E-03    3      1000022         5        -5             # GLSS   -->  Z1SS   BT     BB          
      4.20394279E-02    3      1000022         6        -6             # GLSS   -->  Z1SS   TP     TB          
      2.89320073E-04    2      1000023        21                       # GLSS   -->  Z2SS   GL                 
      2.20522285E-04    3      1000023         2        -2             # GLSS   -->  Z2SS   UP     UB          
      1.87995742E-04    3      1000023         1        -1             # GLSS   -->  Z2SS   DN     DB          
      1.87995742E-04    3      1000023         3        -3             # GLSS   -->  Z2SS   ST     SB          
      2.20522285E-04    3      1000023         4        -4             # GLSS   -->  Z2SS   CH     CB          
      2.54042652E-02    3      1000023         5        -5             # GLSS   -->  Z2SS   BT     BB          
      1.14043072E-01    3      1000023         6        -6             # GLSS   -->  Z2SS   TP     TB          
      2.84008129E-04    2      1000025        21                       # GLSS   -->  Z3SS   GL                 
      4.64984083E-07    3      1000025         2        -2             # GLSS   -->  Z3SS   UP     UB          
      5.51864332E-07    3      1000025         1        -1             # GLSS   -->  Z3SS   DN     DB          
      5.51864332E-07    3      1000025         3        -3             # GLSS   -->  Z3SS   ST     SB          
      4.64984083E-07    3      1000025         4        -4             # GLSS   -->  Z3SS   CH     CB          
      2.52957623E-02    3      1000025         5        -5             # GLSS   -->  Z3SS   BT     BB          
      1.15099400E-01    3      1000025         6        -6             # GLSS   -->  Z3SS   TP     TB          
      1.83601855E-07    2      1000035        21                       # GLSS   -->  Z4SS   GL                 
      1.61609184E-02    3      1000035         2        -2             # GLSS   -->  Z4SS   UP     UB          
      1.61813870E-02    3      1000035         1        -1             # GLSS   -->  Z4SS   DN     DB          
      1.61813870E-02    3      1000035         3        -3             # GLSS   -->  Z4SS   ST     SB          
      1.61609184E-02    3      1000035         4        -4             # GLSS   -->  Z4SS   CH     CB          
      2.10268386E-02    3      1000035         5        -5             # GLSS   -->  Z4SS   BT     BB          
      2.18797345E-02    3      1000035         6        -6             # GLSS   -->  Z4SS   TP     TB          
      7.84743402E-17    2      1000039        21                       # GLSS   -->  GVSS   GL                 
#         PDG         Width
DECAY   1000002  2.80469238E+02   # UPL   decays
#          BR          NDA       ID1       ID2       ID3       ID4
      6.55781664E-03    2      1000022         2                       # UPL    -->  Z1SS   UP                 
      1.85472541E-03    2      1000023         2                       # UPL    -->  Z2SS   UP                 
      5.15915690E-06    2      1000025         2                       # UPL    -->  Z3SS   UP                 
      1.67328283E-01    2      1000035         2                       # UPL    -->  Z4SS   UP                 
      4.83131200E-01    2      1000021         2                       # UPL    -->  GLSS   UP                 
      6.65090512E-03    2      1000024         1                       # UPL    -->  W1SS+  DN                 
      3.34471911E-01    2      1000037         1                       # UPL    -->  W2SS+  DN                 
#         PDG         Width
DECAY   1000001  2.80472717E+02   # DNL   decays
#          BR          NDA       ID1       ID2       ID3       ID4
      6.55836752E-03    2      1000022         1                       # DNL    -->  Z1SS   DN                 
      1.60995743E-03    2      1000023         1                       # DNL    -->  Z2SS   DN                 
      9.21331684E-06    2      1000025         1                       # DNL    -->  Z3SS   DN                 
      1.67559445E-01    2      1000035         1                       # DNL    -->  Z4SS   DN                 
      4.83173221E-01    2      1000021         1                       # DNL    -->  GLSS   DN                 
      5.50537650E-03    2     -1000024         2                       # DNL    -->  W1SS-  UP                 
      3.35584432E-01    2     -1000037         2                       # DNL    -->  W2SS-  UP                 
#         PDG         Width
DECAY   1000003  2.80472717E+02   # STL   decays
#          BR          NDA       ID1       ID2       ID3       ID4
      6.55836752E-03    2      1000022         3                       # STL    -->  Z1SS   ST                 
      1.60995743E-03    2      1000023         3                       # STL    -->  Z2SS   ST                 
      9.21331684E-06    2      1000025         3                       # STL    -->  Z3SS   ST                 
      1.67559445E-01    2      1000035         3                       # STL    -->  Z4SS   ST                 
      4.83173221E-01    2      1000021         3                       # STL    -->  GLSS   ST                 
      5.50537650E-03    2     -1000024         4                       # STL    -->  W1SS-  CH                 
      3.35584432E-01    2     -1000037         4                       # STL    -->  W2SS-  CH                 
#         PDG         Width
DECAY   1000004  2.80469238E+02   # CHL   decays
#          BR          NDA       ID1       ID2       ID3       ID4
      6.55781617E-03    2      1000022         4                       # CHL    -->  Z1SS   CH                 
      1.85472530E-03    2      1000023         4                       # CHL    -->  Z2SS   CH                 
      5.15915690E-06    2      1000025         4                       # CHL    -->  Z3SS   CH                 
      1.67328283E-01    2      1000035         4                       # CHL    -->  Z4SS   CH                 
      4.83131200E-01    2      1000021         4                       # CHL    -->  GLSS   CH                 
      6.65090512E-03    2      1000024         3                       # CHL    -->  W1SS+  ST                 
      3.34471911E-01    2      1000037         3                       # CHL    -->  W2SS+  ST                 
#         PDG         Width
DECAY   1000005  1.51434570E+02   # BT1   decays
#          BR          NDA       ID1       ID2       ID3       ID4
      4.45068479E-02    2      1000022         5                       # BT1    -->  Z1SS   BT                 
      1.13359950E-01    2      1000023         5                       # BT1    -->  Z2SS   BT                 
      1.12357721E-01    2      1000025         5                       # BT1    -->  Z3SS   BT                 
      4.36150776E-06    2      1000035         5                       # BT1    -->  Z4SS   BT                 
      5.03407598E-01    2      1000021         5                       # BT1    -->  GLSS   BT                 
      2.26013631E-01    2     -1000024         6                       # BT1    -->  W1SS-  TP                 
      3.48436181E-04    2     -1000037         6                       # BT1    -->  W2SS-  TP                 
      1.42592887E-06    2          -24   1000006                       # BT1    -->  W-     TP1                
#         PDG         Width
DECAY   1000006  2.93490295E+02   # TP1   decays
#          BR          NDA       ID1       ID2       ID3       ID4
      1.40125543E-01    2      1000021         6                       # TP1    -->  GLSS   TP                 
      8.50749016E-02    2      1000022         6                       # TP1    -->  Z1SS   TP                 
      1.92680880E-01    2      1000023         6                       # TP1    -->  Z2SS   TP                 
      1.94624484E-01    2      1000025         6                       # TP1    -->  Z3SS   TP                 
      1.82354636E-03    2      1000035         6                       # TP1    -->  Z4SS   TP                 
      3.79205197E-01    2      1000024         5                       # TP1    -->  W1SS+  BT                 
      6.46543223E-03    2      1000037         5                       # TP1    -->  W2SS+  BT                 
#         PDG         Width
DECAY   2000002  1.21787514E+02   # UPR   decays
#          BR          NDA       ID1       ID2       ID3       ID4
      2.26902843E-01    2      1000022         2                       # UPR    -->  Z1SS   UP                 
      7.39766474E-05    2      1000023         2                       # UPR    -->  Z2SS   UP                 
      4.98634654E-06    2      1000025         2                       # UPR    -->  Z3SS   UP                 
      6.65560890E-07    2      1000035         2                       # UPR    -->  Z4SS   UP                 
      7.73017526E-01    2      1000021         2                       # UPR    -->  GLSS   UP                 
#         PDG         Width
DECAY   2000001  9.64169922E+01   # DNR   decays
#          BR          NDA       ID1       ID2       ID3       ID4
      7.11084455E-02    2      1000022         1                       # DNR    -->  Z1SS   DN                 
      2.31467166E-05    2      1000023         1                       # DNR    -->  Z2SS   DN                 
      1.56017825E-06    2      1000025         1                       # DNR    -->  Z3SS   DN                 
      2.08080792E-07    2      1000035         1                       # DNR    -->  Z4SS   DN                 
      9.28866625E-01    2      1000021         1                       # DNR    -->  GLSS   DN                 
#         PDG         Width
DECAY   2000003  9.64169922E+01   # STR   decays
#          BR          NDA       ID1       ID2       ID3       ID4
      7.11084455E-02    2      1000022         3                       # STR    -->  Z1SS   ST                 
      2.31467166E-05    2      1000023         3                       # STR    -->  Z2SS   ST                 
      1.56017825E-06    2      1000025         3                       # STR    -->  Z3SS   ST                 
      2.08080792E-07    2      1000035         3                       # STR    -->  Z4SS   ST                 
      9.28866625E-01    2      1000021         3                       # STR    -->  GLSS   ST                 
#         PDG         Width
DECAY   2000004  1.21787498E+02   # CHR   decays
#          BR          NDA       ID1       ID2       ID3       ID4
      2.26902872E-01    2      1000022         4                       # CHR    -->  Z1SS   CH                 
      7.39766547E-05    2      1000023         4                       # CHR    -->  Z2SS   CH                 
      4.98634745E-06    2      1000025         4                       # CHR    -->  Z3SS   CH                 
      6.65560947E-07    2      1000035         4                       # CHR    -->  Z4SS   CH                 
      7.73017466E-01    2      1000021         4                       # CHR    -->  GLSS   CH                 
#         PDG         Width
DECAY   2000005  4.08985016E+02   # BT2   decays
#          BR          NDA       ID1       ID2       ID3       ID4
      4.24238434E-03    2      1000022         5                       # BT2    -->  Z1SS   BT                 
      4.40683588E-02    2      1000023         5                       # BT2    -->  Z2SS   BT                 
      4.41472009E-02    2      1000025         5                       # BT2    -->  Z3SS   BT                 
      1.08822823E-01    2      1000035         5                       # BT2    -->  Z4SS   BT                 
      2.53891736E-01    2      1000021         5                       # BT2    -->  GLSS   BT                 
      3.14595670E-01    2     -1000024         6                       # BT2    -->  W1SS-  TP                 
      2.24254295E-01    2     -1000037         6                       # BT2    -->  W2SS-  TP                 
      8.35682906E-04    2          -24   1000006                       # BT2    -->  W-     TP1                
      2.55810074E-03    2           23   1000005                       # BT2    -->  Z0     BT1                
      2.58374494E-03    2           25   1000005                       # BT2    -->  HL0    BT1                
#         PDG         Width
DECAY   2000006  4.18346252E+02   # TP2   decays
#          BR          NDA       ID1       ID2       ID3       ID4
      2.57278055E-01    2      1000021         6                       # TP2    -->  GLSS   TP                 
      8.87274817E-02    2      1000024         5                       # TP2    -->  W1SS+  BT                 
      2.14583531E-01    2      1000037         5                       # TP2    -->  W2SS+  BT                 
      4.87379002E-04    2           23   1000006                       # TP2    -->  Z0     TP1                
      2.22323881E-03    2           25   1000006                       # TP2    -->  HL0    TP1                
      7.42966775E-03    2           24   1000005                       # TP2    -->  W+     BT1                
      4.24524816E-03    2      1000022         6                       # TP2    -->  Z1SS   TP                 
      1.57848641E-01    2      1000023         6                       # TP2    -->  Z2SS   TP                 
      1.58735156E-01    2      1000025         6                       # TP2    -->  Z3SS   TP                 
      1.08441614E-01    2      1000035         6                       # TP2    -->  Z4SS   TP                 
#         PDG         Width
DECAY   1000011  9.92954826E+00   # EL-   decays
#          BR          NDA       ID1       ID2       ID3       ID4
      4.04459625E-01    2      1000022        11                       # EL-    -->  Z1SS   E-                 
      5.08867530E-03    2      1000023        11                       # EL-    -->  Z2SS   E-                 
      5.43010901E-06    2      1000025        11                       # EL-    -->  Z3SS   E-                 
      1.70709044E-01    2      1000035        11                       # EL-    -->  Z4SS   E-                 
      1.19844219E-02    2     -1000024        12                       # EL-    -->  W1SS-  NUE                
      4.07752782E-01    2     -1000037        12                       # EL-    -->  W2SS-  NUE                
      7.56500033E-20    2           11   1000039                       # EL-    -->  E-     GVSS               
#         PDG         Width
DECAY   1000013  9.92954826E+00   # MUL-  decays
#          BR          NDA       ID1       ID2       ID3       ID4
      4.04459625E-01    2      1000022        13                       # MUL-   -->  Z1SS   MU-                
      5.08867530E-03    2      1000023        13                       # MUL-   -->  Z2SS   MU-                
      5.43010901E-06    2      1000025        13                       # MUL-   -->  Z3SS   MU-                
      1.70709044E-01    2      1000035        13                       # MUL-   -->  Z4SS   MU-                
      1.19844219E-02    2     -1000024        14                       # MUL-   -->  W1SS-  NUM                
      4.07752782E-01    2     -1000037        14                       # MUL-   -->  W2SS-  NUM                
      7.56500033E-20    2           13   1000039                       # MUL-   -->  MU-    GVSS               
#         PDG         Width
DECAY   1000015  0   # TAU1- decays
#          BR          NDA       ID1       ID2       ID3       ID4
      1.00000000E+00    2      1000022        15                       # TAU1-  -->  Z1SS   TAU-               
      1.78033566E-18    2           15   1000039                       # TAU1-  -->  TAU-   GVSS               
#         PDG         Width
DECAY   1000012  9.64871979E+00   # NUEL  decays
#          BR          NDA       ID1       ID2       ID3       ID4
      4.12672222E-01    2      1000022        12                       # NUEL   -->  Z1SS   NUE                
      3.33523727E-03    2      1000023        12                       # NUEL   -->  Z2SS   NUE                
      3.46128254E-05    2      1000025        12                       # NUEL   -->  Z3SS   NUE                
      1.68310821E-01    2      1000035        12                       # NUEL   -->  Z4SS   NUE                
      1.45000005E-02    2      1000024        11                       # NUEL   -->  W1SS+  E-                 
      4.01147097E-01    2      1000037        11                       # NUEL   -->  W2SS+  E-                 
      7.62405391E-20    2           12   1000039                       # NUEL   -->  NUE    GVSS               
#         PDG         Width
DECAY   1000014  9.64871979E+00   # NUML  decays
#          BR          NDA       ID1       ID2       ID3       ID4
      4.12672222E-01    2      1000022        14                       # NUML   -->  Z1SS   NUM                
      3.33523727E-03    2      1000023        14                       # NUML   -->  Z2SS   NUM                
      3.46128254E-05    2      1000025        14                       # NUML   -->  Z3SS   NUM                
      1.68310821E-01    2      1000035        14                       # NUML   -->  Z4SS   NUM                
      1.45000005E-02    2      1000024        13                       # NUML   -->  W1SS+  MU-                
      4.01147097E-01    2      1000037        13                       # NUML   -->  W2SS+  MU-                
      7.62405391E-20    2           14   1000039                       # NUML   -->  NUM    GVSS               
#         PDG         Width
DECAY   1000016  1.26746283E+01   # NUTL  decays
#          BR          NDA       ID1       ID2       ID3       ID4
      3.03577811E-01    2      1000022        16                       # NUTL   -->  Z1SS   NUT                
      2.29168800E-03    2      1000023        16                       # NUTL   -->  Z2SS   NUT                
      2.37707955E-05    2      1000025        16                       # NUTL   -->  Z3SS   NUT                
      1.05179533E-01    2      1000035        16                       # NUTL   -->  Z4SS   NUT                
      2.40585044E-01    2      1000024        15                       # NUTL   -->  W1SS+  TAU-               
      2.58501887E-01    2      1000037        15                       # NUTL   -->  W2SS+  TAU-               
      8.98402557E-02    2           24   1000015                       # NUTL   -->  W+     TAU1-              
      5.34690905E-20    2           16   1000039                       # NUTL   -->  NUT    GVSS               
#         PDG         Width
DECAY   2000011  5.97348511E-01   # ER-   decays
#          BR          NDA       ID1       ID2       ID3       ID4
      1.00000000E+00    2      1000022        11                       # ER-    -->  Z1SS   E-                 
      2.03243568E-11    3      1000015        11       -15             # ER-    -->  TAU1-  E-     TAU+        
      2.52499011E-11    3     -1000015        11        15             # ER-    -->  TAU1+  E-     TAU-        
      3.83704062E-15    3      1000015        12       -16             # ER-    -->  TAU1-  NUE    ANUT        
      4.53947221E-20    2           11   1000039                       # ER-    -->  E-     GVSS               
#         PDG         Width
DECAY   2000013  5.97348452E-01   # MUR-  decays
#          BR          NDA       ID1       ID2       ID3       ID4
      1.00000000E+00    2      1000022        13                       # MUR-   -->  Z1SS   MU-                
      2.03243585E-11    3      1000015        13       -15             # MUR-   -->  TAU1-  MU-    TAU+        
      2.52499029E-11    3     -1000015        13        15             # MUR-   -->  TAU1+  MU-    TAU-        
      1.63329517E-10    3      1000015        14       -16             # MUR-   -->  TAU1-  NUM    ANUT        
      4.53947285E-20    2           13   1000039                       # MUR-   -->  MU-    GVSS               
#         PDG         Width
DECAY   2000015  1.62453690E+01   # TAU2- decays
#          BR          NDA       ID1       ID2       ID3       ID4
      2.38269106E-01    2      1000022        15                       # TAU2-  -->  Z1SS   TAU-               
      1.06150463E-01    2      1000023        15                       # TAU2-  -->  Z2SS   TAU-               
      1.03768535E-01    2      1000025        15                       # TAU2-  -->  Z3SS   TAU-               
      8.47953558E-02    2      1000035        15                       # TAU2-  -->  Z4SS   TAU-               
      6.11349707E-03    2     -1000024        16                       # TAU2-  -->  W1SS-  NUT                
      2.06764117E-01    2     -1000037        16                       # TAU2-  -->  W2SS-  NUT                
      3.59205641E-02    2           23   1000015                       # TAU2-  -->  Z0     TAU1-              
      2.18218371E-01    2           25   1000015                       # TAU2-  -->  HL0    TAU1-              
#         PDG         Width
DECAY   1000022  0   # Z1SS  decays
#          BR          NDA       ID1       ID2       ID3       ID4
      7.54301488E-01    2      1000039        22                       # Z1SS   -->  GVSS   GM                 
      1.91594958E-02    3      1000039        11       -11             # Z1SS   -->  GVSS   E-     E+          
      2.26494119E-01    2      1000039        23                       # Z1SS   -->  GVSS   Z0                 
      4.49010149E-05    2      1000039        25                       # Z1SS   -->  GVSS   HL0                
#         PDG         Width
DECAY   1000023  4.75714827E+00   # Z2SS  decays
#          BR          NDA       ID1       ID2       ID3       ID4
      6.20854053E-08    2      1000022        22                       # Z2SS   -->  Z1SS   GM                 
      2.17514019E-02    2      1000022        23                       # Z2SS   -->  Z1SS   Z0                 
      2.71874356E-10    3      1000022         2        -2             # Z2SS   -->  Z1SS   UP     UB          
      1.75986517E-10    3      1000022         1        -1             # Z2SS   -->  Z1SS   DN     DB          
      1.75986517E-10    3      1000022         3        -3             # Z2SS   -->  Z1SS   ST     SB          
      2.71874356E-10    3      1000022         4        -4             # Z2SS   -->  Z1SS   CH     CB          
      2.18887453E-06    3      1000022         5        -5             # Z2SS   -->  Z1SS   BT     BB          
      8.69131753E-08    3      1000022        11       -11             # Z2SS   -->  Z1SS   E-     E+          
      8.69131753E-08    3      1000022        13       -13             # Z2SS   -->  Z1SS   MU-    MU+         
      2.00593058E-06    3      1000022        15       -15             # Z2SS   -->  Z1SS   TAU-   TAU+        
      5.83280837E-08    3      1000022        12       -12             # Z2SS   -->  Z1SS   NUE    ANUE        
      5.83280837E-08    3      1000022        14       -14             # Z2SS   -->  Z1SS   NUM    ANUM        
      6.49911556E-08    3      1000022        16       -16             # Z2SS   -->  Z1SS   NUT    ANUT        
      4.22517121E-01    2      1000022        25                       # Z2SS   -->  Z1SS   HL0                
      1.98389505E-04    2      2000011       -11                       # Z2SS   -->  ER-    E+                 
      1.98389505E-04    2     -2000011        11                       # Z2SS   -->  ER+    E-                 
      1.98389505E-04    2      2000013       -13                       # Z2SS   -->  MUR-   MU+                
      1.98389505E-04    2     -2000013        13                       # Z2SS   -->  MUR+   MU-                
      2.77466655E-01    2      1000015       -15                       # Z2SS   -->  TAU1-  TAU+               
      2.77466655E-01    2     -1000015        15                       # Z2SS   -->  TAU1+  TAU-               
      1.48747183E-22    2      1000039        22                       # Z2SS   -->  GVSS   GM                 
      3.89860424E-24    3      1000039        11       -11             # Z2SS   -->  GVSS   E-     E+          
      9.53322344E-21    2      1000039        23                       # Z2SS   -->  GVSS   Z0                 
      8.41258758E-21    2      1000039        25                       # Z2SS   -->  GVSS   HL0                
#         PDG         Width
DECAY   1000025  4.32648993E+00   # Z3SS  decays
#          BR          NDA       ID1       ID2       ID3       ID4
      5.71309755E-08    2      1000022        22                       # Z3SS   -->  Z1SS   GM                 
      3.85399655E-12    2      1000023        22                       # Z3SS   -->  Z2SS   GM                 
      3.58892709E-01    2      1000022        23                       # Z3SS   -->  Z1SS   Z0                 
      2.22899542E-12    3      1000022         2        -2             # Z3SS   -->  Z1SS   UP     UB          
      5.20296154E-13    3      1000022         1        -1             # Z3SS   -->  Z1SS   DN     DB          
      5.20296154E-13    3      1000022         3        -3             # Z3SS   -->  Z1SS   ST     SB          
      2.22899542E-12    3      1000022         4        -4             # Z3SS   -->  Z1SS   CH     CB          
      2.50247899E-06    3      1000022         5        -5             # Z3SS   -->  Z1SS   BT     BB          
      3.98787808E-11    3      1000022        11       -11             # Z3SS   -->  Z1SS   E-     E+          
      3.98787808E-11    3      1000022        13       -13             # Z3SS   -->  Z1SS   MU-    MU+         
      2.14810780E-06    3      1000022        15       -15             # Z3SS   -->  Z1SS   TAU-   TAU+        
      2.60653055E-10    3      1000022        12       -12             # Z3SS   -->  Z1SS   NUE    ANUE        
      2.60653055E-10    3      1000022        14       -14             # Z3SS   -->  Z1SS   NUM    ANUM        
      2.92024988E-10    3      1000022        16       -16             # Z3SS   -->  Z1SS   NUT    ANUT        
      8.09557976E-11    3      1000023         2        -2             # Z3SS   -->  Z2SS   UP     UB          
      1.04393029E-10    3      1000023         1        -1             # Z3SS   -->  Z2SS   DN     DB          
      1.04393029E-10    3      1000023         3        -3             # Z3SS   -->  Z2SS   ST     SB          
      8.09557976E-11    3      1000023         4        -4             # Z3SS   -->  Z2SS   CH     CB          
      2.36814960E-11    3      1000023        11       -11             # Z3SS   -->  Z2SS   E-     E+          
      2.36814960E-11    3      1000023        13       -13             # Z3SS   -->  Z2SS   MU-    MU+         
      3.90556641E-12    3      1000023        15       -15             # Z3SS   -->  Z2SS   TAU-   TAU+        
      4.71187846E-11    3      1000023        12       -12             # Z3SS   -->  Z2SS   NUE    ANUE        
      4.71187846E-11    3      1000023        14       -14             # Z3SS   -->  Z2SS   NUM    ANUM        
      4.71187880E-11    3      1000023        16       -16             # Z3SS   -->  Z2SS   NUT    ANUT        
      2.42515691E-02    2      1000022        25                       # Z3SS   -->  Z1SS   HL0                
      1.47981436E-05    2      2000011       -11                       # Z3SS   -->  ER-    E+                 
      1.47981436E-05    2     -2000011        11                       # Z3SS   -->  ER+    E-                 
      1.47981436E-05    2      2000013       -13                       # Z3SS   -->  MUR-   MU+                
      1.47981436E-05    2     -2000013        13                       # Z3SS   -->  MUR+   MU-                
      3.08395922E-01    2      1000015       -15                       # Z3SS   -->  TAU1-  TAU+               
      3.08395922E-01    2     -1000015        15                       # Z3SS   -->  TAU1+  TAU-               
      6.77489584E-26    2      1000039        22                       # Z3SS   -->  GVSS   GM                 
      1.77581661E-27    3      1000039        11       -11             # Z3SS   -->  GVSS   E-     E+          
      9.43975688E-21    2      1000039        23                       # Z3SS   -->  GVSS   Z0                 
      1.04088345E-20    2      1000039        25                       # Z3SS   -->  GVSS   HL0                
#         PDG         Width
DECAY   1000035  1.57301865E+01   # Z4SS  decays
#          BR          NDA       ID1       ID2       ID3       ID4
      2.14789271E-08    2      1000022        22                       # Z4SS   -->  Z1SS   GM                 
      1.83518326E-10    2      1000023        22                       # Z4SS   -->  Z2SS   GM                 
      3.59239943E-10    2      1000025        22                       # Z4SS   -->  Z3SS   GM                 
      2.99881637E-01    2      1000024       -24                       # Z4SS   -->  W1SS+  W-                 
      2.99881637E-01    2     -1000024        24                       # Z4SS   -->  W1SS-  W+                 
      7.59828117E-06    2      1000037       -24                       # Z4SS   -->  W2SS+  W-                 
      7.59828117E-06    2     -1000037        24                       # Z4SS   -->  W2SS-  W+                 
      7.91331549E-05    2      1000022        23                       # Z4SS   -->  Z1SS   Z0                 
      7.58186739E-04    2      1000023        23                       # Z4SS   -->  Z2SS   Z0                 
      1.71694770E-01    2      1000025        23                       # Z4SS   -->  Z3SS   Z0                 
      2.23102585E-08    3      1000022         2        -2             # Z4SS   -->  Z1SS   UP     UB          
      2.23401049E-08    3      1000022         1        -1             # Z4SS   -->  Z1SS   DN     DB          
      2.23401049E-08    3      1000022         3        -3             # Z4SS   -->  Z1SS   ST     SB          
      2.23102585E-08    3      1000022         4        -4             # Z4SS   -->  Z1SS   CH     CB          
      3.28837686E-08    3      1000022         5        -5             # Z4SS   -->  Z1SS   BT     BB          
      1.11967838E-05    3      1000022        11       -11             # Z4SS   -->  Z1SS   E-     E+          
      1.11967838E-05    3      1000022        13       -13             # Z4SS   -->  Z1SS   MU-    MU+         
      1.29419786E-05    3      1000022        15       -15             # Z4SS   -->  Z1SS   TAU-   TAU+        
      1.16138954E-05    3      1000022        12       -12             # Z4SS   -->  Z1SS   NUE    ANUE        
      1.16138954E-05    3      1000022        14       -14             # Z4SS   -->  Z1SS   NUM    ANUM        
      1.32318255E-05    3      1000022        16       -16             # Z4SS   -->  Z1SS   NUT    ANUT        
      1.76111296E-11    3      1000023         2        -2             # Z4SS   -->  Z2SS   UP     UB          
      1.53066206E-11    3      1000023         1        -1             # Z4SS   -->  Z2SS   DN     DB          
      1.53066206E-11    3      1000023         3        -3             # Z4SS   -->  Z2SS   ST     SB          
      1.76111296E-11    3      1000023         4        -4             # Z4SS   -->  Z2SS   CH     CB          
      1.83226785E-08    3      1000023         5        -5             # Z4SS   -->  Z2SS   BT     BB          
      2.35504771E-09    3      1000023        11       -11             # Z4SS   -->  Z2SS   E-     E+          
      2.35504771E-09    3      1000023        13       -13             # Z4SS   -->  Z2SS   MU-    MU+         
      1.02665261E-07    3      1000023        15       -15             # Z4SS   -->  Z2SS   TAU-   TAU+        
      1.61817670E-09    3      1000023        12       -12             # Z4SS   -->  Z2SS   NUE    ANUE        
      1.61817670E-09    3      1000023        14       -14             # Z4SS   -->  Z2SS   NUM    ANUM        
      1.95761318E-09    3      1000023        16       -16             # Z4SS   -->  Z2SS   NUT    ANUT        
      1.57023933E-14    3      1000025         2        -2             # Z4SS   -->  Z3SS   UP     UB          
      2.80775921E-14    3      1000025         1        -1             # Z4SS   -->  Z3SS   DN     DB          
      2.80775921E-14    3      1000025         3        -3             # Z4SS   -->  Z3SS   ST     SB          
      1.57023933E-14    3      1000025         4        -4             # Z4SS   -->  Z3SS   CH     CB          
      1.83982980E-08    3      1000025         5        -5             # Z4SS   -->  Z3SS   BT     BB          
      8.36478564E-13    3      1000025        11       -11             # Z4SS   -->  Z3SS   E-     E+          
      8.36478564E-13    3      1000025        13       -13             # Z4SS   -->  Z3SS   MU-    MU+         
      9.66244826E-08    3      1000025        15       -15             # Z4SS   -->  Z3SS   TAU-   TAU+        
      5.59702762E-12    3      1000025        12       -12             # Z4SS   -->  Z3SS   NUE    ANUE        
      5.59702762E-12    3      1000025        14       -14             # Z4SS   -->  Z3SS   NUM    ANUM        
      6.80755842E-12    3      1000025        16       -16             # Z4SS   -->  Z3SS   NUT    ANUT        
      9.35576682E-04    2      1000022        25                       # Z4SS   -->  Z1SS   HL0                
      2.24109724E-01    2      1000023        25                       # Z4SS   -->  Z2SS   HL0                
      7.85563898E-04    2      1000025        25                       # Z4SS   -->  Z3SS   HL0                
      9.45216300E-07    2      2000011       -11                       # Z4SS   -->  ER-    E+                 
      9.45216300E-07    2     -2000011        11                       # Z4SS   -->  ER+    E-                 
      9.45216300E-07    2      2000013       -13                       # Z4SS   -->  MUR-   MU+                
      9.45216300E-07    2     -2000013        13                       # Z4SS   -->  MUR+   MU-                
      8.91315402E-04    2      1000015       -15                       # Z4SS   -->  TAU1-  TAU+               
      8.91315402E-04    2     -1000015        15                       # Z4SS   -->  TAU1+  TAU-               
      4.72241855E-21    2      1000039        22                       # Z4SS   -->  GVSS   GM                 
      1.24779102E-22    3      1000039        11       -11             # Z4SS   -->  GVSS   E-     E+          
      1.58026232E-20    2      1000039        23                       # Z4SS   -->  GVSS   Z0                 
      5.43766871E-23    2      1000039        25                       # Z4SS   -->  GVSS   HL0                
#         PDG         Width
DECAY   1000024  4.65218878E+00   # W1SS+ decays
#          BR          NDA       ID1       ID2       ID3       ID4
      8.41096248E-10    3      1000022         2        -1             # W1SS+  -->  Z1SS   UP     DB          
      8.41096248E-10    3      1000022         4        -3             # W1SS+  -->  Z1SS   CH     SB          
      3.40927244E-07    3      1000022       -11        12             # W1SS+  -->  Z1SS   E+     NUE         
      3.40927244E-07    3      1000022       -13        14             # W1SS+  -->  Z1SS   MU+    NUM         
      2.98078089E-06    3      1000022       -15        16             # W1SS+  -->  Z1SS   TAU+   NUT         
      3.92277122E-01    2      1000022        24                       # W1SS+  -->  Z1SS   W+                 
      7.12604960E-04    3      1000023         2        -1             # W1SS+  -->  Z2SS   UP     DB          
      7.12604960E-04    3      1000023         4        -3             # W1SS+  -->  Z2SS   CH     SB          
      2.37536806E-04    3      1000023       -11        12             # W1SS+  -->  Z2SS   E+     NUE         
      2.37536806E-04    3      1000023       -13        14             # W1SS+  -->  Z2SS   MU+    NUM         
      2.37536908E-04    3      1000023       -15        16             # W1SS+  -->  Z2SS   TAU+   NUT         
      3.80323123E-04    3      1000025         2        -1             # W1SS+  -->  Z3SS   UP     DB          
      3.80323123E-04    3      1000025         4        -3             # W1SS+  -->  Z3SS   CH     SB          
      1.26774423E-04    3      1000025       -11        12             # W1SS+  -->  Z3SS   E+     NUE         
      1.26774423E-04    3      1000025       -13        14             # W1SS+  -->  Z3SS   MU+    NUM         
      1.26774408E-04    3      1000025       -15        16             # W1SS+  -->  Z3SS   TAU+   NUT         
      6.04440451E-01    2     -1000015        16                       # W1SS+  -->  TAU1+  NUT                
#         PDG         Width
DECAY   1000037  7.72954464E+00   # W2SS+ decays
#          BR          NDA       ID1       ID2       ID3       ID4
      7.45568514E-08    3      1000022         2        -1             # W2SS+  -->  Z1SS   UP     DB          
      7.45568514E-08    3      1000022         4        -3             # W2SS+  -->  Z1SS   CH     SB          
      3.62448336E-05    3      1000022       -11        12             # W2SS+  -->  Z1SS   E+     NUE         
      3.62448336E-05    3      1000022       -13        14             # W2SS+  -->  Z1SS   MU+    NUM         
      4.14196948E-05    3      1000022       -15        16             # W2SS+  -->  Z1SS   TAU+   NUT         
      6.69794856E-03    2      1000022        24                       # W2SS+  -->  Z1SS   W+                 
      9.67960347E-12    3      1000023         2        -1             # W2SS+  -->  Z2SS   UP     DB          
      9.67960347E-12    3      1000023         4        -3             # W2SS+  -->  Z2SS   CH     SB          
      1.12587750E-09    3      1000023       -11        12             # W2SS+  -->  Z2SS   E+     NUE         
      1.12587750E-09    3      1000023       -13        14             # W2SS+  -->  Z2SS   MU+    NUM         
      8.27657516E-08    3      1000023       -15        16             # W2SS+  -->  Z2SS   TAU+   NUT         
      9.56303850E-02    2      1000023        24                       # W2SS+  -->  Z2SS   W+                 
      1.12025372E-13    3      1000025         2        -1             # W2SS+  -->  Z3SS   UP     DB          
      1.12025372E-13    3      1000025         4        -3             # W2SS+  -->  Z3SS   CH     SB          
      1.34167850E-11    3      1000025       -11        12             # W2SS+  -->  Z3SS   E+     NUE         
      1.34167850E-11    3      1000025       -13        14             # W2SS+  -->  Z3SS   MU+    NUM         
      7.82228966E-08    3      1000025       -15        16             # W2SS+  -->  Z3SS   TAU+   NUT         
      3.70749682E-01    2      1000025        24                       # W2SS+  -->  Z3SS   W+                 
      6.60667708E-03    2     -1000015        16                       # W2SS+  -->  TAU1+  NUT                
      2.07513392E-01    2      1000024        23                       # W2SS+  -->  W1SS+  Z0                 
      1.43953790E-11    3      1000024         1        -1             # W2SS+  -->  W1SS+  DN     DB          
      1.43953790E-11    3      1000024         3        -3             # W2SS+  -->  W1SS+  ST     SB          
      1.19544426E-11    3      1000024         2        -2             # W2SS+  -->  W1SS+  UP     UB          
      1.19544426E-11    3      1000024         4        -4             # W2SS+  -->  W1SS+  CH     CB          
      1.38832412E-09    3      1000024        12       -12             # W2SS+  -->  W1SS+  NUE    ANUE        
      1.38832412E-09    3      1000024        14       -14             # W2SS+  -->  W1SS+  NUM    ANUM        
      1.75082837E-09    3      1000024        11       -11             # W2SS+  -->  W1SS+  E-     E+          
      1.75082837E-09    3      1000024        13       -13             # W2SS+  -->  W1SS+  MU-    MU+         
      2.11407203E-09    3      1000024        15       -15             # W2SS+  -->  W1SS+  TAU-   TAU+        
      3.12687695E-01    2      1000024        25                       # W2SS+  -->  W1SS+  HL0                
#         PDG         Width
DECAY        25  4.95261373E-03   # HL0   decays
#          BR          NDA       ID1       ID2       ID3       ID4
      4.28718883E-09    2           11       -11                       # HL0    -->  E-     E+                 
      1.81012074E-04    2           13       -13                       # HL0    -->  MU-    MU+                
      5.17817400E-02    2           15       -15                       # HL0    -->  TAU-   TAU+               
      5.37435790E-06    2            1        -1                       # HL0    -->  DN     DB                 
      2.17151036E-03    2            3        -3                       # HL0    -->  ST     SB                 
      7.03707039E-01    2            5        -5                       # HL0    -->  BT     BB                 
      1.71685690E-06    2            2        -2                       # HL0    -->  UP     UB                 
      3.19207832E-02    2            4        -4                       # HL0    -->  CH     CB                 
      2.07711034E-03    2           22        22                       # HL0    -->  GM     GM                 
      4.24738228E-02    2           21        21                       # HL0    -->  GL     GL                 
      8.28887429E-03    3           24        11       -12             # HL0    -->  W+     E-     ANUE        
      8.28887429E-03    3           24        13       -14             # HL0    -->  W+     MU-    ANUM        
      8.28887429E-03    3           24        15       -16             # HL0    -->  W+     TAU-   ANUT        
      2.48666201E-02    3           24        -2         1             # HL0    -->  W+     UB     DN          
      2.48666201E-02    3           24        -4         3             # HL0    -->  W+     CB     ST          
      8.28887429E-03    3          -24       -11        12             # HL0    -->  W-     E+     NUE         
      8.28887429E-03    3          -24       -13        14             # HL0    -->  W-     MU+    NUM         
      8.28887429E-03    3          -24       -15        16             # HL0    -->  W-     TAU+   NUT         
      2.48666201E-02    3          -24         2        -1             # HL0    -->  W-     UP     DB          
      2.48666201E-02    3          -24         4        -3             # HL0    -->  W-     CH     SB          
      1.12707599E-03    3           23        12       -12             # HL0    -->  Z0     NUE    ANUE        
      1.12707599E-03    3           23        14       -14             # HL0    -->  Z0     NUM    ANUM        
      1.12707599E-03    3           23        16       -16             # HL0    -->  Z0     NUT    ANUT        
      5.67246054E-04    3           23        11       -11             # HL0    -->  Z0     E-     E+          
      5.67246054E-04    3           23        13       -13             # HL0    -->  Z0     MU-    MU+         
      5.67246054E-04    3           23        15       -15             # HL0    -->  Z0     TAU-   TAU+        
      1.94333692E-03    3           23         2        -2             # HL0    -->  Z0     UP     UB          
      1.94333692E-03    3           23         4        -4             # HL0    -->  Z0     CH     CB          
      2.50349659E-03    3           23         1        -1             # HL0    -->  Z0     DN     DB          
      2.50349659E-03    3           23         3        -3             # HL0    -->  Z0     ST     SB          
      2.50349659E-03    3           23         5        -5             # HL0    -->  Z0     BT     BB          
#         PDG         Width
DECAY        35  1.07708900E+02   # HH0   decays
#          BR          NDA       ID1       ID2       ID3       ID4
      1.34791387E-08    2           11       -11                       # HH0    -->  E-     E+                 
      5.69113530E-04    2           13       -13                       # HH0    -->  MU-    MU+                
      1.63002729E-01    2           15       -15                       # HH0    -->  TAU-   TAU+               
      1.63170607E-05    2            1        -1                       # HH0    -->  DN     DB                 
      6.59292052E-03    2            3        -3                       # HH0    -->  ST     SB                 
      8.28547120E-01    2            5        -5                       # HH0    -->  BT     BB                 
      2.04270607E-12    2            2        -2                       # HH0    -->  UP     UB                 
      2.39894007E-08    2            4        -4                       # HH0    -->  CH     CB                 
      1.26624631E-03    2            6        -6                       # HH0    -->  TP     TB                 
      3.86075727E-10    2           22        22                       # HH0    -->  GM     GM                 
      3.99506810E-08    2           21        21                       # HH0    -->  GL     GL                 
      1.85357663E-07    2           24       -24                       # HH0    -->  W+     W-                 
      9.51048662E-08    2           23        23                       # HH0    -->  Z0     Z0                 
      4.60039200E-06    2      1000022   1000022                       # HH0    -->  Z1SS   Z1SS               
      5.80855101E-07    2           25        25                       # HH0    -->  HL0    HL0                
      5.05268583E-09    2      2000011  -2000011                       # HH0    -->  ER-    ER+                
      5.00716180E-09    2      2000013  -2000013                       # HH0    -->  MUR-   MUR+               
      5.12793630E-09    2      1000015  -1000015                       # HH0    -->  TAU1-  TAU1+              
#         PDG         Width
DECAY        36  1.07010551E+02   # HA0   decays
#          BR          NDA       ID1       ID2       ID3       ID4
      1.34784406E-08    2           11       -11                       # HA0    -->  E-     E+                 
      5.69084077E-04    2           13       -13                       # HA0    -->  MU-    MU+                
      1.62994370E-01    2           15       -15                       # HA0    -->  TAU-   TAU+               
      1.63168825E-05    2            1        -1                       # HA0    -->  DN     DB                 
      6.59284415E-03    2            3        -3                       # HA0    -->  ST     SB                 
      8.28538477E-01    2            5        -5                       # HA0    -->  BT     BB                 
      2.03940510E-12    2            2        -2                       # HA0    -->  UP     UB                 
      2.39664111E-08    2            4        -4                       # HA0    -->  CH     CB                 
      1.26876973E-03    2            6        -6                       # HA0    -->  TP     TB                 
      6.52371668E-09    2           22        22                       # HA0    -->  GM     GM                 
      1.19751462E-06    2           21        21                       # HA0    -->  GL     GL                 
      1.87002752E-05    2      1000022   1000022                       # HA0    -->  Z1SS   Z1SS               
      1.85127959E-07    2           25        23                       # HA0    -->  HL0    Z0                 
#         PDG         Width
DECAY        37  1.01256950E+02   # H+    decays
#          BR          NDA       ID1       ID2       ID3       ID4
      1.43399017E-08    2           12       -11                       # H+     -->  NUE    E+                 
      6.05456531E-04    2           14       -13                       # H+     -->  NUM    MU+                
      1.73411995E-01    2           16       -15                       # H+     -->  NUT    TAU+               
      1.61471580E-05    2            2        -1                       # H+     -->  UP     DB                 
      6.52429089E-03    2            4        -3                       # H+     -->  CH     SB                 
      8.19441915E-01    2            6        -5                       # H+     -->  TP     BB                 
      1.97056963E-07    2           25        24                       # H+     -->  HL0    W+                 
