#  ISAJET SUSY parameters in SUSY Les Houches Accord 2 format
#  Created by ISALHA 2.0 Last revision: H Baer 27 May 2014
Block SPINFO   # Program information
     1   ISASUGRA/ISASUSY from ISAJET   # Spectrum Calculator
     2   7.85   04-NOV-2015 13:42:47    # Version number
Block MODSEL   # Model selection
     1     2   # Minimal gauge mediated (GMSB) model               
Block SMINPUTS   # Standard Model inputs
     1     1.28000000E+02   # alpha_em^(-1)
     2     1.16570000E-05   # G_Fermi
     3     1.19999997E-01   # alpha_s(M_Z)
     4     9.11699982E+01   # m_{Z}(pole)
     5     4.19999981E+00   # m_{b}(m_{b})
     6     1.73339996E+02   # m_{top}(pole)
     7     1.77699995E+00   # m_{tau}(pole)
Block MINPAR   # SUSY breaking input parameters
     1     9.00000000E+05   # Lambda scale of soft SSB
     2     1.00000000E+06   # M_mess overall messenger scale
     3     2.00000000E+01   # tan(beta)
     4     1.00000000E+00   # sign(mu)
     5     1.00000000E+00   # N_5 messenger index
     6     1.00000000E+05   # c_grav gravitino mass factor
    51     1.00000000E+00   # N5_1  U(1)_Y messenger index
    52     1.00000000E+00   # N5_2 SU(2)_L messenger index
    53     1.00000000E+00   # N5_3 SU(3)_C messenger index
   101     1.00000000E+00   # Rsl
   102     0.00000000E+00   # dmH_d^2
   103     0.00000000E+00   # dmH_u^2
   104     0.00000000E+00   # d_Y
Block MASS   # Scalar and gaugino mass spectrum
#  PDG code   mass                 particle
         6     1.73339996E+02   #  top            
        24     8.04229965E+01   #  W^+
        25     1.23331909E+02   #  h^0            
        35     3.76411230E+03   #  H^0            
        36     3.73949805E+03   #  A^0            
        37     3.76499268E+03   #  H^+            
   1000001     8.70266016E+03   #  dnl            
   1000002     8.70228613E+03   #  upl            
   1000003     8.70266016E+03   #  stl            
   1000004     8.70228613E+03   #  chl            
   1000005     8.16666211E+03   #  b1             
   1000006     7.58555664E+03   #  t1             
   1000011     3.06098657E+03   #  el-            
   1000012     3.04562476E+03   #  nuel           
   1000013     3.06098657E+03   #  mul-           
   1000014     3.04562476E+03   #  numl           
   1000015     1.53076868E+03   #  tau1           
   1000016     3.02030469E+03   #  nutl           
   1000021     7.01511279E+03   #  glss           
   1000022     1.53013403E+03   #  z1ss           
   1000023     2.41361890E+03   #  z2ss           
   1000024     2.46216089E+03   #  w1ss           
   1000025    -2.41980664E+03   #  z3ss           
   1000035     2.86756934E+03   #  z4ss           
   1000037     2.81525269E+03   #  w2ss           
   1000039     2.16506366E-02   #  gvss
   2000001     8.21651172E+03   #  dnr            
   2000002     8.26512500E+03   #  upr            
   2000003     8.21651172E+03   #  str            
   2000004     8.26512500E+03   #  chr            
   2000005     8.40822852E+03   #  b2             
   2000006     8.45607617E+03   #  t2             
   2000011     1.54358105E+03   #  er-            
   2000013     1.54358105E+03   #  mur-           
   2000015     3.04012207E+03   #  tau2           
Block ALPHA   # Effective Higgs mixing parameter
         -5.00393398E-02   # alpha
Block STOPMIX   # stop mixing matrix
  1  1     1.17074717E-02   # O_{11}
  1  2     9.99931455E-01   # O_{12}
  2  1    -9.99931455E-01   # O_{21}
  2  2     1.17074717E-02   # O_{22}
Block SBOTMIX   # sbottom mixing matrix
  1  1     5.15594222E-02   # O_{11}
  1  2     9.98669922E-01   # O_{12}
  2  1    -9.98669922E-01   # O_{21}
  2  2     5.15594222E-02   # O_{22}
Block STAUMIX   # stau mixing matrix
  1  1     7.10047875E-03   # O_{11}
  1  2     9.99974787E-01   # O_{12}
  2  1    -9.99974787E-01   # O_{21}
  2  2     7.10047875E-03   # O_{22}
Block NMIX   # neutralino mixing matrix
  1  1     9.99409795E-01   #
  1  2    -5.55284671E-04   #
  1  3     2.89169457E-02   #
  1  4    -1.85351893E-02   #
  2  1    -3.33849452E-02   #
  2  2    -1.20426171E-01   #
  2  3     7.02305317E-01   #
  2  4    -7.00821102E-01   #
  3  1    -7.33392453E-03   #
  3  2     9.34817176E-03   #
  3  3     7.06936836E-01   #
  3  4     7.07176805E-01   #
  4  1     3.42196133E-03   #
  4  2    -9.92678165E-01   #
  4  3    -7.85586312E-02   #
  4  4     9.16895792E-02   #
Block UMIX   # chargino U mixing matrix
  1  1    -1.36639386E-01   # U_{11}
  1  2     9.90620852E-01   # U_{12}
  2  1    -9.90620852E-01   # U_{21}
  2  2    -1.36639386E-01   # U_{22}
Block VMIX   # chargino V mixing matrix
  1  1    -1.55007482E-01   # V_{11}
  1  2     9.87913311E-01   # V_{12}
  2  1    -9.87913311E-01   # V_{21}
  2  2    -1.55007482E-01   # V_{22}
Block GAUGE Q=  7.72645264E+03   #
     1     3.57515603E-01   # g`
     2     6.52412236E-01   # g_2
     3     1.21976912E+00   # g_3
Block YU Q=  7.72645264E+03   #
  3  3     8.08723867E-01   # y_t
Block YD Q=  7.72645264E+03   #
  3  3     2.26254076E-01   # y_b
Block YE Q=  7.72645264E+03   #
  3  3     2.06609279E-01   # y_tau
Block HMIX Q=  7.72645264E+03   # Higgs mixing parameters
     1     2.38214404E+03   # mu(Q)
     2     1.89610558E+01   # tan(beta)(Q)
     3     2.52733032E+02   # Higgs vev at Q
     4     1.39838460E+07   # m_A^2(Q)
Block MSOFT Q=  7.72645264E+03   # DRbar SUSY breaking parameters
     1     1.55872668E+03   # M_1(Q)          
     2     2.77042065E+03   # M_2(Q)          
     3     6.49413623E+03   # M_3(Q)          
    21     7.96464050E+06   # MHd^2(Q)        
    22    -4.68674200E+06   # MHu^2(Q)        
    31     3.03385815E+03   # MeL(Q)          
    32     3.03385815E+03   # MmuL(Q)         
    33     3.00920264E+03   # MtauL(Q)        
    34     1.54265198E+03   # MeR(Q)          
    35     1.54265198E+03   # MmuR(Q)         
    36     1.50499609E+03   # MtauR(Q)        
    41     8.37621484E+03   # MqL1(Q)         
    42     8.37621484E+03   # MqL2(Q)         
    43     8.10612988E+03   # MqL3(Q)         
    44     7.93209863E+03   # MuR(Q)          
    45     7.93209863E+03   # McR(Q)          
    46     7.36455859E+03   # MtR(Q)          
    47     7.88261426E+03   # MdR(Q)          
    48     7.88261426E+03   # MsR(Q)          
    49     7.84154102E+03   # MbR(Q)          
Block AU Q=  7.72645264E+03   #
  1  1    -1.68629260E+03   # A_u
  2  2    -1.68629260E+03   # A_c
  3  3    -1.68629260E+03   # A_t
Block AD Q=  7.72645264E+03   #
  1  1    -1.84458948E+03   # A_d
  2  2    -1.84458948E+03   # A_s
  3  3    -1.84458948E+03   # A_b
Block AE Q=  7.72645264E+03   #
  1  1    -2.40911972E+02   # A_e
  2  2    -2.40911972E+02   # A_mu
  3  3    -2.40911972E+02   # A_tau
#  ISAJET decay tables in SUSY Les Houches accord format
#  Created by ISALHD. Last revision: C. Balazs, 2005 May 25
Block DCINFO                           # Program information
     1   ISASUGRA from ISAJET          # Spectrum Calculator
     2   7.85   04-NOV-2015 13:42:47   # Version number
#         PDG         Width
DECAY         6  1.16968346E+00   # TP    decays
#          BR          NDA       ID1       ID2       ID3       ID4
      3.33333343E-01    3            2        -1         5             # TP     -->  UP     DB     BT          
      3.33333343E-01    3            4        -3         5             # TP     -->  CH     SB     BT          
      1.11111112E-01    3          -11        12         5             # TP     -->  E+     NUE    BT          
      1.11111112E-01    3          -13        14         5             # TP     -->  MU+    NUM    BT          
      1.11111112E-01    3          -15        16         5             # TP     -->  TAU+   NUT    BT          
#         PDG         Width
DECAY   1000021  3.99354428E-01   # GLSS  decays
#          BR          NDA       ID1       ID2       ID3       ID4
      8.98375758E-04    3      1000024         1        -2             # GLSS   -->  W1SS+  DN     UB          
      8.98375758E-04    3     -1000024         2        -1             # GLSS   -->  W1SS-  UP     DB          
      8.98375758E-04    3      1000024         3        -4             # GLSS   -->  W1SS+  ST     CB          
      8.98375758E-04    3     -1000024         4        -3             # GLSS   -->  W1SS-  CH     SB          
      1.35104105E-01    3      1000024         5        -6             # GLSS   -->  W1SS+  BT     TB          
      1.35104105E-01    3     -1000024         6        -5             # GLSS   -->  W1SS-  TP     BB          
      3.35840285E-02    3      1000037         1        -2             # GLSS   -->  W2SS+  DN     UB          
      3.35840285E-02    3     -1000037         2        -1             # GLSS   -->  W2SS-  UP     DB          
      3.35840285E-02    3      1000037         3        -4             # GLSS   -->  W2SS+  ST     CB          
      3.35840285E-02    3     -1000037         4        -3             # GLSS   -->  W2SS-  CH     SB          
      4.58690487E-02    3      1000037         5        -6             # GLSS   -->  W2SS+  BT     TB          
      4.58690487E-02    3     -1000037         6        -5             # GLSS   -->  W2SS-  TP     BB          
      1.71696702E-05    2      1000022        21                       # GLSS   -->  Z1SS   GL                 
      2.37241760E-02    3      1000022         2        -2             # GLSS   -->  Z1SS   UP     UB          
      6.93403650E-03    3      1000022         1        -1             # GLSS   -->  Z1SS   DN     DB          
      6.93403650E-03    3      1000022         3        -3             # GLSS   -->  Z1SS   ST     SB          
      2.37241760E-02    3      1000022         4        -4             # GLSS   -->  Z1SS   CH     CB          
      7.45154917E-03    3      1000022         5        -5             # GLSS   -->  Z1SS   BT     BB          
      4.26693112E-02    3      1000022         6        -6             # GLSS   -->  Z1SS   TP     TB          
      5.09234262E-04    2      1000023        21                       # GLSS   -->  Z2SS   GL                 
      3.64508334E-04    3      1000023         2        -2             # GLSS   -->  Z2SS   UP     UB          
      2.87246163E-04    3      1000023         1        -1             # GLSS   -->  Z2SS   DN     DB          
      2.87246163E-04    3      1000023         3        -3             # GLSS   -->  Z2SS   ST     SB          
      3.64508334E-04    3      1000023         4        -4             # GLSS   -->  Z2SS   CH     CB          
      8.72828159E-03    3      1000023         5        -5             # GLSS   -->  Z2SS   BT     BB          
      1.29338399E-01    3      1000023         6        -6             # GLSS   -->  Z2SS   TP     TB          
      5.00241353E-04    2      1000025        21                       # GLSS   -->  Z3SS   GL                 
      1.15483022E-06    3      1000025         2        -2             # GLSS   -->  Z3SS   UP     UB          
      1.36363644E-06    3      1000025         1        -1             # GLSS   -->  Z3SS   DN     DB          
      1.36363644E-06    3      1000025         3        -3             # GLSS   -->  Z3SS   ST     SB          
      1.15483022E-06    3      1000025         4        -4             # GLSS   -->  Z3SS   CH     CB          
      8.44075810E-03    3      1000025         5        -5             # GLSS   -->  Z3SS   BT     BB          
      1.30979091E-01    3      1000025         6        -6             # GLSS   -->  Z3SS   TP     TB          
      2.44161902E-06    2      1000035        21                       # GLSS   -->  Z4SS   GL                 
      1.63268838E-02    3      1000035         2        -2             # GLSS   -->  Z4SS   UP     UB          
      1.63634829E-02    3      1000035         1        -1             # GLSS   -->  Z4SS   DN     DB          
      1.63634829E-02    3      1000035         3        -3             # GLSS   -->  Z4SS   ST     SB          
      1.63268838E-02    3      1000035         4        -4             # GLSS   -->  Z4SS   CH     CB          
      2.07030289E-02    3      1000035         5        -5             # GLSS   -->  Z4SS   BT     BB          
      2.27788575E-02    3      1000035         6        -6             # GLSS   -->  Z4SS   TP     TB          
      1.04486418E-16    2      1000039        21                       # GLSS   -->  GVSS   GL                 
#         PDG         Width
DECAY   1000002  1.42718658E+02   # UPL   decays
#          BR          NDA       ID1       ID2       ID3       ID4
      8.03193636E-03    2      1000022         2                       # UPL    -->  Z1SS   UP                 
      3.50195961E-03    2      1000023         2                       # UPL    -->  Z2SS   UP                 
      1.40003785E-05    2      1000025         2                       # UPL    -->  Z3SS   UP                 
      2.00721979E-01    2      1000035         2                       # UPL    -->  Z4SS   UP                 
      3.75675619E-01    2      1000021         2                       # UPL    -->  GLSS   UP                 
      1.04382485E-02    2      1000024         1                       # UPL    -->  W1SS+  DN                 
      4.01616246E-01    2      1000037         1                       # UPL    -->  W2SS+  DN                 
#         PDG         Width
DECAY   1000001  1.42722015E+02   # DNL   decays
#          BR          NDA       ID1       ID2       ID3       ID4
      8.13016668E-03    2      1000022         1                       # DNL    -->  Z1SS   DN                 
      2.85772141E-03    2      1000023         1                       # DNL    -->  Z2SS   DN                 
      2.49794393E-05    2      1000025         1                       # DNL    -->  Z3SS   DN                 
      2.01237798E-01    2      1000035         1                       # DNL    -->  Z4SS   DN                 
      3.75801414E-01    2      1000021         1                       # DNL    -->  GLSS   DN                 
      8.11127387E-03    2     -1000024         2                       # DNL    -->  W1SS-  UP                 
      4.03836668E-01    2     -1000037         2                       # DNL    -->  W2SS-  UP                 
#         PDG         Width
DECAY   1000003  1.42722015E+02   # STL   decays
#          BR          NDA       ID1       ID2       ID3       ID4
      8.13016668E-03    2      1000022         3                       # STL    -->  Z1SS   ST                 
      2.85772141E-03    2      1000023         3                       # STL    -->  Z2SS   ST                 
      2.49794412E-05    2      1000025         3                       # STL    -->  Z3SS   ST                 
      2.01237813E-01    2      1000035         3                       # STL    -->  Z4SS   ST                 
      3.75801414E-01    2      1000021         3                       # STL    -->  GLSS   ST                 
      8.11127294E-03    2     -1000024         4                       # STL    -->  W1SS-  CH                 
      4.03836638E-01    2     -1000037         4                       # STL    -->  W2SS-  CH                 
#         PDG         Width
DECAY   1000004  1.42718628E+02   # CHL   decays
#          BR          NDA       ID1       ID2       ID3       ID4
      8.03193823E-03    2      1000022         4                       # CHL    -->  Z1SS   CH                 
      3.50196031E-03    2      1000023         4                       # CHL    -->  Z2SS   CH                 
      1.40003804E-05    2      1000025         4                       # CHL    -->  Z3SS   CH                 
      2.00722009E-01    2      1000035         4                       # CHL    -->  Z4SS   CH                 
      3.75675499E-01    2      1000021         4                       # CHL    -->  GLSS   CH                 
      1.04382513E-02    2      1000024         3                       # CHL    -->  W1SS+  ST                 
      4.01616335E-01    2      1000037         3                       # CHL    -->  W2SS+  ST                 
#         PDG         Width
DECAY   1000005  4.75064468E+01   # BT1   decays
#          BR          NDA       ID1       ID2       ID3       ID4
      9.08592343E-02    2      1000022         5                       # BT1    -->  Z1SS   BT                 
      7.77907223E-02    2      1000023         5                       # BT1    -->  Z2SS   BT                 
      7.60742798E-02    2      1000025         5                       # BT1    -->  Z3SS   BT                 
      7.63935532E-05    2      1000035         5                       # BT1    -->  Z4SS   BT                 
      5.96945286E-01    2      1000021         5                       # BT1    -->  GLSS   BT                 
      1.58135042E-01    2     -1000024         6                       # BT1    -->  W1SS-  TP                 
      1.12187321E-04    2     -1000037         6                       # BT1    -->  W2SS-  TP                 
      6.82783002E-06    2          -24   1000006                       # BT1    -->  W-     TP1                
#         PDG         Width
DECAY   1000006  1.72836304E+02   # TP1   decays
#          BR          NDA       ID1       ID2       ID3       ID4
      4.46741767E-02    2      1000021         6                       # TP1    -->  GLSS   TP                 
      9.12491083E-02    2      1000022         6                       # TP1    -->  Z1SS   TP                 
      2.13883743E-01    2      1000023         6                       # TP1    -->  Z2SS   TP                 
      2.17117131E-01    2      1000025         6                       # TP1    -->  Z3SS   TP                 
      2.84580211E-03    2      1000035         6                       # TP1    -->  Z4SS   TP                 
      4.21766222E-01    2      1000024         5                       # TP1    -->  W1SS+  BT                 
      8.46382696E-03    2      1000037         5                       # TP1    -->  W2SS+  BT                 
#         PDG         Width
DECAY   2000002  5.00318947E+01   # UPR   decays
#          BR          NDA       ID1       ID2       ID3       ID4
      3.47867757E-01    2      1000022         2                       # UPR    -->  Z1SS   UP                 
      3.48255591E-04    2      1000023         2                       # UPR    -->  Z2SS   UP                 
      1.67901217E-05    2      1000025         2                       # UPR    -->  Z3SS   UP                 
      3.38349923E-06    2      1000035         2                       # UPR    -->  Z4SS   UP                 
      6.51763797E-01    2      1000021         2                       # UPR    -->  GLSS   UP                 
#         PDG         Width
DECAY   2000001  3.48066216E+01   # DNR   decays
#          BR          NDA       ID1       ID2       ID3       ID4
      1.24168508E-01    2      1000022         1                       # DNR    -->  Z1SS   DN                 
      1.24136553E-04    2      1000023         1                       # DNR    -->  Z2SS   DN                 
      5.98480528E-06    2      1000025         1                       # DNR    -->  Z3SS   DN                 
      1.20480706E-06    2      1000035         1                       # DNR    -->  Z4SS   DN                 
      8.75700176E-01    2      1000021         1                       # DNR    -->  GLSS   DN                 
#         PDG         Width
DECAY   2000003  3.48066216E+01   # STR   decays
#          BR          NDA       ID1       ID2       ID3       ID4
      1.24168508E-01    2      1000022         3                       # STR    -->  Z1SS   ST                 
      1.24136553E-04    2      1000023         3                       # STR    -->  Z2SS   ST                 
      5.98480528E-06    2      1000025         3                       # STR    -->  Z3SS   ST                 
      1.20480706E-06    2      1000035         3                       # STR    -->  Z4SS   ST                 
      8.75700176E-01    2      1000021         3                       # STR    -->  GLSS   ST                 
#         PDG         Width
DECAY   2000004  5.00318756E+01   # CHR   decays
#          BR          NDA       ID1       ID2       ID3       ID4
      3.47867906E-01    2      1000022         4                       # CHR    -->  Z1SS   CH                 
      3.48255708E-04    2      1000023         4                       # CHR    -->  Z2SS   CH                 
      1.67901271E-05    2      1000025         4                       # CHR    -->  Z3SS   CH                 
      3.38350060E-06    2      1000035         4                       # CHR    -->  Z4SS   CH                 
      6.51763678E-01    2      1000021         4                       # CHR    -->  GLSS   CH                 
#         PDG         Width
DECAY   2000005  2.17445251E+02   # BT2   decays
#          BR          NDA       ID1       ID2       ID3       ID4
      5.07977745E-03    2      1000022         5                       # BT2    -->  Z1SS   BT                 
      1.84265338E-02    2      1000023         5                       # BT2    -->  Z2SS   BT                 
      1.74463261E-02    2      1000025         5                       # BT2    -->  Z3SS   BT                 
      1.25795126E-01    2      1000035         5                       # BT2    -->  Z4SS   BT                 
      1.79923058E-01    2      1000021         5                       # BT2    -->  GLSS   BT                 
      3.88306201E-01    2     -1000024         6                       # BT2    -->  W1SS-  TP                 
      2.62609154E-01    2     -1000037         6                       # BT2    -->  W2SS-  TP                 
      1.54532504E-03    2          -24   1000006                       # BT2    -->  W-     TP1                
      3.44707456E-04    2           23   1000005                       # BT2    -->  Z0     BT1                
      5.23781986E-04    2           25   1000005                       # BT2    -->  HL0    BT1                
#         PDG         Width
DECAY   2000006  2.22411377E+02   # TP2   decays
#          BR          NDA       ID1       ID2       ID3       ID4
      1.84060290E-01    2      1000021         6                       # TP2    -->  GLSS   TP                 
      3.87008749E-02    2      1000024         5                       # TP2    -->  W1SS+  BT                 
      2.48646542E-01    2      1000037         5                       # TP2    -->  W2SS+  BT                 
      8.99902661E-04    2           23   1000006                       # TP2    -->  Z0     TP1                
      3.27543379E-03    2           25   1000006                       # TP2    -->  HL0    TP1                
      1.26953155E-03    2           24   1000005                       # TP2    -->  W+     BT1                
      5.09366300E-03    2      1000022         6                       # TP2    -->  Z1SS   TP                 
      1.94372699E-01    2      1000023         6                       # TP2    -->  Z2SS   TP                 
      1.96332261E-01    2      1000025         6                       # TP2    -->  Z3SS   TP                 
      1.27348796E-01    2      1000035         6                       # TP2    -->  Z4SS   TP                 
#         PDG         Width
DECAY   1000011  3.06864023E+00   # EL-   decays
#          BR          NDA       ID1       ID2       ID3       ID4
      7.11412311E-01    2      1000022        11                       # EL-    -->  Z1SS   E-                 
      1.15694702E-02    2      1000023        11                       # EL-    -->  Z2SS   E-                 
      1.66997361E-05    2      1000025        11                       # EL-    -->  Z3SS   E-                 
      6.17361777E-02    2      1000035        11                       # EL-    -->  Z4SS   E-                 
      1.95360929E-02    2     -1000024        12                       # EL-    -->  W1SS-  NUE                
      1.95729271E-01    2     -1000037        12                       # EL-    -->  W2SS-  NUE                
      2.15083038E-19    2           11   1000039                       # EL-    -->  E-     GVSS               
#         PDG         Width
DECAY   1000013  3.06864023E+00   # MUL-  decays
#          BR          NDA       ID1       ID2       ID3       ID4
      7.11412311E-01    2      1000022        13                       # MUL-   -->  Z1SS   MU-                
      1.15694711E-02    2      1000023        13                       # MUL-   -->  Z2SS   MU-                
      1.66997361E-05    2      1000025        13                       # MUL-   -->  Z3SS   MU-                
      6.17361702E-02    2      1000035        13                       # MUL-   -->  Z4SS   MU-                
      1.95360929E-02    2     -1000024        14                       # MUL-   -->  W1SS-  NUM                
      1.95729271E-01    2     -1000037        14                       # MUL-   -->  W2SS-  NUM                
      2.15083051E-19    2           13   1000039                       # MUL-   -->  MU-    GVSS               
#         PDG         Width
DECAY   1000015  0   # TAU1- decays
#          BR          NDA       ID1       ID2       ID3       ID4
      1.00000000E+00    2           15   1000039                       # TAU1-  -->  TAU-   GVSS               
#         PDG         Width
DECAY   1000012  2.95255589E+00   # NUEL  decays
#          BR          NDA       ID1       ID2       ID3       ID4
      7.33684242E-01    2      1000022        12                       # NUEL   -->  Z1SS   NUE                
      6.25962950E-03    2      1000023        12                       # NUEL   -->  Z2SS   NUE                
      1.05677027E-04    2      1000025        12                       # NUEL   -->  Z3SS   NUE                
      5.53350747E-02    2      1000035        12                       # NUEL   -->  Z4SS   NUE                
      2.50439104E-02    2      1000024        11                       # NUEL   -->  W1SS+  E-                 
      1.79571465E-01    2      1000037        11                       # NUEL   -->  W2SS+  E-                 
      2.17986183E-19    2           12   1000039                       # NUEL   -->  NUE    GVSS               
#         PDG         Width
DECAY   1000014  2.95255589E+00   # NUML  decays
#          BR          NDA       ID1       ID2       ID3       ID4
      7.33684242E-01    2      1000022        14                       # NUML   -->  Z1SS   NUM                
      6.25962950E-03    2      1000023        14                       # NUML   -->  Z2SS   NUM                
      1.05677027E-04    2      1000025        14                       # NUML   -->  Z3SS   NUM                
      5.53350784E-02    2      1000035        14                       # NUML   -->  Z4SS   NUM                
      2.50439104E-02    2      1000024        13                       # NUML   -->  W1SS+  MU-                
      1.79571450E-01    2      1000037        13                       # NUML   -->  W2SS+  MU-                
      2.17986183E-19    2           14   1000039                       # NUML   -->  NUM    GVSS               
#         PDG         Width
DECAY   1000016  3.42604160E+00   # NUTL  decays
#          BR          NDA       ID1       ID2       ID3       ID4
      6.19922400E-01    2      1000022        16                       # NUTL   -->  Z1SS   NUT                
      5.04985079E-03    2      1000023        16                       # NUTL   -->  Z2SS   NUT                
      8.51837103E-05    2      1000025        16                       # NUTL   -->  Z3SS   NUT                
      3.56717482E-02    2      1000035        16                       # NUTL   -->  Z4SS   NUT                
      1.06535070E-01    2      1000024        15                       # NUTL   -->  W1SS+  TAU-               
      1.24972396E-01    2      1000037        15                       # NUTL   -->  W2SS+  TAU-               
      1.07763365E-01    2           24   1000015                       # NUTL   -->  W+     TAU1-              
      1.80179841E-19    2           16   1000039                       # NUTL   -->  NUT    GVSS               
#         PDG         Width
DECAY   2000011  2.35980656E-03   # ER-   decays
#          BR          NDA       ID1       ID2       ID3       ID4
      1.00000000E+00    2      1000022        11                       # ER-    -->  Z1SS   E-                 
      6.80291378E-15    3      1000015        11       -15             # ER-    -->  TAU1-  E-     TAU+        
      6.55367518E-15    3     -1000015        11        15             # ER-    -->  TAU1+  E-     TAU-        
      1.02811719E-19    3      1000015        12       -16             # ER-    -->  TAU1-  NUE    ANUT        
      9.12044132E-18    2           11   1000039                       # ER-    -->  E-     GVSS               
#         PDG         Width
DECAY   2000013  2.35973392E-03   # MUR-  decays
#          BR          NDA       ID1       ID2       ID3       ID4
      1.00000000E+00    2      1000022        13                       # MUR-   -->  Z1SS   MU-                
      6.80312342E-15    3      1000015        13       -15             # MUR-   -->  TAU1-  MU-    TAU+        
      6.55387677E-15    3     -1000015        13        15             # MUR-   -->  TAU1+  MU-    TAU-        
      4.37658197E-15    3      1000015        14       -16             # MUR-   -->  TAU1-  NUM    ANUT        
      9.12072174E-18    2           13   1000039                       # MUR-   -->  MU-    GVSS               
#         PDG         Width
DECAY   2000015  4.03328323E+00   # TAU2- decays
#          BR          NDA       ID1       ID2       ID3       ID4
      5.32870114E-01    2      1000022        15                       # TAU2-  -->  Z1SS   TAU-               
      5.33102714E-02    2      1000023        15                       # TAU2-  -->  Z2SS   TAU-               
      4.50914428E-02    2      1000025        15                       # TAU2-  -->  Z3SS   TAU-               
      3.79841216E-02    2      1000035        15                       # TAU2-  -->  Z4SS   TAU-               
      1.35598760E-02    2     -1000024        16                       # TAU2-  -->  W1SS-  NUT                
      1.26459092E-01    2     -1000037        16                       # TAU2-  -->  W2SS-  NUT                
      4.78711054E-02    2           23   1000015                       # TAU2-  -->  Z0     TAU1-              
      1.42853990E-01    2           25   1000015                       # TAU2-  -->  HL0    TAU1-              
#         PDG         Width
DECAY   1000022  0   # Z1SS  decays
#          BR          NDA       ID1       ID2       ID3       ID4
      7.55421281E-01    2      1000039        22                       # Z1SS   -->  GVSS   GM                 
      1.86758898E-02    3      1000039        11       -11             # Z1SS   -->  GVSS   E-     E+          
      2.25763053E-01    2      1000039        23                       # Z1SS   -->  GVSS   Z0                 
      1.39796670E-04    2      1000039        25                       # Z1SS   -->  GVSS   HL0                
#         PDG         Width
DECAY   1000023  1.77224767E+00   # Z2SS  decays
#          BR          NDA       ID1       ID2       ID3       ID4
      1.31238423E-07    2      1000022        22                       # Z2SS   -->  Z1SS   GM                 
      3.04268524E-02    2      1000022        23                       # Z2SS   -->  Z1SS   Z0                 
      7.82827303E-10    3      1000022         2        -2             # Z2SS   -->  Z1SS   UP     UB          
      3.91224358E-10    3      1000022         1        -1             # Z2SS   -->  Z1SS   DN     DB          
      3.91224358E-10    3      1000022         3        -3             # Z2SS   -->  Z1SS   ST     SB          
      7.82827303E-10    3      1000022         4        -4             # Z2SS   -->  Z1SS   CH     CB          
      6.70662246E-07    3      1000022         5        -5             # Z2SS   -->  Z1SS   BT     BB          
      2.94190926E-07    3      1000022        11       -11             # Z2SS   -->  Z1SS   E-     E+          
      2.94190926E-07    3      1000022        13       -13             # Z2SS   -->  Z1SS   MU-    MU+         
      1.20419384E-06    3      1000022        15       -15             # Z2SS   -->  Z1SS   TAU-   TAU+        
      1.65718035E-07    3      1000022        12       -12             # Z2SS   -->  Z1SS   NUE    ANUE        
      1.65718035E-07    3      1000022        14       -14             # Z2SS   -->  Z1SS   NUM    ANUM        
      1.76125766E-07    3      1000022        16       -16             # Z2SS   -->  Z1SS   NUT    ANUT        
      7.46771336E-01    2      1000022        25                       # Z2SS   -->  Z1SS   HL0                
      1.34831667E-03    2      2000011       -11                       # Z2SS   -->  ER-    E+                 
      1.34831667E-03    2     -2000011        11                       # Z2SS   -->  ER+    E-                 
      1.34831667E-03    2      2000013       -13                       # Z2SS   -->  MUR-   MU+                
      1.34831667E-03    2     -2000013        13                       # Z2SS   -->  MUR+   MU-                
      1.08702719E-01    2      1000015       -15                       # Z2SS   -->  TAU1-  TAU+               
      1.08702719E-01    2     -1000015        15                       # Z2SS   -->  TAU1+  TAU-               
      8.64400004E-22    2      1000039        22                       # Z2SS   -->  GVSS   GM                 
      2.20232626E-23    3      1000039        11       -11             # Z2SS   -->  GVSS   E-     E+          
      3.13927127E-20    2      1000039        23                       # Z2SS   -->  GVSS   Z0                 
      2.48253219E-20    2      1000039        25                       # Z2SS   -->  GVSS   HL0                
#         PDG         Width
DECAY   1000025  1.56241798E+00   # Z3SS  decays
#          BR          NDA       ID1       ID2       ID3       ID4
      1.76694144E-07    2      1000022        22                       # Z3SS   -->  Z1SS   GM                 
      3.76430553E-11    2      1000023        22                       # Z3SS   -->  Z2SS   GM                 
      7.16634333E-01    2      1000022        23                       # Z3SS   -->  Z1SS   Z0                 
      7.46289055E-12    3      1000022         2        -2             # Z3SS   -->  Z1SS   UP     UB          
      1.77391912E-12    3      1000022         1        -1             # Z3SS   -->  Z1SS   DN     DB          
      1.77391912E-12    3      1000022         3        -3             # Z3SS   -->  Z1SS   ST     SB          
      7.46289055E-12    3      1000022         4        -4             # Z3SS   -->  Z1SS   CH     CB          
      7.99625070E-07    3      1000022         5        -5             # Z3SS   -->  Z1SS   BT     BB          
      1.95932881E-10    3      1000022        11       -11             # Z3SS   -->  Z1SS   E-     E+          
      1.95932881E-10    3      1000022        13       -13             # Z3SS   -->  Z1SS   MU-    MU+         
      1.07129028E-06    3      1000022        15       -15             # Z3SS   -->  Z1SS   TAU-   TAU+        
      1.29445488E-09    3      1000022        12       -12             # Z3SS   -->  Z1SS   NUE    ANUE        
      1.29445488E-09    3      1000022        14       -14             # Z3SS   -->  Z1SS   NUM    ANUM        
      1.38129030E-09    3      1000022        16       -16             # Z3SS   -->  Z1SS   NUT    ANUT        
      7.01003866E-10    3      1000023         2        -2             # Z3SS   -->  Z2SS   UP     UB          
      9.03948860E-10    3      1000023         1        -1             # Z3SS   -->  Z2SS   DN     DB          
      9.03948860E-10    3      1000023         3        -3             # Z3SS   -->  Z2SS   ST     SB          
      7.01003866E-10    3      1000023         4        -4             # Z3SS   -->  Z2SS   CH     CB          
      2.05059775E-10    3      1000023        11       -11             # Z3SS   -->  Z2SS   E-     E+          
      2.05059775E-10    3      1000023        13       -13             # Z3SS   -->  Z2SS   MU-    MU+         
      8.13219977E-11    3      1000023        15       -15             # Z3SS   -->  Z2SS   TAU-   TAU+        
      4.08007822E-10    3      1000023        12       -12             # Z3SS   -->  Z2SS   NUE    ANUE        
      4.08007822E-10    3      1000023        14       -14             # Z3SS   -->  Z2SS   NUM    ANUM        
      4.08007905E-10    3      1000023        16       -16             # Z3SS   -->  Z2SS   NUT    ANUT        
      3.49903479E-02    2      1000022        25                       # Z3SS   -->  Z1SS   HL0                
      7.45190628E-05    2      2000011       -11                       # Z3SS   -->  ER-    E+                 
      7.45190628E-05    2     -2000011        11                       # Z3SS   -->  ER+    E-                 
      7.45190628E-05    2      2000013       -13                       # Z3SS   -->  MUR-   MU+                
      7.45190628E-05    2     -2000013        13                       # Z3SS   -->  MUR+   MU-                
      1.24037594E-01    2      1000015       -15                       # Z3SS   -->  TAU1-  TAU+               
      1.24037594E-01    2     -1000015        15                       # Z3SS   -->  TAU1+  TAU-               
      4.83021258E-25    2      1000039        22                       # Z3SS   -->  GVSS   GM                 
      1.23085104E-26    3      1000039        11       -11             # Z3SS   -->  GVSS   E-     E+          
      2.92114374E-20    2      1000039        23                       # Z3SS   -->  GVSS   Z0                 
      3.54978776E-20    2      1000039        25                       # Z3SS   -->  GVSS   HL0                
#         PDG         Width
DECAY   1000035  1.32104836E+01   # Z4SS  decays
#          BR          NDA       ID1       ID2       ID3       ID4
      2.45701592E-08    2      1000022        22                       # Z4SS   -->  Z1SS   GM                 
      1.47861655E-07    2      1000023        22                       # Z4SS   -->  Z2SS   GM                 
      3.48662837E-07    2      1000025        22                       # Z4SS   -->  Z3SS   GM                 
      2.89251149E-01    2      1000024       -24                       # Z4SS   -->  W1SS+  W-                 
      2.89251149E-01    2     -1000024        24                       # Z4SS   -->  W1SS-  W+                 
      6.55203694E-05    3     -1000037         2        -1             # Z4SS   -->  W2SS-  UP     DB          
      2.18401219E-05    3     -1000037        12       -11             # Z4SS   -->  W2SS-  NUE    E+          
      2.18401219E-05    3     -1000037        14       -13             # Z4SS   -->  W2SS-  NUM    MU+         
      6.55203694E-05    3      1000037         1        -2             # Z4SS   -->  W2SS+  DN     UB          
      2.18401219E-05    3      1000037        11       -12             # Z4SS   -->  W2SS+  E-     ANUE        
      2.18401219E-05    3      1000037        13       -14             # Z4SS   -->  W2SS+  MU-    ANUM        
      6.55203694E-05    3     -1000037         4        -3             # Z4SS   -->  W2SS-  CH     SB          
      2.18401219E-05    3     -1000037        16       -15             # Z4SS   -->  W2SS-  NUT    TAU+        
      6.55203694E-05    3      1000037         3        -4             # Z4SS   -->  W2SS+  ST     CB          
      2.18401219E-05    3      1000037        15       -16             # Z4SS   -->  W2SS+  TAU-   ANUT        
      7.09515880E-05    2      1000022        23                       # Z4SS   -->  Z1SS   Z0                 
      1.27399119E-03    2      1000023        23                       # Z4SS   -->  Z2SS   Z0                 
      1.91080406E-01    2      1000025        23                       # Z4SS   -->  Z3SS   Z0                 
      2.42150229E-08    3      1000022         2        -2             # Z4SS   -->  Z1SS   UP     UB          
      2.45650824E-08    3      1000022         1        -1             # Z4SS   -->  Z1SS   DN     DB          
      2.45650824E-08    3      1000022         3        -3             # Z4SS   -->  Z1SS   ST     SB          
      2.42150229E-08    3      1000022         4        -4             # Z4SS   -->  Z1SS   CH     CB          
      2.90876354E-08    3      1000022         5        -5             # Z4SS   -->  Z1SS   BT     BB          
      2.31198410E-05    3      1000022        11       -11             # Z4SS   -->  Z1SS   E-     E+          
      2.31198410E-05    3      1000022        13       -13             # Z4SS   -->  Z1SS   MU-    MU+         
      2.49933692E-05    3      1000022        15       -15             # Z4SS   -->  Z1SS   TAU-   TAU+        
      2.47354183E-05    3      1000022        12       -12             # Z4SS   -->  Z1SS   NUE    ANUE        
      2.47354183E-05    3      1000022        14       -14             # Z4SS   -->  Z1SS   NUM    ANUM        
      2.72483303E-05    3      1000022        16       -16             # Z4SS   -->  Z1SS   NUT    ANUT        
      1.02332566E-10    3      1000023         2        -2             # Z4SS   -->  Z2SS   UP     UB          
      8.36994710E-11    3      1000023         1        -1             # Z4SS   -->  Z2SS   DN     DB          
      8.36994710E-11    3      1000023         3        -3             # Z4SS   -->  Z2SS   ST     SB          
      1.02332566E-10    3      1000023         4        -4             # Z4SS   -->  Z2SS   CH     CB          
      1.46114054E-08    3      1000023         5        -5             # Z4SS   -->  Z2SS   BT     BB          
      3.74258278E-08    3      1000023        11       -11             # Z4SS   -->  Z2SS   E-     E+          
      3.74258278E-08    3      1000023        13       -13             # Z4SS   -->  Z2SS   MU-    MU+         
      2.27559184E-07    3      1000023        15       -15             # Z4SS   -->  Z2SS   TAU-   TAU+        
      2.23108501E-08    3      1000023        12       -12             # Z4SS   -->  Z2SS   NUE    ANUE        
      2.23108501E-08    3      1000023        14       -14             # Z4SS   -->  Z2SS   NUM    ANUM        
      2.61034412E-08    3      1000023        16       -16             # Z4SS   -->  Z2SS   NUT    ANUT        
      1.29172484E-13    3      1000025         2        -2             # Z4SS   -->  Z3SS   UP     UB          
      2.30999735E-13    3      1000025         1        -1             # Z4SS   -->  Z3SS   DN     DB          
      2.30999735E-13    3      1000025         3        -3             # Z4SS   -->  Z3SS   ST     SB          
      1.29172484E-13    3      1000025         4        -4             # Z4SS   -->  Z3SS   CH     CB          
      1.44625778E-08    3      1000025         5        -5             # Z4SS   -->  Z3SS   BT     BB          
      1.99157271E-11    3      1000025        11       -11             # Z4SS   -->  Z3SS   E-     E+          
      1.99157271E-11    3      1000025        13       -13             # Z4SS   -->  Z3SS   MU-    MU+         
      1.77637972E-07    3      1000025        15       -15             # Z4SS   -->  Z3SS   TAU-   TAU+        
      1.40368259E-10    3      1000025        12       -12             # Z4SS   -->  Z3SS   NUE    ANUE        
      1.40368259E-10    3      1000025        14       -14             # Z4SS   -->  Z3SS   NUM    ANUM        
      1.67556177E-10    3      1000025        16       -16             # Z4SS   -->  Z3SS   NUT    ANUT        
      8.15506850E-04    2      1000022        25                       # Z4SS   -->  Z1SS   HL0                
      2.26036906E-01    2      1000023        25                       # Z4SS   -->  Z2SS   HL0                
      1.26340182E-03    2      1000025        25                       # Z4SS   -->  Z3SS   HL0                
      3.26084705E-06    2      2000011       -11                       # Z4SS   -->  ER-    E+                 
      3.26084705E-06    2     -2000011        11                       # Z4SS   -->  ER+    E-                 
      3.26084705E-06    2      2000013       -13                       # Z4SS   -->  MUR-   MU+                
      3.26084705E-06    2     -2000013        13                       # Z4SS   -->  MUR+   MU-                
      2.00607858E-04    2      1000015       -15                       # Z4SS   -->  TAU1-  TAU+               
      2.00607858E-04    2     -1000015        15                       # Z4SS   -->  TAU1+  TAU-               
      8.13834086E-21    2      1000039        22                       # Z4SS   -->  GVSS   GM                 
      2.09674609E-22    3      1000039        11       -11             # Z4SS   -->  GVSS   E-     E+          
      2.74385050E-20    2      1000039        23                       # Z4SS   -->  GVSS   Z0                 
      1.37438376E-22    2      1000039        25                       # Z4SS   -->  GVSS   HL0                
#         PDG         Width
DECAY   1000024  1.70562541E+00   # W1SS+ decays
#          BR          NDA       ID1       ID2       ID3       ID4
      1.58814895E-09    3      1000022         2        -1             # W1SS+  -->  Z1SS   UP     DB          
      1.58814895E-09    3      1000022         4        -3             # W1SS+  -->  Z1SS   CH     SB          
      9.21369121E-07    3      1000022       -11        12             # W1SS+  -->  Z1SS   E+     NUE         
      9.21369121E-07    3      1000022       -13        14             # W1SS+  -->  Z1SS   MU+    NUM         
      2.29232933E-06    3      1000022       -15        16             # W1SS+  -->  Z1SS   TAU+   NUT         
      7.60757864E-01    2      1000022        24                       # W1SS+  -->  Z1SS   W+                 
      8.73797107E-05    3      1000023         2        -1             # W1SS+  -->  Z2SS   UP     DB          
      8.73797107E-05    3      1000023         4        -3             # W1SS+  -->  Z2SS   CH     SB          
      2.91281667E-05    3      1000023       -11        12             # W1SS+  -->  Z2SS   E+     NUE         
      2.91281667E-05    3      1000023       -13        14             # W1SS+  -->  Z2SS   MU+    NUM         
      2.91282086E-05    3      1000023       -15        16             # W1SS+  -->  Z2SS   TAU+   NUT         
      3.92989641E-05    3      1000025         2        -1             # W1SS+  -->  Z3SS   UP     DB          
      3.92989641E-05    3      1000025         4        -3             # W1SS+  -->  Z3SS   CH     SB          
      1.30996877E-05    3      1000025       -11        12             # W1SS+  -->  Z3SS   E+     NUE         
      1.30996877E-05    3      1000025       -13        14             # W1SS+  -->  Z3SS   MU+    NUM         
      1.30996823E-05    3      1000025       -15        16             # W1SS+  -->  Z3SS   TAU+   NUT         
      2.38857985E-01    2     -1000015        16                       # W1SS+  -->  TAU1+  NUT                
#         PDG         Width
DECAY   1000037  7.88924789E+00   # W2SS+ decays
#          BR          NDA       ID1       ID2       ID3       ID4
      6.77528504E-08    3      1000022         2        -1             # W2SS+  -->  Z1SS   UP     DB          
      6.77528504E-08    3      1000022         4        -3             # W2SS+  -->  Z1SS   CH     SB          
      6.03983244E-05    3      1000022       -11        12             # W2SS+  -->  Z1SS   E+     NUE         
      6.03983244E-05    3      1000022       -13        14             # W2SS+  -->  Z1SS   MU+    NUM         
      6.54404284E-05    3      1000022       -15        16             # W2SS+  -->  Z1SS   TAU+   NUT         
      4.63467278E-03    2      1000022        24                       # W2SS+  -->  Z1SS   W+                 
      5.78824662E-11    3      1000023         2        -1             # W2SS+  -->  Z2SS   UP     DB          
      5.78824662E-11    3      1000023         4        -3             # W2SS+  -->  Z2SS   CH     SB          
      1.80858581E-08    3      1000023       -11        12             # W2SS+  -->  Z2SS   E+     NUE         
      1.80858581E-08    3      1000023       -13        14             # W2SS+  -->  Z2SS   MU+    NUM         
      1.66208125E-07    3      1000023       -15        16             # W2SS+  -->  Z2SS   TAU+   NUT         
      1.42674178E-01    2      1000023        24                       # W2SS+  -->  Z2SS   W+                 
      9.65035885E-13    3      1000025         2        -1             # W2SS+  -->  Z3SS   UP     DB          
      9.65035885E-13    3      1000025         4        -3             # W2SS+  -->  Z3SS   CH     SB          
      2.91104113E-10    3      1000025       -11        12             # W2SS+  -->  Z3SS   E+     NUE         
      2.91104113E-10    3      1000025       -13        14             # W2SS+  -->  Z3SS   MU+    NUM         
      1.40279937E-07    3      1000025       -15        16             # W2SS+  -->  Z3SS   TAU+   NUT         
      3.29028636E-01    2      1000025        24                       # W2SS+  -->  Z3SS   W+                 
      1.04293472E-03    2     -1000015        16                       # W2SS+  -->  TAU1+  NUT                
      2.28510231E-01    2      1000024        23                       # W2SS+  -->  W1SS+  Z0                 
      1.02383602E-10    3      1000024         1        -1             # W2SS+  -->  W1SS+  DN     DB          
      1.02383602E-10    3      1000024         3        -3             # W2SS+  -->  W1SS+  ST     SB          
      7.99782532E-11    3      1000024         2        -2             # W2SS+  -->  W1SS+  UP     UB          
      7.99782532E-11    3      1000024         4        -4             # W2SS+  -->  W1SS+  CH     CB          
      2.35754598E-08    3      1000024        12       -12             # W2SS+  -->  W1SS+  NUE    ANUE        
      2.35754598E-08    3      1000024        14       -14             # W2SS+  -->  W1SS+  NUM    ANUM        
      3.28877903E-08    3      1000024        11       -11             # W2SS+  -->  W1SS+  E-     E+          
      3.28877903E-08    3      1000024        13       -13             # W2SS+  -->  W1SS+  MU-    MU+         
      3.82213834E-08    3      1000024        15       -15             # W2SS+  -->  W1SS+  TAU-   TAU+        
      2.93922484E-01    2      1000024        25                       # W2SS+  -->  W1SS+  HL0                
#         PDG         Width
DECAY        25  4.78529884E-03   # HL0   decays
#          BR          NDA       ID1       ID2       ID3       ID4
      4.39404868E-09    2           11       -11                       # HL0    -->  E-     E+                 
      1.85523852E-04    2           13       -13                       # HL0    -->  MU-    MU+                
      5.30709326E-02    2           15       -15                       # HL0    -->  TAU-   TAU+               
      5.50924142E-06    2            1        -1                       # HL0    -->  DN     DB                 
      2.22600996E-03    2            3        -3                       # HL0    -->  ST     SB                 
      7.22533047E-01    2            5        -5                       # HL0    -->  BT     BB                 
      1.75706930E-06    2            2        -2                       # HL0    -->  UP     UB                 
      3.27249728E-02    2            4        -4                       # HL0    -->  CH     CB                 
      2.05399282E-03    2           22        22                       # HL0    -->  GM     GM                 
      4.19918783E-02    2           21        21                       # HL0    -->  GL     GL                 
      7.29362806E-03    3           24        11       -12             # HL0    -->  W+     E-     ANUE        
      7.29362806E-03    3           24        13       -14             # HL0    -->  W+     MU-    ANUM        
      7.29362806E-03    3           24        15       -16             # HL0    -->  W+     TAU-   ANUT        
      2.18808837E-02    3           24        -2         1             # HL0    -->  W+     UB     DN          
      2.18808837E-02    3           24        -4         3             # HL0    -->  W+     CB     ST          
      7.29362806E-03    3          -24       -11        12             # HL0    -->  W-     E+     NUE         
      7.29362806E-03    3          -24       -13        14             # HL0    -->  W-     MU+    NUM         
      7.29362806E-03    3          -24       -15        16             # HL0    -->  W-     TAU+   NUT         
      2.18808837E-02    3          -24         2        -1             # HL0    -->  W-     UP     DB          
      2.18808837E-02    3          -24         4        -3             # HL0    -->  W-     CH     SB          
      9.52061499E-04    3           23        12       -12             # HL0    -->  Z0     NUE    ANUE        
      9.52061499E-04    3           23        14       -14             # HL0    -->  Z0     NUM    ANUM        
      9.52061499E-04    3           23        16       -16             # HL0    -->  Z0     NUT    ANUT        
      4.79162962E-04    3           23        11       -11             # HL0    -->  Z0     E-     E+          
      4.79162962E-04    3           23        13       -13             # HL0    -->  Z0     MU-    MU+         
      4.79162962E-04    3           23        15       -15             # HL0    -->  Z0     TAU-   TAU+        
      1.64157164E-03    3           23         2        -2             # HL0    -->  Z0     UP     UB          
      1.64157164E-03    3           23         4        -4             # HL0    -->  Z0     CH     CB          
      2.11474882E-03    3           23         1        -1             # HL0    -->  Z0     DN     DB          
      2.11474882E-03    3           23         3        -3             # HL0    -->  Z0     ST     SB          
      2.11474882E-03    3           23         5        -5             # HL0    -->  Z0     BT     BB          
#         PDG         Width
DECAY        35  1.99524422E+01   # HH0   decays
#          BR          NDA       ID1       ID2       ID3       ID4
      1.28237891E-08    2           11       -11                       # HH0    -->  E-     E+                 
      5.41443471E-04    2           13       -13                       # HH0    -->  MU-    MU+                
      1.55077502E-01    2           15       -15                       # HH0    -->  TAU-   TAU+               
      1.55579382E-05    2            1        -1                       # HH0    -->  DN     DB                 
      6.28619734E-03    2            3        -3                       # HH0    -->  ST     SB                 
      8.17925990E-01    2            5        -5                       # HH0    -->  BT     BB                 
      3.12137642E-11    2            2        -2                       # HH0    -->  UP     UB                 
      3.79914098E-07    2            4        -4                       # HH0    -->  CH     CB                 
      2.00482178E-02    2            6        -6                       # HH0    -->  TP     TB                 
      1.36589033E-08    2           22        22                       # HH0    -->  GM     GM                 
      1.55372834E-06    2           21        21                       # HH0    -->  GL     GL                 
      5.68321411E-06    2           24       -24                       # HH0    -->  W+     W-                 
      2.91484616E-06    2           23        23                       # HH0    -->  Z0     Z0                 
      7.40626274E-05    2      1000022   1000022                       # HH0    -->  Z1SS   Z1SS               
      1.94589684E-05    2           25        25                       # HH0    -->  HL0    HL0                
      3.77251467E-07    2      2000011  -2000011                       # HH0    -->  ER-    ER+                
      3.76399043E-07    2      2000013  -2000013                       # HH0    -->  MUR-   MUR+               
      2.66537143E-07    2      1000015  -1000015                       # HH0    -->  TAU1-  TAU1+              
#         PDG         Width
DECAY        36  1.98274059E+01   # HA0   decays
#          BR          NDA       ID1       ID2       ID3       ID4
      1.28203759E-08    2           11       -11                       # HA0    -->  E-     E+                 
      5.41299465E-04    2           13       -13                       # HA0    -->  MU-    MU+                
      1.55036390E-01    2           15       -15                       # HA0    -->  TAU-   TAU+               
      1.55544640E-05    2            1        -1                       # HA0    -->  DN     DB                 
      6.28479244E-03    2            3        -3                       # HA0    -->  ST     SB                 
      8.17745447E-01    2            5        -5                       # HA0    -->  BT     BB                 
      3.11057707E-11    2            2        -2                       # HA0    -->  UP     UB                 
      3.78857465E-07    2            4        -4                       # HA0    -->  CH     CB                 
      2.01165471E-02    2            6        -6                       # HA0    -->  TP     TB                 
      6.14092457E-08    2           22        22                       # HA0    -->  GM     GM                 
      8.75760088E-06    2           21        21                       # HA0    -->  GL     GL                 
      2.45100557E-04    2      1000022   1000022                       # HA0    -->  Z1SS   Z1SS               
      5.66847348E-06    2           25        23                       # HA0    -->  HL0    Z0                 
#         PDG         Width
DECAY        37  1.86791611E+01   # H+    decays
#          BR          NDA       ID1       ID2       ID3       ID4
      1.37012464E-08    2           12       -11                       # H+     -->  NUE    E+                 
      5.78491366E-04    2           14       -13                       # H+     -->  NUM    MU+                
      1.65688708E-01    2           16       -15                       # H+     -->  NUT    TAU+               
      1.54280424E-05    2            2        -1                       # H+     -->  UP     DB                 
      6.23407122E-03    2            4        -3                       # H+     -->  CH     SB                 
      8.27477217E-01    2            6        -5                       # H+     -->  TP     BB                 
      6.06361345E-06    2           25        24                       # H+     -->  HL0    W+                 
