#  ISAJET SUSY parameters in SUSY Les Houches Accord 2 format
#  Created by ISALHA 2.0 Last revision: H Baer 27 May 2014
Block SPINFO   # Program information
     1   ISASUGRA/ISASUSY from ISAJET   # Spectrum Calculator
     2   7.85   04-NOV-2015 13:42:47    # Version number
Block MODSEL   # Model selection
     1     2   # Minimal gauge mediated (GMSB) model               
Block SMINPUTS   # Standard Model inputs
     1     1.28000000E+02   # alpha_em^(-1)
     2     1.16570000E-05   # G_Fermi
     3     1.19999997E-01   # alpha_s(M_Z)
     4     9.11699982E+01   # m_{Z}(pole)
     5     4.19999981E+00   # m_{b}(m_{b})
     6     1.73339996E+02   # m_{top}(pole)
     7     1.77699995E+00   # m_{tau}(pole)
Block MINPAR   # SUSY breaking input parameters
     1     7.20000000E+05   # Lambda scale of soft SSB
     2     1.00000000E+06   # M_mess overall messenger scale
     3     4.20000000E+01   # tan(beta)
     4     1.00000000E+00   # sign(mu)
     5     1.00000000E+00   # N_5 messenger index
     6     1.00000000E+05   # c_grav gravitino mass factor
    51     1.00000000E+00   # N5_1  U(1)_Y messenger index
    52     1.00000000E+00   # N5_2 SU(2)_L messenger index
    53     1.00000000E+00   # N5_3 SU(3)_C messenger index
   101     1.00000000E+00   # Rsl
   102     0.00000000E+00   # dmH_d^2
   103     0.00000000E+00   # dmH_u^2
   104     0.00000000E+00   # d_Y
Block MASS   # Scalar and gaugino mass spectrum
#  PDG code   mass                 particle
         6     1.73339996E+02   #  top            
        24     8.04229965E+01   #  W^+
        25     1.23053604E+02   #  h^0            
        35     2.67199438E+03   #  H^0            
        36     2.65452588E+03   #  A^0            
        37     2.67341724E+03   #  H^+            
   1000001     7.07065527E+03   #  dnl            
   1000002     7.07019434E+03   #  upl            
   1000003     7.07065527E+03   #  stl            
   1000004     7.07019531E+03   #  chl            
   1000005     6.49864014E+03   #  b1             
   1000006     6.12954492E+03   #  t1             
   1000011     2.49432935E+03   #  el-            
   1000012     2.48226001E+03   #  nuel           
   1000013     2.49432935E+03   #  mul-           
   1000014     2.48226001E+03   #  numl           
   1000015     1.10943481E+03   #  tau1           
   1000016     2.43956836E+03   #  nutl           
   1000021     5.28268066E+03   #  glss           
   1000022     1.11149927E+03   #  z1ss           
   1000023     2.06619629E+03   #  z2ss           
   1000024     2.07179517E+03   #  w1ss           
   1000025    -2.14668555E+03   #  z3ss           
   1000035     2.17897949E+03   #  z4ss           
   1000037     2.17510449E+03   #  w2ss           
   1000039     1.73205081E-02   #  gvss
   2000001     6.67041211E+03   #  dnr            
   2000002     6.71027197E+03   #  upr            
   2000003     6.67041211E+03   #  str            
   2000004     6.71027197E+03   #  chr            
   2000005     6.75251367E+03   #  b2             
   2000006     6.79018359E+03   #  t2             
   2000011     1.25916174E+03   #  er-            
   2000013     1.25916174E+03   #  mur-           
   2000015     2.44762134E+03   #  tau2           
Block ALPHA   # Effective Higgs mixing parameter
         -2.38788240E-02   # alpha
Block STOPMIX   # stop mixing matrix
  1  1     1.34917740E-02   # O_{11}
  1  2     9.99908984E-01   # O_{12}
  2  1    -9.99908984E-01   # O_{21}
  2  2     1.34917740E-02   # O_{22}
Block SBOTMIX   # sbottom mixing matrix
  1  1     9.39730108E-02   # O_{11}
  1  2     9.95574772E-01   # O_{12}
  2  1    -9.95574772E-01   # O_{21}
  2  2     9.39730108E-02   # O_{22}
Block STAUMIX   # stau mixing matrix
  1  1     2.55972352E-02   # O_{11}
  1  2     9.99672353E-01   # O_{12}
  2  1    -9.99672353E-01   # O_{21}
  2  2     2.55972352E-02   # O_{22}
Block NMIX   # neutralino mixing matrix
  1  1     9.99554873E-01   #
  1  2    -9.99787240E-04   #
  1  3     2.65558045E-02   #
  1  4    -1.35454470E-02   #
  2  1    -1.54540641E-02   #
  2  2    -8.59317720E-01   #
  2  3     3.68727654E-01   #
  2  4    -3.54081810E-01   #
  3  1     9.18400288E-03   #
  3  2    -1.20753367E-02   #
  3  3    -7.06859052E-01   #
  3  4    -7.07191646E-01   #
  4  1    -2.38015726E-02   #
  4  2     5.11298478E-01   #
  4  3     6.03063047E-01   #
  4  4    -6.11818731E-01   #
Block UMIX   # chargino U mixing matrix
  1  1    -8.93271029E-01   # U_{11}
  1  2     4.49518532E-01   # U_{12}
  2  1    -4.49518532E-01   # U_{21}
  2  2    -8.93271029E-01   # U_{22}
Block VMIX   # chargino V mixing matrix
  1  1    -9.03666317E-01   # V_{11}
  1  2     4.28237319E-01   # V_{12}
  2  1    -4.28237319E-01   # V_{21}
  2  2    -9.03666317E-01   # V_{22}
Block GAUGE Q=  6.25247412E+03   #
     1     3.57515603E-01   # g`
     2     6.52412236E-01   # g_2
     3     1.21976936E+00   # g_3
Block YU Q=  6.25247412E+03   #
  3  3     8.14822376E-01   # y_t
Block YD Q=  6.25247412E+03   #
  3  3     4.56744879E-01   # y_b
Block YE Q=  6.25247412E+03   #
  3  3     4.61231709E-01   # y_tau
Block HMIX Q=  6.25247412E+03   # Higgs mixing parameters
     1     2.11995679E+03   # mu(Q)
     2     4.09120941E+01   # tan(beta)(Q)
     3     2.52532211E+02   # Higgs vev at Q
     4     7.04650750E+06   # m_A^2(Q)
Block MSOFT Q=  6.25247412E+03   # DRbar SUSY breaking parameters
     1     1.13190356E+03   # M_1(Q)          
     2     2.02412085E+03   # M_2(Q)          
     3     4.84768262E+03   # M_3(Q)          
    21     2.84103125E+06   # MHd^2(Q)        
    22    -3.59937550E+06   # MHu^2(Q)        
    31     2.47440234E+03   # MeL(Q)          
    32     2.47440234E+03   # MmuL(Q)         
    33     2.43272168E+03   # MtauL(Q)        
    34     1.25774243E+03   # MeR(Q)          
    35     1.25774243E+03   # MmuR(Q)         
    36     1.12457971E+03   # MtauR(Q)        
    41     6.83233643E+03   # MqL1(Q)         
    42     6.83233643E+03   # MqL2(Q)         
    43     6.54115625E+03   # MqL3(Q)         
    44     6.46711768E+03   # MuR(Q)          
    45     6.46711768E+03   # McR(Q)          
    46     5.97653223E+03   # MtR(Q)          
    47     6.42650146E+03   # MdR(Q)          
    48     6.42650146E+03   # MsR(Q)          
    49     6.27440869E+03   # MbR(Q)          
Block AU Q=  6.25247412E+03   #
  1  1    -1.30223645E+03   # A_u
  2  2    -1.30223645E+03   # A_c
  3  3    -1.30223645E+03   # A_t
Block AD Q=  6.25247412E+03   #
  1  1    -1.39546167E+03   # A_d
  2  2    -1.39546167E+03   # A_s
  3  3    -1.39546167E+03   # A_b
Block AE Q=  6.25247412E+03   #
  1  1    -1.57321915E+02   # A_e
  2  2    -1.57321915E+02   # A_mu
  3  3    -1.57321915E+02   # A_tau
#  ISAJET decay tables in SUSY Les Houches accord format
#  Created by ISALHD. Last revision: C. Balazs, 2005 May 25
Block DCINFO                           # Program information
     1   ISASUGRA from ISAJET          # Spectrum Calculator
     2   7.85   04-NOV-2015 13:42:47   # Version number
#         PDG         Width
DECAY         6  1.16968346E+00   # TP    decays
#          BR          NDA       ID1       ID2       ID3       ID4
      3.33333343E-01    3            2        -1         5             # TP     -->  UP     DB     BT          
      3.33333343E-01    3            4        -3         5             # TP     -->  CH     SB     BT          
      1.11111112E-01    3          -11        12         5             # TP     -->  E+     NUE    BT          
      1.11111112E-01    3          -13        14         5             # TP     -->  MU+    NUM    BT          
      1.11111112E-01    3          -15        16         5             # TP     -->  TAU+   NUT    BT          
#         PDG         Width
DECAY   1000021  1.83913469E-01   # GLSS  decays
#          BR          NDA       ID1       ID2       ID3       ID4
      3.02934702E-02    3      1000024         1        -2             # GLSS   -->  W1SS+  DN     UB          
      3.02934702E-02    3     -1000024         2        -1             # GLSS   -->  W1SS-  UP     DB          
      3.02934553E-02    3      1000024         3        -4             # GLSS   -->  W1SS+  ST     CB          
      3.02934553E-02    3     -1000024         4        -3             # GLSS   -->  W1SS-  CH     SB          
      5.77801280E-02    3      1000024         5        -6             # GLSS   -->  W1SS+  BT     TB          
      5.77801280E-02    3     -1000024         6        -5             # GLSS   -->  W1SS-  TP     BB          
      6.59630913E-03    3      1000037         1        -2             # GLSS   -->  W2SS+  DN     UB          
      6.59630913E-03    3     -1000037         2        -1             # GLSS   -->  W2SS-  UP     DB          
      6.59630680E-03    3      1000037         3        -4             # GLSS   -->  W2SS+  ST     CB          
      6.59630680E-03    3     -1000037         4        -3             # GLSS   -->  W2SS-  CH     SB          
      1.19810887E-01    3      1000037         5        -6             # GLSS   -->  W2SS+  BT     TB          
      1.19810887E-01    3     -1000037         6        -5             # GLSS   -->  W2SS-  TP     BB          
      1.11444779E-05    2      1000022        21                       # GLSS   -->  Z1SS   GL                 
      2.52508465E-02    3      1000022         2        -2             # GLSS   -->  Z1SS   UP     UB          
      7.38355611E-03    3      1000022         1        -1             # GLSS   -->  Z1SS   DN     DB          
      7.38355611E-03    3      1000022         3        -3             # GLSS   -->  Z1SS   ST     SB          
      2.52508465E-02    3      1000022         4        -4             # GLSS   -->  Z1SS   CH     CB          
      8.88405181E-03    3      1000022         5        -5             # GLSS   -->  Z1SS   BT     BB          
      4.23460677E-02    3      1000022         6        -6             # GLSS   -->  Z1SS   TP     TB          
      2.23950352E-04    2      1000023        21                       # GLSS   -->  Z2SS   GL                 
      1.40196504E-02    3      1000023         2        -2             # GLSS   -->  Z2SS   UP     UB          
      1.38283912E-02    3      1000023         1        -1             # GLSS   -->  Z2SS   DN     DB          
      1.38283912E-02    3      1000023         3        -3             # GLSS   -->  Z2SS   ST     SB          
      1.40196402E-02    3      1000023         4        -4             # GLSS   -->  Z2SS   CH     CB          
      2.67727524E-02    3      1000023         5        -5             # GLSS   -->  Z2SS   BT     BB          
      3.67003307E-02    3      1000023         6        -6             # GLSS   -->  Z2SS   TP     TB          
      7.13892747E-04    2      1000025        21                       # GLSS   -->  Z3SS   GL                 
      1.37118332E-06    3      1000025         2        -2             # GLSS   -->  Z3SS   UP     UB          
      1.64329015E-06    3      1000025         1        -1             # GLSS   -->  Z3SS   DN     DB          
      1.64329015E-06    3      1000025         3        -3             # GLSS   -->  Z3SS   ST     SB          
      1.37118263E-06    3      1000025         4        -4             # GLSS   -->  Z3SS   CH     CB          
      2.80422214E-02    3      1000025         5        -5             # GLSS   -->  Z3SS   BT     BB          
      1.00343265E-01    3      1000025         6        -6             # GLSS   -->  Z3SS   TP     TB          
      5.00921567E-04    2      1000035        21                       # GLSS   -->  Z4SS   GL                 
      4.39160364E-03    3      1000035         2        -2             # GLSS   -->  Z4SS   UP     UB          
      4.53672465E-03    3      1000035         1        -1             # GLSS   -->  Z4SS   DN     DB          
      4.53672465E-03    3      1000035         3        -3             # GLSS   -->  Z4SS   ST     SB          
      4.39160038E-03    3      1000035         4        -4             # GLSS   -->  Z4SS   CH     CB          
      2.55758986E-02    3      1000035         5        -5             # GLSS   -->  Z4SS   BT     BB          
      8.83168280E-02    3      1000035         6        -6             # GLSS   -->  Z4SS   TP     TB          
      8.58466304E-17    2      1000039        21                       # GLSS   -->  GVSS   GL                 
#         PDG         Width
DECAY   1000002  1.45823547E+02   # UPL   decays
#          BR          NDA       ID1       ID2       ID3       ID4
      6.43904600E-03    2      1000022         2                       # UPL    -->  Z1SS   UP                 
      1.26893282E-01    2      1000023         2                       # UPL    -->  Z2SS   UP                 
      1.81664327E-05    2      1000025         2                       # UPL    -->  Z3SS   UP                 
      4.29575182E-02    2      1000035         2                       # UPL    -->  Z4SS   UP                 
      4.83801544E-01    2      1000021         2                       # UPL    -->  GLSS   UP                 
      2.78535068E-01    2      1000024         1                       # UPL    -->  W1SS+  DN                 
      6.13553748E-02    2      1000037         1                       # UPL    -->  W2SS+  DN                 
#         PDG         Width
DECAY   1000001  1.45837875E+02   # DNL   decays
#          BR          NDA       ID1       ID2       ID3       ID4
      6.58103870E-03    2      1000022         1                       # DNL    -->  Z1SS   DN                 
      1.25230819E-01    2      1000023         1                       # DNL    -->  Z2SS   DN                 
      3.18353632E-05    2      1000025         1                       # DNL    -->  Z3SS   DN                 
      4.44480404E-02    2      1000035         1                       # DNL    -->  Z4SS   DN                 
      4.83942300E-01    2      1000021         1                       # DNL    -->  GLSS   DN                 
      2.72161335E-01    2     -1000024         2                       # DNL    -->  W1SS-  UP                 
      6.76046088E-02    2     -1000037         2                       # DNL    -->  W2SS-  UP                 
#         PDG         Width
DECAY   1000003  1.45837875E+02   # STL   decays
#          BR          NDA       ID1       ID2       ID3       ID4
      6.58103917E-03    2      1000022         3                       # STL    -->  Z1SS   ST                 
      1.25230834E-01    2      1000023         3                       # STL    -->  Z2SS   ST                 
      3.18353632E-05    2      1000025         3                       # STL    -->  Z3SS   ST                 
      4.44480404E-02    2      1000035         3                       # STL    -->  Z4SS   ST                 
      4.83942330E-01    2      1000021         3                       # STL    -->  GLSS   ST                 
      2.72161335E-01    2     -1000024         4                       # STL    -->  W1SS-  CH                 
      6.76046014E-02    2     -1000037         4                       # STL    -->  W2SS-  CH                 
#         PDG         Width
DECAY   1000004  1.45823593E+02   # CHL   decays
#          BR          NDA       ID1       ID2       ID3       ID4
      6.43904507E-03    2      1000022         4                       # CHL    -->  Z1SS   CH                 
      1.26893252E-01    2      1000023         4                       # CHL    -->  Z2SS   CH                 
      1.81664291E-05    2      1000025         4                       # CHL    -->  Z3SS   CH                 
      4.29575108E-02    2      1000035         4                       # CHL    -->  Z4SS   CH                 
      4.83801633E-01    2      1000021         4                       # CHL    -->  GLSS   CH                 
      2.78535038E-01    2      1000024         3                       # CHL    -->  W1SS+  ST                 
      6.13553710E-02    2      1000037         3                       # CHL    -->  W2SS+  ST                 
#         PDG         Width
DECAY   1000005  8.54584274E+01   # BT1   decays
#          BR          NDA       ID1       ID2       ID3       ID4
      4.12188023E-02    2      1000022         5                       # BT1    -->  Z1SS   BT                 
      5.12554273E-02    2      1000023         5                       # BT1    -->  Z2SS   BT                 
      1.24085471E-01    2      1000025         5                       # BT1    -->  Z3SS   BT                 
      7.58682042E-02    2      1000035         5                       # BT1    -->  Z4SS   BT                 
      4.51016992E-01    2      1000021         5                       # BT1    -->  GLSS   BT                 
      8.23586360E-02    2     -1000024         6                       # BT1    -->  W1SS-  TP                 
      1.74192280E-01    2     -1000037         6                       # BT1    -->  W2SS-  TP                 
      4.19854541E-06    2          -24   1000006                       # BT1    -->  W-     TP1                
#         PDG         Width
DECAY   1000006  1.51048462E+02   # TP1   decays
#          BR          NDA       ID1       ID2       ID3       ID4
      1.36325881E-01    2      1000021         6                       # TP1    -->  GLSS   TP                 
      8.56526718E-02    2      1000022         6                       # TP1    -->  Z1SS   TP                 
      5.17095774E-02    2      1000023         6                       # TP1    -->  Z2SS   TP                 
      1.94822997E-01    2      1000025         6                       # TP1    -->  Z3SS   TP                 
      1.42525658E-01    2      1000035         6                       # TP1    -->  Z4SS   TP                 
      7.63120130E-02    2      1000024         5                       # TP1    -->  W1SS+  BT                 
      3.12651187E-01    2      1000037         5                       # TP1    -->  W2SS+  BT                 
#         PDG         Width
DECAY   2000002  6.41814499E+01   # UPR   decays
#          BR          NDA       ID1       ID2       ID3       ID4
      2.23354980E-01    2      1000022         2                       # UPR    -->  Z1SS   UP                 
      4.62498210E-05    2      1000023         2                       # UPR    -->  Z2SS   UP                 
      1.60632044E-05    2      1000025         2                       # UPR    -->  Z3SS   UP                 
      1.07145112E-04    2      1000035         2                       # UPR    -->  Z4SS   UP                 
      7.76475549E-01    2      1000021         2                       # UPR    -->  GLSS   UP                 
#         PDG         Width
DECAY   2000001  5.12095566E+01   # DNR   decays
#          BR          NDA       ID1       ID2       ID3       ID4
      6.95205033E-02    2      1000022         1                       # DNR    -->  Z1SS   DN                 
      1.43691086E-05    2      1000023         1                       # DNR    -->  Z2SS   DN                 
      4.98948066E-06    2      1000025         1                       # DNR    -->  Z3SS   DN                 
      3.32778509E-05    2      1000035         1                       # DNR    -->  Z4SS   DN                 
      9.30426836E-01    2      1000021         1                       # DNR    -->  GLSS   DN                 
#         PDG         Width
DECAY   2000003  5.12095566E+01   # STR   decays
#          BR          NDA       ID1       ID2       ID3       ID4
      6.95205033E-02    2      1000022         3                       # STR    -->  Z1SS   ST                 
      1.43691086E-05    2      1000023         3                       # STR    -->  Z2SS   ST                 
      4.98948066E-06    2      1000025         3                       # STR    -->  Z3SS   ST                 
      3.32778509E-05    2      1000035         3                       # STR    -->  Z4SS   ST                 
      9.30426836E-01    2      1000021         3                       # STR    -->  GLSS   ST                 
#         PDG         Width
DECAY   2000004  6.41814270E+01   # CHR   decays
#          BR          NDA       ID1       ID2       ID3       ID4
      2.23355040E-01    2      1000022         4                       # CHR    -->  Z1SS   CH                 
      4.62498319E-05    2      1000023         4                       # CHR    -->  Z2SS   CH                 
      1.60632098E-05    2      1000025         4                       # CHR    -->  Z3SS   CH                 
      1.07145133E-04    2      1000035         4                       # CHR    -->  Z4SS   CH                 
      7.76475489E-01    2      1000021         4                       # CHR    -->  GLSS   CH                 
#         PDG         Width
DECAY   2000005  2.13261887E+02   # BT2   decays
#          BR          NDA       ID1       ID2       ID3       ID4
      4.13417211E-03    2      1000022         5                       # BT2    -->  Z1SS   BT                 
      8.78248364E-02    2      1000023         5                       # BT2    -->  Z2SS   BT                 
      5.30947223E-02    2      1000025         5                       # BT2    -->  Z3SS   BT                 
      7.27016255E-02    2      1000035         5                       # BT2    -->  Z4SS   BT                 
      2.44540274E-01    2      1000021         5                       # BT2    -->  GLSS   BT                 
      2.16871157E-01    2     -1000024         6                       # BT2    -->  W1SS-  TP                 
      3.15701663E-01    2     -1000037         6                       # BT2    -->  W2SS-  TP                 
      9.01174033E-04    2          -24   1000006                       # BT2    -->  W-     TP1                
      1.36018300E-03    2           23   1000005                       # BT2    -->  Z0     BT1                
      2.87020346E-03    2           25   1000005                       # BT2    -->  HL0    BT1                
#         PDG         Width
DECAY   2000006  2.17564651E+02   # TP2   decays
#          BR          NDA       ID1       ID2       ID3       ID4
      2.46788740E-01    2      1000021         6                       # TP2    -->  GLSS   TP                 
      1.95076361E-01    2      1000024         5                       # TP2    -->  W1SS+  BT                 
      1.24469139E-01    2      1000037         5                       # TP2    -->  W2SS+  BT                 
      5.32153121E-04    2           23   1000006                       # TP2    -->  Z0     TP1                
      2.20226636E-03    2           25   1000006                       # TP2    -->  HL0    TP1                
      4.35644574E-03    2           24   1000005                       # TP2    -->  W+     BT1                
      4.16271435E-03    2      1000022         6                       # TP2    -->  Z1SS   TP                 
      1.16972357E-01    2      1000023         6                       # TP2    -->  Z2SS   TP                 
      1.57491505E-01    2      1000025         6                       # TP2    -->  Z3SS   TP                 
      1.47948325E-01    2      1000035         6                       # TP2    -->  Z4SS   TP                 
#         PDG         Width
DECAY   1000011  4.80775785E+00   # EL-   decays
#          BR          NDA       ID1       ID2       ID3       ID4
      4.21807051E-01    2      1000022        11                       # EL-    -->  Z1SS   E-                 
      1.61974415E-01    2      1000023        11                       # EL-    -->  Z2SS   E-                 
      7.25302152E-06    2      1000025        11                       # EL-    -->  Z3SS   E-                 
      3.04143727E-02    2      1000035        11                       # EL-    -->  Z4SS   E-                 
      3.35138083E-01    2     -1000024        12                       # EL-    -->  W1SS-  NUE                
      5.06588332E-02    2     -1000037        12                       # EL-    -->  W2SS-  NUE                
      7.70711060E-20    2           11   1000039                       # EL-    -->  E-     GVSS               
#         PDG         Width
DECAY   1000013  4.80775785E+00   # MUL-  decays
#          BR          NDA       ID1       ID2       ID3       ID4
      4.21807051E-01    2      1000022        13                       # MUL-   -->  Z1SS   MU-                
      1.61974415E-01    2      1000023        13                       # MUL-   -->  Z2SS   MU-                
      7.25302152E-06    2      1000025        13                       # MUL-   -->  Z3SS   MU-                
      3.04143727E-02    2      1000035        13                       # MUL-   -->  Z4SS   MU-                
      3.35138083E-01    2     -1000024        14                       # MUL-   -->  W1SS-  NUM                
      5.06588332E-02    2     -1000037        14                       # MUL-   -->  W2SS-  NUM                
      7.70711060E-20    2           13   1000039                       # MUL-   -->  MU-    GVSS               
#         PDG         Width
DECAY   1000015  0   # TAU1- decays
#          BR          NDA       ID1       ID2       ID3       ID4
      1.00000000E+00    2           15   1000039                       # TAU1-  -->  TAU-   GVSS               
#         PDG         Width
DECAY   1000012  4.66517353E+00   # NUEL  decays
#          BR          NDA       ID1       ID2       ID3       ID4
      4.33653653E-01    2      1000022        12                       # NUEL   -->  Z1SS   NUE                
      1.52942970E-01    2      1000023        12                       # NUEL   -->  Z2SS   NUE                
      4.17356387E-05    2      1000025        12                       # NUEL   -->  Z3SS   NUE                
      3.24180648E-02    2      1000035        12                       # NUEL   -->  Z4SS   NUE                
      3.36664498E-01    2      1000024        11                       # NUEL   -->  W1SS+  E-                 
      4.42790911E-02    2      1000037        11                       # NUEL   -->  W2SS+  E-                 
      7.75235544E-20    2           12   1000039                       # NUEL   -->  NUE    GVSS               
#         PDG         Width
DECAY   1000014  4.66517353E+00   # NUML  decays
#          BR          NDA       ID1       ID2       ID3       ID4
      4.33653653E-01    2      1000022        14                       # NUML   -->  Z1SS   NUM                
      1.52942970E-01    2      1000023        14                       # NUML   -->  Z2SS   NUM                
      4.17356387E-05    2      1000025        14                       # NUML   -->  Z3SS   NUM                
      3.24180648E-02    2      1000035        14                       # NUML   -->  Z4SS   NUM                
      3.36664498E-01    2      1000024        13                       # NUML   -->  W1SS+  MU-                
      4.42790873E-02    2      1000037        13                       # NUML   -->  W2SS+  MU-                
      7.75235544E-20    2           14   1000039                       # NUML   -->  NUM    GVSS               
#         PDG         Width
DECAY   1000016  7.70030499E+00   # NUTL  decays
#          BR          NDA       ID1       ID2       ID3       ID4
      2.53655136E-01    2      1000022        16                       # NUTL   -->  Z1SS   NUT                
      7.71374330E-02    2      1000023        16                       # NUTL   -->  Z2SS   NUT                
      1.99173610E-05    2      1000025        16                       # NUTL   -->  Z3SS   NUT                
      1.49961766E-02    2      1000035        16                       # NUTL   -->  Z4SS   NUT                
      1.89711377E-01    2      1000024        15                       # NUTL   -->  W1SS+  TAU-               
      6.57533109E-02    2      1000037        15                       # NUTL   -->  W2SS+  TAU-               
      3.98726642E-01    2           24   1000015                       # NUTL   -->  W+     TAU1-              
      4.30647708E-20    2           16   1000039                       # NUTL   -->  NUT    GVSS               
#         PDG         Width
DECAY   2000011  3.11922491E-01   # ER-   decays
#          BR          NDA       ID1       ID2       ID3       ID4
      1.00000000E+00    2      1000022        11                       # ER-    -->  Z1SS   E-                 
      4.36054179E-11    3      1000015        11       -15             # ER-    -->  TAU1-  E-     TAU+        
      5.06611524E-11    3     -1000015        11        15             # ER-    -->  TAU1+  E-     TAU-        
      3.98540055E-15    3      1000015        12       -16             # ER-    -->  TAU1-  NUE    ANUT        
      3.89427003E-20    2           11   1000039                       # ER-    -->  E-     GVSS               
#         PDG         Width
DECAY   2000013  3.11922371E-01   # MUR-  decays
#          BR          NDA       ID1       ID2       ID3       ID4
      1.00000000E+00    2      1000022        13                       # MUR-   -->  Z1SS   MU-                
      4.36054352E-11    3      1000015        13       -15             # MUR-   -->  TAU1-  MU-    TAU+        
      5.06611697E-11    3     -1000015        13        15             # MUR-   -->  TAU1+  MU-    TAU-        
      1.69642578E-10    3      1000015        14       -16             # MUR-   -->  TAU1-  NUM    ANUT        
      3.89427133E-20    2           13   1000039                       # MUR-   -->  MU-    GVSS               
#         PDG         Width
DECAY   2000015  8.95418930E+00   # TAU2- decays
#          BR          NDA       ID1       ID2       ID3       ID4
      2.18414664E-01    2      1000022        15                       # TAU2-  -->  Z1SS   TAU-               
      8.26720223E-02    2      1000023        15                       # TAU2-  -->  Z2SS   TAU-               
      3.06880586E-02    2      1000025        15                       # TAU2-  -->  Z3SS   TAU-               
      3.13125066E-02    2      1000035        15                       # TAU2-  -->  Z4SS   TAU-               
      1.44826546E-01    2     -1000024        16                       # TAU2-  -->  W1SS-  NUT                
      2.20545661E-02    2     -1000037        16                       # TAU2-  -->  W2SS-  NUT                
      1.75923020E-01    2           23   1000015                       # TAU2-  -->  Z0     TAU1-              
      2.94108599E-01    2           25   1000015                       # TAU2-  -->  HL0    TAU1-              
#         PDG         Width
DECAY   1000022  0   # Z1SS  decays
#          BR          NDA       ID1       ID2       ID3       ID4
      5.00000000E-01    2      1000015       -15                       # Z1SS   -->  TAU1-  TAU+               
      5.00000000E-01    2     -1000015        15                       # Z1SS   -->  TAU1+  TAU-               
      1.23416300E-16    2      1000039        22                       # Z1SS   -->  GVSS   GM                 
      2.98575557E-18    3      1000039        11       -11             # Z1SS   -->  GVSS   E-     E+          
      3.64767691E-17    2      1000039        23                       # Z1SS   -->  GVSS   Z0                 
      1.27675635E-20    2      1000039        25                       # Z1SS   -->  GVSS   HL0                
#         PDG         Width
DECAY   1000023  1.02677691E+00   # Z2SS  decays
#          BR          NDA       ID1       ID2       ID3       ID4
      1.89320545E-07    2      1000022        22                       # Z2SS   -->  Z1SS   GM                 
      2.56785173E-02    2      1000022        23                       # Z2SS   -->  Z1SS   Z0                 
      9.80660673E-08    3      1000022         2        -2             # Z2SS   -->  Z1SS   UP     UB          
      9.85703963E-08    3      1000022         1        -1             # Z2SS   -->  Z1SS   DN     DB          
      9.85703963E-08    3      1000022         3        -3             # Z2SS   -->  Z1SS   ST     SB          
      9.80660104E-08    3      1000022         4        -4             # Z2SS   -->  Z1SS   CH     CB          
      7.99289955E-06    3      1000022         5        -5             # Z2SS   -->  Z1SS   BT     BB          
      5.44401883E-05    3      1000022        11       -11             # Z2SS   -->  Z1SS   E-     E+          
      5.44401883E-05    3      1000022        13       -13             # Z2SS   -->  Z1SS   MU-    MU+         
      6.75750271E-05    3      1000022        15       -15             # Z2SS   -->  Z1SS   TAU-   TAU+        
      5.46398696E-05    3      1000022        12       -12             # Z2SS   -->  Z1SS   NUE    ANUE        
      5.46398696E-05    3      1000022        14       -14             # Z2SS   -->  Z1SS   NUM    ANUM        
      6.23216038E-05    3      1000022        16       -16             # Z2SS   -->  Z1SS   NUT    ANUT        
      3.15747052E-01    2      1000022        25                       # Z2SS   -->  Z1SS   HL0                
      4.82974836E-04    2      2000011       -11                       # Z2SS   -->  ER-    E+                 
      4.82974836E-04    2     -2000011        11                       # Z2SS   -->  ER+    E-                 
      4.82974836E-04    2      2000013       -13                       # Z2SS   -->  MUR-   MU+                
      4.82974836E-04    2     -2000013        13                       # Z2SS   -->  MUR+   MU-                
      3.28142941E-01    2      1000015       -15                       # Z2SS   -->  TAU1-  TAU+               
      3.28142941E-01    2     -1000015        15                       # Z2SS   -->  TAU1+  TAU-               
      2.57162956E-20    2      1000039        22                       # Z2SS   -->  GVSS   GM                 
      6.48576041E-22    3      1000039        11       -11             # Z2SS   -->  GVSS   E-     E+          
      8.68318889E-20    2      1000039        23                       # Z2SS   -->  GVSS   Z0                 
      8.26662009E-21    2      1000039        25                       # Z2SS   -->  GVSS   HL0                
#         PDG         Width
DECAY   1000025  3.55676007E+00   # Z3SS  decays
#          BR          NDA       ID1       ID2       ID3       ID4
      4.88935328E-08    2      1000022        22                       # Z3SS   -->  Z1SS   GM                 
      6.32422226E-10    2      1000023        22                       # Z3SS   -->  Z2SS   GM                 
      1.26277431E-04    3     -1000024         2        -1             # Z3SS   -->  W1SS-  UP     DB          
      4.20924771E-05    3     -1000024        12       -11             # Z3SS   -->  W1SS-  NUE    E+          
      4.20924771E-05    3     -1000024        14       -13             # Z3SS   -->  W1SS-  NUM    MU+         
      1.26277431E-04    3      1000024         1        -2             # Z3SS   -->  W1SS+  DN     UB          
      4.20924771E-05    3      1000024        11       -12             # Z3SS   -->  W1SS+  E-     ANUE        
      4.20924771E-05    3      1000024        13       -14             # Z3SS   -->  W1SS+  MU-    ANUM        
      1.26277431E-04    3     -1000024         4        -3             # Z3SS   -->  W1SS-  CH     SB          
      4.20924771E-05    3     -1000024        16       -15             # Z3SS   -->  W1SS-  NUT    TAU+        
      1.26277431E-04    3      1000024         3        -4             # Z3SS   -->  W1SS+  ST     CB          
      4.20924771E-05    3      1000024        15       -16             # Z3SS   -->  W1SS+  TAU-   ANUT        
      2.85953939E-01    2      1000022        23                       # Z3SS   -->  Z1SS   Z0                 
      2.10480227E-11    3      1000022         2        -2             # Z3SS   -->  Z1SS   UP     UB          
      5.18394355E-12    3      1000022         1        -1             # Z3SS   -->  Z1SS   DN     DB          
      5.18394355E-12    3      1000022         3        -3             # Z3SS   -->  Z1SS   ST     SB          
      2.10480210E-11    3      1000022         4        -4             # Z3SS   -->  Z1SS   CH     CB          
      1.01057576E-05    3      1000022         5        -5             # Z3SS   -->  Z1SS   BT     BB          
      7.27858551E-10    3      1000022        11       -11             # Z3SS   -->  Z1SS   E-     E+          
      7.27858551E-10    3      1000022        13       -13             # Z3SS   -->  Z1SS   MU-    MU+         
      1.07825945E-05    3      1000022        15       -15             # Z3SS   -->  Z1SS   TAU-   TAU+        
      4.54415972E-09    3      1000022        12       -12             # Z3SS   -->  Z1SS   NUE    ANUE        
      4.54415972E-09    3      1000022        14       -14             # Z3SS   -->  Z1SS   NUM    ANUM        
      5.33080602E-09    3      1000022        16       -16             # Z3SS   -->  Z1SS   NUT    ANUT        
      6.02896362E-05    3      1000023         2        -2             # Z3SS   -->  Z2SS   UP     UB          
      7.77431924E-05    3      1000023         1        -1             # Z3SS   -->  Z2SS   DN     DB          
      7.77431924E-05    3      1000023         3        -3             # Z3SS   -->  Z2SS   ST     SB          
      6.02896362E-05    3      1000023         4        -4             # Z3SS   -->  Z2SS   CH     CB          
      7.66036101E-05    3      1000023         5        -5             # Z3SS   -->  Z2SS   BT     BB          
      1.76350077E-05    3      1000023        11       -11             # Z3SS   -->  Z2SS   E-     E+          
      1.76350077E-05    3      1000023        13       -13             # Z3SS   -->  Z2SS   MU-    MU+         
      1.76255671E-05    3      1000023        15       -15             # Z3SS   -->  Z2SS   TAU-   TAU+        
      3.50952832E-05    3      1000023        12       -12             # Z3SS   -->  Z2SS   NUE    ANUE        
      3.50952832E-05    3      1000023        14       -14             # Z3SS   -->  Z2SS   NUM    ANUM        
      3.50959781E-05    3      1000023        16       -16             # Z3SS   -->  Z2SS   NUT    ANUT        
      3.05482894E-02    2      1000022        25                       # Z3SS   -->  Z1SS   HL0                
      5.57036110E-05    2      2000011       -11                       # Z3SS   -->  ER-    E+                 
      5.57036110E-05    2     -2000011        11                       # Z3SS   -->  ER+    E-                 
      5.57036110E-05    2      2000013       -13                       # Z3SS   -->  MUR-   MU+                
      5.57036110E-05    2     -2000013        13                       # Z3SS   -->  MUR+   MU-                
      3.40992749E-01    2      1000015       -15                       # Z3SS   -->  TAU1-  TAU+               
      3.40992749E-01    2     -1000015        15                       # Z3SS   -->  TAU1+  TAU-               
      2.45087374E-25    2      1000039        22                       # Z3SS   -->  GVSS   GM                 
      6.19673660E-27    3      1000039        11       -11             # Z3SS   -->  GVSS   E-     E+          
      1.16413748E-20    2      1000039        23                       # Z3SS   -->  GVSS   Z0                 
      1.27181289E-20    2      1000039        25                       # Z3SS   -->  GVSS   HL0                
#         PDG         Width
DECAY   1000035  3.22236013E+00   # Z4SS  decays
#          BR          NDA       ID1       ID2       ID3       ID4
      9.29127921E-08    2      1000022        22                       # Z4SS   -->  Z1SS   GM                 
      1.00210045E-08    2      1000023        22                       # Z4SS   -->  Z2SS   GM                 
      3.25917804E-09    2      1000025        22                       # Z4SS   -->  Z3SS   GM                 
      7.85161704E-02    2      1000024       -24                       # Z4SS   -->  W1SS+  W-                 
      7.85161704E-02    2     -1000024        24                       # Z4SS   -->  W1SS-  W+                 
      1.78320927E-10    3     -1000037         2        -1             # Z4SS   -->  W2SS-  UP     DB          
      5.94403068E-11    3     -1000037        12       -11             # Z4SS   -->  W2SS-  NUE    E+          
      5.94403068E-11    3     -1000037        14       -13             # Z4SS   -->  W2SS-  NUM    MU+         
      1.78320914E-10    3      1000037         1        -2             # Z4SS   -->  W2SS+  DN     UB          
      5.94403068E-11    3      1000037        11       -12             # Z4SS   -->  W2SS+  E-     ANUE        
      5.94403068E-11    3      1000037        13       -14             # Z4SS   -->  W2SS+  MU-    ANUM        
      1.78320914E-10    3     -1000037         4        -3             # Z4SS   -->  W2SS-  CH     SB          
      5.94403068E-11    3     -1000037        16       -15             # Z4SS   -->  W2SS-  NUT    TAU+        
      1.78320914E-10    3      1000037         3        -4             # Z4SS   -->  W2SS+  ST     CB          
      5.94403068E-11    3      1000037        15       -16             # Z4SS   -->  W2SS+  TAU-   ANUT        
      2.58413032E-02    2      1000022        23                       # Z4SS   -->  Z1SS   Z0                 
      4.83994991E-05    2      1000023        23                       # Z4SS   -->  Z2SS   Z0                 
      1.81905406E-08    3      1000022         2        -2             # Z4SS   -->  Z1SS   UP     UB          
      1.88101268E-08    3      1000022         1        -1             # Z4SS   -->  Z1SS   DN     DB          
      1.88101268E-08    3      1000022         3        -3             # Z4SS   -->  Z1SS   ST     SB          
      1.81905300E-08    3      1000022         4        -4             # Z4SS   -->  Z1SS   CH     CB          
      8.45154773E-06    3      1000022         5        -5             # Z4SS   -->  Z1SS   BT     BB          
      1.09167813E-05    3      1000022        11       -11             # Z4SS   -->  Z1SS   E-     E+          
      1.09167813E-05    3      1000022        13       -13             # Z4SS   -->  Z1SS   MU-    MU+         
      2.42714050E-05    3      1000022        15       -15             # Z4SS   -->  Z1SS   TAU-   TAU+        
      1.26787854E-05    3      1000022        12       -12             # Z4SS   -->  Z1SS   NUE    ANUE        
      1.26787854E-05    3      1000022        14       -14             # Z4SS   -->  Z1SS   NUM    ANUM        
      1.46983075E-05    3      1000022        16       -16             # Z4SS   -->  Z1SS   NUT    ANUT        
      1.30794863E-11    3      1000023         2        -2             # Z4SS   -->  Z2SS   UP     UB          
      1.33523678E-11    3      1000023         1        -1             # Z4SS   -->  Z2SS   DN     DB          
      1.33523678E-11    3      1000023         3        -3             # Z4SS   -->  Z2SS   ST     SB          
      1.30794793E-11    3      1000023         4        -4             # Z4SS   -->  Z2SS   CH     CB          
      1.77518572E-07    3      1000023         5        -5             # Z4SS   -->  Z2SS   BT     BB          
      3.01849812E-09    3      1000023        11       -11             # Z4SS   -->  Z2SS   E-     E+          
      3.01849812E-09    3      1000023        13       -13             # Z4SS   -->  Z2SS   MU-    MU+         
      8.05962443E-08    3      1000023        15       -15             # Z4SS   -->  Z2SS   TAU-   TAU+        
      3.45337448E-09    3      1000023        12       -12             # Z4SS   -->  Z2SS   NUE    ANUE        
      3.45337448E-09    3      1000023        14       -14             # Z4SS   -->  Z2SS   NUM    ANUM        
      4.54050841E-09    3      1000023        16       -16             # Z4SS   -->  Z2SS   NUT    ANUT        
      1.07410767E-06    3      1000025         2        -2             # Z4SS   -->  Z3SS   UP     UB          
      1.38507539E-06    3      1000025         1        -1             # Z4SS   -->  Z3SS   DN     DB          
      1.38507539E-06    3      1000025         3        -3             # Z4SS   -->  Z3SS   ST     SB          
      1.07410767E-06    3      1000025         4        -4             # Z4SS   -->  Z3SS   CH     CB          
      1.06081268E-06    3      1000025         5        -5             # Z4SS   -->  Z3SS   BT     BB          
      3.14213736E-07    3      1000025        11       -11             # Z4SS   -->  Z3SS   E-     E+          
      3.14213736E-07    3      1000025        13       -13             # Z4SS   -->  Z3SS   MU-    MU+         
      3.01928623E-07    3      1000025        15       -15             # Z4SS   -->  Z3SS   TAU-   TAU+        
      6.25110602E-07    3      1000025        12       -12             # Z4SS   -->  Z3SS   NUE    ANUE        
      6.25110602E-07    3      1000025        14       -14             # Z4SS   -->  Z3SS   NUM    ANUM        
      6.25101677E-07    3      1000025        16       -16             # Z4SS   -->  Z3SS   NUT    ANUT        
      2.70491391E-01    2      1000022        25                       # Z4SS   -->  Z1SS   HL0                
      4.32212750E-04    2      2000011       -11                       # Z4SS   -->  ER-    E+                 
      4.32212750E-04    2     -2000011        11                       # Z4SS   -->  ER+    E-                 
      4.32212750E-04    2      2000013       -13                       # Z4SS   -->  MUR-   MU+                
      4.32212750E-04    2     -2000013        13                       # Z4SS   -->  MUR+   MU-                
      2.72376925E-01    2      1000015       -15                       # Z4SS   -->  TAU1-  TAU+               
      2.72376925E-01    2     -1000015        15                       # Z4SS   -->  TAU1+  TAU-               
      2.97251130E-21    2      1000039        22                       # Z4SS   -->  GVSS   GM                 
      7.52299285E-23    3      1000039        11       -11             # Z4SS   -->  GVSS   E-     E+          
      2.36501471E-20    2      1000039        23                       # Z4SS   -->  GVSS   Z0                 
      1.03010878E-20    2      1000039        25                       # Z4SS   -->  GVSS   HL0                
#         PDG         Width
DECAY   1000024  7.48387396E-01   # W1SS+ decays
#          BR          NDA       ID1       ID2       ID3       ID4
      3.02206672E-07    3      1000022         2        -1             # W1SS+  -->  Z1SS   UP     DB          
      3.02206587E-07    3      1000022         4        -3             # W1SS+  -->  Z1SS   CH     SB          
      1.69153922E-04    3      1000022       -11        12             # W1SS+  -->  Z1SS   E+     NUE         
      1.69153922E-04    3      1000022       -13        14             # W1SS+  -->  Z1SS   MU+    NUM         
      1.99081565E-04    3      1000022       -15        16             # W1SS+  -->  Z1SS   TAU+   NUT         
      3.10855150E-01    2      1000022        24                       # W1SS+  -->  Z1SS   W+                 
      1.03201492E-08    3      1000023         2        -1             # W1SS+  -->  Z2SS   UP     DB          
      1.03201492E-08    3      1000023         4        -3             # W1SS+  -->  Z2SS   CH     SB          
      3.44939699E-09    3      1000023       -11        12             # W1SS+  -->  Z2SS   E+     NUE         
      3.44939699E-09    3      1000023       -13        14             # W1SS+  -->  Z2SS   MU+    NUM         
      3.45056073E-09    3      1000023       -15        16             # W1SS+  -->  Z2SS   TAU+   NUT         
      6.88606858E-01    2     -1000015        16                       # W1SS+  -->  TAU1+  NUT                
#         PDG         Width
DECAY   1000037  2.95369649E+00   # W2SS+ decays
#          BR          NDA       ID1       ID2       ID3       ID4
      2.89117850E-08    3      1000022         2        -1             # W2SS+  -->  Z1SS   UP     DB          
      2.89117814E-08    3      1000022         4        -3             # W2SS+  -->  Z1SS   CH     SB          
      1.85076151E-05    3      1000022       -11        12             # W2SS+  -->  Z1SS   E+     NUE         
      1.85076151E-05    3      1000022       -13        14             # W2SS+  -->  Z1SS   MU+    NUM         
      3.52660209E-05    3      1000022       -15        16             # W2SS+  -->  Z1SS   TAU+   NUT         
      3.03741992E-01    2      1000022        24                       # W2SS+  -->  Z1SS   W+                 
      5.97177603E-12    3      1000023         2        -1             # W2SS+  -->  Z2SS   UP     DB          
      5.97177429E-12    3      1000023         4        -3             # W2SS+  -->  Z2SS   CH     SB          
      1.45833412E-09    3      1000023       -11        12             # W2SS+  -->  Z2SS   E+     NUE         
      1.45833412E-09    3      1000023       -13        14             # W2SS+  -->  Z2SS   MU+    NUM         
      6.79372825E-09    3      1000023       -15        16             # W2SS+  -->  Z2SS   TAU+   NUT         
      2.83910781E-02    2      1000023        24                       # W2SS+  -->  Z2SS   W+                 
      2.30808496E-06    3      1000025         2        -1             # W2SS+  -->  Z3SS   UP     DB          
      2.30808496E-06    3      1000025         4        -3             # W2SS+  -->  Z3SS   CH     SB          
      7.69346741E-07    3      1000025       -11        12             # W2SS+  -->  Z3SS   E+     NUE         
      7.69346741E-07    3      1000025       -13        14             # W2SS+  -->  Z3SS   MU+    NUM         
      7.69382382E-07    3      1000025       -15        16             # W2SS+  -->  Z3SS   TAU+   NUT         
      6.52904093E-01    2     -1000015        16                       # W2SS+  -->  TAU1+  NUT                
      1.48835639E-02    2      1000024        23                       # W2SS+  -->  W1SS+  Z0                 
      9.68631338E-12    3      1000024         1        -1             # W2SS+  -->  W1SS+  DN     DB          
      9.68630818E-12    3      1000024         3        -3             # W2SS+  -->  W1SS+  ST     SB          
      1.04258260E-11    3      1000024         2        -2             # W2SS+  -->  W1SS+  UP     UB          
      1.04258260E-11    3      1000024         4        -4             # W2SS+  -->  W1SS+  CH     CB          
      2.47188403E-09    3      1000024        12       -12             # W2SS+  -->  W1SS+  NUE    ANUE        
      2.47188403E-09    3      1000024        14       -14             # W2SS+  -->  W1SS+  NUM    ANUM        
      2.46724086E-09    3      1000024        11       -11             # W2SS+  -->  W1SS+  E-     E+          
      2.46724086E-09    3      1000024        13       -13             # W2SS+  -->  W1SS+  MU-    MU+         
      3.24684124E-09    3      1000024        15       -15             # W2SS+  -->  W1SS+  TAU-   TAU+        
#         PDG         Width
DECAY        25  4.76488937E-03   # HL0   decays
#          BR          NDA       ID1       ID2       ID3       ID4
      4.41593739E-09    2           11       -11                       # HL0    -->  E-     E+                 
      1.86448015E-04    2           13       -13                       # HL0    -->  MU-    MU+                
      5.33349961E-02    2           15       -15                       # HL0    -->  TAU-   TAU+               
      5.53686959E-06    2            1        -1                       # HL0    -->  DN     DB                 
      2.23717303E-03    2            3        -3                       # HL0    -->  ST     SB                 
      7.26389110E-01    2            5        -5                       # HL0    -->  BT     BB                 
      1.76067977E-06    2            2        -2                       # HL0    -->  UP     UB                 
      3.28034870E-02    2            4        -4                       # HL0    -->  CH     CB                 
      2.04401719E-03    2           22        22                       # HL0    -->  GM     GM                 
      4.19420637E-02    2           21        21                       # HL0    -->  GL     GL                 
      7.09095597E-03    3           24        11       -12             # HL0    -->  W+     E-     ANUE        
      7.09095597E-03    3           24        13       -14             # HL0    -->  W+     MU-    ANUM        
      7.09095597E-03    3           24        15       -16             # HL0    -->  W+     TAU-   ANUT        
      2.12728679E-02    3           24        -2         1             # HL0    -->  W+     UB     DN          
      2.12728679E-02    3           24        -4         3             # HL0    -->  W+     CB     ST          
      7.09095597E-03    3          -24       -11        12             # HL0    -->  W-     E+     NUE         
      7.09095597E-03    3          -24       -13        14             # HL0    -->  W-     MU+    NUM         
      7.09095597E-03    3          -24       -15        16             # HL0    -->  W-     TAU+   NUT         
      2.12728679E-02    3          -24         2        -1             # HL0    -->  W-     UP     DB          
      2.12728679E-02    3          -24         4        -3             # HL0    -->  W-     CH     SB          
      9.17670317E-04    3           23        12       -12             # HL0    -->  Z0     NUE    ANUE        
      9.17670317E-04    3           23        14       -14             # HL0    -->  Z0     NUM    ANUM        
      9.17670317E-04    3           23        16       -16             # HL0    -->  Z0     NUT    ANUT        
      4.61854244E-04    3           23        11       -11             # HL0    -->  Z0     E-     E+          
      4.61854244E-04    3           23        13       -13             # HL0    -->  Z0     MU-    MU+         
      4.61854244E-04    3           23        15       -15             # HL0    -->  Z0     TAU-   TAU+        
      1.58227351E-03    3           23         2        -2             # HL0    -->  Z0     UP     UB          
      1.58227351E-03    3           23         4        -4             # HL0    -->  Z0     CH     CB          
      2.03835801E-03    3           23         1        -1             # HL0    -->  Z0     DN     DB          
      2.03835801E-03    3           23         3        -3             # HL0    -->  Z0     ST     SB          
      2.03835801E-03    3           23         5        -5             # HL0    -->  Z0     BT     BB          
#         PDG         Width
DECAY        35  6.31755753E+01   # HH0   decays
#          BR          NDA       ID1       ID2       ID3       ID4
      1.26787585E-08    2           11       -11                       # HH0    -->  E-     E+                 
      5.35320083E-04    2           13       -13                       # HH0    -->  MU-    MU+                
      1.53323472E-01    2           15       -15                       # HH0    -->  TAU-   TAU+               
      1.54172994E-05    2            1        -1                       # HH0    -->  DN     DB                 
      6.22936944E-03    2            3        -3                       # HH0    -->  ST     SB                 
      8.38828206E-01    2            5        -5                       # HH0    -->  BT     BB                 
      1.59516768E-12    2            2        -2                       # HH0    -->  UP     UB                 
      2.01301305E-08    2            4        -4                       # HH0    -->  CH     CB                 
      1.05269824E-03    2            6        -6                       # HH0    -->  TP     TB                 
      1.76345405E-09    2           22        22                       # HH0    -->  GM     GM                 
      2.98777053E-07    2           21        21                       # HH0    -->  GL     GL                 
      5.32236868E-07    2           24       -24                       # HH0    -->  W+     W-                 
      2.72767551E-07    2           23        23                       # HH0    -->  Z0     Z0                 
      1.26694440E-05    2      1000022   1000022                       # HH0    -->  Z1SS   Z1SS               
      1.57521811E-06    2           25        25                       # HH0    -->  HL0    HL0                
      2.23532606E-08    2      2000011  -2000011                       # HH0    -->  ER-    ER+                
      2.21315339E-08    2      2000013  -2000013                       # HH0    -->  MUR-   MUR+               
      1.15929119E-07    2      1000015  -1000015                       # HH0    -->  TAU1-  TAU1+              
#         PDG         Width
DECAY        36  6.27679214E+01   # HA0   decays
#          BR          NDA       ID1       ID2       ID3       ID4
      1.26777193E-08    2           11       -11                       # HA0    -->  E-     E+                 
      5.35276136E-04    2           13       -13                       # HA0    -->  MU-    MU+                
      1.53311163E-01    2           15       -15                       # HA0    -->  TAU-   TAU+               
      1.54167356E-05    2            1        -1                       # HA0    -->  DN     DB                 
      6.22914033E-03    2            3        -3                       # HA0    -->  ST     SB                 
      8.38802099E-01    2            5        -5                       # HA0    -->  BT     BB                 
      1.58526154E-12    2            2        -2                       # HA0    -->  UP     UB                 
      2.00191970E-08    2            4        -4                       # HA0    -->  CH     CB                 
      1.06036197E-03    2            6        -6                       # HA0    -->  TP     TB                 
      1.36318796E-08    2           22        22                       # HA0    -->  GM     GM                 
      3.42925409E-06    2           21        21                       # HA0    -->  GL     GL                 
      4.25584149E-05    2      1000022   1000022                       # HA0    -->  Z1SS   Z1SS               
      5.29756335E-07    2           25        23                       # HA0    -->  HL0    Z0                 
#         PDG         Width
DECAY        37  5.88376274E+01   # H+    decays
#          BR          NDA       ID1       ID2       ID3       ID4
      1.36208280E-08    2           12       -11                       # H+     -->  NUE    E+                 
      5.75095939E-04    2           14       -13                       # H+     -->  NUM    MU+                
      1.64716139E-01    2           16       -15                       # H+     -->  NUT    TAU+               
      1.53374585E-05    2            2        -1                       # H+     -->  UP     DB                 
      6.19712565E-03    2            4        -3                       # H+     -->  CH     SB                 
      8.28495741E-01    2            6        -5                       # H+     -->  TP     BB                 
      5.70299335E-07    2           25        24                       # H+     -->  HL0    W+                 
