#
#                              ======================
#                              | THE SUSYHIT OUTPUT |
#                              ======================
#
#
#              ------------------------------------------------------
#              |     This is the output of the SUSY-HIT package     |
#              |  created by A.Djouadi, M.Muehlleitner and M.Spira. |
#              |  In case of problems with SUSY-HIT email to        |
#              |           margarete.muehlleitner@kit.edu           |
#              |           michael.spira@psi.ch                     |
#              |           abdelhak.djouadi@cern.ch                 |
#              ------------------------------------------------------
#
#              ------------------------------------------------------
#              |  SUSY Les Houches Accord - MSSM Spectrum + Decays  |
#              |              based on the decay programs           |
#              |                                                    |
#              |                     SDECAY 1.5                     |
#              |                                                    |
#              |  Authors: M.Muhlleitner, A.Djouadi and Y.Mambrini  |
#              |  Ref.:    Comput.Phys.Commun.168(2005)46           |
#              |           [hep-ph/0311167]                         |
#              |                                                    |
#              |                     HDECAY 3.4                     |
#              |                                                    |
#              |  By: A.Djouadi,J.Kalinowski,M.Muhlleitner,M.Spira  |
#              |  Ref.:    Comput.Phys.Commun.108(1998)56           |
#              |           [hep-ph/9704448]                         |
#              |                                                    |
#              |                                                    |
#              |  If not stated otherwise all DRbar couplings and   |
#              |  soft SUSY breaking masses are given at the scale  |
#              |  Q=  0.70837266E+04
#              |                                                    |
#              ------------------------------------------------------
#
#
BLOCK DCINFO  # Decay Program information
     1   SDECAY/HDECAY # decay calculator
     2   1.5  /3.4    # version number
#
BLOCK SPINFO  # Spectrum calculator information
     1   SuSpect     # RGE +Spectrum calculator            
     2   2.41        # version number                      
#
BLOCK MODSEL  # Model selection
     1     3   # #AMSB                                             
#
BLOCK SMINPUTS  # Standard Model inputs
         1     1.27934000E+02   # alpha_em^-1(M_Z)^MSbar
         2     1.16639000E-05   # G_F [GeV^-2]
         3     1.17200000E-01   # alpha_S(M_Z)^MSbar
         4     9.11870000E+01   # M_Z pole mass
         5     4.25000000E+00   # mb(mb)^MSbar
         6     1.73100000E+02   # mt pole mass
         7     1.77710000E+00   # mtau pole mass
#
BLOCK MINPAR  # Input parameters - minimal models
         1     5.00000000E+03   # m0                  
         2     4.75000000E+05   # M_3                 
         3     5.00000000E+00   # tanbeta(mZ)         
         4     1.00000000E+00   # sign(mu)            
         5     1.00000000E+00   # cQ                  
         6     1.00000000E+00   # cuR                 
#
BLOCK EXTPAR  # Input parameters - non-minimal models
         0     7.08372658E+03   # EWSB                
#
BLOCK MASS  # Mass Spectrum
# PDG code           mass       particle
        24     8.05033185E+01   # W+
        25     1.21925196E+02   # h
        35     8.60776047E+03   # H
        36     8.60739232E+03   # A
        37     8.60806680E+03   # H+
         5     4.87877839E+00   # b-quark pole mass calculated from mb(mb)_Msbar
   1000001     1.00000000E+10   # ~d_L
   2000001     1.00000000E+10   # ~d_R 
   1000002     1.00000000E+10   # ~u_L 
   2000002     1.00000000E+10   # ~u_R 
   1000003     1.00000000E+10   # ~s_L 
   2000003     1.00000000E+10   # ~s_R 
   1000004     1.00000000E+10   # ~c_L 
   2000004     1.00000000E+10   # ~c_R 
   1000005     1.00000000E+10   # ~b_1 
   2000005     1.00000000E+10   # ~b_2 
   1000006     1.00000000E+10   # ~t_1 
   2000006     1.00000000E+10   # ~t_2 
   1000011     1.00000000E+10   # ~e_L 
   2000011     1.00000000E+10   # ~e_R 
   1000012     1.00000000E+10   # ~nu_eL 
   1000013     1.00000000E+10   # ~mu_L 
   2000013     1.00000000E+10   # ~mu_R 
   1000014     1.00000000E+10   # ~nu_muL 
   1000015     1.00000000E+10   # ~tau_1 
   2000015     1.00000000E+10   # ~tau_2 
   1000016     1.00000000E+10   # ~nu_tauL 
   1000021     1.00000000E+10   # ~g 
   1000022     1.50673529E+03   # ~chi_10
   1000023     1.00000000E+10   # ~chi_20 
   1000025     1.00000000E+10   # ~chi_30 
   1000035     1.00000000E+10   # ~chi_40 
   1000024     1.50673534E+03   # ~chi_1+
   1000037     1.00000000E+10   # ~chi_2+ 
#
BLOCK NMIX  # Neutralino Mixing Matrix
  1  1     1.06833975E-04   # N_11
  1  2    -9.99920041E-01   # N_12
  1  3     1.17103466E-02   # N_13
  1  4    -4.77148394E-03   # N_14
  2  1     9.99892308E-01   # N_21
  2  2     2.86422175E-04   # N_22
  2  3     1.17591800E-02   # N_23
  2  4    -8.77562493E-03   # N_24
  3  1     2.11088693E-03   # N_31
  3  2    -4.90628580E-03   # N_32
  3  3    -7.07076830E-01   # N_33
  3  4    -7.07116559E-01   # N_34
  4  1     1.45225593E-02   # N_41
  4  2    -1.16514802E-02   # N_42
  4  3    -7.06941968E-01   # N_43
  4  4     7.07026444E-01   # N_44
#
BLOCK UMIX  # Chargino Mixing Matrix U
  1  1    -9.99862890E-01   # U_11
  1  2     1.65590403E-02   # U_12
  2  1     1.65590403E-02   # U_21
  2  2     9.99862890E-01   # U_22
#
BLOCK VMIX  # Chargino Mixing Matrix V
  1  1    -9.99977236E-01   # V_11
  1  2     6.74747864E-03   # V_12
  2  1     6.74747864E-03   # V_21
  2  2     9.99977236E-01   # V_22
#
BLOCK STOPMIX  # Stop Mixing Matrix
  1  1    -3.81715395E-02   # cos(theta_t)
  1  2     9.99271201E-01   # sin(theta_t)
  2  1    -9.99271201E-01   # -sin(theta_t)
  2  2    -3.81715395E-02   # cos(theta_t)
#
BLOCK SBOTMIX  # Sbottom Mixing Matrix
  1  1     9.99998645E-01   # cos(theta_b)
  1  2     1.64620721E-03   # sin(theta_b)
  2  1    -1.64620721E-03   # -sin(theta_b)
  2  2     9.99998645E-01   # cos(theta_b)
#
BLOCK STAUMIX  # Stau Mixing Matrix
  1  1     5.21346672E-02   # cos(theta_tau)
  1  2     9.98640064E-01   # sin(theta_tau)
  2  1    -9.98640064E-01   # -sin(theta_tau)
  2  2     5.21346672E-02   # cos(theta_tau)
#
BLOCK ALPHA  # Higgs mixing
          -2.09416870E-01   # Mixing angle in the neutral Higgs boson sector
#
BLOCK HMIX Q=  7.08372658E+03  # DRbar Higgs Parameters
         1     7.05422513E+03   # mu(Q)               
         2     4.70674770E+00   # tanbeta(Q)          
         3     2.43925948E+02   # vev(Q)              
         4     7.41721052E+07   # MA^2(Q)             
#
BLOCK GAUGE Q=  7.08372658E+03  # The gauge couplings
     1     3.66543376E-01   # gprime(Q) DRbar
     2     6.32554552E-01   # g(Q) DRbar
     3     9.65249190E-01   # g3(Q) DRbar
#
BLOCK AU Q=  7.08372658E+03  # The trilinear couplings
  1  1     1.50911650E+04   # A_u(Q) DRbar
  2  2     1.50911650E+04   # A_c(Q) DRbar
  3  3     7.11491593E+03   # A_t(Q) DRbar
#
BLOCK AD Q=  7.08372658E+03  # The trilinear couplings
  1  1     1.67113622E+04   # A_d(Q) DRbar
  2  2     1.67113622E+04   # A_s(Q) DRbar
  3  3     1.68168083E+04   # A_b(Q) DRbar
#
BLOCK AE Q=  7.08372658E+03  # The trilinear couplings
  1  1     4.73773771E+03   # A_e(Q) DRbar
  2  2     4.73773771E+03   # A_mu(Q) DRbar
  3  3     4.71612305E+03   # A_tau(Q) DRbar
#
BLOCK Yu Q=  7.08372658E+03  # The Yukawa couplings
  1  1     0.00000000E+00   # y_u(Q) DRbar
  2  2     0.00000000E+00   # y_c(Q) DRbar
  3  3     8.12200616E-01   # y_t(Q) DRbar
#
BLOCK Yd Q=  7.08372658E+03  # The Yukawa couplings
  1  1     0.00000000E+00   # y_d(Q) DRbar
  2  2     0.00000000E+00   # y_s(Q) DRbar
  3  3     6.51184391E-02   # y_b(Q) DRbar
#
BLOCK Ye Q=  7.08372658E+03  # The Yukawa couplings
  1  1     0.00000000E+00   # y_e(Q) DRbar
  2  2     0.00000000E+00   # y_mu(Q) DRbar
  3  3     4.88207206E-02   # y_tau(Q) DRbar
#
BLOCK MSOFT Q=  7.08372658E+03  # The soft SUSY breaking masses at the scale Q
         1     4.51750923E+03   # M_1                 
         2     1.42290898E+03   # M_2                 
         3    -8.15062165E+03   # M_3                 
        21     2.06815683E+07   # M^2_Hd              
        22    -4.57348210E+07   # M^2_Hu              
        31     4.64590991E+03   # M_eL                
        32     4.64590991E+03   # M_muL               
        33     4.63718780E+03   # M_tauL              
        34     4.55120990E+03   # M_eR                
        35     4.55120990E+03   # M_muR               
        36     4.53334620E+03   # M_tauR              
        41     9.10667199E+03   # M_q1L               
        42     9.10667199E+03   # M_q2L               
        43     7.83941134E+03   # M_q3L               
        44     9.15379535E+03   # M_uR                
        45     9.15379535E+03   # M_cR                
        46     6.39941541E+03   # M_tR                
        47     9.23173638E+03   # M_dR                
        48     9.23173638E+03   # M_sR                
        49     9.20296985E+03   # M_bR                
#
#
#
#                             =================
#                             |The decay table|
#                             =================
#
# - The QCD corrections to the decays gluino -> squark  + quark
#                                     squark -> gaugino + quark_prime
#                                     squark -> squark_prime + Higgs
#                                     squark -> gluino  + quark
#   are included.
#
# - The multi-body decays for the inos, stops and sbottoms are included.
#
# - The loop induced decays for the gluino, neutralinos and stops
#   are included.
#
# - The SUSY decays of the top quark are included.
#
#
#         PDG            Width
DECAY         6     1.40139374E+00   # top decays
#          BR         NDA      ID1       ID2
     1.00000000E+00    2           5        24   # BR(t ->  b    W+)
#
#         PDG            Width
DECAY   1000021     9.63281565E+00   # gluino decays
#          BR         NDA      ID1       ID2
     5.00000000E-01    2     1000006        -6   # BR(~g -> ~t_1  tb)
     5.00000000E-01    2    -1000006         6   # BR(~g -> ~t_1* t )
#
#         PDG            Width
DECAY   1000006     4.69360340E+00   # stop1 decays
#          BR         NDA      ID1       ID2
     3.52923802E-03    2     1000022         6   # BR(~t_1 -> ~chi_10 t )
     9.89403356E-01    2     1000023         6   # BR(~t_1 -> ~chi_20 t )
     7.06740613E-03    2     1000024         5   # BR(~t_1 -> ~chi_1+ b )
#
#         PDG            Width
DECAY   2000006     1.00826555E+02   # stop2 decays
#          BR         NDA      ID1       ID2
     2.85071187E-01    2     1000022         6   # BR(~t_2 -> ~chi_10 t )
     5.84512970E-03    2     1000023         6   # BR(~t_2 -> ~chi_20 t )
     2.99797277E-02    2     1000025         6   # BR(~t_2 -> ~chi_30 t )
     2.93145125E-02    2     1000035         6   # BR(~t_2 -> ~chi_40 t )
     5.70634575E-01    2     1000024         5   # BR(~t_2 -> ~chi_1+ b )
     4.25868527E-04    2     1000037         5   # BR(~t_2 -> ~chi_2+ b )
     3.83782876E-02    2     1000021         6   # BR(~t_2 -> ~g      t )
     6.71349007E-02    2     1000006        25   # BR(~t_2 -> ~t_1    h )
    -2.67841892E-02    2     1000006        23   # BR(~t_2 -> ~t_1    Z )
#
#         PDG            Width
DECAY   1000005     9.77023114E+01   # sbottom1 decays
#          BR         NDA      ID1       ID2
     2.93833067E-01    2     1000022         5   # BR(~b_1 -> ~chi_10 b )
     5.65614991E-03    2     1000023         5   # BR(~b_1 -> ~chi_20 b )
     1.87871652E-04    2     1000025         5   # BR(~b_1 -> ~chi_30 b )
     1.90854820E-04    2     1000035         5   # BR(~b_1 -> ~chi_40 b )
     5.87156563E-01    2    -1000024         6   # BR(~b_1 -> ~chi_1- t )
     5.91746734E-02    2    -1000037         6   # BR(~b_1 -> ~chi_2- t )
     3.77408286E-02    2     1000021         5   # BR(~b_1 -> ~g      b )
     1.60599918E-02    2     1000006       -24   # BR(~b_1 -> ~t_1    W-)
#
#         PDG            Width
DECAY   2000005     6.56370437E+01   # sbottom2 decays
#          BR         NDA      ID1       ID2
    -2.92496709E-09    2     1000022         5   # BR(~b_2 -> ~chi_10 b )
     4.88932887E-02    2     1000023         5   # BR(~b_2 -> ~chi_20 b )
     1.12178646E-03    2     1000025         5   # BR(~b_2 -> ~chi_30 b )
     1.12447476E-03    2     1000035         5   # BR(~b_2 -> ~chi_40 b )
    -7.14544690E-09    2    -1000024         6   # BR(~b_2 -> ~chi_1- t )
     2.24304278E-03    2    -1000037         6   # BR(~b_2 -> ~chi_2- t )
     9.45258961E-01    2     1000021         5   # BR(~b_2 -> ~g      b )
     2.14068161E-04    2     1000005        25   # BR(~b_2 -> ~b_1    h )
     4.28244774E-04    2     1000005        23   # BR(~b_2 -> ~b_1    Z )
     6.76651929E-06    2     1000006       -24   # BR(~b_2 -> ~t_1    W-)
     7.09376876E-04    2     2000006       -24   # BR(~b_2 -> ~t_2    W-)
#
#         PDG            Width
DECAY   1000002     1.58029922E+02   # sup_L decays
#          BR         NDA      ID1       ID2
     2.12653888E-01    2     1000022         2   # BR(~u_L -> ~chi_10 u)
     4.98101370E-03    2     1000023         2   # BR(~u_L -> ~chi_20 u)
     8.31890150E-07    2     1000025         2   # BR(~u_L -> ~chi_30 u)
     3.21444812E-06    2     1000035         2   # BR(~u_L -> ~chi_40 u)
     4.25373987E-01    2     1000024         1   # BR(~u_L -> ~chi_1+ d)
     3.74111080E-06    2     1000037         1   # BR(~u_L -> ~chi_2+ d)
     3.56983324E-01    2     1000021         2   # BR(~u_L -> ~g      u)
#
#         PDG            Width
DECAY   2000002     7.18984318E+01   # sup_R decays
#          BR         NDA      ID1       ID2
     3.20277874E-09    2     1000022         2   # BR(~u_R -> ~chi_10 u)
     1.76555111E-01    2     1000023         2   # BR(~u_R -> ~chi_20 u)
     2.47910999E-07    2     1000025         2   # BR(~u_R -> ~chi_30 u)
     1.17250936E-05    2     1000035         2   # BR(~u_R -> ~chi_40 u)
     8.23432913E-01    2     1000021         2   # BR(~u_R -> ~g      u)
#
#         PDG            Width
DECAY   1000001     1.58037632E+02   # sdown_L decays
#          BR         NDA      ID1       ID2
     2.12668505E-01    2     1000022         1   # BR(~d_L -> ~chi_10 d)
     4.95165341E-03    2     1000023         1   # BR(~d_L -> ~chi_20 d)
     1.16099439E-06    2     1000025         1   # BR(~d_L -> ~chi_30 d)
     8.58563814E-06    2     1000035         1   # BR(~d_L -> ~chi_40 d)
     4.25270836E-01    2    -1000024         2   # BR(~d_L -> ~chi_1- u)
     2.25347684E-05    2    -1000037         2   # BR(~d_L -> ~chi_2- u)
     3.57076724E-01    2     1000021         1   # BR(~d_L -> ~g      d)
#
#         PDG            Width
DECAY   2000001     6.71383623E+01   # sdown_R decays
#          BR         NDA      ID1       ID2
     8.65269826E-10    2     1000022         1   # BR(~d_R -> ~chi_10 d)
     4.81108583E-02    2     1000023         1   # BR(~d_R -> ~chi_20 d)
     6.97611461E-08    2     1000025         1   # BR(~d_R -> ~chi_30 d)
     3.29948660E-06    2     1000035         1   # BR(~d_R -> ~chi_40 d)
     9.51885772E-01    2     1000021         1   # BR(~d_R -> ~g      d)
#
#         PDG            Width
DECAY   1000004     1.58029922E+02   # scharm_L decays
#          BR         NDA      ID1       ID2
     2.12653888E-01    2     1000022         4   # BR(~c_L -> ~chi_10 c)
     4.98101370E-03    2     1000023         4   # BR(~c_L -> ~chi_20 c)
     8.31890150E-07    2     1000025         4   # BR(~c_L -> ~chi_30 c)
     3.21444812E-06    2     1000035         4   # BR(~c_L -> ~chi_40 c)
     4.25373987E-01    2     1000024         3   # BR(~c_L -> ~chi_1+ s)
     3.74111080E-06    2     1000037         3   # BR(~c_L -> ~chi_2+ s)
     3.56983324E-01    2     1000021         4   # BR(~c_L -> ~g      c)
#
#         PDG            Width
DECAY   2000004     7.18984318E+01   # scharm_R decays
#          BR         NDA      ID1       ID2
     3.20277874E-09    2     1000022         4   # BR(~c_R -> ~chi_10 c)
     1.76555111E-01    2     1000023         4   # BR(~c_R -> ~chi_20 c)
     2.47910999E-07    2     1000025         4   # BR(~c_R -> ~chi_30 c)
     1.17250936E-05    2     1000035         4   # BR(~c_R -> ~chi_40 c)
     8.23432913E-01    2     1000021         4   # BR(~c_R -> ~g      c)
#
#         PDG            Width
DECAY   1000003     1.58037632E+02   # sstrange_L decays
#          BR         NDA      ID1       ID2
     2.12668505E-01    2     1000022         3   # BR(~s_L -> ~chi_10 s)
     4.95165341E-03    2     1000023         3   # BR(~s_L -> ~chi_20 s)
     1.16099439E-06    2     1000025         3   # BR(~s_L -> ~chi_30 s)
     8.58563814E-06    2     1000035         3   # BR(~s_L -> ~chi_40 s)
     4.25270836E-01    2    -1000024         4   # BR(~s_L -> ~chi_1- c)
     2.25347684E-05    2    -1000037         4   # BR(~s_L -> ~chi_2- c)
     3.57076724E-01    2     1000021         3   # BR(~s_L -> ~g      s)
#
#         PDG            Width
DECAY   2000003     6.71383623E+01   # sstrange_R decays
#          BR         NDA      ID1       ID2
     8.65269826E-10    2     1000022         3   # BR(~s_R -> ~chi_10 s)
     4.81108583E-02    2     1000023         3   # BR(~s_R -> ~chi_20 s)
     6.97611461E-08    2     1000025         3   # BR(~s_R -> ~chi_30 s)
     3.29948660E-06    2     1000035         3   # BR(~s_R -> ~chi_40 s)
     9.51885772E-01    2     1000021         3   # BR(~s_R -> ~g      s)
#
#         PDG            Width
DECAY   1000011     4.44399852E+01   # selectron_L decays
#          BR         NDA      ID1       ID2
     3.33094936E-01    2     1000022        11   # BR(~e_L -> ~chi_10 e-)
     7.08865692E-04    2     1000023        11   # BR(~e_L -> ~chi_20 e-)
     6.66196198E-01    2    -1000024        12   # BR(~e_L -> ~chi_1- nu_e)
#
#         PDG            Width
DECAY   2000011     2.51438539E-02   # selectron_R decays
#          BR         NDA      ID1       ID2
     8.75631107E-06    2     1000022        11   # BR(~e_R -> ~chi_10 e-)
     9.99991244E-01    2     1000023        11   # BR(~e_R -> ~chi_20 e-)
#
#         PDG            Width
DECAY   1000013     4.44399852E+01   # smuon_L decays
#          BR         NDA      ID1       ID2
     3.33094936E-01    2     1000022        13   # BR(~mu_L -> ~chi_10 mu-)
     7.08865692E-04    2     1000023        13   # BR(~mu_L -> ~chi_20 mu-)
     6.66196198E-01    2    -1000024        14   # BR(~mu_L -> ~chi_1- nu_mu)
#
#         PDG            Width
DECAY   2000013     2.51438539E-02   # smuon_R decays
#          BR         NDA      ID1       ID2
     8.75631107E-06    2     1000022        13   # BR(~mu_R -> ~chi_10 mu-)
     9.99991244E-01    2     1000023        13   # BR(~mu_R -> ~chi_20 mu-)
#
#         PDG            Width
DECAY   1000015     1.36543318E-01   # stau_1 decays
#          BR         NDA      ID1       ID2
     2.98196710E-01    2     1000022        15   # BR(~tau_1 -> ~chi_10  tau-)
     1.05413691E-01    2     1000023        15   # BR(~tau_1 -> ~chi_20  tau-)
     5.96389599E-01    2    -1000024        16   # BR(~tau_1 -> ~chi_1-  nu_tau)
#
#         PDG            Width
DECAY   2000015     4.41931481E+01   # stau_2 decays
#          BR         NDA      ID1       ID2
     3.33108321E-01    2     1000022        15   # BR(~tau_2 -> ~chi_10  tau-)
     6.49136196E-04    2     1000023        15   # BR(~tau_2 -> ~chi_20  tau-)
     6.66222619E-01    2    -1000024        16   # BR(~tau_2 -> ~chi_1-  nu_tau)
     1.99239060E-05    2     1000015        23   # BR(~tau_2 -> ~tau_1   Z)
#
#         PDG            Width
DECAY   1000012     4.44419257E+01   # snu_eL decays
#          BR         NDA      ID1       ID2
     3.33101195E-01    2     1000022        12   # BR(~nu_eL -> ~chi_10 nu_e)
     7.02703285E-04    2     1000023        12   # BR(~nu_eL -> ~chi_20 nu_e)
     6.66196102E-01    2     1000024        11   # BR(~nu_eL -> ~chi_1+ e-)
#
#         PDG            Width
DECAY   1000014     4.44419257E+01   # snu_muL decays
#          BR         NDA      ID1       ID2
     3.33101195E-01    2     1000022        14   # BR(~nu_muL -> ~chi_10 nu_mu)
     7.02703285E-04    2     1000023        14   # BR(~nu_muL -> ~chi_20 nu_mu)
     6.66196102E-01    2     1000024        13   # BR(~nu_muL -> ~chi_1+ mu-)
#
#         PDG            Width
DECAY   1000016     4.43198161E+01   # snu_tauL decays
#          BR         NDA      ID1       ID2
     3.33096618E-01    2     1000022        16   # BR(~nu_tauL -> ~chi_10 nu_tau)
     6.35676956E-04    2     1000023        16   # BR(~nu_tauL -> ~chi_20 nu_tau)
     6.66187316E-01    2     1000024        15   # BR(~nu_tauL -> ~chi_1+ tau-)
     8.03890793E-05    2    -1000015       -24   # BR(~nu_tauL -> ~tau_1+ W-)
#
#         PDG            Width
DECAY   1000024     0.00000000E+00   # stable chargino_1
#           BR         NDA      ID1       ID2       ID3
     3.74975764E-01    3     1000022         2        -1   # BR(~chi_1+ -> ~chi_10 u    db)
     3.74975764E-01    3     1000022         4        -3   # BR(~chi_1+ -> ~chi_10 c    sb)
     1.25024236E-01    3     1000022       -11        12   # BR(~chi_1+ -> ~chi_10 e+   nu_e)
     1.25024236E-01    3     1000022       -13        14   # BR(~chi_1+ -> ~chi_10 mu+  nu_mu)
#
#         PDG            Width
DECAY   1000037     5.43717852E+01   # chargino2+ decays
#          BR         NDA      ID1       ID2
     4.28752128E-02    2     1000006        -5   # BR(~chi_2+ -> ~t_1     bb)
     7.56075912E-06    2     1000012       -11   # BR(~chi_2+ -> ~nu_eL   e+  )
     7.56075912E-06    2     1000014       -13   # BR(~chi_2+ -> ~nu_muL  mu+ )
     1.00208038E-03    2     1000016       -15   # BR(~chi_2+ -> ~nu_tau1 tau+)
     4.55182422E-05    2    -1000011        12   # BR(~chi_2+ -> ~e_L+    nu_e)
     4.55182422E-05    2    -1000013        14   # BR(~chi_2+ -> ~mu_L+   nu_mu)
     1.03592251E-03    2    -1000015        16   # BR(~chi_2+ -> ~tau_1+  nu_tau)
     7.05597252E-05    2    -2000015        16   # BR(~chi_2+ -> ~tau_2+  nu_tau)
     2.87348936E-01    2     1000024        23   # BR(~chi_2+ -> ~chi_1+  Z )
     2.75998658E-01    2     1000022        24   # BR(~chi_2+ -> ~chi_10  W+)
     9.12397308E-02    2     1000023        24   # BR(~chi_2+ -> ~chi_20  W+)
     3.00322742E-01    2     1000024        25   # BR(~chi_2+ -> ~chi_1+  h )
#
#         PDG            Width
DECAY   1000022     0.00000000E+00   # stable neutralino 
#
#         PDG            Width
DECAY   1000023     9.70871265E-03   # neutralino2 decays
#          BR         NDA      ID1       ID2
     1.89508335E-02    2     1000022        23   # BR(~chi_20 -> ~chi_10   Z )
     3.24127219E-01    2     1000024       -24   # BR(~chi_20 -> ~chi_1+   W-)
     3.24127219E-01    2    -1000024        24   # BR(~chi_20 -> ~chi_1-   W+)
     3.32794728E-01    2     1000022        25   # BR(~chi_20 -> ~chi_10   h )
#
#         PDG            Width
DECAY   1000025     5.32621543E+01   # neutralino3 decays
#          BR         NDA      ID1       ID2
     2.49173068E-01    2     1000022        23   # BR(~chi_30 -> ~chi_10   Z )
     9.47797241E-02    2     1000023        23   # BR(~chi_30 -> ~chi_20   Z )
     2.81759973E-01    2     1000024       -24   # BR(~chi_30 -> ~chi_1+   W-)
     2.81759973E-01    2    -1000024        24   # BR(~chi_30 -> ~chi_1-   W+)
     4.61623984E-02    2     1000022        25   # BR(~chi_30 -> ~chi_10   h )
     2.08973097E-03    2     1000023        25   # BR(~chi_30 -> ~chi_20   h )
     2.10736885E-02    2     1000006        -6   # BR(~chi_30 -> ~t_1      tb)
     2.10736885E-02    2    -1000006         6   # BR(~chi_30 -> ~t_1*     t )
     1.14892501E-06    2     1000011       -11   # BR(~chi_30 -> ~e_L-     e+)
     1.14892501E-06    2    -1000011        11   # BR(~chi_30 -> ~e_L+     e-)
     5.38640613E-07    2     2000011       -11   # BR(~chi_30 -> ~e_R-     e+)
     5.38640613E-07    2    -2000011        11   # BR(~chi_30 -> ~e_R+     e-)
     1.14892501E-06    2     1000013       -13   # BR(~chi_30 -> ~mu_L-    mu+)
     1.14892501E-06    2    -1000013        13   # BR(~chi_30 -> ~mu_L+    mu-)
     5.38640613E-07    2     2000013       -13   # BR(~chi_30 -> ~mu_R-    mu+)
     5.38640613E-07    2    -2000013        13   # BR(~chi_30 -> ~mu_R+    mu-)
     5.38215705E-04    2     1000015       -15   # BR(~chi_30 -> ~tau_1-   tau+)
     5.38215705E-04    2    -1000015        15   # BR(~chi_30 -> ~tau_1+   tau-)
     5.12718342E-04    2     2000015       -15   # BR(~chi_30 -> ~tau_2-   tau+)
     5.12718342E-04    2    -2000015        15   # BR(~chi_30 -> ~tau_2+   tau-)
     3.18330264E-06    2     1000012       -12   # BR(~chi_30 -> ~nu_eL    nu_eb)
     3.18330264E-06    2    -1000012        12   # BR(~chi_30 -> ~nu_eL*   nu_e )
     3.18330264E-06    2     1000014       -14   # BR(~chi_30 -> ~nu_muL   nu_mub)
     3.18330264E-06    2    -1000014        14   # BR(~chi_30 -> ~nu_muL*  nu_mu )
     3.20158382E-06    2     1000016       -16   # BR(~chi_30 -> ~nu_tau1  nu_taub)
     3.20158382E-06    2    -1000016        16   # BR(~chi_30 -> ~nu_tau1* nu_tau )
#
#         PDG            Width
DECAY   1000035     5.38669955E+01   # neutralino4 decays
#          BR         NDA      ID1       ID2
     4.36843427E-02    2     1000022        23   # BR(~chi_40 -> ~chi_10   Z )
     1.98518520E-03    2     1000023        23   # BR(~chi_40 -> ~chi_20   Z )
     2.78580284E-01    2     1000024       -24   # BR(~chi_40 -> ~chi_1+   W-)
     2.78580284E-01    2    -1000024        24   # BR(~chi_40 -> ~chi_1-   W+)
     2.57481204E-01    2     1000022        25   # BR(~chi_40 -> ~chi_10   h )
     9.79629467E-02    2     1000023        25   # BR(~chi_40 -> ~chi_20   h )
     1.96461257E-02    2     1000006        -6   # BR(~chi_40 -> ~t_1      tb)
     1.96461257E-02    2    -1000006         6   # BR(~chi_40 -> ~t_1*     t )
     8.77568285E-07    2     1000011       -11   # BR(~chi_40 -> ~e_L-     e+)
     8.77568285E-07    2    -1000011        11   # BR(~chi_40 -> ~e_L+     e-)
     2.52230604E-05    2     2000011       -11   # BR(~chi_40 -> ~e_R-     e+)
     2.52230604E-05    2    -2000011        11   # BR(~chi_40 -> ~e_R+     e-)
     8.77568285E-07    2     1000013       -13   # BR(~chi_40 -> ~mu_L-    mu+)
     8.77568285E-07    2    -1000013        13   # BR(~chi_40 -> ~mu_L+    mu-)
     2.52230604E-05    2     2000013       -13   # BR(~chi_40 -> ~mu_R-    mu+)
     2.52230604E-05    2    -2000013        13   # BR(~chi_40 -> ~mu_R+    mu-)
     5.46952133E-04    2     1000015       -15   # BR(~chi_40 -> ~tau_1-   tau+)
     5.46952133E-04    2    -1000015        15   # BR(~chi_40 -> ~tau_1+   tau-)
     5.16137280E-04    2     2000015       -15   # BR(~chi_40 -> ~tau_2-   tau+)
     5.16137280E-04    2    -2000015        15   # BR(~chi_40 -> ~tau_2+   tau-)
     3.37554426E-05    2     1000012       -12   # BR(~chi_40 -> ~nu_eL    nu_eb)
     3.37554426E-05    2    -1000012        12   # BR(~chi_40 -> ~nu_eL*   nu_e )
     3.37554426E-05    2     1000014       -14   # BR(~chi_40 -> ~nu_muL   nu_mub)
     3.37554426E-05    2    -1000014        14   # BR(~chi_40 -> ~nu_muL*  nu_mu )
     3.39491936E-05    2     1000016       -16   # BR(~chi_40 -> ~nu_tau1  nu_taub)
     3.39491936E-05    2    -1000016        16   # BR(~chi_40 -> ~nu_tau1* nu_tau )
#
#         PDG            Width
DECAY        36     1.96116516E+01   # A decays
#          BR         NDA      ID1       ID2
     9.38199745E-02    2           5        -5   # BR(A -> b       bb     )
     2.01531014E-02    2         -15        15   # BR(A -> tau+    tau-   )
     7.12403692E-05    2         -13        13   # BR(A -> mu+     mu-    )
     7.67178125E-05    2           3        -3   # BR(A -> s       sb     )
     7.05169654E-06    2           4        -4   # BR(A -> c       cb     )
     7.10013446E-01    2           6        -6   # BR(A -> t       tb     )
     1.53880962E-04    2          21        21   # BR(A -> g       g      )
     3.75105004E-07    2          22        22   # BR(A -> gam     gam    )
     2.92490963E-07    2          23        22   # BR(A -> Z       gam    )
     5.05464656E-05    2          23        25   # BR(A -> Z       h      )
     1.08324404E-03    2     1000024  -1000024   # BR(A -> ~chi_1+ ~chi_1-)
     5.79489373E-02    2     1000024  -1000037   # BR(A -> ~chi_1+ ~chi_2-)
     5.79489373E-02    2     1000037  -1000024   # BR(A -> ~chi_2+ ~chi_1-)
     5.41750693E-04    2     1000022   1000022   # BR(A -> ~chi_10 ~chi_10)
     4.41203679E-04    2     1000022   1000023   # BR(A -> ~chi_10 ~chi_20)
     4.11967973E-04    2     1000022   1000025   # BR(A -> ~chi_10 ~chi_30)
     5.72773322E-02    2     1000022   1000035   # BR(A -> ~chi_10 ~chi_40)
#
#         PDG            Width
DECAY        37     1.93911165E+01   # H+ decays
#          BR         NDA      ID1       ID2
     1.48022732E-04    2           4        -5   # BR(H+ -> c       bb     )
     2.03838996E-02    2         -15        16   # BR(H+ -> tau+    nu_tau )
     7.20562315E-05    2         -13        14   # BR(H+ -> mu+     nu_mu  )
     9.47275211E-07    2           2        -5   # BR(H+ -> u       bb     )
     3.71687177E-06    2           2        -3   # BR(H+ -> u       sb     )
     8.32957883E-05    2           4        -3   # BR(H+ -> c       sb     )
     8.01051207E-01    2           6        -5   # BR(H+ -> t       bb     )
     5.11371566E-05    2          24        25   # BR(H+ -> W+      h      )
     9.47544911E-15    2          24        36   # BR(H+ -> W+      A      )
     5.84599021E-12    2     1000024   1000022   # BR(H+ -> ~chi_1+ ~chi_10)
     5.99507398E-04    2     1000024   1000023   # BR(H+ -> ~chi_1+ ~chi_20)
     5.96277859E-02    2     1000024   1000025   # BR(H+ -> ~chi_1+ ~chi_30)
     5.88508489E-02    2     1000024   1000035   # BR(H+ -> ~chi_1+ ~chi_40)
     5.91275748E-02    2     1000037   1000022   # BR(H+ -> ~chi_2+ ~chi_10)
