#
#                              ======================
#                              | THE SUSYHIT OUTPUT |
#                              ======================
#
#
#              ------------------------------------------------------
#              |     This is the output of the SUSY-HIT package     |
#              |  created by A.Djouadi, M.Muehlleitner and M.Spira. |
#              |  In case of problems with SUSY-HIT email to        |
#              |           margarete.muehlleitner@kit.edu           |
#              |           michael.spira@psi.ch                     |
#              |           abdelhak.djouadi@cern.ch                 |
#              ------------------------------------------------------
#
#              ------------------------------------------------------
#              |  SUSY Les Houches Accord - MSSM Spectrum + Decays  |
#              |              based on the decay programs           |
#              |                                                    |
#              |                     SDECAY 1.5                     |
#              |                                                    |
#              |  Authors: M.Muhlleitner, A.Djouadi and Y.Mambrini  |
#              |  Ref.:    Comput.Phys.Commun.168(2005)46           |
#              |           [hep-ph/0311167]                         |
#              |                                                    |
#              |                     HDECAY 3.4                     |
#              |                                                    |
#              |  By: A.Djouadi,J.Kalinowski,M.Muhlleitner,M.Spira  |
#              |  Ref.:    Comput.Phys.Commun.108(1998)56           |
#              |           [hep-ph/9704448]                         |
#              |                                                    |
#              |                                                    |
#              |  If not stated otherwise all DRbar couplings and   |
#              |  soft SUSY breaking masses are given at the scale  |
#              |  Q=  0.16419475E+04
#              |                                                    |
#              ------------------------------------------------------
#
#
BLOCK DCINFO  # Decay Program information
     1   SDECAY/HDECAY # decay calculator
     2   1.5  /3.4    # version number
#
BLOCK SPINFO  # Spectrum calculator information
     1    SOFTSUSY    # spectrum calculator                
     2    3.7.3       # version number                     
#
BLOCK MODSEL  # Model selection
     1     0   #  nonUniversal                                     
#
BLOCK SMINPUTS  # Standard Model inputs
         1     1.27934000E+02   # alpha_em^-1(M_Z)^MSbar
         2     1.16639000E-05   # G_F [GeV^-2]
         3     1.17200000E-01   # alpha_S(M_Z)^MSbar
         4     9.11870000E+01   # M_Z pole mass
         5     4.19000000E+00   # mb(mb)^MSbar
         6     1.72500000E+02   # mt pole mass
         7     1.77690000E+00   # mtau pole mass
#
BLOCK MINPAR  # Input parameters - minimal models
         3     2.00000000E+01   # tanb                
#
BLOCK EXTPAR  # Input parameters - non-minimal models
         0    -1.00000000E+00   # Set                 
         1     4.99000000E+01   # M_1(MX)             
         2     9.99000000E+01   # M_2(MX)             
         3     2.20000000E+03   # M_3(MX)             
        11     2.94338000E+03   # At(MX)              
        12     0.00000000E+00   # Ab(MX)              
        13     0.00000000E+00   # Atau(MX)            
        23    -3.00000000E+03   # mu(MX)              
        25     2.00000000E+01   # tan                 
        26     3.00000000E+03   # mA(pole)            
        31     3.00000000E+03   # meL(MX)             
        32     3.00000000E+03   # mmuL(MX)            
        33     3.00000000E+03   # mtauL(MX)           
        34     3.00000000E+03   # meR(MX)             
        35     3.00000000E+03   # mmuR(MX)            
        36     3.00000000E+03   # mtauR(MX)           
        41     3.00000000E+03   # mqL1(MX)            
        42     3.00000000E+03   # mqL2(MX)            
        43     8.99900000E+02   # mqL3(MX)            
        44     3.00000000E+03   # muR(MX)             
        45     3.00000000E+03   # mcR(MX)             
        46     3.00000000E+03   # mtR(MX)             
        47     3.00000000E+03   # mdR(MX)             
        48     3.00000000E+03   # msR(MX)             
        49     3.00000000E+03   # mbR(MX)             
#
BLOCK MASS  # Mass Spectrum
# PDG code           mass       particle
        24     8.03976613E+01   # W+
        25     1.25195585E+02   # h
        35     3.00002179E+03   # H
        36     2.99999994E+03   # A
        37     3.00110121E+03   # H+
         5     4.81337004E+00   # b-quark pole mass calculated from mb(mb)_Msbar
   1000001     3.04048334E+03   # ~d_L
   2000001     3.03521824E+03   # ~d_R
   1000002     3.03956235E+03   # ~u_L
   2000002     3.03665847E+03   # ~u_R
   1000003     3.04048334E+03   # ~s_L
   2000003     3.03521824E+03   # ~s_R
   1000004     3.03956235E+03   # ~c_L
   2000004     3.03665847E+03   # ~c_R
   1000005     9.96242208E+02   # ~b_1
   2000005     3.03282250E+03   # ~b_2
   1000006     9.94160899E+02   # ~t_1
   2000006     3.02404862E+03   # ~t_2
   1000011     3.00657567E+03   # ~e_L
   2000011     3.00172050E+03   # ~e_R
   1000012     3.00516999E+03   # ~nu_eL
   1000013     3.00657567E+03   # ~mu_L
   2000013     3.00172050E+03   # ~mu_R
   1000014     3.00516999E+03   # ~nu_muL
   1000015     2.98595990E+03   # ~tau_1
   2000015     3.02191183E+03   # ~tau_2
   1000016     3.00505397E+03   # ~nu_tauL
   1000021     2.35014911E+03   # ~g
   1000022     5.04929229E+01   # ~chi_10
   1000023     1.10595859E+02   # ~chi_20
   1000025    -2.99583427E+03   # ~chi_30
   1000035     2.99598693E+03   # ~chi_40
   1000024     1.10747556E+02   # ~chi_1+
   1000037     2.99685627E+03   # ~chi_2+
#
BLOCK NMIX  # Neutralino Mixing Matrix
  1  1     9.99890646E-01   # N_11
  1  2     1.91243510E-03   # N_12
  1  3    -1.46560380E-02   # N_13
  1  4     4.89166825E-04   # N_14
  2  1    -1.52987407E-03   # N_21
  2  2     9.99659244E-01   # N_22
  2  3     2.60550650E-02   # N_23
  2  4    -4.34664370E-04   # N_24
  3  1     1.00485935E-02   # N_31
  3  2    -1.80989640E-02   # N_32
  3  3     7.06792659E-01   # N_33
  3  4     7.07117806E-01   # N_34
  4  1    -1.07415733E-02   # N_41
  4  2     1.87127217E-02   # N_42
  4  3    -7.06788845E-01   # N_43
  4  4     7.07095454E-01   # N_44
#
BLOCK UMIX  # Chargino Mixing Matrix U
  1  1     9.99322534E-01   # U_11
  1  2     3.68031636E-02   # U_12
  2  1    -3.68031636E-02   # U_21
  2  2     9.99322534E-01   # U_22
#
BLOCK VMIX  # Chargino Mixing Matrix V
  1  1     9.99999811E-01   # V_11
  1  2     6.15220912E-04   # V_12
  2  1     6.15220912E-04   # V_21
  2  2    -9.99999811E-01   # V_22
#
BLOCK STOPMIX  # Stop Mixing Matrix
  1  1     9.98481420E-01   # cos(theta_t)
  1  2    -5.50895082E-02   # sin(theta_t)
  2  1     5.50895082E-02   # -sin(theta_t)
  2  2     9.98481420E-01   # cos(theta_t)
#
BLOCK SBOTMIX  # Sbottom Mixing Matrix
  1  1     9.99697888E-01   # cos(theta_b)
  1  2    -2.45791116E-02   # sin(theta_b)
  2  1     2.45791116E-02   # -sin(theta_b)
  2  2     9.99697888E-01   # cos(theta_b)
#
BLOCK STAUMIX  # Stau Mixing Matrix
  1  1    -7.06886372E-01   # cos(theta_tau)
  1  2     7.07327122E-01   # sin(theta_tau)
  2  1    -7.07327122E-01   # -sin(theta_tau)
  2  2    -7.06886372E-01   # cos(theta_tau)
#
BLOCK ALPHA  # Higgs mixing
          -5.00192890E-02   # Mixing angle in the neutral Higgs boson sector
#
BLOCK HMIX Q=  1.64194747E+03  # DRbar Higgs Parameters
         1    -3.00000000E+03   # mu(Q)MSSM           
         2     2.00000000E+01   # tan                 
         3     2.43932140E+02   # higgs               
         4     1.02151033E+07   # mA^2(Q)MSSM         
#
BLOCK GAUGE Q=  1.64194747E+03  # The gauge couplings
     1     3.62412410E-01   # gprime(Q) DRbar
     2     6.41698322E-01   # g(Q) DRbar
     3     1.02430400E+00   # g3(Q) DRbar
#
BLOCK AU Q=  1.64194747E+03  # The trilinear couplings
  1  1     2.55969495E-06   # A_u(Q) DRbar
  2  2     2.55973525E-06   # A_c(Q) DRbar
  3  3     2.94338000E+03   # A_t(Q) DRbar
#
BLOCK AD Q=  1.64194747E+03  # The trilinear couplings
  1  1     8.85384544E-07   # A_d(Q) DRbar
  2  2     8.85495220E-07   # A_s(Q) DRbar
  3  3     1.86531800E-06   # A_b(Q) DRbar
#
BLOCK AE Q=  1.64194747E+03  # The trilinear couplings
  1  1     4.15610813E-07   # A_e(Q) DRbar
  2  2     4.15631799E-07   # A_mu(Q) DRbar
  3  3     4.21653972E-07   # A_tau(Q) DRbar
#
BLOCK Yu Q=  1.64194747E+03  # The Yukawa couplings
  1  1     0.00000000E+00   # y_u(Q) DRbar
  2  2     0.00000000E+00   # y_c(Q) DRbar
  3  3     8.50701092E-01   # y_t(Q) DRbar
#
BLOCK Yd Q=  1.64194747E+03  # The Yukawa couplings
  1  1     0.00000000E+00   # y_d(Q) DRbar
  2  2     0.00000000E+00   # y_s(Q) DRbar
  3  3     3.89740628E-01   # y_b(Q) DRbar
#
BLOCK Ye Q=  1.64194747E+03  # The Yukawa couplings
  1  1     0.00000000E+00   # y_e(Q) DRbar
  2  2     0.00000000E+00   # y_mu(Q) DRbar
  3  3     2.03876027E-01   # y_tau(Q) DRbar
#
BLOCK MSOFT Q=  1.64194747E+03  # The soft SUSY breaking masses at the scale Q
         1     4.99000000E+01   # M_1(Q)              
         2     9.99000000E+01   # M_2(Q)              
         3     2.20000000E+03   # M_3(Q)              
        21    -3.41187024E+04   # M^2_Hd              
        22    -9.03644170E+06   # M^2_Hu              
        31     3.00000000E+03   # M_eL                
        32     3.00000000E+03   # M_muL               
        33     3.00000000E+03   # M_tauL              
        34     3.00000000E+03   # M_eR                
        35     3.00000000E+03   # M_muR               
        36     3.00000000E+03   # M_tauR              
        41     3.00000000E+03   # M_q1L               
        42     3.00000000E+03   # M_q2L               
        43     8.99899993E+02   # M_q3L               
        44     3.00000000E+03   # M_uR                
        45     3.00000000E+03   # M_cR                
        46     3.00000000E+03   # M_tR                
        47     3.00000000E+03   # M_dR                
        48     3.00000000E+03   # M_sR                
        49     3.00000000E+03   # M_bR                
#
#
#
#                             =================
#                             |The decay table|
#                             =================
#
# - The QCD corrections to the decays gluino -> squark  + quark
#                                     squark -> gaugino + quark_prime
#                                     squark -> squark_prime + Higgs
#                                     squark -> gluino  + quark
#   are included.
#
# - The multi-body decays for the inos, stops and sbottoms are included.
#
# - The loop induced decays for the gluino, neutralinos and stops
#   are included.
#
# - The SUSY decays of the top quark are included.
#
#
#         PDG            Width
DECAY         6     1.42946008E+00   # top decays
#          BR         NDA      ID1       ID2
     1.00000000E+00    2           5        24   # BR(t ->  b    W+)
#
#         PDG            Width
DECAY   1000021     6.43553136E+01   # gluino decays
#          BR         NDA      ID1       ID2
     2.47926363E-01    2     1000005        -5   # BR(~g -> ~b_1  bb)
     2.47926363E-01    2    -1000005         5   # BR(~g -> ~b_1* b )
     2.52073637E-01    2     1000006        -6   # BR(~g -> ~t_1  tb)
     2.52073637E-01    2    -1000006         6   # BR(~g -> ~t_1* t )
#
#         PDG            Width
DECAY   1000006     1.20840084E+01   # stop1 decays
#          BR         NDA      ID1       ID2
     1.21832106E-02    2     1000022         6   # BR(~t_1 -> ~chi_10 t )
     3.17058689E-01    2     1000023         6   # BR(~t_1 -> ~chi_20 t )
     6.70758101E-01    2     1000024         5   # BR(~t_1 -> ~chi_1+ b )
#
#         PDG            Width
DECAY   2000006     1.13508936E+02   # stop2 decays
#          BR         NDA      ID1       ID2
     5.83831770E-02    2     1000022         6   # BR(~t_2 -> ~chi_10 t )
     2.64754593E-04    2     1000023         6   # BR(~t_2 -> ~chi_20 t )
     0.00000000E+00    2     1000025         6   # BR(~t_2 -> ~chi_30 t )
     5.33046327E-04    2     1000024         5   # BR(~t_2 -> ~chi_1+ b )
     1.32472863E-04    2     1000037         5   # BR(~t_2 -> ~chi_2+ b )
     2.97925787E-01    2     1000021         6   # BR(~t_2 -> ~g      t )
     1.66119969E-01    2     1000006        25   # BR(~t_2 -> ~t_1    h )
     1.60862049E-01    2     1000006        23   # BR(~t_2 -> ~t_1    Z )
     3.15778745E-01    2     1000005        24   # BR(~t_2 -> ~b_1    W+)
#
#         PDG            Width
DECAY   1000005     1.19218439E+01   # sbottom1 decays
#          BR         NDA      ID1       ID2
     1.22747698E-02    2     1000022         5   # BR(~b_1 -> ~chi_10 b )
     3.41658407E-01    2     1000023         5   # BR(~b_1 -> ~chi_20 b )
     6.46066823E-01    2    -1000024         6   # BR(~b_1 -> ~chi_1- t )
#
#         PDG            Width
DECAY   2000005     5.42611308E+01   # sbottom2 decays
#          BR         NDA      ID1       ID2
     3.07960368E-02    2     1000022         5   # BR(~b_2 -> ~chi_10 b )
     4.05435241E-07    2     1000023         5   # BR(~b_2 -> ~chi_20 b )
     5.31916720E-05    2     1000025         5   # BR(~b_2 -> ~chi_30 b )
     5.20257407E-05    2     1000035         5   # BR(~b_2 -> ~chi_40 b )
     8.26309354E-07    2    -1000024         6   # BR(~b_2 -> ~chi_1- t )
     6.39517034E-01    2     1000021         5   # BR(~b_2 -> ~g      b )
     7.23933057E-02    2     1000005        25   # BR(~b_2 -> ~b_1    h )
     1.04733221E-01    2     1000005        23   # BR(~b_2 -> ~b_1    Z )
     1.52453953E-01    2     1000006       -24   # BR(~b_2 -> ~t_1    W-)
#
#         PDG            Width
DECAY   1000002     7.10849474E+01   # sup_L decays
#          BR         NDA      ID1       ID2
     6.02095710E-03    2     1000022         2   # BR(~u_L -> ~chi_10 u)
     1.66051485E-01    2     1000023         2   # BR(~u_L -> ~chi_20 u)
     4.10119683E-08    2     1000025         2   # BR(~u_L -> ~chi_30 u)
     4.32001994E-08    2     1000035         2   # BR(~u_L -> ~chi_40 u)
     3.32518867E-01    2     1000024         1   # BR(~u_L -> ~chi_1+ d)
     1.12888916E-10    2     1000037         1   # BR(~u_L -> ~chi_2+ d)
     4.95408606E-01    2     1000021         2   # BR(~u_L -> ~g      u)
#
#         PDG            Width
DECAY   2000002     4.16869503E+01   # sup_R decays
#          BR         NDA      ID1       ID2
     1.60825696E-01    2     1000022         2   # BR(~u_R -> ~chi_10 u)
     3.75898678E-07    2     1000023         2   # BR(~u_R -> ~chi_20 u)
     1.33527072E-08    2     1000025         2   # BR(~u_R -> ~chi_30 u)
     1.51473117E-08    2     1000035         2   # BR(~u_R -> ~chi_40 u)
     8.39173899E-01    2     1000021         2   # BR(~u_R -> ~g      u)
#
#         PDG            Width
DECAY   1000001     7.11348929E+01   # sdown_L decays
#          BR         NDA      ID1       ID2
     5.77891203E-03    2     1000022         1   # BR(~d_L -> ~chi_10 d)
     1.66178253E-01    2     1000023         1   # BR(~d_L -> ~chi_20 d)
     6.49056590E-08    2     1000025         1   # BR(~d_L -> ~chi_30 d)
     6.93657368E-08    2     1000035         1   # BR(~d_L -> ~chi_40 d)
     3.31939359E-01    2    -1000024         2   # BR(~d_L -> ~chi_1- u)
     4.20642879E-07    2    -1000037         2   # BR(~d_L -> ~chi_2- u)
     4.96102922E-01    2     1000021         1   # BR(~d_L -> ~g      d)
#
#         PDG            Width
DECAY   2000001     3.65422048E+01   # sdown_R decays
#          BR         NDA      ID1       ID2
     4.58446516E-02    2     1000022         1   # BR(~d_R -> ~chi_10 d)
     1.07152744E-07    2     1000023         1   # BR(~d_R -> ~chi_20 d)
     3.55322560E-09    2     1000025         1   # BR(~d_R -> ~chi_30 d)
     4.02969810E-09    2     1000035         1   # BR(~d_R -> ~chi_40 d)
     9.54155234E-01    2     1000021         1   # BR(~d_R -> ~g      d)
#
#         PDG            Width
DECAY   1000004     7.10849474E+01   # scharm_L decays
#          BR         NDA      ID1       ID2
     6.02095710E-03    2     1000022         4   # BR(~c_L -> ~chi_10 c)
     1.66051485E-01    2     1000023         4   # BR(~c_L -> ~chi_20 c)
     4.10119683E-08    2     1000025         4   # BR(~c_L -> ~chi_30 c)
     4.32001994E-08    2     1000035         4   # BR(~c_L -> ~chi_40 c)
     3.32518867E-01    2     1000024         3   # BR(~c_L -> ~chi_1+ s)
     1.12888916E-10    2     1000037         3   # BR(~c_L -> ~chi_2+ s)
     4.95408606E-01    2     1000021         4   # BR(~c_L -> ~g      c)
#
#         PDG            Width
DECAY   2000004     4.16869503E+01   # scharm_R decays
#          BR         NDA      ID1       ID2
     1.60825696E-01    2     1000022         4   # BR(~c_R -> ~chi_10 c)
     3.75898678E-07    2     1000023         4   # BR(~c_R -> ~chi_20 c)
     1.33527072E-08    2     1000025         4   # BR(~c_R -> ~chi_30 c)
     1.51473117E-08    2     1000035         4   # BR(~c_R -> ~chi_40 c)
     8.39173899E-01    2     1000021         4   # BR(~c_R -> ~g      c)
#
#         PDG            Width
DECAY   1000003     7.11348929E+01   # sstrange_L decays
#          BR         NDA      ID1       ID2
     5.77891203E-03    2     1000022         3   # BR(~s_L -> ~chi_10 s)
     1.66178253E-01    2     1000023         3   # BR(~s_L -> ~chi_20 s)
     6.49056590E-08    2     1000025         3   # BR(~s_L -> ~chi_30 s)
     6.93657368E-08    2     1000035         3   # BR(~s_L -> ~chi_40 s)
     3.31939359E-01    2    -1000024         4   # BR(~s_L -> ~chi_1- c)
     4.20642879E-07    2    -1000037         4   # BR(~s_L -> ~chi_2- c)
     4.96102922E-01    2     1000021         3   # BR(~s_L -> ~g      s)
#
#         PDG            Width
DECAY   2000003     3.65422048E+01   # sstrange_R decays
#          BR         NDA      ID1       ID2
     4.58446516E-02    2     1000022         3   # BR(~s_R -> ~chi_10 s)
     1.07152744E-07    2     1000023         3   # BR(~s_R -> ~chi_20 s)
     3.55322560E-09    2     1000025         3   # BR(~s_R -> ~chi_30 s)
     4.02969810E-09    2     1000035         3   # BR(~s_R -> ~chi_40 s)
     9.54155234E-01    2     1000021         3   # BR(~s_R -> ~g      s)
#
#         PDG            Width
DECAY   1000011     4.07336502E+01   # selectron_L decays
#          BR         NDA      ID1       ID2
     9.70111508E-02    2     1000022        11   # BR(~e_L -> ~chi_10 e-)
     3.00785973E-01    2     1000023        11   # BR(~e_L -> ~chi_20 e-)
     2.37396928E-09    2     1000025        11   # BR(~e_L -> ~chi_30 e-)
     2.39041872E-09    2     1000035        11   # BR(~e_L -> ~chi_40 e-)
     6.02202838E-01    2    -1000024        12   # BR(~e_L -> ~chi_1- nu_e)
     3.41248385E-08    2    -1000037        12   # BR(~e_L -> ~chi_2- nu_e)
#
#         PDG            Width
DECAY   2000011     1.56746096E+01   # selectron_R decays
#          BR         NDA      ID1       ID2
     9.99997661E-01    2     1000022        11   # BR(~e_R -> ~chi_10 e-)
     2.33599143E-06    2     1000023        11   # BR(~e_R -> ~chi_20 e-)
     1.55128729E-09    2     1000025        11   # BR(~e_R -> ~chi_30 e-)
     1.68195883E-09    2     1000035        11   # BR(~e_R -> ~chi_40 e-)
#
#         PDG            Width
DECAY   1000013     4.07336502E+01   # smuon_L decays
#          BR         NDA      ID1       ID2
     9.70111508E-02    2     1000022        13   # BR(~mu_L -> ~chi_10 mu-)
     3.00785973E-01    2     1000023        13   # BR(~mu_L -> ~chi_20 mu-)
     2.37396928E-09    2     1000025        13   # BR(~mu_L -> ~chi_30 mu-)
     2.39041872E-09    2     1000035        13   # BR(~mu_L -> ~chi_40 mu-)
     6.02202838E-01    2    -1000024        14   # BR(~mu_L -> ~chi_1- nu_mu)
     3.41248385E-08    2    -1000037        14   # BR(~mu_L -> ~chi_2- nu_mu)
#
#         PDG            Width
DECAY   2000013     1.56746096E+01   # smuon_R decays
#          BR         NDA      ID1       ID2
     9.99997661E-01    2     1000022        13   # BR(~mu_R -> ~chi_10 mu-)
     2.33599143E-06    2     1000023        13   # BR(~mu_R -> ~chi_20 mu-)
     1.55128729E-09    2     1000025        13   # BR(~mu_R -> ~chi_30 mu-)
     1.68195883E-09    2     1000035        13   # BR(~mu_R -> ~chi_40 mu-)
#
#         PDG            Width
DECAY   1000015     2.84917447E+01   # stau_1 decays
#          BR         NDA      ID1       ID2
     3.44227444E-01    2     1000022        15   # BR(~tau_1 -> ~chi_10  tau-)
     2.18469802E-01    2     1000023        15   # BR(~tau_1 -> ~chi_20  tau-)
     4.37302754E-01    2    -1000024        16   # BR(~tau_1 -> ~chi_1-  nu_tau)
#
#         PDG            Width
DECAY   2000015     2.78955020E+01   # stau_2 decays
#          BR         NDA      ID1       ID2
     3.52283357E-01    2     1000022        15   # BR(~tau_2 -> ~chi_10  tau-)
     2.15749057E-01    2     1000023        15   # BR(~tau_2 -> ~chi_20  tau-)
     1.51522506E-05    2     1000025        15   # BR(~tau_2 -> ~chi_30  tau-)
     1.31068673E-05    2     1000035        15   # BR(~tau_2 -> ~chi_40  tau-)
     4.31924145E-01    2    -1000024        16   # BR(~tau_2 -> ~chi_1-  nu_tau)
     1.51822586E-05    2    -1000037        16   # BR(~tau_2 -> ~chi_2-  nu_tau)
#
#         PDG            Width
DECAY   1000012     4.07370227E+01   # snu_eL decays
#          BR         NDA      ID1       ID2
     9.56531447E-02    2     1000022        12   # BR(~nu_eL -> ~chi_10 nu_e)
     3.01660822E-01    2     1000023        12   # BR(~nu_eL -> ~chi_20 nu_e)
     6.57230594E-09    2     1000025        12   # BR(~nu_eL -> ~chi_30 nu_e)
     6.90854484E-09    2     1000035        12   # BR(~nu_eL -> ~chi_40 nu_e)
     6.02686020E-01    2     1000024        11   # BR(~nu_eL -> ~chi_1+ e-)
     6.98303607E-12    2     1000037        11   # BR(~nu_eL -> ~chi_2+ e-)
#
#         PDG            Width
DECAY   1000014     4.07370227E+01   # snu_muL decays
#          BR         NDA      ID1       ID2
     9.56531447E-02    2     1000022        14   # BR(~nu_muL -> ~chi_10 nu_mu)
     3.01660822E-01    2     1000023        14   # BR(~nu_muL -> ~chi_20 nu_mu)
     6.57230594E-09    2     1000025        14   # BR(~nu_muL -> ~chi_30 nu_mu)
     6.90854484E-09    2     1000035        14   # BR(~nu_muL -> ~chi_40 nu_mu)
     6.02686020E-01    2     1000024        13   # BR(~nu_muL -> ~chi_1+ mu-)
     6.98303607E-12    2     1000037        13   # BR(~nu_muL -> ~chi_2+ mu-)
#
#         PDG            Width
DECAY   1000016     4.07388785E+01   # snu_tauL decays
#          BR         NDA      ID1       ID2
     9.56450905E-02    2     1000022        16   # BR(~nu_tauL -> ~chi_10 nu_tau)
     3.01635371E-01    2     1000023        16   # BR(~nu_tauL -> ~chi_20 nu_tau)
     6.41016841E-09    2     1000025        16   # BR(~nu_tauL -> ~chi_30 nu_tau)
     6.73529348E-09    2     1000035        16   # BR(~nu_tauL -> ~chi_40 nu_tau)
     6.02717759E-01    2     1000024        15   # BR(~nu_tauL -> ~chi_1+ tau-)
     1.76668528E-06    2     1000037        15   # BR(~nu_tauL -> ~chi_2+ tau-)
#
#         PDG            Width
DECAY   1000024     7.62417867E-09   # chargino1+ decays
#           BR         NDA      ID1       ID2       ID3
     3.39903855E-01    3     1000022         2        -1   # BR(~chi_1+ -> ~chi_10 u    db)
     1.72035834E-08    3     1000023         2        -1   # BR(~chi_1+ -> ~chi_20 u    db)
     3.39903855E-01    3     1000022         4        -3   # BR(~chi_1+ -> ~chi_10 c    sb)
     1.72035834E-08    3     1000023         4        -3   # BR(~chi_1+ -> ~chi_20 c    sb)
     1.06884205E-01    3     1000022       -11        12   # BR(~chi_1+ -> ~chi_10 e+   nu_e)
     5.73461963E-09    3     1000023       -11        12   # BR(~chi_1+ -> ~chi_20 e+   nu_e)
     1.06884205E-01    3     1000022       -13        14   # BR(~chi_1+ -> ~chi_10 mu+  nu_mu)
     5.73461963E-09    3     1000023       -13        14   # BR(~chi_1+ -> ~chi_20 mu+  nu_mu)
     1.06423835E-01    3     1000022       -15        16   # BR(~chi_1+ -> ~chi_10 tau+ nu_tau)
#
#         PDG            Width
DECAY   1000037     8.81818120E+01   # chargino2+ decays
#          BR         NDA      ID1       ID2
     1.36624776E-01    2     1000006        -5   # BR(~chi_2+ -> ~t_1     bb)
     6.41694923E-01    2    -1000005         6   # BR(~chi_2+ -> ~b_1*    t )
     2.89161521E-07    2    -1000015        16   # BR(~chi_2+ -> ~tau_1+  nu_tau)
     6.68056152E-02    2     1000024        23   # BR(~chi_2+ -> ~chi_1+  Z )
     2.10331315E-02    2     1000022        24   # BR(~chi_2+ -> ~chi_10  W+)
     6.50884292E-02    2     1000023        24   # BR(~chi_2+ -> ~chi_20  W+)
     6.87528364E-02    2     1000024        25   # BR(~chi_2+ -> ~chi_1+  h )
#
#         PDG            Width
DECAY   1000022     0.00000000E+00   # neutralino1 decays
#
#         PDG            Width
DECAY   1000023     6.52009784E-10   # neutralino2 decays
#          BR         NDA      ID1       ID2
     1.28649905E-02    2     1000022        22   # BR(~chi_20 -> ~chi_10 gam)
#           BR         NDA      ID1       ID2       ID3
     6.46909150E-02    3     1000022        -2         2   # BR(~chi_20 -> ~chi_10 ub      u)
     8.04448904E-02    3     1000022        -1         1   # BR(~chi_20 -> ~chi_10 db      d)
     6.46909150E-02    3     1000022        -4         4   # BR(~chi_20 -> ~chi_10 cb      c)
     8.04448904E-02    3     1000022        -3         3   # BR(~chi_20 -> ~chi_10 sb      s)
     6.71569197E-01    3     1000022        -5         5   # BR(~chi_20 -> ~chi_10 bb      b)
     7.16143104E-03    3     1000022       -11        11   # BR(~chi_20 -> ~chi_10 e+      e-)
     7.16143104E-03    3     1000022       -13        13   # BR(~chi_20 -> ~chi_10 mu+     mu-)
     7.14534282E-03    3     1000022       -15        15   # BR(~chi_20 -> ~chi_10 tau+    tau-)
     1.27550404E-03    3     1000022       -12        12   # BR(~chi_20 -> ~chi_10 nu_eb   nu_e)
     1.27550404E-03    3     1000022       -14        14   # BR(~chi_20 -> ~chi_10 nu_mub  nu_mu)
     1.27498847E-03    3     1000022       -16        16   # BR(~chi_20 -> ~chi_10 nu_taub nu_tau)
#
#         PDG            Width
DECAY   1000025     8.86151922E+01   # neutralino3 decays
#          BR         NDA      ID1       ID2
     1.12844440E-02    2     1000022        23   # BR(~chi_30 -> ~chi_10   Z )
     3.44051360E-02    2     1000023        23   # BR(~chi_30 -> ~chi_20   Z )
     6.48936452E-02    2     1000024       -24   # BR(~chi_30 -> ~chi_1+   W-)
     6.48936452E-02    2    -1000024        24   # BR(~chi_30 -> ~chi_1-   W+)
     9.50576911E-03    2     1000022        25   # BR(~chi_30 -> ~chi_10   h )
     2.87947425E-02    2     1000023        25   # BR(~chi_30 -> ~chi_20   h )
     3.25991527E-01    2     1000006        -6   # BR(~chi_30 -> ~t_1      tb)
     3.25991527E-01    2    -1000006         6   # BR(~chi_30 -> ~t_1*     t )
     6.71194570E-02    2     1000005        -5   # BR(~chi_30 -> ~b_1      bb)
     6.71194570E-02    2    -1000005         5   # BR(~chi_30 -> ~b_1*     b )
     3.25346547E-07    2     1000015       -15   # BR(~chi_30 -> ~tau_1-   tau+)
     3.25346547E-07    2    -1000015        15   # BR(~chi_30 -> ~tau_1+   tau-)
#
#         PDG            Width
DECAY   1000035     8.80469693E+01   # neutralino4 decays
#          BR         NDA      ID1       ID2
     9.94005284E-03    2     1000022        23   # BR(~chi_40 -> ~chi_10   Z )
     3.24086789E-02    2     1000023        23   # BR(~chi_40 -> ~chi_20   Z )
     6.53120790E-02    2     1000024       -24   # BR(~chi_40 -> ~chi_1+   W-)
     6.53120790E-02    2    -1000024        24   # BR(~chi_40 -> ~chi_1-   W+)
     1.25019319E-02    2     1000022        25   # BR(~chi_40 -> ~chi_10   h )
     4.10456775E-02    2     1000023        25   # BR(~chi_40 -> ~chi_20   h )
     3.19174973E-01    2     1000006        -6   # BR(~chi_40 -> ~t_1      tb)
     3.19174973E-01    2    -1000006         6   # BR(~chi_40 -> ~t_1*     t )
     6.75645427E-02    2     1000005        -5   # BR(~chi_40 -> ~b_1      bb)
     6.75645427E-02    2    -1000005         5   # BR(~chi_40 -> ~b_1*     b )
     2.34624250E-07    2     1000015       -15   # BR(~chi_40 -> ~tau_1-   tau+)
     2.34624250E-07    2    -1000015        15   # BR(~chi_40 -> ~tau_1+   tau-)
#
#         PDG            Width
DECAY        25     3.66661192E-03   # h decays
#          BR         NDA      ID1       ID2
     5.63059273E-01    2           5        -5   # BR(h -> b       bb     )
     7.08436662E-02    2         -15        15   # BR(h -> tau+    tau-   )
     2.50787731E-04    2         -13        13   # BR(h -> mu+     mu-    )
     5.32136542E-04    2           3        -3   # BR(h -> s       sb     )
     2.31182238E-02    2           4        -4   # BR(h -> c       cb     )
     7.53193593E-02    2          21        21   # BR(h -> g       g      )
     2.57974563E-03    2          22        22   # BR(h -> gam     gam    )
     1.73407646E-03    2          22        23   # BR(h -> Z       gam    )
     2.33286371E-01    2          24       -24   # BR(h -> W+      W-     )
     2.92509913E-02    2          23        23   # BR(h -> Z       Z      )
     2.53696170E-05    2     1000022   1000022   # BR(h -> ~chi_10 ~chi_10)
#
#         PDG            Width
DECAY        35     3.53188526E+01   # H decays
#          BR         NDA      ID1       ID2
     8.96335833E-01    2           5        -5   # BR(H -> b       bb     )
     7.04075375E-02    2         -15        15   # BR(H -> tau+    tau-   )
     2.48944227E-04    2         -13        13   # BR(H -> mu+     mu-    )
     3.05705116E-04    2           3        -3   # BR(H -> s       sb     )
     8.57043137E-08    2           4        -4   # BR(H -> c       cb     )
     8.54955034E-03    2           6        -6   # BR(H -> t       tb     )
     1.20673732E-05    2          21        21   # BR(H -> g       g      )
     7.20447447E-08    2          22        22   # BR(H -> gam     gam    )
     3.49307835E-09    2          23        22   # BR(H -> Z       gam    )
     9.26238549E-07    2          24       -24   # BR(H -> W+      W-     )
     4.62548061E-07    2          23        23   # BR(H -> Z       Z      )
     5.92589908E-06    2          25        25   # BR(H -> h       h      )
    -4.12945978E-24    2          36        36   # BR(H -> A       A      )
     2.63377275E-20    2          23        36   # BR(H -> Z       A      )
     9.64160316E-04    2     1000024  -1000024   # BR(H -> ~chi_1+ ~chi_1-)
     4.36807717E-05    2     1000022   1000022   # BR(H -> ~chi_10 ~chi_10)
     4.83714685E-04    2     1000023   1000023   # BR(H -> ~chi_20 ~chi_20)
     2.91040177E-04    2     1000022   1000023   # BR(H -> ~chi_10 ~chi_20)
     2.23449472E-02    2     1000006  -1000006   # BR(H -> ~t_1    ~t_1*  )
     5.34327957E-06    2     1000005  -1000005   # BR(H -> ~b_1    ~b_1*  )
#
#         PDG            Width
DECAY        36     3.45334428E+01   # A decays
#          BR         NDA      ID1       ID2
     9.16760112E-01    2           5        -5   # BR(A -> b       bb     )
     7.20088633E-02    2         -15        15   # BR(A -> tau+    tau-   )
     2.54605777E-04    2         -13        13   # BR(A -> mu+     mu-    )
     3.12708763E-04    2           3        -3   # BR(A -> s       sb     )
     8.82419805E-08    2           4        -4   # BR(A -> c       cb     )
     8.79785917E-03    2           6        -6   # BR(A -> t       tb     )
     2.59088534E-05    2          21        21   # BR(A -> g       g      )
     5.31582139E-08    2          22        22   # BR(A -> gam     gam    )
     2.55073757E-08    2          23        22   # BR(A -> Z       gam    )
     9.43778071E-07    2          23        25   # BR(A -> Z       h      )
     9.94812287E-04    2     1000024  -1000024   # BR(A -> ~chi_1+ ~chi_1-)
     4.50245821E-05    2     1000022   1000022   # BR(A -> ~chi_10 ~chi_10)
     4.99082882E-04    2     1000023   1000023   # BR(A -> ~chi_20 ~chi_20)
     2.99911903E-04    2     1000022   1000023   # BR(A -> ~chi_10 ~chi_20)
#
#         PDG            Width
DECAY        37     3.76655413E+01   # H+ decays
#          BR         NDA      ID1       ID2
     1.46237016E-03    2           4        -5   # BR(H+ -> c       bb     )
     6.60451630E-02    2         -15        16   # BR(H+ -> tau+    nu_tau )
     2.33519587E-04    2         -13        14   # BR(H+ -> mu+     nu_mu  )
     9.35915749E-06    2           2        -5   # BR(H+ -> u       bb     )
     1.37233430E-05    2           2        -3   # BR(H+ -> u       sb     )
     2.82333295E-04    2           4        -3   # BR(H+ -> c       sb     )
     9.20569827E-01    2           6        -5   # BR(H+ -> t       bb     )
     8.66793660E-07    2          24        25   # BR(H+ -> W+      h      )
     5.65836838E-14    2          24        36   # BR(H+ -> W+      A      )
     5.50611996E-04    2     1000024   1000022   # BR(H+ -> ~chi_1+ ~chi_10)
     1.28794669E-09    2     1000024   1000023   # BR(H+ -> ~chi_1+ ~chi_20)
     1.08322247E-02    2     1000006  -1000005   # BR(H+ -> ~t_1    ~b_1*  )
