#
#                              ======================
#                              | THE SUSYHIT OUTPUT |
#                              ======================
#
#
#              ------------------------------------------------------
#              |     This is the output of the SUSY-HIT package     |
#              |  created by A.Djouadi, M.Muehlleitner and M.Spira. |
#              |  In case of problems with SUSY-HIT email to        |
#              |           margarete.muehlleitner@kit.edu           |
#              |           michael.spira@psi.ch                     |
#              |           abdelhak.djouadi@cern.ch                 |
#              ------------------------------------------------------
#
#              ------------------------------------------------------
#              |  SUSY Les Houches Accord - MSSM Spectrum + Decays  |
#              |              based on the decay programs           |
#              |                                                    |
#              |                     SDECAY 1.5a                    |
#              |                                                    |
#              |  Authors: M.Muhlleitner, A.Djouadi and Y.Mambrini  |
#              |  Ref.:    Comput.Phys.Commun.168(2005)46           |
#              |           [hep-ph/0311167]                         |
#              |                                                    |
#              |                     HDECAY 3.4                     |
#              |                                                    |
#              |  By: A.Djouadi,J.Kalinowski,M.Muhlleitner,M.Spira  |
#              |  Ref.:    Comput.Phys.Commun.108(1998)56           |
#              |           [hep-ph/9704448]                         |
#              |                                                    |
#              |                                                    |
#              |  If not stated otherwise all DRbar couplings and   |
#              |  soft SUSY breaking masses are given at the scale  |
#              |  Q=  0.91187600E+02
#              |                                                    |
#              ------------------------------------------------------
#
#
BLOCK DCINFO  # Decay Program information
     1   SDECAY/HDECAY # decay calculator
     2   1.5a /3.4    # version number
#
BLOCK SPINFO  # Spectrum calculator information
     1   SuSpect     # RGE +Spectrum calculator            
     2   2.43         # version number                     
#
BLOCK MODSEL  # Model selection
     1     2   # GMSB                                              
#
BLOCK SMINPUTS  # Standard Model inputs
         1     1.27932904E+02   # alpha_em^-1(M_Z)^MSbar
         2     1.16639000E-05   # G_F [GeV^-2]
         3     1.17200000E-01   # alpha_S(M_Z)^MSbar
         4     9.11870000E+01   # M_Z pole mass
         5     4.25000000E+00   # mb(mb)^MSbar
         6     1.72900000E+02   # mt pole mass
         7     1.77700000E+00   # mtau pole mass
#
BLOCK MINPAR  # Input parameters - minimal models
#
BLOCK EXTPAR  # Input parameters - non-minimal models
         0     9.11876000E+01   # EWSB                
         1     2.63889039E+02   # M_1                 
         2     3.00000000E+03   # M_2                 
         3     1.40000000E+03   # M_3                 
        11     0.00000000E+00   # A_t                 
        12     0.00000000E+00   # A_b                 
        13     0.00000000E+00   # A_tau               
        14     0.00000000E+00   # A_u                 
        15     0.00000000E+00   # A_d                 
        16     0.00000000E+00   # A_e                 
        23    -2.50000000E+02   # mu(EWSB)            
        25     1.50000000E+00   # tanbeta(in)         
        26     2.00000000E+03   # MA_pole             
        31     5.00000000E+03   # M_eL                
        32     5.00000000E+03   # M_muL               
        33     5.00000000E+03   # M_tauL              
        34     5.00000000E+03   # M_eR                
        35     5.00000000E+03   # M_muR               
        36     5.00000000E+03   # M_tauR              
        41     5.00000000E+03   # M_q1L               
        42     5.00000000E+03   # M_q2L               
        43     5.00000000E+03   # M_q3L               
        44     5.00000000E+03   # M_uR                
        45     5.00000000E+03   # M_cR                
        46     5.00000000E+03   # M_tR                
        47     5.00000000E+03   # M_dR                
        48     5.00000000E+03   # M_sR                
        49     5.00000000E+03   # M_bR                
#
BLOCK MASS  # Mass Spectrum
# PDG code           mass       particle
        24     8.05375442E+01   # W+
        25     1.25000000E+02   # h
        35     2.00414639E+03   # H
        36     2.00000000E+03   # A
        37     2.00195028E+03   # H+
         5     4.87877839E+00   # b-quark pole mass calculated from mb(mb)_Msbar
   1000001     5.00013312E+03   # ~d_L
   2000001     5.00002531E+03   # ~d_R
   1000002     4.99989218E+03   # ~u_L
   2000002     4.99994938E+03   # ~u_R
   1000003     5.00013312E+03   # ~s_L
   2000003     5.00002531E+03   # ~s_R
   1000004     4.99989218E+03   # ~c_L
   2000004     4.99994938E+03   # ~c_R
   1000005     4.99996556E+03   # ~b_1
   2000005     5.00019432E+03   # ~b_2
   1000006     4.99969876E+03   # ~t_1
   2000006     5.00476611E+03   # ~t_2
   1000011     5.00008251E+03   # ~e_L
   2000011     5.00007592E+03   # ~e_R
   1000012     4.99984157E+03   # ~nu_eL
   1000013     5.00008251E+03   # ~mu_L
   2000013     5.00007592E+03   # ~mu_R
   1000014     4.99984157E+03   # ~nu_muL
   1000015     5.00001283E+03   # ~tau_1
   2000015     5.00014624E+03   # ~tau_2
   1000016     4.99984157E+03   # ~nu_tauL
   1000021     1.40000000E+03   # ~g
   1000022     2.46381920E+02   # ~chi_10
   1000023    -2.55507115E+02   # ~chi_20
   1000025     2.71073971E+02   # ~chi_30
   1000035     3.00194026E+03   # ~chi_40
   1000024     2.51764716E+02   # ~chi_1+
   1000037     3.00193994E+03   # ~chi_2+
   1000039     1.00000000E-09   # ~gravitino
#
BLOCK NMIX  # Neutralino Mixing Matrix
  1  1     3.76768079E-01   # N_11
  1  2    -4.26724824E-03   # N_12
  1  3    -6.78411923E-01   # N_13
  1  4    -6.30701886E-01   # N_14
  2  1     8.35996569E-02   # N_21
  2  2    -2.37600530E-02   # N_22
  2  3     7.02894658E-01   # N_23
  2  4    -7.05964346E-01   # N_24
  3  1     9.22527373E-01   # N_31
  3  2     4.32686148E-03   # N_32
  3  3     2.13378307E-01   # N_33
  3  4     3.21549720E-01   # N_34
  4  1     3.97672570E-04   # N_41
  4  2    -9.99699219E-01   # N_42
  4  3    -1.28864798E-02   # N_43
  4  4     2.08626880E-02   # N_44
#
BLOCK UMIX  # Chargino Mixing Matrix U
  1  1    -1.82170155E-02   # U_11
  1  2     9.99834056E-01   # U_12
  2  1     9.99834056E-01   # U_21
  2  2     1.82170155E-02   # U_22
#
BLOCK VMIX  # Chargino Mixing Matrix V
  1  1     2.95021581E-02   # V_11
  1  2    -9.99564717E-01   # V_12
  2  1     9.99564717E-01   # V_21
  2  2     2.95021581E-02   # V_22
#
BLOCK STOPMIX  # Stop Mixing Matrix
  1  1     7.11084658E-01   # cos(theta_t)
  1  2    -7.03106400E-01   # sin(theta_t)
  2  1     7.03106400E-01   # -sin(theta_t)
  2  2     7.11084658E-01   # cos(theta_t)
#
BLOCK SBOTMIX  # Sbottom Mixing Matrix
  1  1    -5.14152254E-01   # cos(theta_b)
  1  2     8.57698933E-01   # sin(theta_b)
  2  1    -8.57698933E-01   # -sin(theta_b)
  2  2    -5.14152254E-01   # cos(theta_b)
#
BLOCK STAUMIX  # Stau Mixing Matrix
  1  1    -6.89440958E-01   # cos(theta_tau)
  1  2     7.24341884E-01   # sin(theta_tau)
  2  1    -7.24341884E-01   # -sin(theta_tau)
  2  2    -6.89440958E-01   # cos(theta_tau)
#
BLOCK ALPHA  # Higgs mixing
          -5.90203090E-01   # Mixing angle in the neutral Higgs boson sector
#
BLOCK HMIX Q=  9.11876000E+01  # DRbar Higgs Parameters
         1    -2.50000000E+02   # mu(Q)               
         2     1.49999979E+00   # tanbeta(Q)          
         3     2.51687252E+02   # vev(Q)              
         4     4.02977854E+06   # MA^2(Q)             
#
BLOCK GAUGE Q=  9.11876000E+01  # The gauge couplings
     1     3.53058702E-01   # gprime(Q) DRbar
     2     6.28940772E-01   # g(Q) DRbar
     3     1.08619213E+00   # g3(Q) DRbar
#
BLOCK AU Q=  9.11876000E+01  # The trilinear couplings
  1  1     0.00000000E+00   # A_u(Q) DRbar
  2  2     0.00000000E+00   # A_c(Q) DRbar
  3  3     0.00000000E+00   # A_t(Q) DRbar
#
BLOCK AD Q=  9.11876000E+01  # The trilinear couplings
  1  1     0.00000000E+00   # A_d(Q) DRbar
  2  2     0.00000000E+00   # A_s(Q) DRbar
  3  3     0.00000000E+00   # A_b(Q) DRbar
#
BLOCK AE Q=  9.11876000E+01  # The trilinear couplings
  1  1     0.00000000E+00   # A_e(Q) DRbar
  2  2     0.00000000E+00   # A_mu(Q) DRbar
  3  3     0.00000000E+00   # A_tau(Q) DRbar
#
BLOCK Yu Q=  9.11876000E+01  # The Yukawa couplings
  1  1     0.00000000E+00   # y_u(Q) DRbar
  2  2     0.00000000E+00   # y_c(Q) DRbar
  3  3     1.02700492E+00   # y_t(Q) DRbar
#
BLOCK Yd Q=  9.11876000E+01  # The Yukawa couplings
  1  1     0.00000000E+00   # y_d(Q) DRbar
  2  2     0.00000000E+00   # y_s(Q) DRbar
  3  3     2.72508688E-02   # y_b(Q) DRbar
#
BLOCK Ye Q=  9.11876000E+01  # The Yukawa couplings
  1  1     0.00000000E+00   # y_e(Q) DRbar
  2  2     0.00000000E+00   # y_mu(Q) DRbar
  3  3     1.79970990E-02   # y_tau(Q) DRbar
#
BLOCK MSOFT Q=  9.11876000E+01  # The soft SUSY breaking masses at the scale Q
         1     2.63889039E+02   # M_1                 
         2     3.00000000E+03   # M_2                 
         3     1.40000000E+03   # M_3                 
        14     0.00000000E+00   # A_u                 
        15     0.00000000E+00   # A_d                 
        16     0.00000000E+00   # A_e                 
        21     2.99508689E+06   # M^2_Hd              
        22    -5.54467380E+06   # M^2_Hu              
        31     5.00000000E+03   # M_eL                
        32     5.00000000E+03   # M_muL               
        33     5.00000000E+03   # M_tauL              
        34     5.00000000E+03   # M_eR                
        35     5.00000000E+03   # M_muR               
        36     5.00000000E+03   # M_tauR              
        41     5.00000000E+03   # M_q1L               
        42     5.00000000E+03   # M_q2L               
        43     5.00000000E+03   # M_q3L               
        44     5.00000000E+03   # M_uR                
        45     5.00000000E+03   # M_cR                
        46     5.00000000E+03   # M_tR                
        47     5.00000000E+03   # M_dR                
        48     5.00000000E+03   # M_sR                
        49     5.00000000E+03   # M_bR                
#
#
#
#                             =================
#                             |The decay table|
#                             =================
#
# - The QCD corrections to the decays gluino -> squark  + quark
#                                     squark -> gaugino + quark_prime
#                                     squark -> squark_prime + Higgs
#                                     squark -> gluino  + quark
#   are included.
#
# - The multi-body decays for the inos, stops and sbottoms are included.
#
# - The loop induced decays for the gluino, neutralinos and stops
#   are included.
#
# - The SUSY decays of the top quark are included.
#
# - Possible decays of the NLSP in GMSB models are included.
#
#
#         PDG            Width
DECAY         6     1.37836382E+00   # top decays
#          BR         NDA      ID1       ID2
     1.00000000E+00    2           5        24   # BR(t ->  b    W+)
#
#         PDG            Width
DECAY   1000021     5.30405455E-04   # gluino decays
#          BR         NDA      ID1       ID2
     1.47737466E-02    2     1000022        21   # BR(~g -> ~chi_10 g)
     1.82506352E-02    2     1000023        21   # BR(~g -> ~chi_20 g)
     3.74914004E-03    2     1000025        21   # BR(~g -> ~chi_30 g)
#          BR         NDA      ID1       ID2
     0.00000000E+00    2     1000039        21   # BR(~g -> ~G      g)
#           BR         NDA      ID1       ID2       ID3
     1.08690257E-03    3     1000022         1        -1   # BR(~g -> ~chi_10 d  db)
     6.13162745E-05    3     1000023         1        -1   # BR(~g -> ~chi_20 d  db)
     6.09326919E-03    3     1000025         1        -1   # BR(~g -> ~chi_30 d  db)
     3.58093823E-03    3     1000022         2        -2   # BR(~g -> ~chi_10 u  ub)
     9.64432912E-05    3     1000023         2        -2   # BR(~g -> ~chi_20 u  ub)
     2.09884937E-02    3     1000025         2        -2   # BR(~g -> ~chi_30 u  ub)
     1.08690257E-03    3     1000022         3        -3   # BR(~g -> ~chi_10 s  sb)
     6.13162745E-05    3     1000023         3        -3   # BR(~g -> ~chi_20 s  sb)
     6.09326919E-03    3     1000025         3        -3   # BR(~g -> ~chi_30 s  sb)
     3.58093823E-03    3     1000022         4        -4   # BR(~g -> ~chi_10 c  cb)
     9.64432912E-05    3     1000023         4        -4   # BR(~g -> ~chi_20 c  cb)
     2.09884937E-02    3     1000025         4        -4   # BR(~g -> ~chi_30 c  cb)
     1.27722839E-03    3     1000022         5        -5   # BR(~g -> ~chi_10 b  bb)
     2.42170189E-04    3     1000023         5        -5   # BR(~g -> ~chi_20 b  bb)
     6.09726439E-03    3     1000025         5        -5   # BR(~g -> ~chi_30 b  bb)
     1.58083742E-01    3     1000022         6        -6   # BR(~g -> ~chi_10 t  tb)
     1.87431585E-01    3     1000023         6        -6   # BR(~g -> ~chi_20 t  tb)
     7.11229106E-02    3     1000025         6        -6   # BR(~g -> ~chi_30 t  tb)
     3.05747443E-05    3     1000024         1        -2   # BR(~g -> ~chi_1+ d  ub)
     3.05747443E-05    3    -1000024         2        -1   # BR(~g -> ~chi_1- u  db)
     3.05747443E-05    3     1000024         3        -4   # BR(~g -> ~chi_1+ s  cb)
     3.05747443E-05    3    -1000024         4        -3   # BR(~g -> ~chi_1- c  sb)
     2.31680291E-01    3     1000024         5        -6   # BR(~g -> ~chi_1+ b  tb)
     2.31680291E-01    3    -1000024         6        -5   # BR(~g -> ~chi_1- t  bb)
#
#         PDG            Width
DECAY   1000006     3.41661839E+02   # stop1 decays
#          BR         NDA      ID1       ID2
     7.16312009E-02    2     1000022         6   # BR(~t_1 -> ~chi_10 t )
     9.95958185E-02    2     1000023         6   # BR(~t_1 -> ~chi_20 t )
     5.41570903E-02    2     1000025         6   # BR(~t_1 -> ~chi_30 t )
     1.22333419E-02    2     1000035         6   # BR(~t_1 -> ~chi_40 t )
     1.03453615E-01    2     1000024         5   # BR(~t_1 -> ~chi_1+ b )
     2.44190356E-02    2     1000037         5   # BR(~t_1 -> ~chi_2+ b )
     6.34509898E-01    2     1000021         6   # BR(~t_1 -> ~g      t )
#
#         PDG            Width
DECAY   2000006     3.49856703E+02   # stop2 decays
#          BR         NDA      ID1       ID2
     9.89214960E-02    2     1000022         6   # BR(~t_2 -> ~chi_10 t )
     1.08884078E-01    2     1000023         6   # BR(~t_2 -> ~chi_20 t )
     1.72713264E-02    2     1000025         6   # BR(~t_2 -> ~chi_30 t )
     1.04256854E-02    2     1000035         6   # BR(~t_2 -> ~chi_40 t )
     1.05885201E-01    2     1000024         5   # BR(~t_2 -> ~chi_1+ b )
     2.07992855E-02    2     1000037         5   # BR(~t_2 -> ~chi_2+ b )
     6.37812928E-01    2     1000021         6   # BR(~t_2 -> ~g      t )
#
#         PDG            Width
DECAY   1000005     2.79530272E+02   # sbottom1 decays
#          BR         NDA      ID1       ID2
     1.54941184E-03    2     1000022         5   # BR(~b_1 -> ~chi_10 b )
    -3.71929638E-05    2     1000023         5   # BR(~b_1 -> ~chi_20 b )
     4.35374430E-03    2     1000025         5   # BR(~b_1 -> ~chi_30 b )
     1.47071924E-02    2     1000035         5   # BR(~b_1 -> ~chi_40 b )
     1.62882626E-01    2    -1000024         6   # BR(~b_1 -> ~chi_1- t )
     2.94880819E-02    2    -1000037         6   # BR(~b_1 -> ~chi_2- t )
     7.87056137E-01    2     1000021         5   # BR(~b_1 -> ~g      b )
#
#         PDG            Width
DECAY   2000005     2.59753706E+02   # sbottom2 decays
#          BR         NDA      ID1       ID2
     3.67953236E-04    2     1000022         5   # BR(~b_2 -> ~chi_10 b )
     4.17873350E-04    2     1000023         5   # BR(~b_2 -> ~chi_20 b )
     6.06393730E-03    2     1000025         5   # BR(~b_2 -> ~chi_30 b )
     1.41672184E-02    2     1000035         5   # BR(~b_2 -> ~chi_40 b )
     1.02887564E-01    2    -1000024         6   # BR(~b_2 -> ~chi_1- t )
     2.83879075E-02    2    -1000037         6   # BR(~b_2 -> ~chi_2- t )
     8.47707547E-01    2     1000021         5   # BR(~b_2 -> ~g      b )
#
#         PDG            Width
DECAY   1000002     2.44160881E+02   # sup_L decays
#          BR         NDA      ID1       ID2
     3.39829808E-04    2     1000022         2   # BR(~u_L -> ~chi_10 u)
     5.10217348E-06    2     1000023         2   # BR(~u_L -> ~chi_20 u)
     2.42313165E-03    2     1000025         2   # BR(~u_L -> ~chi_30 u)
     3.18963913E-02    2     1000035         2   # BR(~u_L -> ~chi_40 u)
     1.34822180E-04    2     1000024         1   # BR(~u_L -> ~chi_1+ d)
     6.37851286E-02    2     1000037         1   # BR(~u_L -> ~chi_2+ d)
     9.01415594E-01    2     1000021         2   # BR(~u_L -> ~g      u)
#
#         PDG            Width
DECAY   2000002     2.30680957E+02   # sup_R decays
#          BR         NDA      ID1       ID2
     6.52053689E-03    2     1000022         2   # BR(~u_R -> ~chi_10 u)
     3.20915031E-04    2     1000023         2   # BR(~u_R -> ~chi_20 u)
     3.90537806E-02    2     1000025         2   # BR(~u_R -> ~chi_30 u)
     2.99330530E-09    2     1000035         2   # BR(~u_R -> ~chi_40 u)
     9.54104765E-01    2     1000021         2   # BR(~u_R -> ~g      u)
#
#         PDG            Width
DECAY   1000001     2.44163541E+02   # sdown_L decays
#          BR         NDA      ID1       ID2
     4.33066873E-04    2     1000022         1   # BR(~d_L -> ~chi_10 d)
     1.20236530E-04    2     1000023         1   # BR(~d_L -> ~chi_20 d)
     2.19200261E-03    2     1000025         1   # BR(~d_L -> ~chi_30 d)
     3.19105208E-02    2     1000035         1   # BR(~d_L -> ~chi_40 d)
     5.14072952E-05    2    -1000024         2   # BR(~d_L -> ~chi_1- u)
     6.38287717E-02    2    -1000037         2   # BR(~d_L -> ~chi_2- u)
     9.01463994E-01    2     1000021         1   # BR(~d_L -> ~g      d)
#
#         PDG            Width
DECAY   2000001     2.22745110E+02   # sdown_R decays
#          BR         NDA      ID1       ID2
     1.68823783E-03    2     1000022         1   # BR(~d_R -> ~chi_10 d)
     8.30883882E-05    2     1000023         1   # BR(~d_R -> ~chi_20 d)
     1.01114483E-02    2     1000025         1   # BR(~d_R -> ~chi_30 d)
     7.75025418E-10    2     1000035         1   # BR(~d_R -> ~chi_40 d)
     9.88117225E-01    2     1000021         1   # BR(~d_R -> ~g      d)
#
#         PDG            Width
DECAY   1000004     2.44160881E+02   # scharm_L decays
#          BR         NDA      ID1       ID2
     3.39829808E-04    2     1000022         4   # BR(~c_L -> ~chi_10 c)
     5.10217348E-06    2     1000023         4   # BR(~c_L -> ~chi_20 c)
     2.42313165E-03    2     1000025         4   # BR(~c_L -> ~chi_30 c)
     3.18963913E-02    2     1000035         4   # BR(~c_L -> ~chi_40 c)
     1.34822180E-04    2     1000024         3   # BR(~c_L -> ~chi_1+ s)
     6.37851286E-02    2     1000037         3   # BR(~c_L -> ~chi_2+ s)
     9.01415594E-01    2     1000021         4   # BR(~c_L -> ~g      c)
#
#         PDG            Width
DECAY   2000004     2.30680957E+02   # scharm_R decays
#          BR         NDA      ID1       ID2
     6.52053689E-03    2     1000022         4   # BR(~c_R -> ~chi_10 c)
     3.20915031E-04    2     1000023         4   # BR(~c_R -> ~chi_20 c)
     3.90537806E-02    2     1000025         4   # BR(~c_R -> ~chi_30 c)
     2.99330530E-09    2     1000035         4   # BR(~c_R -> ~chi_40 c)
     9.54104765E-01    2     1000021         4   # BR(~c_R -> ~g      c)
#
#         PDG            Width
DECAY   1000003     2.44163541E+02   # sstrange_L decays
#          BR         NDA      ID1       ID2
     4.33066873E-04    2     1000022         3   # BR(~s_L -> ~chi_10 s)
     1.20236530E-04    2     1000023         3   # BR(~s_L -> ~chi_20 s)
     2.19200261E-03    2     1000025         3   # BR(~s_L -> ~chi_30 s)
     3.19105208E-02    2     1000035         3   # BR(~s_L -> ~chi_40 s)
     5.14072952E-05    2    -1000024         4   # BR(~s_L -> ~chi_1- c)
     6.38287717E-02    2    -1000037         4   # BR(~s_L -> ~chi_2- c)
     9.01463994E-01    2     1000021         3   # BR(~s_L -> ~g      s)
#
#         PDG            Width
DECAY   2000003     2.22745110E+02   # sstrange_R decays
#          BR         NDA      ID1       ID2
     1.68823783E-03    2     1000022         3   # BR(~s_R -> ~chi_10 s)
     8.30883882E-05    2     1000023         3   # BR(~s_R -> ~chi_20 s)
     1.01114483E-02    2     1000025         3   # BR(~s_R -> ~chi_30 s)
     7.75025418E-10    2     1000035         3   # BR(~s_R -> ~chi_40 s)
     9.88117225E-01    2     1000021         3   # BR(~s_R -> ~g      s)
#
#         PDG            Width
DECAY   1000011     3.03252628E+01   # selectron_L decays
#          BR         NDA      ID1       ID2
     2.77267713E-02    2     1000022        11   # BR(~e_L -> ~chi_10 e-)
     3.46445747E-04    2     1000023        11   # BR(~e_L -> ~chi_20 e-)
     1.75871521E-01    2     1000025        11   # BR(~e_L -> ~chi_30 e-)
     2.65082257E-01    2     1000035        11   # BR(~e_L -> ~chi_40 e-)
     4.28421973E-04    2    -1000024        12   # BR(~e_L -> ~chi_1- nu_e)
     5.30544583E-01    2    -1000037        12   # BR(~e_L -> ~chi_2- nu_e)
#
#         PDG            Width
DECAY   2000011     2.46569339E+01   # selectron_R decays
#          BR         NDA      ID1       ID2
     1.42078425E-01    2     1000022        11   # BR(~e_R -> ~chi_10 e-)
     6.99245060E-03    2     1000023        11   # BR(~e_R -> ~chi_20 e-)
     8.50929059E-01    2     1000025        11   # BR(~e_R -> ~chi_30 e-)
     6.50556736E-08    2     1000035        11   # BR(~e_R -> ~chi_40 e-)
#
#         PDG            Width
DECAY   1000013     3.03252628E+01   # smuon_L decays
#          BR         NDA      ID1       ID2
     2.77267713E-02    2     1000022        13   # BR(~mu_L -> ~chi_10 mu-)
     3.46445747E-04    2     1000023        13   # BR(~mu_L -> ~chi_20 mu-)
     1.75871521E-01    2     1000025        13   # BR(~mu_L -> ~chi_30 mu-)
     2.65082257E-01    2     1000035        13   # BR(~mu_L -> ~chi_40 mu-)
     4.28421973E-04    2    -1000024        14   # BR(~mu_L -> ~chi_1- nu_mu)
     5.30544583E-01    2    -1000037        14   # BR(~mu_L -> ~chi_2- nu_mu)
#
#         PDG            Width
DECAY   2000013     2.46569339E+01   # smuon_R decays
#          BR         NDA      ID1       ID2
     1.42078425E-01    2     1000022        13   # BR(~mu_R -> ~chi_10 mu-)
     6.99245060E-03    2     1000023        13   # BR(~mu_R -> ~chi_20 mu-)
     8.50929059E-01    2     1000025        13   # BR(~mu_R -> ~chi_30 mu-)
     6.50556736E-08    2     1000035        13   # BR(~mu_R -> ~chi_40 mu-)
#
#         PDG            Width
DECAY   1000015     2.73846222E+01   # stau_1 decays
#          BR         NDA      ID1       ID2
     8.64795780E-02    2     1000022        15   # BR(~tau_1 -> ~chi_10  tau-)
     2.62868249E-03    2     1000023        15   # BR(~tau_1 -> ~chi_20  tau-)
     4.91429897E-01    2     1000025        15   # BR(~tau_1 -> ~chi_30  tau-)
     1.39678537E-01    2     1000035        15   # BR(~tau_1 -> ~chi_40  tau-)
     9.52828895E-05    2    -1000024        16   # BR(~tau_1 -> ~chi_1-  nu_tau)
     2.79556640E-01    2    -1000037        16   # BR(~tau_1 -> ~chi_2-  nu_tau)
     1.31381812E-04    2     1000039        15   # BR(~tau_1 -> ~G       tau-)
#
#         PDG            Width
DECAY   2000015     2.76973302E+01   # stau_2 decays
#          BR         NDA      ID1       ID2
     7.24021721E-02    2     1000022        15   # BR(~tau_2 -> ~chi_10  tau-)
     5.14876718E-03    2     1000023        15   # BR(~tau_2 -> ~chi_20  tau-)
     4.64302400E-01    2     1000025        15   # BR(~tau_2 -> ~chi_30  tau-)
     1.52132101E-01    2     1000035        15   # BR(~tau_2 -> ~chi_40  tau-)
     1.53186063E-03    2    -1000024        16   # BR(~tau_2 -> ~chi_1-  nu_tau)
     3.04482699E-01    2    -1000037        16   # BR(~tau_2 -> ~chi_2-  nu_tau)
#
#         PDG            Width
DECAY   1000012     3.03234462E+01   # snu_eL decays
#          BR         NDA      ID1       ID2
     3.00578817E-02    2     1000022        12   # BR(~nu_eL -> ~chi_10 nu_e)
     3.22500834E-03    2     1000023        12   # BR(~nu_eL -> ~chi_20 nu_e)
     1.70092657E-01    2     1000025        12   # BR(~nu_eL -> ~chi_30 nu_e)
     2.65293421E-01    2     1000035        12   # BR(~nu_eL -> ~chi_40 nu_e)
     1.12364657E-03    2     1000024        11   # BR(~nu_eL -> ~chi_1+ e-)
     5.30207386E-01    2     1000037        11   # BR(~nu_eL -> ~chi_2+ e-)
#
#         PDG            Width
DECAY   1000014     3.03234462E+01   # snu_muL decays
#          BR         NDA      ID1       ID2
     3.00578817E-02    2     1000022        14   # BR(~nu_muL -> ~chi_10 nu_mu)
     3.22500834E-03    2     1000023        14   # BR(~nu_muL -> ~chi_20 nu_mu)
     1.70092657E-01    2     1000025        14   # BR(~nu_muL -> ~chi_30 nu_mu)
     2.65293421E-01    2     1000035        14   # BR(~nu_muL -> ~chi_40 nu_mu)
     1.12364657E-03    2     1000024        13   # BR(~nu_muL -> ~chi_1+ mu-)
     5.30207386E-01    2     1000037        13   # BR(~nu_muL -> ~chi_2+ mu-)
#
#         PDG            Width
DECAY   1000016     3.03554978E+01   # snu_tauL decays
#          BR         NDA      ID1       ID2
     3.00261443E-02    2     1000022        16   # BR(~nu_tauL -> ~chi_10 nu_tau)
     3.22160313E-03    2     1000023        16   # BR(~nu_tauL -> ~chi_20 nu_tau)
     1.69913060E-01    2     1000025        16   # BR(~nu_tauL -> ~chi_30 nu_tau)
     2.65013304E-01    2     1000035        16   # BR(~nu_tauL -> ~chi_40 nu_tau)
     2.17815067E-03    2     1000024        15   # BR(~nu_tauL -> ~chi_1+ tau-)
     5.29647738E-01    2     1000037        15   # BR(~nu_tauL -> ~chi_2+ tau-)
#
#         PDG            Width
DECAY   1000024     4.03483883E-09   # chargino1+ decays
#          BR         NDA      ID1       ID2
     9.52239033E-02    2     1000039        24   # BR(~chi_1+ -> ~G       W+)
#           BR         NDA      ID1       ID2       ID3
     3.50447338E-01    3     1000022         2        -1   # BR(~chi_1+ -> ~chi_10 u    db)
     2.51532595E-01    3     1000022         4        -3   # BR(~chi_1+ -> ~chi_10 c    sb)
     1.16816207E-01    3     1000022       -11        12   # BR(~chi_1+ -> ~chi_10 e+   nu_e)
     1.16591731E-01    3     1000022       -13        14   # BR(~chi_1+ -> ~chi_10 mu+  nu_mu)
     6.93882251E-02    3     1000022       -15        16   # BR(~chi_1+ -> ~chi_10 tau+ nu_tau)
#
#         PDG            Width
DECAY   1000037     2.86629766E+01   # chargino2+ decays
#          BR         NDA      ID1       ID2
     1.72782916E-01    2     1000024        23   # BR(~chi_2+ -> ~chi_1+  Z )
     1.39300313E-01    2     1000022        24   # BR(~chi_2+ -> ~chi_10  W+)
     1.66737504E-01    2     1000023        24   # BR(~chi_2+ -> ~chi_20  W+)
     3.11409440E-02    2     1000025        24   # BR(~chi_2+ -> ~chi_30  W+)
     1.73262068E-01    2     1000024        25   # BR(~chi_2+ -> ~chi_1+  h )
     7.90622425E-02    2     1000024        35   # BR(~chi_2+ -> ~chi_1+  H )
     7.93561827E-02    2     1000024        36   # BR(~chi_2+ -> ~chi_1+  A )
     6.92870262E-02    2     1000022        37   # BR(~chi_2+ -> ~chi_10  H+)
     7.86713437E-02    2     1000023        37   # BR(~chi_2+ -> ~chi_20  H+)
     1.03896983E-02    2     1000025        37   # BR(~chi_2+ -> ~chi_30  H+)
     9.76235955E-06    2     1000039        24   # BR(~chi_2+ -> ~G       W+)
     2.31569434E-10    2     1000039        37   # BR(~chi_2+ -> ~G       H+)
#
#         PDG            Width
DECAY   1000022     1.0E-05   # neutralino1 decays
#          BR         NDA      ID1       ID2
     4.16435437E-01    2     1000039        22   # BR(~chi_10 -> ~G        gam)
     1.00624681E-01    2     1000039        23   # BR(~chi_10 -> ~G        Z)
     4.82939881E-01    2     1000039        25   # BR(~chi_10 -> ~G        h)
#
#         PDG            Width
DECAY   1000023     1.0E-05   # neutralino2 decays
#          BR         NDA      ID1       ID2
     2.13393556E-02    2     1000022        22   # BR(~chi_20 -> ~chi_10 gam)
#          BR         NDA      ID1       ID2
     1.10320453E-04    2     1000039        22   # BR(~chi_20 -> ~G        gam)
     8.20292378E-03    2     1000039        23   # BR(~chi_20 -> ~G        Z)
     1.87739480E-04    2     1000039        25   # BR(~chi_20 -> ~G        h)
#           BR         NDA      ID1       ID2       ID3
     1.33975013E-01    3     1000022        -2         2   # BR(~chi_20 -> ~chi_10 ub      u)
     1.73414088E-01    3     1000022        -1         1   # BR(~chi_20 -> ~chi_10 db      d)
     1.14052412E-01    3     1000022        -4         4   # BR(~chi_20 -> ~chi_10 cb      c)
     1.72798354E-01    3     1000022        -3         3   # BR(~chi_20 -> ~chi_10 sb      s)
     3.95756572E-02    3     1000022       -11        11   # BR(~chi_20 -> ~chi_10 e+      e-)
     3.95484880E-02    3     1000022       -13        13   # BR(~chi_20 -> ~chi_10 mu+     mu-)
     3.11347672E-02    3     1000022       -15        15   # BR(~chi_20 -> ~chi_10 tau+    tau-)
     7.90174242E-02    3     1000022       -12        12   # BR(~chi_20 -> ~chi_10 nu_eb   nu_e)
     7.90174242E-02    3     1000022       -14        14   # BR(~chi_20 -> ~chi_10 nu_mub  nu_mu)
     7.90174242E-02    3     1000022       -16        16   # BR(~chi_20 -> ~chi_10 nu_taub nu_tau)
     6.28037479E-03    3     1000024        -2         1   # BR(~chi_20 -> ~chi_1+ ub      d)
     6.28037479E-03    3    -1000024        -1         2   # BR(~chi_20 -> ~chi_1- db      u)
     3.14863938E-03    3     1000024        -4         3   # BR(~chi_20 -> ~chi_1+ cb      s)
     3.14863938E-03    3    -1000024        -3         4   # BR(~chi_20 -> ~chi_1- sb      c)
     2.09345866E-03    3     1000024       -12        11   # BR(~chi_20 -> ~chi_1+ nu_eb   e-)
     2.09345866E-03    3    -1000024        12       -11   # BR(~chi_20 -> ~chi_1- nu_e    e+)
     2.08515551E-03    3     1000024       -14        13   # BR(~chi_20 -> ~chi_1+ nu_mub  mu-)
     2.08515551E-03    3    -1000024        14       -13   # BR(~chi_20 -> ~chi_1- nu_mu   mu+)
     6.96675750E-04    3     1000024       -16        15   # BR(~chi_20 -> ~chi_1+ nu_taub tau-)
     6.96675750E-04    3    -1000024        16       -15   # BR(~chi_20 -> ~chi_1- nu_tau  tau+)
#
#         PDG            Width
DECAY   1000025     1.0E-05   # neutralino3 decays
#          BR         NDA      ID1       ID2
     6.98386740E-01    2     1000022        22   # BR(~chi_30 -> ~chi_10 gam)
     2.22190230E-02    2     1000023        22   # BR(~chi_30 -> ~chi_20 gam)
#          BR         NDA      ID1       ID2
     2.85748938E-04    2     1000039        22   # BR(~chi_30 -> ~G        gam)
     5.75075892E-05    2     1000039        23   # BR(~chi_30 -> ~G        Z)
     1.25698270E-05    2     1000039        25   # BR(~chi_30 -> ~G        h)
#           BR         NDA      ID1       ID2       ID3
     2.51287281E-03    3     1000022        -2         2   # BR(~chi_30 -> ~chi_10 ub      u)
     3.25671904E-03    3     1000022        -1         1   # BR(~chi_30 -> ~chi_10 db      d)
     2.40590494E-03    3     1000022        -4         4   # BR(~chi_30 -> ~chi_10 cb      c)
     3.25448341E-03    3     1000022        -3         3   # BR(~chi_30 -> ~chi_10 sb      s)
     2.05626859E-03    3     1000022        -5         5   # BR(~chi_30 -> ~chi_10 bb      b)
     7.46424497E-04    3     1000022       -11        11   # BR(~chi_30 -> ~chi_10 e+      e-)
     7.46222182E-04    3     1000022       -13        13   # BR(~chi_30 -> ~chi_10 mu+     mu-)
     6.91881702E-04    3     1000022       -15        15   # BR(~chi_30 -> ~chi_10 tau+    tau-)
     1.48223382E-03    3     1000022       -12        12   # BR(~chi_30 -> ~chi_10 nu_eb   nu_e)
     1.48223382E-03    3     1000022       -14        14   # BR(~chi_30 -> ~chi_10 nu_mub  nu_mu)
     1.48223382E-03    3     1000022       -16        16   # BR(~chi_30 -> ~chi_10 nu_taub nu_tau)
     3.51909293E-03    3     1000023        -2         2   # BR(~chi_30 -> ~chi_20 ub      u)
     4.55526334E-03    3     1000023        -1         1   # BR(~chi_30 -> ~chi_20 db      d)
     3.33623543E-03    3     1000023        -4         4   # BR(~chi_30 -> ~chi_20 cb      c)
     4.54965663E-03    3     1000023        -3         3   # BR(~chi_30 -> ~chi_20 sb      s)
     1.66177460E-03    3     1000023        -5         5   # BR(~chi_30 -> ~chi_20 bb      b)
     1.03973304E-03    3     1000023       -11        11   # BR(~chi_30 -> ~chi_20 e+      e-)
     1.03947924E-03    3     1000023       -13        13   # BR(~chi_30 -> ~chi_20 mu+     mu-)
     9.64753801E-04    3     1000023       -15        15   # BR(~chi_30 -> ~chi_20 tau+    tau-)
     2.07548929E-03    3     1000023       -12        12   # BR(~chi_30 -> ~chi_20 nu_eb   nu_e)
     2.07548929E-03    3     1000023       -14        14   # BR(~chi_30 -> ~chi_20 nu_mub  nu_mu)
     2.07548929E-03    3     1000023       -16        16   # BR(~chi_30 -> ~chi_20 nu_taub nu_tau)
     3.91914950E-02    3     1000024        -2         1   # BR(~chi_30 -> ~chi_1+ ub      d)
     3.91914950E-02    3    -1000024        -1         2   # BR(~chi_30 -> ~chi_1- db      u)
     3.81671578E-02    3     1000024        -4         3   # BR(~chi_30 -> ~chi_1+ cb      s)
     3.81671578E-02    3    -1000024        -3         4   # BR(~chi_30 -> ~chi_1- sb      c)
     1.30635355E-02    3     1000024       -12        11   # BR(~chi_30 -> ~chi_1+ nu_eb   e-)
     1.30635355E-02    3    -1000024        12       -11   # BR(~chi_30 -> ~chi_1- nu_e    e+)
     1.30615827E-02    3     1000024       -14        13   # BR(~chi_30 -> ~chi_1+ nu_mub  mu-)
     1.30615827E-02    3    -1000024        14       -13   # BR(~chi_30 -> ~chi_1- nu_mu   mu+)
     1.25304664E-02    3     1000024       -16        15   # BR(~chi_30 -> ~chi_1+ nu_taub tau-)
     1.25304664E-02    3    -1000024        16       -15   # BR(~chi_30 -> ~chi_1- nu_tau  tau+)
#
#         PDG            Width
DECAY   1000035     2.86633336E+01   # neutralino4 decays
#          BR         NDA      ID1       ID2
     1.38090462E-01    2     1000022        23   # BR(~chi_40 -> ~chi_10   Z )
     9.23467134E-03    2     1000023        23   # BR(~chi_40 -> ~chi_20   Z )
     2.56461735E-02    2     1000025        23   # BR(~chi_40 -> ~chi_30   Z )
     1.68392925E-01    2     1000024       -24   # BR(~chi_40 -> ~chi_1+   W-)
     1.68392925E-01    2    -1000024        24   # BR(~chi_40 -> ~chi_1-   W+)
     4.75866237E-03    2     1000022        25   # BR(~chi_40 -> ~chi_10   h )
     6.70200164E-02    2     1000022        35   # BR(~chi_40 -> ~chi_10   H )
     2.12945111E-03    2     1000022        36   # BR(~chi_40 -> ~chi_10   A )
     1.62436791E-01    2     1000023        25   # BR(~chi_40 -> ~chi_20   h )
     1.57628363E-03    2     1000023        35   # BR(~chi_40 -> ~chi_20   H )
     7.71350003E-02    2     1000023        36   # BR(~chi_40 -> ~chi_20   A )
     6.27481070E-03    2     1000025        25   # BR(~chi_40 -> ~chi_30   h )
     1.03741684E-02    2     1000025        35   # BR(~chi_40 -> ~chi_30   H )
     6.36432497E-06    2     1000025        36   # BR(~chi_40 -> ~chi_30   A )
     7.92607660E-02    2     1000024       -37   # BR(~chi_40 -> ~chi_1+   H-)
     7.92607660E-02    2    -1000024        37   # BR(~chi_40 -> ~chi_1-   H+)
     2.34152082E-06    2     1000039        22   # BR(~chi_40 -> ~G        gam)
     7.41995398E-06    2     1000039        23   # BR(~chi_40 -> ~G        Z)
     5.02046898E-10    2     1000039        25   # BR(~chi_40 -> ~G        h)
     2.30172594E-10    2     1000039        35   # BR(~chi_40 -> ~G        H)
     3.38629863E-13    2     1000039        36   # BR(~chi_40 -> ~G        A)
#
#         PDG            Width
DECAY        25     4.08148525E-03   # h decays
#          BR         NDA      ID1       ID2
     6.17281232E-01    2           5        -5   # BR(h -> b       bb     )
     6.38144179E-02    2         -15        15   # BR(h -> tau+    tau-   )
     2.25879537E-04    2         -13        13   # BR(h -> mu+     mu-    )
     4.78659095E-04    2           3        -3   # BR(h -> s       sb     )
     2.06502918E-02    2           4        -4   # BR(h -> c       cb     )
     6.70529309E-02    2          21        21   # BR(h -> g       g      )
     2.28889787E-03    2          22        22   # BR(h -> gam     gam    )
     1.53888941E-03    2          22        23   # BR(h -> Z       gam    )
     2.01025281E-01    2          24       -24   # BR(h -> W+      W-     )
     2.56435204E-02    2          23        23   # BR(h -> Z       Z      )
#
#         PDG            Width
DECAY        35     3.99947202E+01   # H decays
#          BR         NDA      ID1       ID2
     1.39616371E-03    2           5        -5   # BR(H -> b       bb     )
     2.32982710E-04    2         -15        15   # BR(H -> tau+    tau-   )
     8.23680619E-07    2         -13        13   # BR(H -> mu+     mu-    )
     1.05460214E-06    2           3        -3   # BR(H -> s       sb     )
     9.51753258E-06    2           4        -4   # BR(H -> c       cb     )
     9.41719380E-01    2           6        -6   # BR(H -> t       tb     )
     7.54128006E-04    2          21        21   # BR(H -> g       g      )
     2.50585173E-06    2          22        22   # BR(H -> gam     gam    )
     1.09571332E-06    2          23        22   # BR(H -> Z       gam    )
     3.16721710E-04    2          24       -24   # BR(H -> W+      W-     )
     1.57928844E-04    2          23        23   # BR(H -> Z       Z      )
     8.55954421E-04    2          25        25   # BR(H -> h       h      )
     8.34486389E-24    2          36        36   # BR(H -> A       A      )
     3.30630447E-11    2          23        36   # BR(H -> Z       A      )
     3.35834522E-12    2          24       -37   # BR(H -> W+      H-     )
     3.35834522E-12    2         -24        37   # BR(H -> W-      H+     )
     7.99292190E-05    2     1000024  -1000024   # BR(H -> ~chi_1+ ~chi_1-)
     1.35706723E-02    2     1000022   1000022   # BR(H -> ~chi_10 ~chi_10)
     6.54196843E-05    2     1000023   1000023   # BR(H -> ~chi_20 ~chi_20)
     1.13880630E-02    2     1000025   1000025   # BR(H -> ~chi_30 ~chi_30)
     1.12003397E-04    2     1000022   1000023   # BR(H -> ~chi_10 ~chi_20)
     2.65155349E-02    2     1000022   1000025   # BR(H -> ~chi_10 ~chi_30)
     2.82012102E-03    2     1000023   1000025   # BR(H -> ~chi_20 ~chi_30)
#
#         PDG            Width
DECAY        36     4.04340994E+01   # A decays
#          BR         NDA      ID1       ID2
     1.39924420E-03    2           5        -5   # BR(A -> b       bb     )
     2.30652259E-04    2         -15        15   # BR(A -> tau+    tau-   )
     8.15439059E-07    2         -13        13   # BR(A -> mu+     mu-    )
     1.07503867E-06    2           3        -3   # BR(A -> s       sb     )
     9.42076688E-06    2           4        -4   # BR(A -> c       cb     )
     9.42851692E-01    2           6        -6   # BR(A -> t       tb     )
     8.92427039E-04    2          21        21   # BR(A -> g       g      )
     3.10400664E-06    2          22        22   # BR(A -> gam     gam    )
     1.27801296E-06    2          23        22   # BR(A -> Z       gam    )
     3.08744842E-04    2          23        25   # BR(A -> Z       h      )
     4.89169230E-04    2     1000024  -1000024   # BR(A -> ~chi_1+ ~chi_1-)
     7.84914538E-04    2     1000022   1000022   # BR(A -> ~chi_10 ~chi_10)
     1.80299467E-03    2     1000023   1000023   # BR(A -> ~chi_20 ~chi_20)
     6.46043346E-08    2     1000025   1000025   # BR(A -> ~chi_30 ~chi_30)
     6.52868043E-03    2     1000022   1000023   # BR(A -> ~chi_10 ~chi_20)
     2.21522347E-03    2     1000022   1000025   # BR(A -> ~chi_10 ~chi_30)
     4.24804996E-02    2     1000023   1000025   # BR(A -> ~chi_20 ~chi_30)
#
#         PDG            Width
DECAY        37     3.96331553E+01   # H+ decays
#          BR         NDA      ID1       ID2
     2.24610430E-06    2           4        -5   # BR(H+ -> c       bb     )
     2.35542962E-04    2         -15        16   # BR(H+ -> tau+    nu_tau )
     8.32729455E-07    2         -13        14   # BR(H+ -> mu+     nu_mu  )
     1.42806722E-08    2           2        -5   # BR(H+ -> u       bb     )
     5.15695166E-08    2           2        -3   # BR(H+ -> u       sb     )
     1.02754208E-05    2           4        -3   # BR(H+ -> c       sb     )
     9.44473438E-01    2           6        -5   # BR(H+ -> t       bb     )
     3.16356471E-04    2          24        25   # BR(H+ -> W+      h      )
     9.36044066E-13    2          24        36   # BR(H+ -> W+      A      )
     7.26645051E-03    2     1000024   1000022   # BR(H+ -> ~chi_1+ ~chi_10)
     3.76440602E-04    2     1000024   1000023   # BR(H+ -> ~chi_1+ ~chi_20)
     4.73183517E-02    2     1000024   1000025   # BR(H+ -> ~chi_1+ ~chi_30)
