#
#                              ======================
#                              | THE SUSYHIT OUTPUT |
#                              ======================
#
#
#              ------------------------------------------------------
#              |     This is the output of the SUSY-HIT package     |
#              |  created by A.Djouadi, M.Muehlleitner and M.Spira. |
#              |  In case of problems with SUSY-HIT email to        |
#              |           margarete.muehlleitner@kit.edu           |
#              |           michael.spira@psi.ch                     |
#              |           abdelhak.djouadi@cern.ch                 |
#              ------------------------------------------------------
#
#              ------------------------------------------------------
#              |  SUSY Les Houches Accord - MSSM Spectrum + Decays  |
#              |              based on the decay programs           |
#              |                                                    |
#              |                     SDECAY 1.5a                    |
#              |                                                    |
#              |  Authors: M.Muhlleitner, A.Djouadi and Y.Mambrini  |
#              |  Ref.:    Comput.Phys.Commun.168(2005)46           |
#              |           [hep-ph/0311167]                         |
#              |                                                    |
#              |                     HDECAY 3.4                     |
#              |                                                    |
#              |  By: A.Djouadi,J.Kalinowski,M.Muhlleitner,M.Spira  |
#              |  Ref.:    Comput.Phys.Commun.108(1998)56           |
#              |           [hep-ph/9704448]                         |
#              |                                                    |
#              |                                                    |
#              |  If not stated otherwise all DRbar couplings and   |
#              |  soft SUSY breaking masses are given at the scale  |
#              |  Q=  0.91187600E+02
#              |                                                    |
#              ------------------------------------------------------
#
#
BLOCK DCINFO  # Decay Program information
     1   SDECAY/HDECAY # decay calculator
     2   1.5a /3.4    # version number
#
BLOCK SPINFO  # Spectrum calculator information
     1   SuSpect     # RGE +Spectrum calculator            
     2   2.43         # version number                     
#
BLOCK MODSEL  # Model selection
     1     2   # GMSB                                              
#
BLOCK SMINPUTS  # Standard Model inputs
         1     1.27932904E+02   # alpha_em^-1(M_Z)^MSbar
         2     1.16639000E-05   # G_F [GeV^-2]
         3     1.17200000E-01   # alpha_S(M_Z)^MSbar
         4     9.11870000E+01   # M_Z pole mass
         5     4.25000000E+00   # mb(mb)^MSbar
         6     1.72900000E+02   # mt pole mass
         7     1.77700000E+00   # mtau pole mass
#
BLOCK MINPAR  # Input parameters - minimal models
#
BLOCK EXTPAR  # Input parameters - non-minimal models
         0     9.11876000E+01   # EWSB                
         1     8.53841941E+02   # M_1                 
         2     3.00000000E+03   # M_2                 
         3     2.00000000E+03   # M_3                 
        11     0.00000000E+00   # A_t                 
        12     0.00000000E+00   # A_b                 
        13     0.00000000E+00   # A_tau               
        14     0.00000000E+00   # A_u                 
        15     0.00000000E+00   # A_d                 
        16     0.00000000E+00   # A_e                 
        23    -8.50000000E+02   # mu(EWSB)            
        25     1.50000000E+00   # tanbeta(in)         
        26     2.00000000E+03   # MA_pole             
        31     5.00000000E+03   # M_eL                
        32     5.00000000E+03   # M_muL               
        33     5.00000000E+03   # M_tauL              
        34     5.00000000E+03   # M_eR                
        35     5.00000000E+03   # M_muR               
        36     5.00000000E+03   # M_tauR              
        41     5.00000000E+03   # M_q1L               
        42     5.00000000E+03   # M_q2L               
        43     5.00000000E+03   # M_q3L               
        44     5.00000000E+03   # M_uR                
        45     5.00000000E+03   # M_cR                
        46     5.00000000E+03   # M_tR                
        47     5.00000000E+03   # M_dR                
        48     5.00000000E+03   # M_sR                
        49     5.00000000E+03   # M_bR                
#
BLOCK MASS  # Mass Spectrum
# PDG code           mass       particle
        24     8.05402630E+01   # W+
        25     1.25000000E+02   # h
        35     2.00415016E+03   # H
        36     2.00000000E+03   # A
        37     2.00181150E+03   # H+
         5     4.87877839E+00   # b-quark pole mass calculated from mb(mb)_Msbar
   1000001     5.00013272E+03   # ~d_L
   2000001     5.00002530E+03   # ~d_R
   1000002     4.99989258E+03   # ~u_L
   2000002     4.99994939E+03   # ~u_R
   1000003     5.00013272E+03   # ~s_L
   2000003     5.00002530E+03   # ~s_R
   1000004     4.99989258E+03   # ~c_L
   2000004     4.99994939E+03   # ~c_R
   1000005     4.99973215E+03   # ~b_1
   2000005     5.00042730E+03   # ~b_2
   1000006     4.99360866E+03   # ~t_1
   2000006     5.01085044E+03   # ~t_2
   1000011     5.00008211E+03   # ~e_L
   2000011     5.00007591E+03   # ~e_R
   1000012     4.99984197E+03   # ~nu_eL
   1000013     5.00008211E+03   # ~mu_L
   2000013     5.00007591E+03   # ~mu_R
   1000014     4.99984197E+03   # ~nu_muL
   1000015     4.99985285E+03   # ~tau_1
   2000015     5.00030579E+03   # ~tau_2
   1000016     4.99984197E+03   # ~nu_tauL
   1000021     2.00000000E+03   # ~g
   1000022     8.43364276E+02   # ~chi_10
   1000023    -8.52670533E+02   # ~chi_20
   1000025     8.61477494E+02   # ~chi_30
   1000035     3.00167071E+03   # ~chi_40
   1000024     8.51447045E+02   # ~chi_1+
   1000037     3.00167042E+03   # ~chi_2+
   1000039     2.54132387E-08   # ~gravitino
#
BLOCK NMIX  # Neutralino Mixing Matrix
  1  1     5.99962417E-01   # N_11
  1  2    -5.18432925E-03   # N_12
  1  3    -5.76666612E-01   # N_13
  1  4    -5.54503236E-01   # N_14
  2  1     2.55159547E-02   # N_21
  2  2    -2.01020435E-02   # N_22
  2  3     7.06511900E-01   # N_23
  2  4    -7.06955287E-01   # N_24
  3  1     7.99621062E-01   # N_31
  3  2     5.07798781E-03   # N_32
  3  3     4.10137973E-01   # N_33
  3  4     4.38596869E-01   # N_34
  4  1     4.37240335E-04   # N_41
  4  2    -9.99771596E-01   # N_42
  4  3    -9.13211354E-03   # N_43
  4  4     1.93175750E-02   # N_44
#
BLOCK UMIX  # Chargino Mixing Matrix U
  1  1    -1.29069497E-02   # U_11
  1  2     9.99916702E-01   # U_12
  2  1     9.99916702E-01   # U_21
  2  2     1.29069497E-02   # U_22
#
BLOCK VMIX  # Chargino Mixing Matrix V
  1  1     2.73182705E-02   # V_11
  1  2    -9.99626786E-01   # V_12
  2  1     9.99626786E-01   # V_21
  2  2     2.73182705E-02   # V_22
#
BLOCK STOPMIX  # Stop Mixing Matrix
  1  1     7.08270261E-01   # cos(theta_t)
  1  2    -7.05941384E-01   # sin(theta_t)
  2  1     7.05941384E-01   # -sin(theta_t)
  2  2     7.08270261E-01   # cos(theta_t)
#
BLOCK SBOTMIX  # Sbottom Mixing Matrix
  1  1    -6.50183584E-01   # cos(theta_b)
  1  2     7.59777143E-01   # sin(theta_b)
  2  1    -7.59777143E-01   # -sin(theta_b)
  2  2    -6.50183584E-01   # cos(theta_b)
#
BLOCK STAUMIX  # Stau Mixing Matrix
  1  1    -7.02247477E-01   # cos(theta_tau)
  1  2     7.11932919E-01   # sin(theta_tau)
  2  1    -7.11932919E-01   # -sin(theta_tau)
  2  2    -7.02247477E-01   # cos(theta_tau)
#
BLOCK ALPHA  # Higgs mixing
          -5.90202363E-01   # Mixing angle in the neutral Higgs boson sector
#
BLOCK HMIX Q=  9.11876000E+01  # DRbar Higgs Parameters
         1    -8.50000000E+02   # mu(Q)               
         2     1.49999979E+00   # tanbeta(Q)          
         3     2.51817039E+02   # vev(Q)              
         4     4.28345884E+06   # MA^2(Q)             
#
BLOCK GAUGE Q=  9.11876000E+01  # The gauge couplings
     1     3.52845723E-01   # gprime(Q) DRbar
     2     6.27575018E-01   # g(Q) DRbar
     3     1.08044500E+00   # g3(Q) DRbar
#
BLOCK AU Q=  9.11876000E+01  # The trilinear couplings
  1  1     0.00000000E+00   # A_u(Q) DRbar
  2  2     0.00000000E+00   # A_c(Q) DRbar
  3  3     0.00000000E+00   # A_t(Q) DRbar
#
BLOCK AD Q=  9.11876000E+01  # The trilinear couplings
  1  1     0.00000000E+00   # A_d(Q) DRbar
  2  2     0.00000000E+00   # A_s(Q) DRbar
  3  3     0.00000000E+00   # A_b(Q) DRbar
#
BLOCK AE Q=  9.11876000E+01  # The trilinear couplings
  1  1     0.00000000E+00   # A_e(Q) DRbar
  2  2     0.00000000E+00   # A_mu(Q) DRbar
  3  3     0.00000000E+00   # A_tau(Q) DRbar
#
BLOCK Yu Q=  9.11876000E+01  # The Yukawa couplings
  1  1     0.00000000E+00   # y_u(Q) DRbar
  2  2     0.00000000E+00   # y_c(Q) DRbar
  3  3     1.02729702E+00   # y_t(Q) DRbar
#
BLOCK Yd Q=  9.11876000E+01  # The Yukawa couplings
  1  1     0.00000000E+00   # y_d(Q) DRbar
  2  2     0.00000000E+00   # y_s(Q) DRbar
  3  3     2.72692420E-02   # y_b(Q) DRbar
#
BLOCK Ye Q=  9.11876000E+01  # The Yukawa couplings
  1  1     0.00000000E+00   # y_e(Q) DRbar
  2  2     0.00000000E+00   # y_mu(Q) DRbar
  3  3     1.79820628E-02   # y_tau(Q) DRbar
#
BLOCK MSOFT Q=  9.11876000E+01  # The soft SUSY breaking masses at the scale Q
         1     8.53841941E+02   # M_1                 
         2     3.00000000E+03   # M_2                 
         3     2.00000000E+03   # M_3                 
        14     0.00000000E+00   # A_u                 
        15     0.00000000E+00   # A_d                 
        16     0.00000000E+00   # A_e                 
        21     2.24892961E+06   # M^2_Hd              
        22    -6.09526112E+06   # M^2_Hu              
        31     5.00000000E+03   # M_eL                
        32     5.00000000E+03   # M_muL               
        33     5.00000000E+03   # M_tauL              
        34     5.00000000E+03   # M_eR                
        35     5.00000000E+03   # M_muR               
        36     5.00000000E+03   # M_tauR              
        41     5.00000000E+03   # M_q1L               
        42     5.00000000E+03   # M_q2L               
        43     5.00000000E+03   # M_q3L               
        44     5.00000000E+03   # M_uR                
        45     5.00000000E+03   # M_cR                
        46     5.00000000E+03   # M_tR                
        47     5.00000000E+03   # M_dR                
        48     5.00000000E+03   # M_sR                
        49     5.00000000E+03   # M_bR                
#
#
#
#                             =================
#                             |The decay table|
#                             =================
#
# - The QCD corrections to the decays gluino -> squark  + quark
#                                     squark -> gaugino + quark_prime
#                                     squark -> squark_prime + Higgs
#                                     squark -> gluino  + quark
#   are included.
#
# - The multi-body decays for the inos, stops and sbottoms are included.
#
# - The loop induced decays for the gluino, neutralinos and stops
#   are included.
#
# - The SUSY decays of the top quark are included.
#
# - Possible decays of the NLSP in GMSB models are included.
#
#
#         PDG            Width
DECAY         6     1.37226808E+00   # top decays
#          BR         NDA      ID1       ID2
     1.00000000E+00    2           5        24   # BR(t ->  b    W+)
#
#         PDG            Width
DECAY   1000021     1.23026687E-03   # gluino decays
#          BR         NDA      ID1       ID2
     9.37707903E-03    2     1000022        21   # BR(~g -> ~chi_10 g)
     1.49671145E-02    2     1000023        21   # BR(~g -> ~chi_20 g)
     5.70006135E-03    2     1000025        21   # BR(~g -> ~chi_30 g)
#          BR         NDA      ID1       ID2
     0.00000000E+00    2     1000039        21   # BR(~g -> ~G      g)
#           BR         NDA      ID1       ID2       ID3
     3.05308928E-03    3     1000022         1        -1   # BR(~g -> ~chi_10 d  db)
     1.33764464E-05    3     1000023         1        -1   # BR(~g -> ~chi_20 d  db)
     4.98336371E-03    3     1000025         1        -1   # BR(~g -> ~chi_30 d  db)
     1.01351842E-02    3     1000022         2        -2   # BR(~g -> ~chi_10 u  ub)
     1.13060462E-05    3     1000023         2        -2   # BR(~g -> ~chi_20 u  ub)
     1.72433716E-02    3     1000025         2        -2   # BR(~g -> ~chi_30 u  ub)
     3.05308928E-03    3     1000022         3        -3   # BR(~g -> ~chi_10 s  sb)
     1.33764464E-05    3     1000023         3        -3   # BR(~g -> ~chi_20 s  sb)
     4.98336371E-03    3     1000025         3        -3   # BR(~g -> ~chi_30 s  sb)
     1.01351842E-02    3     1000022         4        -4   # BR(~g -> ~chi_10 c  cb)
     1.13060462E-05    3     1000023         4        -4   # BR(~g -> ~chi_20 c  cb)
     1.72433716E-02    3     1000025         4        -4   # BR(~g -> ~chi_30 c  cb)
     3.19922725E-03    3     1000022         5        -5   # BR(~g -> ~chi_10 b  bb)
     1.95525948E-04    3     1000023         5        -5   # BR(~g -> ~chi_20 b  bb)
     5.02424373E-03    3     1000025         5        -5   # BR(~g -> ~chi_30 b  bb)
     1.26021626E-01    3     1000022         6        -6   # BR(~g -> ~chi_10 t  tb)
     1.90139431E-01    3     1000023         6        -6   # BR(~g -> ~chi_20 t  tb)
     1.11366543E-01    3     1000025         6        -6   # BR(~g -> ~chi_30 t  tb)
     2.01032992E-05    3     1000024         1        -2   # BR(~g -> ~chi_1+ d  ub)
     2.01032992E-05    3    -1000024         2        -1   # BR(~g -> ~chi_1- u  db)
     2.01032992E-05    3     1000024         3        -4   # BR(~g -> ~chi_1+ s  cb)
     2.01032992E-05    3    -1000024         4        -3   # BR(~g -> ~chi_1- c  sb)
     2.31501492E-01    3     1000024         5        -6   # BR(~g -> ~chi_1+ b  tb)
     2.31501492E-01    3    -1000024         6        -5   # BR(~g -> ~chi_1- t  bb)
#
#         PDG            Width
DECAY   1000006     2.98991617E+02   # stop1 decays
#          BR         NDA      ID1       ID2
     5.44608514E-02    2     1000022         6   # BR(~t_1 -> ~chi_10 t )
     1.09906725E-01    2     1000023         6   # BR(~t_1 -> ~chi_20 t )
     7.86581850E-02    2     1000025         6   # BR(~t_1 -> ~chi_30 t )
     1.39510582E-02    2     1000035         6   # BR(~t_1 -> ~chi_40 t )
     1.09548970E-01    2     1000024         5   # BR(~t_1 -> ~chi_1+ b )
     2.78613159E-02    2     1000037         5   # BR(~t_1 -> ~chi_2+ b )
     6.05612894E-01    2     1000021         6   # BR(~t_1 -> ~g      t )
#
#         PDG            Width
DECAY   2000006     3.12188172E+02   # stop2 decays
#          BR         NDA      ID1       ID2
     9.45797341E-02    2     1000022         6   # BR(~t_2 -> ~chi_10 t )
     1.13731870E-01    2     1000023         6   # BR(~t_2 -> ~chi_20 t )
     3.09358919E-02    2     1000025         6   # BR(~t_2 -> ~chi_30 t )
     1.15933822E-02    2     1000035         6   # BR(~t_2 -> ~chi_40 t )
     1.14497944E-01    2     1000024         5   # BR(~t_2 -> ~chi_1+ b )
     2.31427909E-02    2     1000037         5   # BR(~t_2 -> ~chi_2+ b )
     6.11518387E-01    2     1000021         6   # BR(~t_2 -> ~g      t )
#
#         PDG            Width
DECAY   1000005     2.30746541E+02   # sbottom1 decays
#          BR         NDA      ID1       ID2
     3.48077570E-03    2     1000022         5   # BR(~b_1 -> ~chi_10 b )
     3.10109443E-05    2     1000023         5   # BR(~b_1 -> ~chi_20 b )
     3.78017089E-03    2     1000025         5   # BR(~b_1 -> ~chi_30 b )
     1.54558821E-02    2     1000035         5   # BR(~b_1 -> ~chi_40 b )
     1.40126320E-01    2    -1000024         6   # BR(~b_1 -> ~chi_1- t )
     3.09641417E-02    2    -1000037         6   # BR(~b_1 -> ~chi_2- t )
     8.06161698E-01    2     1000021         5   # BR(~b_1 -> ~g      b )
#
#         PDG            Width
DECAY   2000005     2.36406027E+02   # sbottom2 decays
#          BR         NDA      ID1       ID2
     1.59685938E-03    2     1000022         5   # BR(~b_2 -> ~chi_10 b )
     2.26654955E-04    2     1000023         5   # BR(~b_2 -> ~chi_20 b )
     4.71499197E-03    2     1000025         5   # BR(~b_2 -> ~chi_30 b )
     1.77550881E-02    2     1000035         5   # BR(~b_2 -> ~chi_40 b )
     1.52407464E-01    2    -1000024         6   # BR(~b_2 -> ~chi_1- t )
     3.55687020E-02    2    -1000037         6   # BR(~b_2 -> ~chi_2- t )
     7.87730239E-01    2     1000021         5   # BR(~b_2 -> ~g      b )
#
#         PDG            Width
DECAY   1000002     2.10051575E+02   # sup_L decays
#          BR         NDA      ID1       ID2
     9.76597402E-04    2     1000022         2   # BR(~u_L -> ~chi_10 u)
     1.98991110E-05    2     1000023         2   # BR(~u_L -> ~chi_20 u)
     2.03276821E-03    2     1000025         2   # BR(~u_L -> ~chi_30 u)
     3.69441214E-02    2     1000035         2   # BR(~u_L -> ~chi_40 u)
     1.26568037E-04    2     1000024         1   # BR(~u_L -> ~chi_1+ d)
     7.38789662E-02    2     1000037         1   # BR(~u_L -> ~chi_2+ d)
     8.86021080E-01    2     1000021         2   # BR(~u_L -> ~g      u)
#
#         PDG            Width
DECAY   2000002     1.96118931E+02   # sup_R decays
#          BR         NDA      ID1       ID2
     1.83928305E-02    2     1000022         2   # BR(~u_R -> ~chi_10 u)
     3.32250272E-05    2     1000023         2   # BR(~u_R -> ~chi_20 u)
     3.25893169E-02    2     1000025         2   # BR(~u_R -> ~chi_30 u)
     4.25396272E-09    2     1000035         2   # BR(~u_R -> ~chi_40 u)
     9.48984623E-01    2     1000021         2   # BR(~u_R -> ~g      u)
#
#         PDG            Width
DECAY   1000001     2.10056160E+02   # sdown_L decays
#          BR         NDA      ID1       ID2
     1.17458153E-03    2     1000022         1   # BR(~d_L -> ~chi_10 d)
     5.25012772E-05    2     1000023         1   # BR(~d_L -> ~chi_20 d)
     1.77506764E-03    2     1000025         1   # BR(~d_L -> ~chi_30 d)
     3.69611742E-02    2     1000035         1   # BR(~d_L -> ~chi_40 d)
     2.82539356E-05    2    -1000024         2   # BR(~d_L -> ~chi_1- u)
     7.39317042E-02    2    -1000037         2   # BR(~d_L -> ~chi_2- u)
     8.86076717E-01    2     1000021         1   # BR(~d_L -> ~g      d)
#
#         PDG            Width
DECAY   2000001     1.88620141E+02   # sdown_R decays
#          BR         NDA      ID1       ID2
     4.78109595E-03    2     1000022         1   # BR(~d_R -> ~chi_10 d)
     8.63662875E-06    2     1000023         1   # BR(~d_R -> ~chi_20 d)
     8.47138035E-03    2     1000025         1   # BR(~d_R -> ~chi_30 d)
     1.10582519E-09    2     1000035         1   # BR(~d_R -> ~chi_40 d)
     9.86738886E-01    2     1000021         1   # BR(~d_R -> ~g      d)
#
#         PDG            Width
DECAY   1000004     2.10051575E+02   # scharm_L decays
#          BR         NDA      ID1       ID2
     9.76597402E-04    2     1000022         4   # BR(~c_L -> ~chi_10 c)
     1.98991110E-05    2     1000023         4   # BR(~c_L -> ~chi_20 c)
     2.03276821E-03    2     1000025         4   # BR(~c_L -> ~chi_30 c)
     3.69441214E-02    2     1000035         4   # BR(~c_L -> ~chi_40 c)
     1.26568037E-04    2     1000024         3   # BR(~c_L -> ~chi_1+ s)
     7.38789662E-02    2     1000037         3   # BR(~c_L -> ~chi_2+ s)
     8.86021080E-01    2     1000021         4   # BR(~c_L -> ~g      c)
#
#         PDG            Width
DECAY   2000004     1.96118931E+02   # scharm_R decays
#          BR         NDA      ID1       ID2
     1.83928305E-02    2     1000022         4   # BR(~c_R -> ~chi_10 c)
     3.32250272E-05    2     1000023         4   # BR(~c_R -> ~chi_20 c)
     3.25893169E-02    2     1000025         4   # BR(~c_R -> ~chi_30 c)
     4.25396272E-09    2     1000035         4   # BR(~c_R -> ~chi_40 c)
     9.48984623E-01    2     1000021         4   # BR(~c_R -> ~g      c)
#
#         PDG            Width
DECAY   1000003     2.10056160E+02   # sstrange_L decays
#          BR         NDA      ID1       ID2
     1.17458153E-03    2     1000022         3   # BR(~s_L -> ~chi_10 s)
     5.25012772E-05    2     1000023         3   # BR(~s_L -> ~chi_20 s)
     1.77506764E-03    2     1000025         3   # BR(~s_L -> ~chi_30 s)
     3.69611742E-02    2     1000035         3   # BR(~s_L -> ~chi_40 s)
     2.82539356E-05    2    -1000024         4   # BR(~s_L -> ~chi_1- c)
     7.39317042E-02    2    -1000037         4   # BR(~s_L -> ~chi_2- c)
     8.86076717E-01    2     1000021         3   # BR(~s_L -> ~g      s)
#
#         PDG            Width
DECAY   2000003     1.88620141E+02   # sstrange_R decays
#          BR         NDA      ID1       ID2
     4.78109595E-03    2     1000022         3   # BR(~s_R -> ~chi_10 s)
     8.63662875E-06    2     1000023         3   # BR(~s_R -> ~chi_20 s)
     8.47138035E-03    2     1000025         3   # BR(~s_R -> ~chi_30 s)
     1.10582519E-09    2     1000035         3   # BR(~s_R -> ~chi_40 s)
     9.86738886E-01    2     1000021         3   # BR(~s_R -> ~g      s)
#
#         PDG            Width
DECAY   1000011     2.98901044E+01   # selectron_L decays
#          BR         NDA      ID1       ID2
     6.82409756E-02    2     1000022        11   # BR(~e_L -> ~chi_10 e-)
     2.04688913E-05    2     1000023        11   # BR(~e_L -> ~chi_20 e-)
     1.27546776E-01    2     1000025        11   # BR(~e_L -> ~chi_30 e-)
     2.67855550E-01    2     1000035        11   # BR(~e_L -> ~chi_40 e-)
     2.05872836E-04    2    -1000024        12   # BR(~e_L -> ~chi_1- nu_e)
     5.36130357E-01    2    -1000037        12   # BR(~e_L -> ~chi_2- nu_e)
#
#         PDG            Width
DECAY   2000011     2.33415912E+01   # selectron_R decays
#          BR         NDA      ID1       ID2
     3.60541031E-01    2     1000022        11   # BR(~e_R -> ~chi_10 e-)
     6.51276850E-04    2     1000023        11   # BR(~e_R -> ~chi_20 e-)
     6.38807609E-01    2     1000025        11   # BR(~e_R -> ~chi_30 e-)
     8.29940070E-08    2     1000035        11   # BR(~e_R -> ~chi_40 e-)
#
#         PDG            Width
DECAY   1000013     2.98901044E+01   # smuon_L decays
#          BR         NDA      ID1       ID2
     6.82409756E-02    2     1000022        13   # BR(~mu_L -> ~chi_10 mu-)
     2.04688913E-05    2     1000023        13   # BR(~mu_L -> ~chi_20 mu-)
     1.27546776E-01    2     1000025        13   # BR(~mu_L -> ~chi_30 mu-)
     2.67855550E-01    2     1000035        13   # BR(~mu_L -> ~chi_40 mu-)
     2.05872836E-04    2    -1000024        14   # BR(~mu_L -> ~chi_1- nu_mu)
     5.36130357E-01    2    -1000037        14   # BR(~mu_L -> ~chi_2- nu_mu)
#
#         PDG            Width
DECAY   2000013     2.33415912E+01   # smuon_R decays
#          BR         NDA      ID1       ID2
     3.60541031E-01    2     1000022        13   # BR(~mu_R -> ~chi_10 mu-)
     6.51276850E-04    2     1000023        13   # BR(~mu_R -> ~chi_20 mu-)
     6.38807609E-01    2     1000025        13   # BR(~mu_R -> ~chi_30 mu-)
     8.29940070E-08    2     1000035        13   # BR(~mu_R -> ~chi_40 mu-)
#
#         PDG            Width
DECAY   1000015     2.66014928E+01   # stau_1 decays
#          BR         NDA      ID1       ID2
     2.04072546E-01    2     1000022        15   # BR(~tau_1 -> ~chi_10  tau-)
     1.85401845E-04    2     1000023        15   # BR(~tau_1 -> ~chi_20  tau-)
     3.49792956E-01    2     1000025        15   # BR(~tau_1 -> ~chi_30  tau-)
     1.48512893E-01    2     1000035        15   # BR(~tau_1 -> ~chi_40  tau-)
     1.78356167E-04    2    -1000024        16   # BR(~tau_1 -> ~chi_1-  nu_tau)
     2.97257638E-01    2    -1000037        16   # BR(~tau_1 -> ~chi_2-  nu_tau)
     2.09385441E-07    2     1000039        15   # BR(~tau_1 -> ~G       tau-)
#
#         PDG            Width
DECAY   2000015     2.67211902E+01   # stau_2 decays
#          BR         NDA      ID1       ID2
     1.88872915E-01    2     1000022        15   # BR(~tau_2 -> ~chi_10  tau-)
     1.54030092E-03    2     1000023        15   # BR(~tau_2 -> ~chi_20  tau-)
     3.52840632E-01    2     1000025        15   # BR(~tau_2 -> ~chi_30  tau-)
     1.51773538E-01    2     1000035        15   # BR(~tau_2 -> ~chi_40  tau-)
     1.18752721E-03    2    -1000024        16   # BR(~tau_2 -> ~chi_1-  nu_tau)
     3.03785088E-01    2    -1000037        16   # BR(~tau_2 -> ~chi_2-  nu_tau)
#
#         PDG            Width
DECAY   1000012     2.98882578E+01   # snu_eL decays
#          BR         NDA      ID1       ID2
     7.25687721E-02    2     1000022        12   # BR(~nu_eL -> ~chi_10 nu_e)
     7.33128295E-04    2     1000023        12   # BR(~nu_eL -> ~chi_20 nu_e)
     1.21913151E-01    2     1000025        12   # BR(~nu_eL -> ~chi_30 nu_e)
     2.68093794E-01    2     1000035        12   # BR(~nu_eL -> ~chi_40 nu_e)
     9.22277675E-04    2     1000024        11   # BR(~nu_eL -> ~chi_1+ e-)
     5.35768877E-01    2     1000037        11   # BR(~nu_eL -> ~chi_2+ e-)
#
#         PDG            Width
DECAY   1000014     2.98882578E+01   # snu_muL decays
#          BR         NDA      ID1       ID2
     7.25687721E-02    2     1000022        14   # BR(~nu_muL -> ~chi_10 nu_mu)
     7.33128295E-04    2     1000023        14   # BR(~nu_muL -> ~chi_20 nu_mu)
     1.21913151E-01    2     1000025        14   # BR(~nu_muL -> ~chi_30 nu_mu)
     2.68093794E-01    2     1000035        14   # BR(~nu_muL -> ~chi_40 nu_mu)
     9.22277675E-04    2     1000024        13   # BR(~nu_muL -> ~chi_1+ mu-)
     5.35768877E-01    2     1000037        13   # BR(~nu_muL -> ~chi_2+ mu-)
#
#         PDG            Width
DECAY   1000016     2.99185853E+01   # snu_tauL decays
#          BR         NDA      ID1       ID2
     7.24952114E-02    2     1000022        16   # BR(~nu_tauL -> ~chi_10 nu_tau)
     7.32385145E-04    2     1000023        16   # BR(~nu_tauL -> ~chi_20 nu_tau)
     1.21789571E-01    2     1000025        16   # BR(~nu_tauL -> ~chi_30 nu_tau)
     2.67822035E-01    2     1000035        16   # BR(~nu_tauL -> ~chi_40 nu_tau)
     1.93500492E-03    2     1000024        15   # BR(~nu_tauL -> ~chi_1+ tau-)
     5.35225792E-01    2     1000037        15   # BR(~nu_tauL -> ~chi_2+ tau-)
#
#         PDG            Width
DECAY   1000024     2.31134841E-08   # chargino1+ decays
#          BR         NDA      ID1       ID2
     1.66756520E-02    2     1000039        24   # BR(~chi_1+ -> ~G       W+)
#           BR         NDA      ID1       ID2       ID3
     3.52100674E-01    3     1000022         2        -1   # BR(~chi_1+ -> ~chi_10 u    db)
     3.03560777E-01    3     1000022         4        -3   # BR(~chi_1+ -> ~chi_10 c    sb)
     1.17367583E-01    3     1000022       -11        12   # BR(~chi_1+ -> ~chi_10 e+   nu_e)
     1.17267429E-01    3     1000022       -13        14   # BR(~chi_1+ -> ~chi_10 mu+  nu_mu)
     9.30278844E-02    3     1000022       -15        16   # BR(~chi_1+ -> ~chi_10 tau+ nu_tau)
#
#         PDG            Width
DECAY   1000037     1.95847401E+01   # chargino2+ decays
#          BR         NDA      ID1       ID2
     1.52066369E-01    2     1000024        23   # BR(~chi_2+ -> ~chi_1+  Z )
     9.11521915E-02    2     1000022        24   # BR(~chi_2+ -> ~chi_10  W+)
     1.47798226E-01    2     1000023        24   # BR(~chi_2+ -> ~chi_20  W+)
     5.76306263E-02    2     1000025        24   # BR(~chi_2+ -> ~chi_30  W+)
     1.52406623E-01    2     1000024        25   # BR(~chi_2+ -> ~chi_1+  h )
     9.90089373E-02    2     1000024        35   # BR(~chi_2+ -> ~chi_1+  H )
     1.00368357E-01    2     1000024        36   # BR(~chi_2+ -> ~chi_1+  A )
     6.54589716E-02    2     1000022        37   # BR(~chi_2+ -> ~chi_10  H+)
     9.94061578E-02    2     1000023        37   # BR(~chi_2+ -> ~chi_20  H+)
     3.47035179E-02    2     1000025        37   # BR(~chi_2+ -> ~chi_30  H+)
     2.21148723E-08    2     1000039        24   # BR(~chi_2+ -> ~G       W+)
     3.63613683E-13    2     1000039        37   # BR(~chi_2+ -> ~G       H+)
#
#         PDG            Width
DECAY   1000022     1.0E-05   # neutralino1 decays
#          BR         NDA      ID1       ID2
     4.19959834E-01    2     1000039        22   # BR(~chi_10 -> ~G        gam)
     1.46663669E-01    2     1000039        23   # BR(~chi_10 -> ~G        Z)
     4.33376497E-01    2     1000039        25   # BR(~chi_10 -> ~G        h)
#
#         PDG            Width
DECAY   1000023     1.0E-05   # neutralino2 decays
#          BR         NDA      ID1       ID2
     9.56564836E-03    2     1000022        22   # BR(~chi_20 -> ~chi_10 gam)
#          BR         NDA      ID1       ID2
     3.51539075E-06    2     1000039        22   # BR(~chi_20 -> ~G        gam)
     1.05246451E-02    2     1000039        23   # BR(~chi_20 -> ~G        Z)
     3.95738577E-04    2     1000039        25   # BR(~chi_20 -> ~G        h)
#           BR         NDA      ID1       ID2       ID3
     1.39130645E-01    3     1000022        -2         2   # BR(~chi_20 -> ~chi_10 ub      u)
     1.80135497E-01    3     1000022        -1         1   # BR(~chi_20 -> ~chi_10 db      d)
     1.19261497E-01    3     1000022        -4         4   # BR(~chi_20 -> ~chi_10 cb      c)
     1.79521111E-01    3     1000022        -3         3   # BR(~chi_20 -> ~chi_10 sb      s)
     4.11317175E-02    3     1000022       -11        11   # BR(~chi_20 -> ~chi_10 e+      e-)
     4.11045948E-02    3     1000022       -13        13   # BR(~chi_20 -> ~chi_10 mu+     mu-)
     3.27144449E-02    3     1000022       -15        15   # BR(~chi_20 -> ~chi_10 tau+    tau-)
     8.21383511E-02    3     1000022       -12        12   # BR(~chi_20 -> ~chi_10 nu_eb   nu_e)
     8.21383511E-02    3     1000022       -14        14   # BR(~chi_20 -> ~chi_10 nu_mub  nu_mu)
     8.21383511E-02    3     1000022       -16        16   # BR(~chi_20 -> ~chi_10 nu_taub nu_tau)
     2.89766155E-05    3     1000024        -2         1   # BR(~chi_20 -> ~chi_1+ ub      d)
     2.89766155E-05    3    -1000024        -1         2   # BR(~chi_20 -> ~chi_1- db      u)
     9.65887256E-06    3     1000024       -12        11   # BR(~chi_20 -> ~chi_1+ nu_eb   e-)
     9.65887256E-06    3    -1000024        12       -11   # BR(~chi_20 -> ~chi_1- nu_e    e+)
     9.31038033E-06    3     1000024       -14        13   # BR(~chi_20 -> ~chi_1+ nu_mub  mu-)
     9.31038033E-06    3    -1000024        14       -13   # BR(~chi_20 -> ~chi_1- nu_mu   mu+)
#
#         PDG            Width
DECAY   1000025     1.0E-05   # neutralino3 decays
#          BR         NDA      ID1       ID2
     8.93401633E-01    2     1000022        22   # BR(~chi_30 -> ~chi_10 gam)
     1.50034382E-02    2     1000023        22   # BR(~chi_30 -> ~chi_20 gam)
#          BR         NDA      ID1       ID2
     4.08239246E-04    2     1000039        22   # BR(~chi_30 -> ~G        gam)
     1.27265953E-04    2     1000039        23   # BR(~chi_30 -> ~G        Z)
     1.34569904E-04    2     1000039        25   # BR(~chi_30 -> ~G        h)
#           BR         NDA      ID1       ID2       ID3
     2.83692172E-05    3     1000022        -2         2   # BR(~chi_30 -> ~chi_10 ub      u)
     3.73124614E-05    3     1000022        -1         1   # BR(~chi_30 -> ~chi_10 db      d)
     2.61720033E-05    3     1000022        -4         4   # BR(~chi_30 -> ~chi_10 cb      c)
     3.72644136E-05    3     1000022        -3         3   # BR(~chi_30 -> ~chi_10 sb      s)
     1.50601281E-05    3     1000022        -5         5   # BR(~chi_30 -> ~chi_10 bb      b)
     8.98625237E-06    3     1000022       -11        11   # BR(~chi_30 -> ~chi_10 e+      e-)
     8.98169560E-06    3     1000022       -13        13   # BR(~chi_30 -> ~chi_10 mu+     mu-)
     7.80182251E-06    3     1000022       -15        15   # BR(~chi_30 -> ~chi_10 tau+    tau-)
     1.67723499E-05    3     1000022       -12        12   # BR(~chi_30 -> ~chi_10 nu_eb   nu_e)
     1.67723499E-05    3     1000022       -14        14   # BR(~chi_30 -> ~chi_10 nu_mub  nu_mu)
     1.67723499E-05    3     1000022       -16        16   # BR(~chi_30 -> ~chi_10 nu_taub nu_tau)
     2.05847448E-03    3     1000023        -2         2   # BR(~chi_30 -> ~chi_20 ub      u)
     2.66518310E-03    3     1000023        -1         1   # BR(~chi_30 -> ~chi_20 db      d)
     1.73055409E-03    3     1000023        -4         4   # BR(~chi_30 -> ~chi_20 cb      c)
     2.65504077E-03    3     1000023        -3         3   # BR(~chi_30 -> ~chi_20 sb      s)
     6.08575801E-04    3     1000023       -11        11   # BR(~chi_30 -> ~chi_20 e+      e-)
     6.08128521E-04    3     1000023       -13        13   # BR(~chi_30 -> ~chi_20 mu+     mu-)
     4.69123158E-04    3     1000023       -15        15   # BR(~chi_30 -> ~chi_20 tau+    tau-)
     1.21523921E-03    3     1000023       -12        12   # BR(~chi_30 -> ~chi_20 nu_eb   nu_e)
     1.21523921E-03    3     1000023       -14        14   # BR(~chi_30 -> ~chi_20 nu_mub  nu_mu)
     1.21523921E-03    3     1000023       -16        16   # BR(~chi_30 -> ~chi_20 nu_taub nu_tau)
     1.33305291E-02    3     1000024        -2         1   # BR(~chi_30 -> ~chi_1+ ub      d)
     1.33305291E-02    3    -1000024        -1         2   # BR(~chi_30 -> ~chi_1- db      u)
     1.20996188E-02    3     1000024        -4         3   # BR(~chi_30 -> ~chi_1+ cb      s)
     1.20996188E-02    3    -1000024        -3         4   # BR(~chi_30 -> ~chi_1- sb      c)
     4.44346062E-03    3     1000024       -12        11   # BR(~chi_30 -> ~chi_1+ nu_eb   e-)
     4.44346062E-03    3    -1000024        12       -11   # BR(~chi_30 -> ~chi_1- nu_e    e+)
     4.44099752E-03    3     1000024       -14        13   # BR(~chi_30 -> ~chi_1+ nu_mub  mu-)
     4.44099752E-03    3    -1000024        14       -13   # BR(~chi_30 -> ~chi_1- nu_mu   mu+)
     3.81728974E-03    3     1000024       -16        15   # BR(~chi_30 -> ~chi_1+ nu_taub tau-)
     3.81728974E-03    3    -1000024        16       -15   # BR(~chi_30 -> ~chi_1- nu_tau  tau+)
#
#         PDG            Width
DECAY   1000035     1.95851577E+01   # neutralino4 decays
#          BR         NDA      ID1       ID2
     8.55620780E-02    2     1000022        23   # BR(~chi_40 -> ~chi_10   Z )
     1.72343686E-02    2     1000023        23   # BR(~chi_40 -> ~chi_20   Z )
     4.94783365E-02    2     1000025        23   # BR(~chi_40 -> ~chi_30   Z )
     1.48072883E-01    2     1000024       -24   # BR(~chi_40 -> ~chi_1+   W-)
     1.48072883E-01    2    -1000024        24   # BR(~chi_40 -> ~chi_1-   W+)
     7.94341763E-03    2     1000022        25   # BR(~chi_40 -> ~chi_10   h )
     6.47699783E-02    2     1000022        35   # BR(~chi_40 -> ~chi_10   H )
     2.06690047E-04    2     1000022        36   # BR(~chi_40 -> ~chi_10   A )
     1.35058047E-01    2     1000023        25   # BR(~chi_40 -> ~chi_20   h )
     2.13066532E-04    2     1000023        35   # BR(~chi_40 -> ~chi_20   H )
     9.97611246E-02    2     1000023        36   # BR(~chi_40 -> ~chi_20   A )
     9.63395156E-03    2     1000025        25   # BR(~chi_40 -> ~chi_30   h )
     3.43804181E-02    2     1000025        35   # BR(~chi_40 -> ~chi_30   H )
     4.36122109E-05    2     1000025        36   # BR(~chi_40 -> ~chi_30   A )
     9.97845612E-02    2     1000024       -37   # BR(~chi_40 -> ~chi_1+   H-)
     9.97845612E-02    2    -1000024        37   # BR(~chi_40 -> ~chi_1-   H+)
     5.31650717E-09    2     1000039        22   # BR(~chi_40 -> ~G        gam)
     1.67958191E-08    2     1000039        23   # BR(~chi_40 -> ~G        Z)
     1.32467239E-12    2     1000039        25   # BR(~chi_40 -> ~G        h)
     3.51814065E-13    2     1000039        35   # BR(~chi_40 -> ~G        H)
     1.03009689E-14    2     1000039        36   # BR(~chi_40 -> ~G        A)
#
#         PDG            Width
DECAY        25     4.07907140E-03   # h decays
#          BR         NDA      ID1       ID2
     6.17124471E-01    2           5        -5   # BR(h -> b       bb     )
     6.38520425E-02    2         -15        15   # BR(h -> tau+    tau-   )
     2.26012714E-04    2         -13        13   # BR(h -> mu+     mu-    )
     4.78941328E-04    2           3        -3   # BR(h -> s       sb     )
     2.06625320E-02    2           4        -4   # BR(h -> c       cb     )
     6.70922434E-02    2          21        21   # BR(h -> g       g      )
     2.30056523E-03    2          22        22   # BR(h -> gam     gam    )
     1.53995017E-03    2          22        23   # BR(h -> Z       gam    )
     2.01064546E-01    2          24       -24   # BR(h -> W+      W-     )
     2.56586954E-02    2          23        23   # BR(h -> Z       Z      )
#
#         PDG            Width
DECAY        35     3.82009542E+01   # H decays
#          BR         NDA      ID1       ID2
     1.46491075E-03    2           5        -5   # BR(H -> b       bb     )
     2.43923354E-04    2         -15        15   # BR(H -> tau+    tau-   )
     8.62359870E-07    2         -13        13   # BR(H -> mu+     mu-    )
     1.10412498E-06    2           3        -3   # BR(H -> s       sb     )
     9.96443284E-06    2           4        -4   # BR(H -> c       cb     )
     9.85938364E-01    2           6        -6   # BR(H -> t       tb     )
     7.89527088E-04    2          21        21   # BR(H -> g       g      )
     2.70883939E-06    2          22        22   # BR(H -> gam     gam    )
     1.14794813E-06    2          23        22   # BR(H -> Z       gam    )
     3.31376301E-04    2          24       -24   # BR(H -> W+      W-     )
     1.65236260E-04    2          23        23   # BR(H -> Z       Z      )
     8.95402047E-04    2          25        25   # BR(H -> h       h      )
     8.79531602E-24    2          36        36   # BR(H -> A       A      )
     3.47752342E-11    2          23        36   # BR(H -> Z       A      )
     4.81501041E-12    2          24       -37   # BR(H -> W+      H-     )
     4.81501041E-12    2         -24        37   # BR(H -> W-      H+     )
     1.57637751E-05    2     1000024  -1000024   # BR(H -> ~chi_1+ ~chi_1-)
     4.57532062E-03    2     1000022   1000022   # BR(H -> ~chi_10 ~chi_10)
     2.74672495E-06    2     1000023   1000023   # BR(H -> ~chi_20 ~chi_20)
     3.58293085E-03    2     1000025   1000025   # BR(H -> ~chi_30 ~chi_30)
     1.55483767E-04    2     1000022   1000023   # BR(H -> ~chi_10 ~chi_20)
     6.45933884E-04    2     1000022   1000025   # BR(H -> ~chi_10 ~chi_30)
     1.17729325E-03    2     1000023   1000025   # BR(H -> ~chi_20 ~chi_30)
#
#         PDG            Width
DECAY        36     3.86294143E+01   # A decays
#          BR         NDA      ID1       ID2
     1.46777220E-03    2           5        -5   # BR(A -> b       bb     )
     2.41427849E-04    2         -15        15   # BR(A -> tau+    tau-   )
     8.53534661E-07    2         -13        13   # BR(A -> mu+     mu-    )
     1.12526223E-06    2           3        -3   # BR(A -> s       sb     )
     9.86088534E-06    2           4        -4   # BR(A -> c       cb     )
     9.86899744E-01    2           6        -6   # BR(A -> t       tb     )
     9.34119357E-04    2          21        21   # BR(A -> g       g      )
     3.08107188E-06    2          22        22   # BR(A -> gam     gam    )
     1.33862563E-06    2          23        22   # BR(A -> Z       gam    )
     3.22955244E-04    2          23        25   # BR(A -> Z       h      )
     2.06486903E-04    2     1000024  -1000024   # BR(A -> ~chi_1+ ~chi_1-)
     7.36324916E-04    2     1000022   1000022   # BR(A -> ~chi_10 ~chi_10)
     2.50447454E-04    2     1000023   1000023   # BR(A -> ~chi_20 ~chi_20)
     3.77980135E-04    2     1000025   1000025   # BR(A -> ~chi_30 ~chi_30)
     3.18230960E-03    2     1000022   1000023   # BR(A -> ~chi_10 ~chi_20)
     1.89291722E-04    2     1000022   1000025   # BR(A -> ~chi_10 ~chi_30)
     5.17488129E-03    2     1000023   1000025   # BR(A -> ~chi_20 ~chi_30)
#
#         PDG            Width
DECAY        37     3.78336870E+01   # H+ decays
#          BR         NDA      ID1       ID2
     2.35982500E-06    2           4        -5   # BR(H+ -> c       bb     )
     2.46728891E-04    2         -15        16   # BR(H+ -> tau+    nu_tau )
     8.72275757E-07    2         -13        14   # BR(H+ -> mu+     nu_mu  )
     1.50040008E-08    2           2        -5   # BR(H+ -> u       bb     )
     5.40190586E-08    2           2        -3   # BR(H+ -> u       sb     )
     1.07635016E-05    2           4        -3   # BR(H+ -> c       sb     )
     9.89338923E-01    2           6        -5   # BR(H+ -> t       bb     )
     3.31114509E-04    2          24        25   # BR(H+ -> W+      h      )
     6.77966772E-13    2          24        36   # BR(H+ -> W+      A      )
     3.51345342E-03    2     1000024   1000022   # BR(H+ -> ~chi_1+ ~chi_10)
     1.72957442E-05    2     1000024   1000023   # BR(H+ -> ~chi_1+ ~chi_20)
     6.53842024E-03    2     1000024   1000025   # BR(H+ -> ~chi_1+ ~chi_30)
